{"result":{"thread":{"preset_id":"12571633","forum_id":"3388812","thread_id":"10656592","thread_subject":"Frozen is overrated and overhyped","thread_replies":"37","thread_views":"24838","thread_type":"normal","thread_status":"locked","thread_user_id":"8402226","thread_username":"13884492101156093659","thread_avatar":"https:\/\/assets-cloud.enjin.com\/users\/8402226\/avatar\/medium.1407106327.jpeg","thread_lastpost_user_id":"7361443","thread_lastpost_username":"13794509111983905719","thread_lastpost_time":"1409329956","thread_moved_id":"0","thread_post_time":"1390261265","url":"https:\/\/www.enjin.com\/ajax.php?s=redirect&cmd=forum-thread&mobile=1&preset=12571633&id=10656592","post_count":"1","category_id":"1023514","forum_name":"Movies","forum_description":"Chat about anything Movie related, no matter what genre!","disable_voting":"0","show_signature":"1","url_cms":"https:\/\/www.craftsurvivalgames.com\/forum\/m\/12571633\/viewthread\/10656592-frozen-overrated-overhyped"},"posts":[{"post_id":"59288090","post_time":"1390261265","post_content":"ik ima get a lot of hate for this from all u frozen worshippers who are like &quot;we must hail to the derpy snowman.&quot; but really, its a kids movie so just... watch anchorman 2, its better\r\n\r\nOriginality: there is no originality to this, no creative sparks were made in the process. theres a story called &quot;The Snow Queen&quot; which is about a girl named Gerda who is the model for Anna who is trying to stop The Snow Queen who is the model for Elsa from making an eternal winter. and i think Christoph and Olaf are based off of the crows being named Peck and Scruff. the yeti that Elsa makes might represent Cobweb even though cobweb is less like a yeti and more like Shelob the Spider. of course they ditched characters like the Bhima, vagabonds and King Grinn so it wouldn't be a total rip off but still. make a creative plot.\r\n\r\nHype: whats so special about this movie. its the snow queen edited by disney. it won a golden globe for god knows why and is getting a broadway musical. i seriously thought i was being trolled when i heard that. oh but the snow queen didn't get a broadway musical. seriously guys, for kids. and of course it wouldn't be a disney movie without a mushy ending. I'm sick and tired of the same ending. you don't even need to see frozen to know how it ends.\r\n\r\nso if u even read this till the end and give hate, remember i saw better","post_content_html":"ik ima get a lot of hate for this from all u frozen worshippers who are like &quot;we must hail to the derpy snowman.&quot; but really, its a kids movie so just... watch anchorman 2, its better<br \/> <br \/> Originality: there is no originality to this, no creative sparks were made in the process. theres a story called &quot;The Snow Queen&quot; which is about a girl named Gerda who is the model for Anna who is trying to stop The Snow Queen who is the model for Elsa from making an eternal winter. and i think Christoph and Olaf are based off of the crows being named Peck and Scruff. the yeti that Elsa makes might represent Cobweb even though cobweb is less like a yeti and more like Shelob the Spider. of course they ditched characters like the Bhima, vagabonds and King Grinn so it wouldn't be a total rip off but still. make a creative plot.<br \/> <br \/> Hype: whats so special about this movie. its the snow queen edited by disney. it won a golden globe for god knows why and is getting a broadway musical. i seriously thought i was being trolled when i heard that. oh but the snow queen didn't get a broadway musical. seriously guys, for kids. and of course it wouldn't be a disney movie without a mushy ending. I'm sick and tired of the same ending. you don't even need to see frozen to know how it ends.<br \/> <br \/> so if u even read this till the end and give hate, remember i saw better","post_content_clean":"ik ima get a lot of hate for this from all u frozen worshippers who are like \"we must hail to the derpy snowman.\" but really, its a kids movie so just... watch anchorman 2, its better\r \r Originality: there is no originality to this, no creative sparks were made in the process. theres a story called \"The Snow Queen\" which is about a girl named Gerda who is the model for Anna who is trying to stop The Snow Queen who is the model for Elsa from making an eternal winter. and i think Christoph and Olaf are based off of the crows being named Peck and Scruff. the yeti that Elsa makes might represent Cobweb even though cobweb is less like a yeti and more like Shelob the Spider. of course they ditched characters like the Bhima, vagabonds and King Grinn so it wouldn't be a total rip off but still. make a creative plot.\r \r Hype: whats so special about this movie. its the snow queen edited by disney. it won a golden globe for god knows why and is getting a broadway musical. i seriously thought i was being trolled when i heard that. oh but the snow queen didn't get a broadway musical. seriously guys, for kids. and of course it wouldn't be a disney movie without a mushy ending. I'm sick and tired of the same ending. you don't even need to see frozen to know how it ends.\r \r so if u even read this till the end and give hate, remember i saw better","post_user_id":"8402226","show_signature":"1","last_edit_time":"0","post_votes":"1","post_unhidden":"0","post_admin_hidden":"0","post_locked":"0","last_edit_user":"0","votes":null,"post_username":"The Real Slim Slendy","avatar":"https:\/\/assets-cloud.enjin.com\/users\/8402226\/avatar\/medium.1407106327.jpeg","user_online":false,"user_votes":"4","user_posts":"142","url":"https:\/\/www.enjin.com\/ajax.php?s=redirect&cmd=forum-post&mobile=1&preset=12571633&id=59288090"},{"post_id":"59289300","post_time":"1390262131","post_content":"Yes I was thinking about going because my younger brother wants to see it (lol) but I hate movies with mushy endings so I think I'll skip this one XD.","post_content_html":"Yes I was thinking about going because my younger brother wants to see it (lol) but I hate movies with mushy endings so I think I'll skip this one XD.","post_content_clean":"Yes I was thinking about going because my younger brother wants to see it (lol) but I hate movies with mushy endings so I think I'll skip this one XD.","post_user_id":"6498055","show_signature":"1","last_edit_time":"0","post_votes":"0","post_unhidden":"0","post_admin_hidden":"0","post_locked":"0","last_edit_user":"0","votes":null,"post_username":"Liam \u062a","avatar":"https:\/\/assets-cloud.enjin.com\/users\/6498055\/avatar\/medium.1433192263.jpeg","user_online":false,"user_votes":"120","user_posts":"803","url":"https:\/\/www.enjin.com\/ajax.php?s=redirect&cmd=forum-post&mobile=1&preset=12571633&id=59289300"},{"post_id":"59289822","post_time":"1390262527","post_content":"well scout, Im glad someone else hates mushy endings","post_content_html":"well scout, Im glad someone else hates mushy endings","post_content_clean":"well scout, Im glad someone else hates mushy endings","post_user_id":"8402226","show_signature":"1","last_edit_time":"0","post_votes":"0","post_unhidden":"0","post_admin_hidden":"0","post_locked":"0","last_edit_user":"0","votes":null,"post_username":"The Real Slim Slendy","avatar":"https:\/\/assets-cloud.enjin.com\/users\/8402226\/avatar\/medium.1407106327.jpeg","user_online":false,"user_votes":"4","user_posts":"142","url":"https:\/\/www.enjin.com\/ajax.php?s=redirect&cmd=forum-post&mobile=1&preset=12571633&id=59289822"},{"post_id":"59290572","post_time":"1390263107","post_content":"Haha ikr","post_content_html":"Haha ikr","post_content_clean":"Haha ikr","post_user_id":"6498055","show_signature":"1","last_edit_time":"0","post_votes":"0","post_unhidden":"0","post_admin_hidden":"0","post_locked":"0","last_edit_user":"0","votes":null,"post_username":"Liam \u062a","avatar":"https:\/\/assets-cloud.enjin.com\/users\/6498055\/avatar\/medium.1433192263.jpeg","user_online":false,"user_votes":"120","user_posts":"803","url":"https:\/\/www.enjin.com\/ajax.php?s=redirect&cmd=forum-post&mobile=1&preset=12571633&id=59290572"},{"post_id":"59291080","post_time":"1390263541","post_content":"[color=#6e23dd][b]Agree... SUPER OVERRATED! Girls in my school are like:\r\n\r\n''AMG I WANNA MARRY OLAF''\r\n''GUYS LETS SING SOME FROZEN MUSIC!''\r\n''BLA BLA BLA FROZEN THIS, FROZEN THAT''\r\n\r\n-Nutella[\/b][\/color]","post_content_html":"<b>Agree... SUPER OVERRATED! Girls in my school are like:<br \/> <br \/> ''AMG I WANNA MARRY OLAF''<br \/> <br \/> ''GUYS LETS SING SOME FROZEN MUSIC!''<br \/> <br \/> ''BLA BLA BLA FROZEN THIS, FROZEN THAT''<br \/> <br \/> -Nutella<\/b>","post_content_clean":"Agree... SUPER OVERRATED! Girls in my school are like:\r \r ''AMG I WANNA MARRY OLAF''\r ''GUYS LETS SING SOME FROZEN MUSIC!''\r ''BLA BLA BLA FROZEN THIS, FROZEN THAT''\r \r -Nutella","post_user_id":"6806305","show_signature":"1","last_edit_time":"0","post_votes":"0","post_unhidden":"0","post_admin_hidden":"0","post_locked":"0","last_edit_user":"0","votes":null,"post_username":"User","avatar":"https:\/\/resources.enjin.com\/1465083537\/profile\/images\/avatar\/medium.png","user_online":false,"user_votes":"767","user_posts":"1491","url":"https:\/\/www.enjin.com\/ajax.php?s=redirect&cmd=forum-post&mobile=1&preset=12571633&id=59291080"},{"post_id":"59293248","post_time":"1390265298","post_content":"nutella i'm not even kidding, i made a joke about frozen where they all died called melting and i got like, 2 days worth of death threats. its a little scary","post_content_html":"nutella i'm not even kidding, i made a joke about frozen where they all died called melting and i got like, 2 days worth of death threats. its a little scary","post_content_clean":"nutella i'm not even kidding, i made a joke about frozen where they all died called melting and i got like, 2 days worth of death threats. its a little scary","post_user_id":"8402226","show_signature":"1","last_edit_time":"0","post_votes":"0","post_unhidden":"0","post_admin_hidden":"0","post_locked":"0","last_edit_user":"0","votes":null,"post_username":"The Real Slim Slendy","avatar":"https:\/\/assets-cloud.enjin.com\/users\/8402226\/avatar\/medium.1407106327.jpeg","user_online":false,"user_votes":"4","user_posts":"142","url":"https:\/\/www.enjin.com\/ajax.php?s=redirect&cmd=forum-post&mobile=1&preset=12571633&id=59293248"},{"post_id":"59296664","post_time":"1390268298","post_content":"Meh I'm not even gonna bother to see that movie. I'm 14, not a friggin 8 year old. I think I'll stay with Hobbit and wait for Star Wars VII to come out.\r\n\r\nIf you guys wanna see a good movie, look at Ender's Game or something like that, at least those movies are worth your $12 at the movies...","post_content_html":"Meh I'm not even gonna bother to see that movie. I'm 14, not a friggin 8 year old. I think I'll stay with Hobbit and wait for Star Wars VII to come out.<br \/> <br \/> If you guys wanna see a good movie, look at Ender's Game or something like that, at least those movies are worth your $12 at the movies...","post_content_clean":"Meh I'm not even gonna bother to see that movie. I'm 14, not a friggin 8 year old. I think I'll stay with Hobbit and wait for Star Wars VII to come out.\r \r If you guys wanna see a good movie, look at Ender's Game or something like that, at least those movies are worth your $12 at the movies...","post_user_id":"7249943","show_signature":"1","last_edit_time":"0","post_votes":"0","post_unhidden":"0","post_admin_hidden":"0","post_locked":"0","last_edit_user":"0","votes":null,"post_username":"Creepaahh","avatar":"https:\/\/assets-cloud.enjin.com\/users\/7249943\/avatar\/medium.1468004541.jpeg","user_online":false,"user_votes":null,"user_posts":0,"url":"https:\/\/www.enjin.com\/ajax.php?s=redirect&cmd=forum-post&mobile=1&preset=12571633&id=59296664"},{"post_id":"59301250","post_time":"1390272281","post_content":"[b][color=#ddd123]Frozen was a good movie... xD[\/color][\/b]","post_content_html":"<b>Frozen was a good movie... xD<\/b>","post_content_clean":"Frozen was a good movie... xD","post_user_id":"7455843","show_signature":"1","last_edit_time":"0","post_votes":"0","post_unhidden":"0","post_admin_hidden":"0","post_locked":"0","last_edit_user":"0","votes":null,"post_username":"Star","avatar":"https:\/\/assets-cloud.enjin.com\/users\/7455843\/avatar\/medium.1417233797.jpeg","user_online":false,"user_votes":"0","user_posts":0,"url":"https:\/\/www.enjin.com\/ajax.php?s=redirect&cmd=forum-post&mobile=1&preset=12571633&id=59301250"},{"post_id":"59390926","post_time":"1390365930","post_content":"[b][color=#ddd123]Me and my friends had this big discussion on the song &quot;Can we Build a Snowman&quot;. OMG I LOVE THAT SONG. Not to be a girl or anything but I am one :3[\/color][\/b]","post_content_html":"<b>Me and my friends had this big discussion on the song &quot;Can we Build a Snowman&quot;. OMG I LOVE THAT SONG. Not to be a girl or anything but I am one :3<\/b>","post_content_clean":"Me and my friends had this big discussion on the song \"Can we Build a Snowman\". OMG I LOVE THAT SONG. Not to be a girl or anything but I am one :3","post_user_id":"7455843","show_signature":"1","last_edit_time":"0","post_votes":"0","post_unhidden":"0","post_admin_hidden":"0","post_locked":"0","last_edit_user":"0","votes":null,"post_username":"Star","avatar":"https:\/\/assets-cloud.enjin.com\/users\/7455843\/avatar\/medium.1417233797.jpeg","user_online":false,"user_votes":"0","user_posts":0,"url":"https:\/\/www.enjin.com\/ajax.php?s=redirect&cmd=forum-post&mobile=1&preset=12571633&id=59390926"},{"post_id":"59391013","post_time":"1390366012","post_content":"FROZEN IS AMAZING :D :D :D :D :D &lt;3 &lt;3 &lt;3 &lt;3\r\n\r\n\r\nna I agree it is over rated\r\n\r\nhobbit for the win &lt;3","post_content_html":"FROZEN IS AMAZING <object class=\"emojione\" data=\"https:\/\/resources.enjin.com\/1489581540\/themes\/core\/images\/emojione\/svg\/1f600.svg?0\" type=\"image\/svg+xml\" standby=\":d\">:d<\/object> <object class=\"emojione\" data=\"https:\/\/resources.enjin.com\/1489581540\/themes\/core\/images\/emojione\/svg\/1f600.svg?0\" type=\"image\/svg+xml\" standby=\":d\">:d<\/object> <object class=\"emojione\" data=\"https:\/\/resources.enjin.com\/1489581540\/themes\/core\/images\/emojione\/svg\/1f600.svg?0\" type=\"image\/svg+xml\" standby=\":d\">:d<\/object> <object class=\"emojione\" data=\"https:\/\/resources.enjin.com\/1489581540\/themes\/core\/images\/emojione\/svg\/1f600.svg?0\" type=\"image\/svg+xml\" standby=\":d\">:d<\/object> <object class=\"emojione\" data=\"https:\/\/resources.enjin.com\/1489581540\/themes\/core\/images\/emojione\/svg\/1f600.svg?0\" type=\"image\/svg+xml\" standby=\":d\">:d<\/object> &lt;3 &lt;3 &lt;3 &lt;3<br \/> <br \/> na I agree it is over rated<br \/> <br \/> hobbit for the win &lt;3","post_content_clean":"FROZEN IS AMAZING :D :D :D :D :D <3 <3 <3 <3\r \r \r na I agree it is over rated \r \r hobbit for the win <3","post_user_id":"2423867","show_signature":"1","last_edit_time":"0","post_votes":"1","post_unhidden":"0","post_admin_hidden":"0","post_locked":"0","last_edit_user":"0","votes":null,"post_username":"PandaPlaysAll","avatar":"https:\/\/assets-cloud.enjin.com\/users\/2423867\/avatar\/medium.1401883342.png","user_online":false,"user_votes":"347","user_posts":"2975","url":"https:\/\/www.enjin.com\/ajax.php?s=redirect&cmd=forum-post&mobile=1&preset=12571633&id=59391013"}],"total_items":"38","pages":4,"voted":false,"new_post_id":false,"thread_labels":[],"top_posters":{"result":[{"post_user_id":"8402226","posts":"3","username":"The Real Slim Slendy","avatar":"https:\/\/assets-cloud.enjin.com\/users\/8402226\/avatar\/medium.1407106327.jpeg"},{"post_user_id":"7361443","posts":"3","username":"\u2704{snugglezxD:3emo} mojo215","avatar":"https:\/\/assets-cloud.enjin.com\/users\/7361443\/avatar\/medium.1455751269.jpeg"},{"post_user_id":"7249943","posts":"3","username":"Creepaahh","avatar":"https:\/\/assets-cloud.enjin.com\/users\/7249943\/avatar\/medium.1468004541.jpeg"},{"post_user_id":"7455843","posts":"3","username":"Star","avatar":"https:\/\/assets-cloud.enjin.com\/users\/7455843\/avatar\/medium.1417233797.jpeg"},{"post_user_id":"7007414","posts":"2","username":"Quinn","avatar":"https:\/\/assets-cloud.enjin.com\/users\/7007414\/avatar\/medium.1400120869.png"},{"post_user_id":"6498055","posts":"2","username":"Liam \u062a","avatar":"https:\/\/assets-cloud.enjin.com\/users\/6498055\/avatar\/medium.1433192263.jpeg"},{"post_user_id":"6648983","posts":"2","username":"Boo Stark","avatar":"https:\/\/assets-cloud.enjin.com\/users\/6648983\/avatar\/medium.1437598351.png"},{"post_user_id":"6672203","posts":"2","username":"\u01a4\u0280ox\u0251","avatar":"https:\/\/assets-cloud.enjin.com\/users\/6672203\/avatar\/medium.1419832957.png"},{"post_user_id":"6987381","posts":"2","username":"NiTeFuRy_","avatar":"https:\/\/assets-cloud.enjin.com\/users\/6987381\/avatar\/medium.1400122786.png"},{"post_user_id":"10443946","posts":"2","username":"ItzDarkFlame","avatar":"https:\/\/assets-cloud.enjin.com\/users\/10443946\/avatar\/medium.1420247460.png"},{"post_user_id":"7093258","posts":"1","username":"\u301c(^&nabla;^)\u301cZambie\u301c(^&nabla;^)\u301c","avatar":"https:\/\/assets-cloud.enjin.com\/users\/7093258\/avatar\/medium.1400122220.png"},{"post_user_id":"6556307","posts":"1","username":"~Harriskin\/Harrison~","avatar":"https:\/\/assets-cloud.enjin.com\/users\/6556307\/avatar\/medium.1415022635.png"}],"num_users":"24"},"moderation_access":false,"poll_post":null,"post_access":true,"new_thread_access":true},"id":"1234567","jsonrpc":"2.0"}
{"result":{"thread":{"preset_id":"12571633","forum_id":"3388812","thread_id":"10656592","thread_subject":"Frozen is overrated and overhyped","thread_replies":"37","thread_views":"24838","thread_type":"normal","thread_status":"locked","thread_user_id":"8402226","thread_username":"13884492101156093659","thread_avatar":"https:\/\/assets-cloud.enjin.com\/users\/8402226\/avatar\/medium.1400130105.png","thread_lastpost_user_id":"7361443","thread_lastpost_username":"13794509111983905719","thread_lastpost_time":"1409329956","thread_moved_id":"0","thread_post_time":"1390261265","url":"https:\/\/www.enjin.com\/ajax.php?s=redirect&cmd=forum-thread&mobile=1&preset=12571633&id=10656592","post_count":"1","category_id":"1023514","forum_name":"Movies","forum_description":"Chat about anything Movie related, no matter what genre!","disable_voting":"0","show_signature":"1","url_cms":"https:\/\/www.craftsurvivalgames.com\/forum\/m\/12571633\/viewthread\/10656592-frozen-overrated-overhyped"},"posts":[{"post_id":"59391056","post_time":"1390366067","post_content":"Thank you kind sir. You have save me about 2 hours of my life.","post_content_html":"Thank you kind sir. You have save me about 2 hours of my life.","post_content_clean":"Thank you kind sir. You have save me about 2 hours of my life.","post_user_id":"7285109","show_signature":"1","last_edit_time":"0","post_votes":"1","post_unhidden":"0","post_admin_hidden":"0","post_locked":"0","last_edit_user":"0","votes":null,"post_username":"Detah","avatar":"https:\/\/assets-cloud.enjin.com\/users\/7285109\/avatar\/medium.1400130105.png","user_online":false,"user_votes":"2268","user_posts":"5250","url":"https:\/\/www.enjin.com\/ajax.php?s=redirect&cmd=forum-post&mobile=1&preset=12571633&id=59391056"},{"post_id":"59391087","post_time":"1390366106","post_content":"[b][color=#ddd123]What about Olaf.... But... but.. but.[\/color][\/b]","post_content_html":"<b>What about Olaf.... But... but.. but.<\/b>","post_content_clean":"What about Olaf.... But... but.. but.","post_user_id":"7455843","show_signature":"1","last_edit_time":"0","post_votes":"0","post_unhidden":"0","post_admin_hidden":"0","post_locked":"0","last_edit_user":"0","votes":null,"post_username":"Star","avatar":"https:\/\/assets-cloud.enjin.com\/users\/7455843\/avatar\/medium.1417233797.jpeg","user_online":false,"user_votes":"0","user_posts":0,"url":"https:\/\/www.enjin.com\/ajax.php?s=redirect&cmd=forum-post&mobile=1&preset=12571633&id=59391087"},{"post_id":"59472617","post_time":"1390455060","post_content":"Olaf is so derpy and funny... He was the reason why I kept watching frozen :\/","post_content_html":"Olaf is so derpy and funny... He was the reason why I kept watching frozen :\/","post_content_clean":"Olaf is so derpy and funny... He was the reason why I kept watching frozen :\/","post_user_id":"6987381","show_signature":"1","last_edit_time":"0","post_votes":"1","post_unhidden":"0","post_admin_hidden":"0","post_locked":"0","last_edit_user":"0","votes":null,"post_username":"NiTeFuRy_","avatar":"https:\/\/assets-cloud.enjin.com\/users\/6987381\/avatar\/medium.1400122786.png","user_online":false,"user_votes":"168","user_posts":"1215","url":"https:\/\/www.enjin.com\/ajax.php?s=redirect&cmd=forum-post&mobile=1&preset=12571633&id=59472617"},{"post_id":"59472802","post_time":"1390455346","post_content":"[color=#f3b2b1][b]I can tell ya'll have lost you're inner child. Where did all the imagination and excitment go in being a princess and having MAGIC POWERS??? The audience target s for little kids, but I mean c'mon. It's disney. You got to love it. ;) You know you do![\/b][\/color]","post_content_html":"<b>I can tell ya'll have lost you're inner child. Where did all the imagination and excitment go in being a princess and having MAGIC POWERS??? The audience target s for little kids, but I mean c'mon. It's disney. You got to love it. <object class=\"emojione\" data=\"https:\/\/resources.enjin.com\/1489581540\/themes\/core\/images\/emojione\/svg\/1f609.svg?0\" type=\"image\/svg+xml\" standby=\";)\">;)<\/object> You know you do!<\/b>","post_content_clean":"I can tell ya'll have lost you're inner child. Where did all the imagination and excitment go in being a princess and having MAGIC POWERS??? The audience target s for little kids, but I mean c'mon. It's disney. You got to love it. ;) You know you do!","post_user_id":"7007414","show_signature":"1","last_edit_time":"0","post_votes":"0","post_unhidden":"0","post_admin_hidden":"0","post_locked":"0","last_edit_user":"0","votes":null,"post_username":"Quinn","avatar":"https:\/\/assets-cloud.enjin.com\/users\/7007414\/avatar\/medium.1400120869.png","user_online":false,"user_votes":"31","user_posts":"133","url":"https:\/\/www.enjin.com\/ajax.php?s=redirect&cmd=forum-post&mobile=1&preset=12571633&id=59472802"},{"post_id":"59473436","post_time":"1390456319","post_content":"[color=#f3b2b1][b]#LetYourDisneySideShineThrough[\/b][\/color]","post_content_html":"<b>#LetYourDisneySideShineThrough<\/b>","post_content_clean":"#LetYourDisneySideShineThrough","post_user_id":"7007414","show_signature":"1","last_edit_time":"0","post_votes":"0","post_unhidden":"0","post_admin_hidden":"0","post_locked":"0","last_edit_user":"0","votes":null,"post_username":"Quinn","avatar":"https:\/\/assets-cloud.enjin.com\/users\/7007414\/avatar\/medium.1400120869.png","user_online":false,"user_votes":"31","user_posts":"133","url":"https:\/\/www.enjin.com\/ajax.php?s=redirect&cmd=forum-post&mobile=1&preset=12571633&id=59473436"},{"post_id":"59474101","post_time":"1390457418","post_content":"At least everyone here likes disney, Come on, you think you don't like disney, but you really do, Disney is our child hood, we will never forget about our child hood\r\n#Pokemon","post_content_html":"At least everyone here likes disney, Come on, you think you don't like disney, but you really do, Disney is our child hood, we will never forget about our child hood<br \/> <br \/> #Pokemon","post_content_clean":"At least everyone here likes disney, Come on, you think you don't like disney, but you really do, Disney is our child hood, we will never forget about our child hood \r #Pokemon","post_user_id":"6987381","show_signature":"1","last_edit_time":"0","post_votes":"0","post_unhidden":"0","post_admin_hidden":"0","post_locked":"0","last_edit_user":"0","votes":null,"post_username":"NiTeFuRy_","avatar":"https:\/\/assets-cloud.enjin.com\/users\/6987381\/avatar\/medium.1400122786.png","user_online":false,"user_votes":"168","user_posts":"1215","url":"https:\/\/www.enjin.com\/ajax.php?s=redirect&cmd=forum-post&mobile=1&preset=12571633&id=59474101"},{"post_id":"59792020","post_time":"1390663475","post_content":"I LOVED THE HOBBIT! Anchorman 2 was hilarious but frozen was great short though. I agree I liked it but over rated. #olaf","post_content_html":"I LOVED THE HOBBIT! Anchorman 2 was hilarious but frozen was great short though. I agree I liked it but over rated. #olaf","post_content_clean":"I LOVED THE HOBBIT! Anchorman 2 was hilarious but frozen was great short though. I agree I liked it but over rated. #olaf","post_user_id":"6556307","show_signature":"1","last_edit_time":"0","post_votes":"0","post_unhidden":"0","post_admin_hidden":"0","post_locked":"0","last_edit_user":"0","votes":null,"post_username":"~Harriskin\/Harrison~","avatar":"https:\/\/assets-cloud.enjin.com\/users\/6556307\/avatar\/medium.1415022635.png","user_online":false,"user_votes":"219","user_posts":"1402","url":"https:\/\/www.enjin.com\/ajax.php?s=redirect&cmd=forum-post&mobile=1&preset=12571633&id=59792020"},{"post_id":"59820441","post_time":"1390686046","post_content":"i kinda lost my childhood to disney\r\n\r\nsnow white and the 7 dwarves. 7 dwarves in her house... not sayin anymore","post_content_html":"i kinda lost my childhood to disney<br \/> <br \/> snow white and the 7 dwarves. 7 dwarves in her house... not sayin anymore","post_content_clean":"i kinda lost my childhood to disney\r \r snow white and the 7 dwarves. 7 dwarves in her house... not sayin anymore","post_user_id":"1858801","show_signature":"1","last_edit_time":"0","post_votes":"0","post_unhidden":"0","post_admin_hidden":"0","post_locked":"0","last_edit_user":"0","votes":null,"post_username":"TexSupport","avatar":"https:\/\/assets-cloud.enjin.com\/users\/1858801\/avatar\/medium.1545528815.jpeg","user_online":false,"user_votes":"167","user_posts":"1175","url":"https:\/\/www.enjin.com\/ajax.php?s=redirect&cmd=forum-post&mobile=1&preset=12571633&id=59820441"},{"post_id":"73542437","post_time":"1405180958","post_content":"[color=#d113ee]I kinda liked the movie... Only the Olaf Parts.[\/color]\r\n[color=#6cdd23]I agree![\/color]","post_content_html":"I kinda liked the movie... Only the Olaf Parts.<br \/> <br \/> I agree!","post_content_clean":"I kinda liked the movie... Only the Olaf Parts.\r I agree!","post_user_id":"9621846","show_signature":"1","last_edit_time":"0","post_votes":"0","post_unhidden":"0","post_admin_hidden":"0","post_locked":"0","last_edit_user":"0","votes":null,"post_username":"MelonMatt","avatar":"https:\/\/assets-cloud.enjin.com\/users\/9621846\/avatar\/medium.1446351625.jpeg","user_online":false,"user_votes":"0","user_posts":"30","url":"https:\/\/www.enjin.com\/ajax.php?s=redirect&cmd=forum-post&mobile=1&preset=12571633&id=73542437"},{"post_id":"73542779","post_time":"1405181292","post_content":"necro posting wtf dont do dat you didnt have to do dis get out dont comment frozen is terrible dont say its good please i fan","post_content_html":"necro posting wtf dont do dat you didnt have to do dis get out dont comment frozen is terrible dont say its good please i fan","post_content_clean":"necro posting wtf dont do dat you didnt have to do dis get out dont comment frozen is terrible dont say its good please i fan","post_user_id":"7361443","show_signature":"1","last_edit_time":"0","post_votes":"0","post_unhidden":"0","post_admin_hidden":"0","post_locked":"0","last_edit_user":"0","votes":null,"post_username":"\u2704{snugglezxD:3emo} mojo215","avatar":"https:\/\/assets-cloud.enjin.com\/users\/7361443\/avatar\/medium.1455751269.jpeg","user_online":false,"user_votes":"0","user_posts":"2641","url":"https:\/\/www.enjin.com\/ajax.php?s=redirect&cmd=forum-post&mobile=1&preset=12571633&id=73542779"}],"total_items":"38","pages":4,"voted":false,"new_post_id":"59391056","thread_labels":[],"top_posters":{"result":[{"post_user_id":"7361443","posts":"3","username":"\u2704{snugglezxD:3emo} mojo215","avatar":"https:\/\/assets-cloud.enjin.com\/users\/7361443\/avatar\/medium.1455751269.jpeg"},{"post_user_id":"7249943","posts":"3","username":"Creepaahh","avatar":"https:\/\/assets-cloud.enjin.com\/users\/7249943\/avatar\/medium.1468004541.jpeg"},{"post_user_id":"7455843","posts":"3","username":"Star","avatar":"https:\/\/assets-cloud.enjin.com\/users\/7455843\/avatar\/medium.1417233797.jpeg"},{"post_user_id":"8402226","posts":"3","username":"The Real Slim Slendy","avatar":"https:\/\/assets-cloud.enjin.com\/users\/8402226\/avatar\/medium.1407106327.jpeg"},{"post_user_id":"6648983","posts":"2","username":"Boo Stark","avatar":"https:\/\/assets-cloud.enjin.com\/users\/6648983\/avatar\/medium.1437598351.png"},{"post_user_id":"6672203","posts":"2","username":"\u01a4\u0280ox\u0251","avatar":"https:\/\/assets-cloud.enjin.com\/users\/6672203\/avatar\/medium.1419832957.png"},{"post_user_id":"6987381","posts":"2","username":"NiTeFuRy_","avatar":"https:\/\/assets-cloud.enjin.com\/users\/6987381\/avatar\/medium.1400122786.png"},{"post_user_id":"10443946","posts":"2","username":"ItzDarkFlame","avatar":"https:\/\/assets-cloud.enjin.com\/users\/10443946\/avatar\/medium.1420247460.png"},{"post_user_id":"7007414","posts":"2","username":"Quinn","avatar":"https:\/\/assets-cloud.enjin.com\/users\/7007414\/avatar\/medium.1400120869.png"},{"post_user_id":"6498055","posts":"2","username":"Liam \u062a","avatar":"https:\/\/assets-cloud.enjin.com\/users\/6498055\/avatar\/medium.1433192263.jpeg"},{"post_user_id":"5229320","posts":"1","username":"shadowninjaben","avatar":"https:\/\/resources.enjin.com\/1465083537\/profile\/images\/avatar\/medium.png"},{"post_user_id":"6806305","posts":"1","username":"User","avatar":"https:\/\/resources.enjin.com\/1465083537\/profile\/images\/avatar\/medium.png"}],"num_users":"24"},"moderation_access":false,"poll_post":null,"post_access":true,"new_thread_access":true},"id":"1234567","jsonrpc":"2.0"}
{"result":{"thread":{"preset_id":"12571633","forum_id":"3388812","thread_id":"10656592","thread_subject":"Frozen is overrated and overhyped","thread_replies":"37","thread_views":"24838","thread_type":"normal","thread_status":"locked","thread_user_id":"8402226","thread_username":"13884492101156093659","thread_avatar":"https:\/\/assets-cloud.enjin.com\/users\/8402226\/avatar\/medium.1400094074.png","thread_lastpost_user_id":"7361443","thread_lastpost_username":"13794509111983905719","thread_lastpost_time":"1409329956","thread_moved_id":"0","thread_post_time":"1390261265","url":"https:\/\/www.enjin.com\/ajax.php?s=redirect&cmd=forum-thread&mobile=1&preset=12571633&id=10656592","post_count":"1","category_id":"1023514","forum_name":"Movies","forum_description":"Chat about anything Movie related, no matter what genre!","disable_voting":"0","show_signature":"1","url_cms":"https:\/\/www.craftsurvivalgames.com\/forum\/m\/12571633\/viewthread\/10656592-frozen-overrated-overhyped"},"posts":[{"post_id":"73544400","post_time":"1405182943","post_content":"The only version of frozen I have seen is a horror movie about people being stuck on a mountain... xD","post_content_html":"The only version of frozen I have seen is a horror movie about people being stuck on a mountain... xD","post_content_clean":"The only version of frozen I have seen is a horror movie about people being stuck on a mountain... xD","post_user_id":"5264359","show_signature":"1","last_edit_time":"0","post_votes":"0","post_unhidden":"0","post_admin_hidden":"0","post_locked":"0","last_edit_user":"0","votes":null,"post_username":"bertus112","avatar":"https:\/\/assets-cloud.enjin.com\/users\/5264359\/avatar\/medium.1400094074.png","user_online":false,"user_votes":"894","user_posts":"1926","url":"https:\/\/www.enjin.com\/ajax.php?s=redirect&cmd=forum-post&mobile=1&preset=12571633&id=73544400"},{"post_id":"73548306","post_time":"1405186601","post_content":"[quote user_id=\"7361443\" avatar=\"https:\/\/cravatar.eu\/helmavatar\/mojo215\/74.png\" name=\"mojo215\"]necro posting wtf dont do dat you didnt have to do dis get out dont comment frozen is terrible dont say its good please i fan[\/quote]\r\nLet it go, let it go . :P","post_content_html":" <div class=\"bbcode_quote\"> <div class=\"bbcode_quote_head\">@7361443 wrote:<\/div> <div class=\"bbcode_quote_body\">necro posting wtf dont do dat you didnt have to do dis get out dont comment frozen is terrible dont say its good please i fan<\/div> <\/div> <br \/> Let it go, let it go . <object class=\"emojione\" data=\"https:\/\/resources.enjin.com\/1489581540\/themes\/core\/images\/emojione\/svg\/1f61b.svg?0\" type=\"image\/svg+xml\" standby=\":p\">:p<\/object>","post_content_clean":"necro posting wtf dont do dat you didnt have to do dis get out dont comment frozen is terrible dont say its good please i fan\r Let it go, let it go . :P","post_user_id":"6648983","show_signature":"1","last_edit_time":"0","post_votes":"0","post_unhidden":"0","post_admin_hidden":"0","post_locked":"0","last_edit_user":"0","votes":null,"post_username":"Boo Stark","avatar":"https:\/\/assets-cloud.enjin.com\/users\/6648983\/avatar\/medium.1437598351.png","user_online":false,"user_votes":"197","user_posts":"1281","url":"https:\/\/www.enjin.com\/ajax.php?s=redirect&cmd=forum-post&mobile=1&preset=12571633&id=73548306"},{"post_id":"73548773","post_time":"1405186973","post_content":"[color=#239edd][size=1][b][i]can't hold it back anymore. . . something something. . . wooo[\/i][\/b][\/size][\/color]","post_content_html":"<span style=\"font-size:.67em\"><b><i>can't hold it back anymore. . . something something. . . wooo<\/i><\/b><\/span>","post_content_clean":"can't hold it back anymore. . . something something. . . wooo","post_user_id":"6744887","show_signature":"1","last_edit_time":"0","post_votes":"0","post_unhidden":"0","post_admin_hidden":"0","post_locked":"0","last_edit_user":"0","votes":null,"post_username":"kimberly:","avatar":"https:\/\/resources.enjin.com\/1465083537\/profile\/images\/avatar\/medium.png","user_online":false,"user_votes":"79","user_posts":"676","url":"https:\/\/www.enjin.com\/ajax.php?s=redirect&cmd=forum-post&mobile=1&preset=12571633&id=73548773"},{"post_id":"73549661","post_time":"1405187761","post_content":"[b]The snow glows white on the mountain tonight\r\nNot a footprint to be seen\r\nA kingdom of isolation,\r\nAnd it looks like I'm the queen.\r\n\r\nThe wind is howling like this swirling storm inside\r\nCouldn't keep it in, heaven knows I tried!\r\n\r\nDon't let them in, don't let them see\r\nBe the good girl you always have to be\r\nConceal, don't feel, don't let them know\r\nWell, now they know!\r\n\r\nLet it go, let it go\r\nCan't hold it back anymore\r\nLet it go, let it go\r\nTurn away and slam the door!\r\n\r\nI don't care\r\nWhat they're going to say\r\nLet the storm rage on,\r\nThe cold never bothered me anyway!\r\n\r\nIt's funny how some distance\r\nMakes everything seem small\r\nAnd the fears that once controlled me\r\nCan't get to me at all!\r\n\r\nIt's time to see what I can do\r\nTo test the limits and break through\r\nNo right, no wrong, no rules for me I'm free!\r\n\r\nLet it go, let it go\r\nI am one with the wind and sky\r\nLet it go, let it go\r\nYou'll never see me cry!\r\n\r\nHere I stand\r\nAnd here I'll stay\r\nLet the storm rage on!\r\n\r\nMy power flurries through the air into the ground\r\nMy soul is spiraling in frozen fractals all around\r\nAnd one thought crystallizes like an icy blast\r\nI'm never going back,\r\nThe past is in the past!\r\n\r\nLet it go, let it go\r\nAnd I'll rise like the break of dawn\r\nLet it go, let it go\r\nThat perfect girl is gone!\r\n\r\nHere I stand\r\nIn the light of day\r\nLet the storm rage on,\r\n[size=5]The cold never bothered me anyway.","post_content_html":"<b>The snow glows white on the mountain tonight<br \/> <br \/> Not a footprint to be seen<br \/> <br \/> A kingdom of isolation,<br \/> <br \/> And it looks like I'm the queen.<br \/> <br \/> The wind is howling like this swirling storm inside<br \/> <br \/> Couldn't keep it in, heaven knows I tried!<br \/> <br \/> Don't let them in, don't let them see<br \/> <br \/> Be the good girl you always have to be<br \/> <br \/> Conceal, don't feel, don't let them know<br \/> <br \/> Well, now they know!<br \/> <br \/> Let it go, let it go<br \/> <br \/> Can't hold it back anymore<br \/> <br \/> Let it go, let it go<br \/> <br \/> Turn away and slam the door!<br \/> <br \/> I don't care<br \/> <br \/> What they're going to say<br \/> <br \/> Let the storm rage on,<br \/> <br \/> The cold never bothered me anyway!<br \/> <br \/> It's funny how some distance<br \/> <br \/> Makes everything seem small<br \/> <br \/> And the fears that once controlled me<br \/> <br \/> Can't get to me at all!<br \/> <br \/> It's time to see what I can do<br \/> <br \/> To test the limits and break through<br \/> <br \/> No right, no wrong, no rules for me I'm free!<br \/> <br \/> Let it go, let it go<br \/> <br \/> I am one with the wind and sky<br \/> <br \/> Let it go, let it go<br \/> <br \/> You'll never see me cry!<br \/> <br \/> Here I stand<br \/> <br \/> And here I'll stay<br \/> <br \/> Let the storm rage on!<br \/> <br \/> My power flurries through the air into the ground<br \/> <br \/> My soul is spiraling in frozen fractals all around<br \/> <br \/> And one thought crystallizes like an icy blast<br \/> <br \/> I'm never going back,<br \/> <br \/> The past is in the past!<br \/> <br \/> Let it go, let it go<br \/> <br \/> And I'll rise like the break of dawn<br \/> <br \/> Let it go, let it go<br \/> <br \/> That perfect girl is gone!<br \/> <br \/> Here I stand<br \/> <br \/> In the light of day<br \/> <br \/> Let the storm rage on,<br \/> <br \/> <span style=\"font-size:1.5em\">The cold never bothered me anyway.<\/span><\/b>","post_content_clean":"The snow glows white on the mountain tonight\r Not a footprint to be seen\r A kingdom of isolation,\r And it looks like I'm the queen.\r \r The wind is howling like this swirling storm inside\r Couldn't keep it in, heaven knows I tried!\r \r Don't let them in, don't let them see\r Be the good girl you always have to be\r Conceal, don't feel, don't let them know\r Well, now they know!\r \r Let it go, let it go\r Can't hold it back anymore\r Let it go, let it go\r Turn away and slam the door!\r \r I don't care\r What they're going to say\r Let the storm rage on,\r The cold never bothered me anyway!\r \r It's funny how some distance\r Makes everything seem small\r And the fears that once controlled me\r Can't get to me at all!\r \r It's time to see what I can do\r To test the limits and break through\r No right, no wrong, no rules for me I'm free!\r \r Let it go, let it go\r I am one with the wind and sky\r Let it go, let it go\r You'll never see me cry!\r \r Here I stand\r And here I'll stay\r Let the storm rage on!\r \r My power flurries through the air into the ground\r My soul is spiraling in frozen fractals all around\r And one thought crystallizes like an icy blast\r I'm never going back,\r The past is in the past!\r \r Let it go, let it go\r And I'll rise like the break of dawn\r Let it go, let it go\r That perfect girl is gone!\r \r Here I stand\r In the light of day\r Let the storm rage on,\r The cold never bothered me anyway.","post_user_id":"6672203","show_signature":"1","last_edit_time":"0","post_votes":"0","post_unhidden":"0","post_admin_hidden":"0","post_locked":"0","last_edit_user":"0","votes":null,"post_username":"\u01a4\u0280ox\u0251","avatar":"https:\/\/assets-cloud.enjin.com\/users\/6672203\/avatar\/medium.1419832957.png","user_online":false,"user_votes":"193","user_posts":"2525","url":"https:\/\/www.enjin.com\/ajax.php?s=redirect&cmd=forum-post&mobile=1&preset=12571633&id=73549661"},{"post_id":"73550212","post_time":"1405188258","post_content":"SHUSSHSHSHSHHSHSHSHS","post_content_html":"SHUSSHSHSHSHHSHSHSHS","post_content_clean":"SHUSSHSHSHSHHSHSHSHS","post_user_id":"7361443","show_signature":"1","last_edit_time":"0","post_votes":"0","post_unhidden":"0","post_admin_hidden":"0","post_locked":"0","last_edit_user":"0","votes":null,"post_username":"\u2704{snugglezxD:3emo} mojo215","avatar":"https:\/\/assets-cloud.enjin.com\/users\/7361443\/avatar\/medium.1455751269.jpeg","user_online":false,"user_votes":"0","user_posts":"2641","url":"https:\/\/www.enjin.com\/ajax.php?s=redirect&cmd=forum-post&mobile=1&preset=12571633&id=73550212"},{"post_id":"73550552","post_time":"1405188572","post_content":"I totally agree about it being overrated and i wish people would stop singing it all the time because it gets so ANNOYING!","post_content_html":"I totally agree about it being overrated and i wish people would stop singing it all the time because it gets so ANNOYING!","post_content_clean":"I totally agree about it being overrated and i wish people would stop singing it all the time because it gets so ANNOYING!","post_user_id":"8558802","show_signature":"1","last_edit_time":"0","post_votes":"0","post_unhidden":"0","post_admin_hidden":"0","post_locked":"0","last_edit_user":"0","votes":null,"post_username":"warrior602","avatar":"https:\/\/assets-cloud.enjin.com\/users\/8558802\/avatar\/medium.1454105134.jpeg","user_online":false,"user_votes":"2","user_posts":"67","url":"https:\/\/www.enjin.com\/ajax.php?s=redirect&cmd=forum-post&mobile=1&preset=12571633&id=73550552"},{"post_id":"73550708","post_time":"1405188697","post_content":"The movie was like 6 months ago or whatever, who cares about it?","post_content_html":"The movie was like 6 months ago or whatever, who cares about it?","post_content_clean":"The movie was like 6 months ago or whatever, who cares about it?","post_user_id":"7249943","show_signature":"1","last_edit_time":"0","post_votes":"0","post_unhidden":"0","post_admin_hidden":"0","post_locked":"0","last_edit_user":"0","votes":null,"post_username":"Creepaahh","avatar":"https:\/\/assets-cloud.enjin.com\/users\/7249943\/avatar\/medium.1468004541.jpeg","user_online":false,"user_votes":null,"user_posts":0,"url":"https:\/\/www.enjin.com\/ajax.php?s=redirect&cmd=forum-post&mobile=1&preset=12571633&id=73550708"},{"post_id":"73550846","post_time":"1405188818","post_content":"[quote user_id=\"7249943\" avatar=\"https:\/\/assets-cloud.enjin.com\/users\/7249943\/avatar\/medium.1468004541.jpeg\" name=\"Creepaahh\"]The movie was like 6 months ago or whatever, who cares about it?[\/quote]\r\nObviously mojo, Just kidding,","post_content_html":" <div class=\"bbcode_quote\"> <div class=\"bbcode_quote_head\">@7249943 wrote:<\/div> <div class=\"bbcode_quote_body\">The movie was like 6 months ago or whatever, who cares about it?<\/div> <\/div> <br \/> Obviously mojo, Just kidding,","post_content_clean":"The movie was like 6 months ago or whatever, who cares about it?\r Obviously mojo, Just kidding,","post_user_id":"6648983","show_signature":"1","last_edit_time":"0","post_votes":"0","post_unhidden":"0","post_admin_hidden":"0","post_locked":"0","last_edit_user":"0","votes":null,"post_username":"Boo Stark","avatar":"https:\/\/assets-cloud.enjin.com\/users\/6648983\/avatar\/medium.1437598351.png","user_online":false,"user_votes":"197","user_posts":"1281","url":"https:\/\/www.enjin.com\/ajax.php?s=redirect&cmd=forum-post&mobile=1&preset=12571633&id=73550846"},{"post_id":"74464461","post_time":"1406203434","post_content":"i am sick of the song let it go it so annoying everybody sings it is so annoying also for the first time in forever that song is also annoying","post_content_html":"i am sick of the song let it go it so annoying everybody sings it is so annoying also for the first time in forever that song is also annoying","post_content_clean":"i am sick of the song let it go it so annoying everybody sings it is so annoying also for the first time in forever that song is also annoying","post_user_id":"10443946","show_signature":"1","last_edit_time":"0","post_votes":"0","post_unhidden":"0","post_admin_hidden":"0","post_locked":"0","last_edit_user":"0","votes":null,"post_username":"ItzDarkFlame","avatar":"https:\/\/assets-cloud.enjin.com\/users\/10443946\/avatar\/medium.1420247460.png","user_online":false,"user_votes":"0","user_posts":"104","url":"https:\/\/www.enjin.com\/ajax.php?s=redirect&cmd=forum-post&mobile=1&preset=12571633&id=74464461"},{"post_id":"76455500","post_time":"1408070556","post_content":"I am sick and tired of my sister singing &quot;Do You Wanna  Build A Snowman&quot; so Its over rated!","post_content_html":"I am sick and tired of my sister singing &quot;Do You Wanna  Build A Snowman&quot; so Its over rated!","post_content_clean":"I am sick and tired of my sister singing \"Do You Wanna  Build A Snowman\" so Its over rated!","post_user_id":"7093258","show_signature":"1","last_edit_time":"0","post_votes":"0","post_unhidden":"0","post_admin_hidden":"0","post_locked":"0","last_edit_user":"0","votes":null,"post_username":"\u301c(^&nabla;^)\u301cZambie\u301c(^&nabla;^)\u301c","avatar":"https:\/\/assets-cloud.enjin.com\/users\/7093258\/avatar\/medium.1400122220.png","user_online":false,"user_votes":"2","user_posts":"26","url":"https:\/\/www.enjin.com\/ajax.php?s=redirect&cmd=forum-post&mobile=1&preset=12571633&id=76455500"}],"total_items":"38","pages":4,"voted":false,"new_post_id":"73544400","thread_labels":[],"top_posters":{"result":[{"post_user_id":"8402226","posts":"3","username":"The Real Slim Slendy","avatar":"https:\/\/assets-cloud.enjin.com\/users\/8402226\/avatar\/medium.1407106327.jpeg"},{"post_user_id":"7361443","posts":"3","username":"\u2704{snugglezxD:3emo} mojo215","avatar":"https:\/\/assets-cloud.enjin.com\/users\/7361443\/avatar\/medium.1455751269.jpeg"},{"post_user_id":"7249943","posts":"3","username":"Creepaahh","avatar":"https:\/\/assets-cloud.enjin.com\/users\/7249943\/avatar\/medium.1468004541.jpeg"},{"post_user_id":"7455843","posts":"3","username":"Star","avatar":"https:\/\/assets-cloud.enjin.com\/users\/7455843\/avatar\/medium.1417233797.jpeg"},{"post_user_id":"10443946","posts":"2","username":"ItzDarkFlame","avatar":"https:\/\/assets-cloud.enjin.com\/users\/10443946\/avatar\/medium.1420247460.png"},{"post_user_id":"7007414","posts":"2","username":"Quinn","avatar":"https:\/\/assets-cloud.enjin.com\/users\/7007414\/avatar\/medium.1400120869.png"},{"post_user_id":"6498055","posts":"2","username":"Liam \u062a","avatar":"https:\/\/assets-cloud.enjin.com\/users\/6498055\/avatar\/medium.1433192263.jpeg"},{"post_user_id":"6648983","posts":"2","username":"Boo Stark","avatar":"https:\/\/assets-cloud.enjin.com\/users\/6648983\/avatar\/medium.1437598351.png"},{"post_user_id":"6672203","posts":"2","username":"\u01a4\u0280ox\u0251","avatar":"https:\/\/assets-cloud.enjin.com\/users\/6672203\/avatar\/medium.1419832957.png"},{"post_user_id":"6987381","posts":"2","username":"NiTeFuRy_","avatar":"https:\/\/assets-cloud.enjin.com\/users\/6987381\/avatar\/medium.1400122786.png"},{"post_user_id":"7093258","posts":"1","username":"\u301c(^&nabla;^)\u301cZambie\u301c(^&nabla;^)\u301c","avatar":"https:\/\/assets-cloud.enjin.com\/users\/7093258\/avatar\/medium.1400122220.png"},{"post_user_id":"6556307","posts":"1","username":"~Harriskin\/Harrison~","avatar":"https:\/\/assets-cloud.enjin.com\/users\/6556307\/avatar\/medium.1415022635.png"}],"num_users":"24"},"moderation_access":false,"poll_post":null,"post_access":true,"new_thread_access":true},"id":"1234567","jsonrpc":"2.0"}
{"result":{"thread":{"preset_id":"12571633","forum_id":"3388812","thread_id":"10656592","thread_subject":"Frozen is overrated and overhyped","thread_replies":"37","thread_views":"24838","thread_type":"normal","thread_status":"locked","thread_user_id":"8402226","thread_username":"13884492101156093659","thread_avatar":"https:\/\/assets-cloud.enjin.com\/users\/8402226\/avatar\/medium.1413141170.jpeg","thread_lastpost_user_id":"7361443","thread_lastpost_username":"13794509111983905719","thread_lastpost_time":"1409329956","thread_moved_id":"0","thread_post_time":"1390261265","url":"https:\/\/www.enjin.com\/ajax.php?s=redirect&cmd=forum-thread&mobile=1&preset=12571633&id=10656592","post_count":"1","category_id":"1023514","forum_name":"Movies","forum_description":"Chat about anything Movie related, no matter what genre!","disable_voting":"0","show_signature":"1","url_cms":"https:\/\/www.craftsurvivalgames.com\/forum\/m\/12571633\/viewthread\/10656592-frozen-overrated-overhyped"},"posts":[{"post_id":"76456582","post_time":"1408071494","post_content":"If we all were 5 year olds we would want to see this movie twice a day. :)","post_content_html":"If we all were 5 year olds we would want to see this movie twice a day. <object class=\"emojione\" data=\"https:\/\/resources.enjin.com\/1489581540\/themes\/core\/images\/emojione\/svg\/1f642.svg?0\" type=\"image\/svg+xml\" standby=\":)\">:)<\/object>","post_content_clean":"If we all were 5 year olds we would want to see this movie twice a day. :)","post_user_id":"8633176","show_signature":"1","last_edit_time":"0","post_votes":"0","post_unhidden":"0","post_admin_hidden":"0","post_locked":"0","last_edit_user":"0","votes":null,"post_username":"YourCoal","avatar":"https:\/\/assets-cloud.enjin.com\/users\/8633176\/avatar\/medium.1413141170.jpeg","user_online":false,"user_votes":"8","user_posts":"1881","url":"https:\/\/www.enjin.com\/ajax.php?s=redirect&cmd=forum-post&mobile=1&preset=12571633&id=76456582"},{"post_id":"76496963","post_time":"1408112284","post_content":"Do u want to build a snowman? Or ride a bike around the hall. I never see u anymore, I've started talking to the picrtures on the wall...\r\n\r\nI love that song&lt;3&lt;3&lt;3","post_content_html":"Do u want to build a snowman? Or ride a bike around the hall. I never see u anymore, I've started talking to the picrtures on the wall...<br \/> <br \/> I love that song&lt;3&lt;3&lt;3","post_content_clean":"Do u want to build a snowman? Or ride a bike around the hall. I never see u anymore, I've started talking to the picrtures on the wall...\r \r I love that song<3<3<3","post_user_id":"10222836","show_signature":"0","last_edit_time":"0","post_votes":"0","post_unhidden":"0","post_admin_hidden":"0","post_locked":"0","last_edit_user":"0","votes":null,"post_username":"IxIHampusIxI","avatar":"https:\/\/assets-cloud.enjin.com\/users\/10222836\/avatar\/medium.1417517619.jpeg","user_online":false,"user_votes":"1","user_posts":"297","url":"https:\/\/www.enjin.com\/ajax.php?s=redirect&cmd=forum-post&mobile=1&preset=12571633&id=76496963"},{"post_id":"76506345","post_time":"1408119375","post_content":"[b]That is odd. I find the song weird but catchy. Maybe its just me. Its okay at best but doesn't deserve all this attention[\/b]","post_content_html":"<b>That is odd. I find the song weird but catchy. Maybe its just me. Its okay at best but doesn't deserve all this attention<\/b>","post_content_clean":"That is odd. I find the song weird but catchy. Maybe its just me. Its okay at best but doesn't deserve all this attention","post_user_id":"7966306","show_signature":"1","last_edit_time":"0","post_votes":"0","post_unhidden":"0","post_admin_hidden":"0","post_locked":"0","last_edit_user":"0","votes":null,"post_username":"Derpylatios","avatar":"https:\/\/assets-cloud.enjin.com\/users\/7966306\/avatar\/medium.1460034913.png","user_online":false,"user_votes":"1","user_posts":"919","url":"https:\/\/www.enjin.com\/ajax.php?s=redirect&cmd=forum-post&mobile=1&preset=12571633&id=76506345"},{"post_id":"76508570","post_time":"1408121082","post_content":"Um, question. Wasnt this movie over like 6 months ago? Why are we still talking about it then? Just (sorry for the poor joke) let it go!","post_content_html":"Um, question. Wasnt this movie over like 6 months ago? Why are we still talking about it then? Just (sorry for the poor joke) let it go!","post_content_clean":"Um, question. Wasnt this movie over like 6 months ago? Why are we still talking about it then? Just (sorry for the poor joke) let it go!","post_user_id":"7249943","show_signature":"1","last_edit_time":"0","post_votes":"0","post_unhidden":"0","post_admin_hidden":"0","post_locked":"0","last_edit_user":"0","votes":null,"post_username":"Creepaahh","avatar":"https:\/\/assets-cloud.enjin.com\/users\/7249943\/avatar\/medium.1468004541.jpeg","user_online":false,"user_votes":null,"user_posts":0,"url":"https:\/\/www.enjin.com\/ajax.php?s=redirect&cmd=forum-post&mobile=1&preset=12571633&id=76508570"},{"post_id":"77507731","post_time":"1408933783","post_content":"I absolutley am sick of the songs besides the one that olafs sings but i hate the lyrics of that song","post_content_html":"I absolutley am sick of the songs besides the one that olafs sings but i hate the lyrics of that song","post_content_clean":"I absolutley am sick of the songs besides the one that olafs sings but i hate the lyrics of that song","post_user_id":"10443946","show_signature":"1","last_edit_time":"0","post_votes":"0","post_unhidden":"0","post_admin_hidden":"0","post_locked":"0","last_edit_user":"0","votes":null,"post_username":"ItzDarkFlame","avatar":"https:\/\/assets-cloud.enjin.com\/users\/10443946\/avatar\/medium.1420247460.png","user_online":false,"user_votes":"0","user_posts":"104","url":"https:\/\/www.enjin.com\/ajax.php?s=redirect&cmd=forum-post&mobile=1&preset=12571633&id=77507731"},{"post_id":"77508008","post_time":"1408934128","post_content":"[quote user_id=\"10443946\" avatar=\"https:\/\/assets-cloud.enjin.com\/users\/10443946\/avatar\/medium.1420247460.png\" name=\"ItzDarkFlame\"]I absolutley am sick of the songs besides the one that olafs sings but i hate the lyrics of that song[\/quote]\r\nTell this to Loki :l","post_content_html":"<q><span class='bbcode_user'><div  class=\"element_avatar simple tiny\"><a  data-minitooltip=\"ItzDarkFlame\" data-minitooltip-userid=\"10443946\" href=\"https:\/\/www.craftsurvivalgames.com\/profile\/10443946\"><img src=\"https:\/\/assets-cloud.enjin.com\/users\/10443946\/avatar\/tiny.1420247460.png\" onerror=\"this.src='https:\/\/resources.enjin.com\/profile\/images\/avatar\/tiny.png';\" width=\"16\" height=\"16\"><\/a><\/div><div class=\"user\"><a href='\/profile\/10443946'  class='element_username'>ItzDarkFlame<\/a>  <\/div> wrote:<\/span><br\/><br\/>I absolutley am sick of the songs besides the one that olafs sings but i hate the lyrics of that song<\/q><br \/> Tell this to Loki :l","post_content_clean":"I absolutley am sick of the songs besides the one that olafs sings but i hate the lyrics of that song\r Tell this to Loki :l","post_user_id":"6672203","show_signature":"1","last_edit_time":"0","post_votes":"0","post_unhidden":"0","post_admin_hidden":"0","post_locked":"0","last_edit_user":"0","votes":null,"post_username":"\u01a4\u0280ox\u0251","avatar":"https:\/\/assets-cloud.enjin.com\/users\/6672203\/avatar\/medium.1419832957.png","user_online":false,"user_votes":"193","user_posts":"2525","url":"https:\/\/www.enjin.com\/ajax.php?s=redirect&cmd=forum-post&mobile=1&preset=12571633&id=77508008"},{"post_id":"77943221","post_time":"1409329814","post_content":"I might have liked it if my sister didn't PLAY\/SING ALL THE FROZEN SONGS 24\/7","post_content_html":"I might have liked it if my sister didn't PLAY\/SING ALL THE FROZEN SONGS 24\/7","post_content_clean":"I might have liked it if my sister didn't PLAY\/SING ALL THE FROZEN SONGS 24\/7","post_user_id":"5229320","show_signature":"1","last_edit_time":"0","post_votes":"0","post_unhidden":"0","post_admin_hidden":"0","post_locked":"0","last_edit_user":"0","votes":null,"post_username":"shadowninjaben","avatar":"https:\/\/resources.enjin.com\/1465083537\/profile\/images\/avatar\/medium.png","user_online":false,"user_votes":"0","user_posts":"25","url":"https:\/\/www.enjin.com\/ajax.php?s=redirect&cmd=forum-post&mobile=1&preset=12571633&id=77943221"},{"post_id":"77943405","post_time":"1409329956","post_content":"STOP BUMPING AND NECROING THIS THREAD","post_content_html":"STOP BUMPING AND NECROING THIS THREAD","post_content_clean":"STOP BUMPING AND NECROING THIS THREAD","post_user_id":"7361443","show_signature":"1","last_edit_time":"0","post_votes":"0","post_unhidden":"0","post_admin_hidden":"0","post_locked":"0","last_edit_user":"0","votes":null,"post_username":"\u2704{snugglezxD:3emo} mojo215","avatar":"https:\/\/assets-cloud.enjin.com\/users\/7361443\/avatar\/medium.1455751269.jpeg","user_online":false,"user_votes":"0","user_posts":"2641","url":"https:\/\/www.enjin.com\/ajax.php?s=redirect&cmd=forum-post&mobile=1&preset=12571633&id=77943405"}],"total_items":"38","pages":4,"voted":false,"new_post_id":"76456582","thread_labels":[],"top_posters":{"result":[{"post_user_id":"7361443","posts":"3","username":"\u2704{snugglezxD:3emo} mojo215","avatar":"https:\/\/assets-cloud.enjin.com\/users\/7361443\/avatar\/medium.1455751269.jpeg"},{"post_user_id":"7249943","posts":"3","username":"Creepaahh","avatar":"https:\/\/assets-cloud.enjin.com\/users\/7249943\/avatar\/medium.1468004541.jpeg"},{"post_user_id":"7455843","posts":"3","username":"Star","avatar":"https:\/\/assets-cloud.enjin.com\/users\/7455843\/avatar\/medium.1417233797.jpeg"},{"post_user_id":"8402226","posts":"3","username":"The Real Slim Slendy","avatar":"https:\/\/assets-cloud.enjin.com\/users\/8402226\/avatar\/medium.1407106327.jpeg"},{"post_user_id":"6648983","posts":"2","username":"Boo Stark","avatar":"https:\/\/assets-cloud.enjin.com\/users\/6648983\/avatar\/medium.1437598351.png"},{"post_user_id":"6672203","posts":"2","username":"\u01a4\u0280ox\u0251","avatar":"https:\/\/assets-cloud.enjin.com\/users\/6672203\/avatar\/medium.1419832957.png"},{"post_user_id":"6987381","posts":"2","username":"NiTeFuRy_","avatar":"https:\/\/assets-cloud.enjin.com\/users\/6987381\/avatar\/medium.1400122786.png"},{"post_user_id":"10443946","posts":"2","username":"ItzDarkFlame","avatar":"https:\/\/assets-cloud.enjin.com\/users\/10443946\/avatar\/medium.1420247460.png"},{"post_user_id":"7007414","posts":"2","username":"Quinn","avatar":"https:\/\/assets-cloud.enjin.com\/users\/7007414\/avatar\/medium.1400120869.png"},{"post_user_id":"6498055","posts":"2","username":"Liam \u062a","avatar":"https:\/\/assets-cloud.enjin.com\/users\/6498055\/avatar\/medium.1433192263.jpeg"},{"post_user_id":"5229320","posts":"1","username":"shadowninjaben","avatar":"https:\/\/resources.enjin.com\/1465083537\/profile\/images\/avatar\/medium.png"},{"post_user_id":"6806305","posts":"1","username":"User","avatar":"https:\/\/resources.enjin.com\/1465083537\/profile\/images\/avatar\/medium.png"}],"num_users":"24"},"moderation_access":false,"poll_post":null,"post_access":true,"new_thread_access":true},"id":"1234567","jsonrpc":"2.0"}
