{"result":{"thread":{"preset_id":"12571633","forum_id":"2419048","thread_id":"11277045","thread_subject":"Rate the Person Above U: their personalities","thread_replies":"71","thread_views":"15075","thread_type":"normal","thread_status":"locked","thread_user_id":"7661412","thread_username":"13823113181888642177","thread_avatar":"https:\/\/assets-cloud.enjin.com\/users\/7661412\/avatar\/medium.1410214521.jpeg","thread_lastpost_user_id":"8656906","thread_lastpost_username":"13900288411507505486","thread_lastpost_time":"1393422074","thread_moved_id":"0","thread_post_time":"1393297280","url":"https:\/\/www.enjin.com\/ajax.php?s=redirect&cmd=forum-thread&mobile=1&preset=12571633&id=11277045","post_count":"1","category_id":"1907006","forum_name":"General Discussion","forum_description":"Discussion about general topics.","disable_voting":"0","show_signature":"1","url_cms":"https:\/\/www.craftsurvivalgames.com\/forum\/m\/12571633\/viewthread\/11277045-rate-person-above-u-their-personalities"},"posts":[{"post_id":"62450282","post_time":"1393297280","post_content":"If u dont know the person, just say lol  :lol:  :lol:  :lol:  :lol:  :lol:  :lol:","post_content_html":"If u dont know the person, just say lol  <object class=\"emojione\" data=\"https:\/\/resources.enjin.com\/1489581540\/themes\/core\/images\/emojione\/svg\/1f606.svg?0\" type=\"image\/svg+xml\" standby=\":lol:\">:lol:<\/object>  <object class=\"emojione\" data=\"https:\/\/resources.enjin.com\/1489581540\/themes\/core\/images\/emojione\/svg\/1f606.svg?0\" type=\"image\/svg+xml\" standby=\":lol:\">:lol:<\/object>  <object class=\"emojione\" data=\"https:\/\/resources.enjin.com\/1489581540\/themes\/core\/images\/emojione\/svg\/1f606.svg?0\" type=\"image\/svg+xml\" standby=\":lol:\">:lol:<\/object>  <object class=\"emojione\" data=\"https:\/\/resources.enjin.com\/1489581540\/themes\/core\/images\/emojione\/svg\/1f606.svg?0\" type=\"image\/svg+xml\" standby=\":lol:\">:lol:<\/object>  <object class=\"emojione\" data=\"https:\/\/resources.enjin.com\/1489581540\/themes\/core\/images\/emojione\/svg\/1f606.svg?0\" type=\"image\/svg+xml\" standby=\":lol:\">:lol:<\/object>  <object class=\"emojione\" data=\"https:\/\/resources.enjin.com\/1489581540\/themes\/core\/images\/emojione\/svg\/1f606.svg?0\" type=\"image\/svg+xml\" standby=\":lol:\">:lol:<\/object>","post_content_clean":"If u dont know the person, just say lol  :lol:  :lol:  :lol:  :lol:  :lol:  :lol:","post_user_id":"7661412","show_signature":"1","last_edit_time":"0","post_votes":"0","post_unhidden":"0","post_admin_hidden":"0","post_locked":"0","last_edit_user":"0","votes":null,"post_username":"\u2694 Danneh~MC\u2502SAO \u2694","avatar":"https:\/\/assets-cloud.enjin.com\/users\/7661412\/avatar\/medium.1410214521.jpeg","user_online":false,"user_votes":"395","user_posts":"1534","url":"https:\/\/www.enjin.com\/ajax.php?s=redirect&cmd=forum-post&mobile=1&preset=12571633&id=62450282"},{"post_id":"62450575","post_time":"1393297569","post_content":"I didnt get mad i got.....PISSED.  :lol:","post_content_html":"I didnt get mad i got.....PISSED.  <object class=\"emojione\" data=\"https:\/\/resources.enjin.com\/1489581540\/themes\/core\/images\/emojione\/svg\/1f606.svg?0\" type=\"image\/svg+xml\" standby=\":lol:\">:lol:<\/object>","post_content_clean":"I didnt get mad i got.....PISSED.  :lol:","post_user_id":"7661412","show_signature":"1","last_edit_time":"0","post_votes":"0","post_unhidden":"0","post_admin_hidden":"0","post_locked":"0","last_edit_user":"0","votes":null,"post_username":"\u2694 Danneh~MC\u2502SAO \u2694","avatar":"https:\/\/assets-cloud.enjin.com\/users\/7661412\/avatar\/medium.1410214521.jpeg","user_online":false,"user_votes":"395","user_posts":"1534","url":"https:\/\/www.enjin.com\/ajax.php?s=redirect&cmd=forum-post&mobile=1&preset=12571633&id=62450575"},{"post_id":"62450605","post_time":"1393297599","post_content":"ur mean and a big bully &lt;3","post_content_html":"ur mean and a big bully &lt;3","post_content_clean":"ur mean and a big bully <3","post_user_id":"7993835","show_signature":"1","last_edit_time":"0","post_votes":"1","post_unhidden":"0","post_admin_hidden":"0","post_locked":"0","last_edit_user":"0","votes":null,"post_username":"Turkey","avatar":"https:\/\/assets-cloud.enjin.com\/users\/7993835\/avatar\/medium.1400126453.png","user_online":false,"user_votes":"152","user_posts":"522","url":"https:\/\/www.enjin.com\/ajax.php?s=redirect&cmd=forum-post&mobile=1&preset=12571633&id=62450605"},{"post_id":"62450636","post_time":"1393297626","post_content":":evil:","post_content_html":"<object class=\"emojione\" data=\"https:\/\/resources.enjin.com\/1489581540\/themes\/core\/images\/emojione\/svg\/1f608.svg?0\" type=\"image\/svg+xml\" standby=\":evil:\">:evil:<\/object>","post_content_clean":":evil:","post_user_id":"7661412","show_signature":"1","last_edit_time":"0","post_votes":"0","post_unhidden":"0","post_admin_hidden":"0","post_locked":"0","last_edit_user":"0","votes":null,"post_username":"\u2694 Danneh~MC\u2502SAO \u2694","avatar":"https:\/\/assets-cloud.enjin.com\/users\/7661412\/avatar\/medium.1410214521.jpeg","user_online":false,"user_votes":"395","user_posts":"1534","url":"https:\/\/www.enjin.com\/ajax.php?s=redirect&cmd=forum-post&mobile=1&preset=12571633&id=62450636"},{"post_id":"62450709","post_time":"1393297693","post_content":"[color=#6e23dd][b]I dont' even know you...\r\n\r\n-Nutella[\/b][\/color]","post_content_html":"<b>I dont' even know you...<br \/> <br \/> -Nutella<\/b>","post_content_clean":"I dont' even know you...\r \r -Nutella","post_user_id":"6806305","show_signature":"1","last_edit_time":"0","post_votes":"0","post_unhidden":"0","post_admin_hidden":"0","post_locked":"0","last_edit_user":"0","votes":null,"post_username":"User","avatar":"https:\/\/resources.enjin.com\/1465083537\/profile\/images\/avatar\/medium.png","user_online":false,"user_votes":"767","user_posts":"1491","url":"https:\/\/www.enjin.com\/ajax.php?s=redirect&cmd=forum-post&mobile=1&preset=12571633&id=62450709"},{"post_id":"62450751","post_time":"1393297725","post_content":"i know, but I heard a lot bout u Nutella. I gave u ur 1mil prize 2. :P","post_content_html":"i know, but I heard a lot bout u Nutella. I gave u ur 1mil prize 2. <object class=\"emojione\" data=\"https:\/\/resources.enjin.com\/1489581540\/themes\/core\/images\/emojione\/svg\/1f61b.svg?0\" type=\"image\/svg+xml\" standby=\":p\">:p<\/object>","post_content_clean":"i know, but I heard a lot bout u Nutella. I gave u ur 1mil prize 2. :P","post_user_id":"7661412","show_signature":"1","last_edit_time":"0","post_votes":"0","post_unhidden":"0","post_admin_hidden":"0","post_locked":"0","last_edit_user":"0","votes":null,"post_username":"\u2694 Danneh~MC\u2502SAO \u2694","avatar":"https:\/\/assets-cloud.enjin.com\/users\/7661412\/avatar\/medium.1410214521.jpeg","user_online":false,"user_votes":"395","user_posts":"1534","url":"https:\/\/www.enjin.com\/ajax.php?s=redirect&cmd=forum-post&mobile=1&preset=12571633&id=62450751"},{"post_id":"62450826","post_time":"1393297799","post_content":"i heard Vjj is OP at pvp and u seem like a cool guy Vjj","post_content_html":"i heard Vjj is OP at pvp and u seem like a cool guy Vjj","post_content_clean":"i heard Vjj is OP at pvp and u seem like a cool guy Vjj","post_user_id":"7661412","show_signature":"1","last_edit_time":"0","post_votes":"0","post_unhidden":"0","post_admin_hidden":"0","post_locked":"0","last_edit_user":"0","votes":null,"post_username":"\u2694 Danneh~MC\u2502SAO \u2694","avatar":"https:\/\/assets-cloud.enjin.com\/users\/7661412\/avatar\/medium.1410214521.jpeg","user_online":false,"user_votes":"395","user_posts":"1534","url":"https:\/\/www.enjin.com\/ajax.php?s=redirect&cmd=forum-post&mobile=1&preset=12571633&id=62450826"},{"post_id":"62450911","post_time":"1393297873","post_content":"[size=6][color=#d113ee][\/color][\/size] i dont get the question","post_content_html":"<span style=\"font-size:2.0em\"><\/span> i dont get the question","post_content_clean":" i dont get the question","post_user_id":"7661412","show_signature":"1","last_edit_time":"0","post_votes":"0","post_unhidden":"0","post_admin_hidden":"0","post_locked":"0","last_edit_user":"0","votes":null,"post_username":"\u2694 Danneh~MC\u2502SAO \u2694","avatar":"https:\/\/assets-cloud.enjin.com\/users\/7661412\/avatar\/medium.1410214521.jpeg","user_online":false,"user_votes":"395","user_posts":"1534","url":"https:\/\/www.enjin.com\/ajax.php?s=redirect&cmd=forum-post&mobile=1&preset=12571633&id=62450911"},{"post_id":"62450978","post_time":"1393297946","post_content":"ur name is daniel and ur very daniely","post_content_html":"ur name is daniel and ur very daniely","post_content_clean":"ur name is daniel and ur very daniely","post_user_id":"7993835","show_signature":"1","last_edit_time":"0","post_votes":"2","post_unhidden":"0","post_admin_hidden":"0","post_locked":"0","last_edit_user":"0","votes":null,"post_username":"Turkey","avatar":"https:\/\/assets-cloud.enjin.com\/users\/7993835\/avatar\/medium.1400126453.png","user_online":false,"user_votes":"152","user_posts":"522","url":"https:\/\/www.enjin.com\/ajax.php?s=redirect&cmd=forum-post&mobile=1&preset=12571633&id=62450978"},{"post_id":"62451023","post_time":"1393297979","post_content":"yes u r vjj and who has nice skin?[color=#dd2423][\/color]","post_content_html":"yes u r vjj and who has nice skin?","post_content_clean":"yes u r vjj and who has nice skin?","post_user_id":"7661412","show_signature":"1","last_edit_time":"0","post_votes":"0","post_unhidden":"0","post_admin_hidden":"0","post_locked":"0","last_edit_user":"0","votes":null,"post_username":"\u2694 Danneh~MC\u2502SAO \u2694","avatar":"https:\/\/assets-cloud.enjin.com\/users\/7661412\/avatar\/medium.1410214521.jpeg","user_online":false,"user_votes":"395","user_posts":"1534","url":"https:\/\/www.enjin.com\/ajax.php?s=redirect&cmd=forum-post&mobile=1&preset=12571633&id=62451023"}],"total_items":"72","pages":8,"voted":false,"new_post_id":false,"thread_labels":[],"top_posters":{"result":[{"post_user_id":"7661412","posts":"14","username":"\u2694 Danneh~MC\u2502SAO \u2694","avatar":"https:\/\/assets-cloud.enjin.com\/users\/7661412\/avatar\/medium.1410214521.jpeg"},{"post_user_id":"6539818","posts":"7","username":"{Doomed to Destruction}","avatar":"https:\/\/assets-cloud.enjin.com\/users\/6539818\/avatar\/medium.1400116899.png"},{"post_user_id":"7993835","posts":"5","username":"Turkey","avatar":"https:\/\/assets-cloud.enjin.com\/users\/7993835\/avatar\/medium.1400126453.png"},{"post_user_id":"6556307","posts":"4","username":"~Harriskin\/Harrison~","avatar":"https:\/\/assets-cloud.enjin.com\/users\/6556307\/avatar\/medium.1415022635.png"},{"post_user_id":"7361443","posts":"4","username":"\u2704{snugglezxD:3emo} mojo215","avatar":"https:\/\/assets-cloud.enjin.com\/users\/7361443\/avatar\/medium.1455751269.jpeg"},{"post_user_id":"8329402","posts":"4","username":"SockMonkeys4Life","avatar":"https:\/\/assets-cloud.enjin.com\/users\/8329402\/avatar\/medium.1400136774.png"},{"post_user_id":"7336507","posts":"3","username":"Kill","avatar":"https:\/\/assets-cloud.enjin.com\/users\/7336507\/avatar\/medium.1410654289.jpeg"},{"post_user_id":"6806305","posts":"2","username":"User","avatar":"https:\/\/resources.enjin.com\/1465083537\/profile\/images\/avatar\/medium.png"},{"post_user_id":"7285109","posts":"2","username":"Detah","avatar":"https:\/\/assets-cloud.enjin.com\/users\/7285109\/avatar\/medium.1400130105.png"},{"post_user_id":"6672203","posts":"2","username":"\u01a4\u0280ox\u0251","avatar":"https:\/\/assets-cloud.enjin.com\/users\/6672203\/avatar\/medium.1419832957.png"},{"post_user_id":"7050341","posts":"2","username":"steeler7fan","avatar":"https:\/\/assets-cloud.enjin.com\/users\/7050341\/avatar\/medium.1400127443.png"},{"post_user_id":"8656906","posts":"2","username":"Hex4G","avatar":"https:\/\/assets-cloud.enjin.com\/users\/8656906\/avatar\/medium.1407241778.png"}],"num_users":"32"},"moderation_access":false,"poll_post":null,"post_access":true,"new_thread_access":true},"id":"1234567","jsonrpc":"2.0"}
{"result":{"thread":{"preset_id":"12571633","forum_id":"2419048","thread_id":"11277045","thread_subject":"Rate the Person Above U: their personalities","thread_replies":"71","thread_views":"15075","thread_type":"normal","thread_status":"locked","thread_user_id":"7661412","thread_username":"13823113181888642177","thread_avatar":"https:\/\/resources.enjin.com\/1465083537\/profile\/images\/avatar\/medium.png","thread_lastpost_user_id":"8656906","thread_lastpost_username":"13900288411507505486","thread_lastpost_time":"1393422074","thread_moved_id":"0","thread_post_time":"1393297280","url":"https:\/\/www.enjin.com\/ajax.php?s=redirect&cmd=forum-thread&mobile=1&preset=12571633&id=11277045","post_count":"1","category_id":"1907006","forum_name":"General Discussion","forum_description":"Discussion about general topics.","disable_voting":"0","show_signature":"1","url_cms":"https:\/\/www.craftsurvivalgames.com\/forum\/m\/12571633\/viewthread\/11277045-rate-person-above-u-their-personalities"},"posts":[{"post_id":"62451329","post_time":"1393298294","post_content":"[color=#6e23dd][b]Oh, so you are the one who gave me the price! I have talked with you like 2 months ago.\r\nYou seemed like a pretty cool guy, hope you are still like that. :)\r\n\r\n-Nutella[\/b][\/color]","post_content_html":"<b>Oh, so you are the one who gave me the price! I have talked with you like 2 months ago.<br \/> <br \/> You seemed like a pretty cool guy, hope you are still like that. <object class=\"emojione\" data=\"https:\/\/resources.enjin.com\/1489581540\/themes\/core\/images\/emojione\/svg\/1f642.svg?0\" type=\"image\/svg+xml\" standby=\":)\">:)<\/object><br \/> <br \/> -Nutella<\/b>","post_content_clean":"Oh, so you are the one who gave me the price! I have talked with you like 2 months ago.\r You seemed like a pretty cool guy, hope you are still like that. :)\r \r -Nutella","post_user_id":"6806305","show_signature":"1","last_edit_time":"0","post_votes":"0","post_unhidden":"0","post_admin_hidden":"0","post_locked":"0","last_edit_user":"0","votes":null,"post_username":"User","avatar":"https:\/\/resources.enjin.com\/1465083537\/profile\/images\/avatar\/medium.png","user_online":false,"user_votes":"767","user_posts":"1491","url":"https:\/\/www.enjin.com\/ajax.php?s=redirect&cmd=forum-post&mobile=1&preset=12571633&id=62451329"},{"post_id":"62451767","post_time":"1393298716","post_content":"Nutty.. Your a really derpy person with an exciting personality with wisdom and courage at the same time. You set a good example at the age of 12 and your mature. You can also be funny and nice!  Especially when it comes to Nutella jokes ;)\r\n\r\n~Proxa","post_content_html":"Nutty.. Your a really derpy person with an exciting personality with wisdom and courage at the same time. You set a good example at the age of 12 and your mature. You can also be funny and nice!  Especially when it comes to Nutella jokes <object class=\"emojione\" data=\"https:\/\/resources.enjin.com\/1489581540\/themes\/core\/images\/emojione\/svg\/1f609.svg?0\" type=\"image\/svg+xml\" standby=\";)\">;)<\/object><br \/> <br \/> ~Proxa","post_content_clean":"Nutty.. Your a really derpy person with an exciting personality with wisdom and courage at the same time. You set a good example at the age of 12 and your mature. You can also be funny and nice!  Especially when it comes to Nutella jokes ;)\r \r ~Proxa","post_user_id":"6672203","show_signature":"1","last_edit_time":"0","post_votes":"1","post_unhidden":"0","post_admin_hidden":"0","post_locked":"0","last_edit_user":"0","votes":null,"post_username":"\u01a4\u0280ox\u0251","avatar":"https:\/\/assets-cloud.enjin.com\/users\/6672203\/avatar\/medium.1419832957.png","user_online":false,"user_votes":"193","user_posts":"2525","url":"https:\/\/www.enjin.com\/ajax.php?s=redirect&cmd=forum-post&mobile=1&preset=12571633&id=62451767"},{"post_id":"62452047","post_time":"1393298984","post_content":"Youre pretty cool proxa and mature. Thanks for being so nice to me in Skyblock, and have everyone team with me xD","post_content_html":"Youre pretty cool proxa and mature. Thanks for being so nice to me in Skyblock, and have everyone team with me xD","post_content_clean":"Youre pretty cool proxa and mature. Thanks for being so nice to me in Skyblock, and have everyone team with me xD","post_user_id":"7993835","show_signature":"1","last_edit_time":"0","post_votes":"2","post_unhidden":"0","post_admin_hidden":"0","post_locked":"0","last_edit_user":"0","votes":null,"post_username":"Turkey","avatar":"https:\/\/assets-cloud.enjin.com\/users\/7993835\/avatar\/medium.1400126453.png","user_online":false,"user_votes":"152","user_posts":"522","url":"https:\/\/www.enjin.com\/ajax.php?s=redirect&cmd=forum-post&mobile=1&preset=12571633&id=62452047"},{"post_id":"62453643","post_time":"1393300568","post_content":"Turkey Man you are a kind hearted and great person! :)","post_content_html":"Turkey Man you are a kind hearted and great person! <object class=\"emojione\" data=\"https:\/\/resources.enjin.com\/1489581540\/themes\/core\/images\/emojione\/svg\/1f642.svg?0\" type=\"image\/svg+xml\" standby=\":)\">:)<\/object>","post_content_clean":"Turkey Man you are a kind hearted and great person! :)","post_user_id":"8329402","show_signature":"1","last_edit_time":"0","post_votes":"1","post_unhidden":"0","post_admin_hidden":"0","post_locked":"0","last_edit_user":"0","votes":null,"post_username":"SockMonkeys4Life","avatar":"https:\/\/assets-cloud.enjin.com\/users\/8329402\/avatar\/medium.1400136774.png","user_online":false,"user_votes":"72","user_posts":"446","url":"https:\/\/www.enjin.com\/ajax.php?s=redirect&cmd=forum-post&mobile=1&preset=12571633&id=62453643"},{"post_id":"62454712","post_time":"1393301656","post_content":"Rude, Mean. Weird.","post_content_html":"Rude, Mean. Weird.","post_content_clean":"Rude, Mean. Weird.","post_user_id":"6987381","show_signature":"1","last_edit_time":"0","post_votes":"0","post_unhidden":"0","post_admin_hidden":"0","post_locked":"0","last_edit_user":"0","votes":null,"post_username":"NiTeFuRy_","avatar":"https:\/\/assets-cloud.enjin.com\/users\/6987381\/avatar\/medium.1400122786.png","user_online":false,"user_votes":"168","user_posts":"1215","url":"https:\/\/www.enjin.com\/ajax.php?s=redirect&cmd=forum-post&mobile=1&preset=12571633&id=62454712"},{"post_id":"62459711","post_time":"1393307971","post_content":"[b]A nice turtle ninja.. :P[\/b]","post_content_html":"<b>A nice turtle ninja.. <object class=\"emojione\" data=\"https:\/\/resources.enjin.com\/1489581540\/themes\/core\/images\/emojione\/svg\/1f61b.svg?0\" type=\"image\/svg+xml\" standby=\":p\">:p<\/object><\/b>","post_content_clean":"A nice turtle ninja.. :P","post_user_id":"5611960","show_signature":"1","last_edit_time":"0","post_votes":"0","post_unhidden":"0","post_admin_hidden":"0","post_locked":"0","last_edit_user":"0","votes":null,"post_username":"rostedbeef","avatar":"https:\/\/assets-cloud.enjin.com\/users\/5611960\/avatar\/medium.1493519552.jpeg","user_online":false,"user_votes":"132","user_posts":"417","url":"https:\/\/www.enjin.com\/ajax.php?s=redirect&cmd=forum-post&mobile=1&preset=12571633&id=62459711"},{"post_id":"62463178","post_time":"1393313853","post_content":"Really nice and funny :3","post_content_html":"Really nice and funny :3","post_content_clean":"Really nice and funny :3","post_user_id":"5748484","show_signature":"1","last_edit_time":"0","post_votes":"0","post_unhidden":"0","post_admin_hidden":"0","post_locked":"0","last_edit_user":"0","votes":null,"post_username":"mary","avatar":"https:\/\/assets-cloud.enjin.com\/users\/5748484\/avatar\/medium.1445642587.jpeg","user_online":false,"user_votes":"259","user_posts":"623","url":"https:\/\/www.enjin.com\/ajax.php?s=redirect&cmd=forum-post&mobile=1&preset=12571633&id=62463178"},{"post_id":"62463252","post_time":"1393313978","post_content":"Cool","post_content_html":"Cool","post_content_clean":"Cool","post_user_id":"5514011","show_signature":"1","last_edit_time":"0","post_votes":"0","post_unhidden":"0","post_admin_hidden":"0","post_locked":"0","last_edit_user":"0","votes":null,"post_username":"ArmandCool","avatar":"https:\/\/assets-cloud.enjin.com\/users\/5514011\/avatar\/medium.1408808960.jpeg","user_online":false,"user_votes":"376","user_posts":"823","url":"https:\/\/www.enjin.com\/ajax.php?s=redirect&cmd=forum-post&mobile=1&preset=12571633&id=62463252"},{"post_id":"62464095","post_time":"1393315425","post_content":"yo i see you're back :D\r\n\r\ni knew you for a few months. pretty epic back then","post_content_html":"yo i see you're back <object class=\"emojione\" data=\"https:\/\/resources.enjin.com\/1489581540\/themes\/core\/images\/emojione\/svg\/1f600.svg?0\" type=\"image\/svg+xml\" standby=\":d\">:d<\/object><br \/> <br \/> i knew you for a few months. pretty epic back then","post_content_clean":"yo i see you're back :D\r \r i knew you for a few months. pretty epic back then","post_user_id":"1858801","show_signature":"1","last_edit_time":"0","post_votes":"0","post_unhidden":"0","post_admin_hidden":"0","post_locked":"0","last_edit_user":"0","votes":null,"post_username":"TexSupport","avatar":"https:\/\/assets-cloud.enjin.com\/users\/1858801\/avatar\/medium.1545528815.jpeg","user_online":false,"user_votes":"167","user_posts":"1175","url":"https:\/\/www.enjin.com\/ajax.php?s=redirect&cmd=forum-post&mobile=1&preset=12571633&id=62464095"},{"post_id":"62471284","post_time":"1393328608","post_content":"Idk who you are, but you seem pretty cool so, yeah...","post_content_html":"Idk who you are, but you seem pretty cool so, yeah...","post_content_clean":"Idk who you are, but you seem pretty cool so, yeah...","post_user_id":"4154830","show_signature":"1","last_edit_time":"0","post_votes":"0","post_unhidden":"0","post_admin_hidden":"0","post_locked":"0","last_edit_user":"0","votes":null,"post_username":"Payton","avatar":"https:\/\/assets-cloud.enjin.com\/users\/4154830\/avatar\/medium.1400084619.jpeg","user_online":false,"user_votes":"15","user_posts":"47","url":"https:\/\/www.enjin.com\/ajax.php?s=redirect&cmd=forum-post&mobile=1&preset=12571633&id=62471284"}],"total_items":"72","pages":8,"voted":false,"new_post_id":"62451329","thread_labels":[],"top_posters":{"result":[{"post_user_id":"7661412","posts":"14","username":"\u2694 Danneh~MC\u2502SAO \u2694","avatar":"https:\/\/assets-cloud.enjin.com\/users\/7661412\/avatar\/medium.1410214521.jpeg"},{"post_user_id":"6539818","posts":"7","username":"{Doomed to Destruction}","avatar":"https:\/\/assets-cloud.enjin.com\/users\/6539818\/avatar\/medium.1400116899.png"},{"post_user_id":"7993835","posts":"5","username":"Turkey","avatar":"https:\/\/assets-cloud.enjin.com\/users\/7993835\/avatar\/medium.1400126453.png"},{"post_user_id":"8329402","posts":"4","username":"SockMonkeys4Life","avatar":"https:\/\/assets-cloud.enjin.com\/users\/8329402\/avatar\/medium.1400136774.png"},{"post_user_id":"6556307","posts":"4","username":"~Harriskin\/Harrison~","avatar":"https:\/\/assets-cloud.enjin.com\/users\/6556307\/avatar\/medium.1415022635.png"},{"post_user_id":"7361443","posts":"4","username":"\u2704{snugglezxD:3emo} mojo215","avatar":"https:\/\/assets-cloud.enjin.com\/users\/7361443\/avatar\/medium.1455751269.jpeg"},{"post_user_id":"7336507","posts":"3","username":"Kill","avatar":"https:\/\/assets-cloud.enjin.com\/users\/7336507\/avatar\/medium.1410654289.jpeg"},{"post_user_id":"7050341","posts":"2","username":"steeler7fan","avatar":"https:\/\/assets-cloud.enjin.com\/users\/7050341\/avatar\/medium.1400127443.png"},{"post_user_id":"8656906","posts":"2","username":"Hex4G","avatar":"https:\/\/assets-cloud.enjin.com\/users\/8656906\/avatar\/medium.1407241778.png"},{"post_user_id":"5748484","posts":"2","username":"mary","avatar":"https:\/\/assets-cloud.enjin.com\/users\/5748484\/avatar\/medium.1445642587.jpeg"},{"post_user_id":"6806305","posts":"2","username":"User","avatar":"https:\/\/resources.enjin.com\/1465083537\/profile\/images\/avatar\/medium.png"},{"post_user_id":"7285109","posts":"2","username":"Detah","avatar":"https:\/\/assets-cloud.enjin.com\/users\/7285109\/avatar\/medium.1400130105.png"}],"num_users":"32"},"moderation_access":false,"poll_post":null,"post_access":true,"new_thread_access":true},"id":"1234567","jsonrpc":"2.0"}
{"result":{"thread":{"preset_id":"12571633","forum_id":"2419048","thread_id":"11277045","thread_subject":"Rate the Person Above U: their personalities","thread_replies":"71","thread_views":"15075","thread_type":"normal","thread_status":"locked","thread_user_id":"7661412","thread_username":"13823113181888642177","thread_avatar":"https:\/\/assets-cloud.enjin.com\/users\/7661412\/avatar\/medium.1419832957.png","thread_lastpost_user_id":"8656906","thread_lastpost_username":"13900288411507505486","thread_lastpost_time":"1393422074","thread_moved_id":"0","thread_post_time":"1393297280","url":"https:\/\/www.enjin.com\/ajax.php?s=redirect&cmd=forum-thread&mobile=1&preset=12571633&id=11277045","post_count":"1","category_id":"1907006","forum_name":"General Discussion","forum_description":"Discussion about general topics.","disable_voting":"0","show_signature":"1","url_cms":"https:\/\/www.craftsurvivalgames.com\/forum\/m\/12571633\/viewthread\/11277045-rate-person-above-u-their-personalities"},"posts":[{"post_id":"62471429","post_time":"1393328830","post_content":"Payton c: pvp expert, prison god, team, derpy, and Payton ;o\r\n~Proxa","post_content_html":"Payton c: pvp expert, prison god, team, derpy, and Payton ;o<br \/> <br \/> ~Proxa","post_content_clean":"Payton c: pvp expert, prison god, team, derpy, and Payton ;o\r ~Proxa","post_user_id":"6672203","show_signature":"1","last_edit_time":"0","post_votes":"1","post_unhidden":"0","post_admin_hidden":"0","post_locked":"0","last_edit_user":"0","votes":null,"post_username":"\u01a4\u0280ox\u0251","avatar":"https:\/\/assets-cloud.enjin.com\/users\/6672203\/avatar\/medium.1419832957.png","user_online":false,"user_votes":"193","user_posts":"2525","url":"https:\/\/www.enjin.com\/ajax.php?s=redirect&cmd=forum-post&mobile=1&preset=12571633&id=62471429"},{"post_id":"62471810","post_time":"1393329373","post_content":"[color=#2360dd]Proxa, nice, silly, funny, and a really good best friend.[\/color]","post_content_html":"Proxa, nice, silly, funny, and a really good best friend.","post_content_clean":"Proxa, nice, silly, funny, and a really good best friend.","post_user_id":"7455843","show_signature":"1","last_edit_time":"0","post_votes":"0","post_unhidden":"0","post_admin_hidden":"0","post_locked":"0","last_edit_user":"0","votes":null,"post_username":"Star","avatar":"https:\/\/assets-cloud.enjin.com\/users\/7455843\/avatar\/medium.1417233797.jpeg","user_online":false,"user_votes":"0","user_posts":0,"url":"https:\/\/www.enjin.com\/ajax.php?s=redirect&cmd=forum-post&mobile=1&preset=12571633&id=62471810"},{"post_id":"62471995","post_time":"1393329625","post_content":"Star,, nice, good mod, good friend, trustful","post_content_html":"Star,, nice, good mod, good friend, trustful","post_content_clean":"Star,, nice, good mod, good friend, trustful","post_user_id":"6556307","show_signature":"1","last_edit_time":"0","post_votes":"0","post_unhidden":"0","post_admin_hidden":"0","post_locked":"0","last_edit_user":"0","votes":null,"post_username":"~Harriskin\/Harrison~","avatar":"https:\/\/assets-cloud.enjin.com\/users\/6556307\/avatar\/medium.1415022635.png","user_online":false,"user_votes":"219","user_posts":"1402","url":"https:\/\/www.enjin.com\/ajax.php?s=redirect&cmd=forum-post&mobile=1&preset=12571633&id=62471995"},{"post_id":"62472071","post_time":"1393329738","post_content":"Harriskin: Overall a nice guy.","post_content_html":"Harriskin: Overall a nice guy.","post_content_clean":"Harriskin: Overall a nice guy.","post_user_id":"7285109","show_signature":"1","last_edit_time":"0","post_votes":"1","post_unhidden":"0","post_admin_hidden":"0","post_locked":"0","last_edit_user":"0","votes":null,"post_username":"Detah","avatar":"https:\/\/assets-cloud.enjin.com\/users\/7285109\/avatar\/medium.1400130105.png","user_online":false,"user_votes":"2268","user_posts":"5250","url":"https:\/\/www.enjin.com\/ajax.php?s=redirect&cmd=forum-post&mobile=1&preset=12571633&id=62472071"},{"post_id":"62472187","post_time":"1393329916","post_content":"[b]Death, nice, kind, funny, cool, respectful, responsible, astonishing T-Mod, mature, and an epic man.[\/b]","post_content_html":"<b>Death, nice, kind, funny, cool, respectful, responsible, astonishing T-Mod, mature, and an epic man.<\/b>","post_content_clean":"Death, nice, kind, funny, cool, respectful, responsible, astonishing T-Mod, mature, and an epic man.","post_user_id":"7336507","show_signature":"0","last_edit_time":"1393330853","post_votes":"0","post_unhidden":"0","post_admin_hidden":"0","post_locked":"0","last_edit_user":"0","votes":null,"post_username":"Kill","avatar":"https:\/\/assets-cloud.enjin.com\/users\/7336507\/avatar\/medium.1410654289.jpeg","user_online":false,"user_votes":null,"user_posts":0,"url":"https:\/\/www.enjin.com\/ajax.php?s=redirect&cmd=forum-post&mobile=1&preset=12571633&id=62472187"},{"post_id":"62472477","post_time":"1393330375","post_content":"Kill, mature, fun, cool, a great friend, and just awesome!","post_content_html":"Kill, mature, fun, cool, a great friend, and just awesome!","post_content_clean":"Kill, mature, fun, cool, a great friend, and just awesome!","post_user_id":"7050341","show_signature":"1","last_edit_time":"0","post_votes":"1","post_unhidden":"0","post_admin_hidden":"0","post_locked":"0","last_edit_user":"0","votes":null,"post_username":"steeler7fan","avatar":"https:\/\/assets-cloud.enjin.com\/users\/7050341\/avatar\/medium.1400127443.png","user_online":false,"user_votes":"96","user_posts":"788","url":"https:\/\/www.enjin.com\/ajax.php?s=redirect&cmd=forum-post&mobile=1&preset=12571633&id=62472477"},{"post_id":"62474646","post_time":"1393333219","post_content":"Steeler, friendly, nice, and funny!","post_content_html":"Steeler, friendly, nice, and funny!","post_content_clean":"Steeler, friendly, nice, and funny!","post_user_id":"8656906","show_signature":"0","last_edit_time":"0","post_votes":"0","post_unhidden":"0","post_admin_hidden":"0","post_locked":"0","last_edit_user":"0","votes":null,"post_username":"Hex4G","avatar":"https:\/\/assets-cloud.enjin.com\/users\/8656906\/avatar\/medium.1407241778.png","user_online":false,"user_votes":"133","user_posts":"859","url":"https:\/\/www.enjin.com\/ajax.php?s=redirect&cmd=forum-post&mobile=1&preset=12571633&id=62474646"},{"post_id":"62476095","post_time":"1393335038","post_content":"Hex, don't know him much, but seems like a cool guy, who can keep a level head and enjoy life :D","post_content_html":"Hex, don't know him much, but seems like a cool guy, who can keep a level head and enjoy life <object class=\"emojione\" data=\"https:\/\/resources.enjin.com\/1489581540\/themes\/core\/images\/emojione\/svg\/1f600.svg?0\" type=\"image\/svg+xml\" standby=\":d\">:d<\/object>","post_content_clean":"Hex, don't know him much, but seems like a cool guy, who can keep a level head and enjoy life :D","post_user_id":"6539818","show_signature":"1","last_edit_time":"0","post_votes":"0","post_unhidden":"0","post_admin_hidden":"0","post_locked":"0","last_edit_user":"0","votes":null,"post_username":"{Doomed to Destruction}","avatar":"https:\/\/assets-cloud.enjin.com\/users\/6539818\/avatar\/medium.1400116899.png","user_online":false,"user_votes":"145","user_posts":"701","url":"https:\/\/www.enjin.com\/ajax.php?s=redirect&cmd=forum-post&mobile=1&preset=12571633&id=62476095"},{"post_id":"62480047","post_time":"1393339594","post_content":"Do not really talk. You like pokemon; that is a plus.","post_content_html":"Do not really talk. You like pokemon; that is a plus.","post_content_clean":"Do not really talk. You like pokemon; that is a plus.","post_user_id":"5440874","show_signature":"1","last_edit_time":"0","post_votes":"0","post_unhidden":"0","post_admin_hidden":"0","post_locked":"0","last_edit_user":"0","votes":null,"post_username":"MooseTheEngineer","avatar":"https:\/\/assets-cloud.enjin.com\/users\/5440874\/avatar\/medium.1495487251.jpeg","user_online":false,"user_votes":"0","user_posts":"2843","url":"https:\/\/www.enjin.com\/ajax.php?s=redirect&cmd=forum-post&mobile=1&preset=12571633&id=62480047"},{"post_id":"62480460","post_time":"1393340087","post_content":"Extremely nice, funny and creative! You are also a moose who can engineer :P.","post_content_html":"Extremely nice, funny and creative! You are also a moose who can engineer <object class=\"emojione\" data=\"https:\/\/resources.enjin.com\/1489581540\/themes\/core\/images\/emojione\/svg\/1f61b.svg?0\" type=\"image\/svg+xml\" standby=\":p\">:p<\/object>.","post_content_clean":"Extremely nice, funny and creative! You are also a moose who can engineer :P.","post_user_id":"6441306","show_signature":"1","last_edit_time":"0","post_votes":"0","post_unhidden":"0","post_admin_hidden":"0","post_locked":"0","last_edit_user":"0","votes":null,"post_username":"Monkey Of Doom","avatar":"https:\/\/assets-cloud.enjin.com\/users\/6441306\/avatar\/medium.1400117849.png","user_online":false,"user_votes":"7","user_posts":"210","url":"https:\/\/www.enjin.com\/ajax.php?s=redirect&cmd=forum-post&mobile=1&preset=12571633&id=62480460"}],"total_items":"72","pages":8,"voted":false,"new_post_id":"62471429","thread_labels":[],"top_posters":{"result":[{"post_user_id":"7661412","posts":"14","username":"\u2694 Danneh~MC\u2502SAO \u2694","avatar":"https:\/\/assets-cloud.enjin.com\/users\/7661412\/avatar\/medium.1410214521.jpeg"},{"post_user_id":"6539818","posts":"7","username":"{Doomed to Destruction}","avatar":"https:\/\/assets-cloud.enjin.com\/users\/6539818\/avatar\/medium.1400116899.png"},{"post_user_id":"7993835","posts":"5","username":"Turkey","avatar":"https:\/\/assets-cloud.enjin.com\/users\/7993835\/avatar\/medium.1400126453.png"},{"post_user_id":"8329402","posts":"4","username":"SockMonkeys4Life","avatar":"https:\/\/assets-cloud.enjin.com\/users\/8329402\/avatar\/medium.1400136774.png"},{"post_user_id":"6556307","posts":"4","username":"~Harriskin\/Harrison~","avatar":"https:\/\/assets-cloud.enjin.com\/users\/6556307\/avatar\/medium.1415022635.png"},{"post_user_id":"7361443","posts":"4","username":"\u2704{snugglezxD:3emo} mojo215","avatar":"https:\/\/assets-cloud.enjin.com\/users\/7361443\/avatar\/medium.1455751269.jpeg"},{"post_user_id":"7336507","posts":"3","username":"Kill","avatar":"https:\/\/assets-cloud.enjin.com\/users\/7336507\/avatar\/medium.1410654289.jpeg"},{"post_user_id":"7050341","posts":"2","username":"steeler7fan","avatar":"https:\/\/assets-cloud.enjin.com\/users\/7050341\/avatar\/medium.1400127443.png"},{"post_user_id":"8656906","posts":"2","username":"Hex4G","avatar":"https:\/\/assets-cloud.enjin.com\/users\/8656906\/avatar\/medium.1407241778.png"},{"post_user_id":"5748484","posts":"2","username":"mary","avatar":"https:\/\/assets-cloud.enjin.com\/users\/5748484\/avatar\/medium.1445642587.jpeg"},{"post_user_id":"6806305","posts":"2","username":"User","avatar":"https:\/\/resources.enjin.com\/1465083537\/profile\/images\/avatar\/medium.png"},{"post_user_id":"7285109","posts":"2","username":"Detah","avatar":"https:\/\/assets-cloud.enjin.com\/users\/7285109\/avatar\/medium.1400130105.png"}],"num_users":"32"},"moderation_access":false,"poll_post":null,"post_access":true,"new_thread_access":true},"id":"1234567","jsonrpc":"2.0"}
{"result":{"thread":{"preset_id":"12571633","forum_id":"2419048","thread_id":"11277045","thread_subject":"Rate the Person Above U: their personalities","thread_replies":"71","thread_views":"15076","thread_type":"normal","thread_status":"locked","thread_user_id":"7661412","thread_username":"13823113181888642177","thread_avatar":"https:\/\/assets-cloud.enjin.com\/users\/7661412\/avatar\/medium.1400116899.png","thread_lastpost_user_id":"8656906","thread_lastpost_username":"13900288411507505486","thread_lastpost_time":"1393422074","thread_moved_id":"0","thread_post_time":"1393297280","url":"https:\/\/www.enjin.com\/ajax.php?s=redirect&cmd=forum-thread&mobile=1&preset=12571633&id=11277045","post_count":"1","category_id":"1907006","forum_name":"General Discussion","forum_description":"Discussion about general topics.","disable_voting":"0","show_signature":"1","url_cms":"https:\/\/www.craftsurvivalgames.com\/forum\/m\/12571633\/viewthread\/11277045-rate-person-above-u-their-personalities"},"posts":[{"post_id":"62483274","post_time":"1393343240","post_content":"likes doomed monkeys, and dwarves vs zombies","post_content_html":"likes doomed monkeys, and dwarves vs zombies","post_content_clean":"likes doomed monkeys, and dwarves vs zombies","post_user_id":"6539818","show_signature":"1","last_edit_time":"0","post_votes":"0","post_unhidden":"0","post_admin_hidden":"0","post_locked":"0","last_edit_user":"0","votes":null,"post_username":"{Doomed to Destruction}","avatar":"https:\/\/assets-cloud.enjin.com\/users\/6539818\/avatar\/medium.1400116899.png","user_online":false,"user_votes":"145","user_posts":"701","url":"https:\/\/www.enjin.com\/ajax.php?s=redirect&cmd=forum-post&mobile=1&preset=12571633&id=62483274"},{"post_id":"62486272","post_time":"1393346196","post_content":"Great at pvp and a great person :D","post_content_html":"Great at pvp and a great person <object class=\"emojione\" data=\"https:\/\/resources.enjin.com\/1489581540\/themes\/core\/images\/emojione\/svg\/1f600.svg?0\" type=\"image\/svg+xml\" standby=\":d\">:d<\/object>","post_content_clean":"Great at pvp and a great person :D","post_user_id":"5748484","show_signature":"1","last_edit_time":"0","post_votes":"0","post_unhidden":"0","post_admin_hidden":"0","post_locked":"0","last_edit_user":"0","votes":null,"post_username":"mary","avatar":"https:\/\/assets-cloud.enjin.com\/users\/5748484\/avatar\/medium.1445642587.jpeg","user_online":false,"user_votes":"259","user_posts":"623","url":"https:\/\/www.enjin.com\/ajax.php?s=redirect&cmd=forum-post&mobile=1&preset=12571633&id=62486272"},{"post_id":"62487579","post_time":"1393347417","post_content":"[b]Mary. An awesome personality and a Great friend. :P\r\n\r\n~Ridder[\/b]","post_content_html":"<b>Mary. An awesome personality and a Great friend. <object class=\"emojione\" data=\"https:\/\/resources.enjin.com\/1489581540\/themes\/core\/images\/emojione\/svg\/1f61b.svg?0\" type=\"image\/svg+xml\" standby=\":p\">:p<\/object><br \/> <br \/> ~Ridder<\/b>","post_content_clean":"Mary. An awesome personality and a Great friend. :P\r \r ~Ridder","post_user_id":"6267613","show_signature":"1","last_edit_time":"0","post_votes":"0","post_unhidden":"0","post_admin_hidden":"0","post_locked":"0","last_edit_user":"0","votes":null,"post_username":"Ridder","avatar":"https:\/\/resources.enjin.com\/1465083537\/profile\/images\/avatar\/medium.png","user_online":false,"user_votes":"82","user_posts":"172","url":"https:\/\/www.enjin.com\/ajax.php?s=redirect&cmd=forum-post&mobile=1&preset=12571633&id=62487579"},{"post_id":"62487858","post_time":"1393347662","post_content":"Ridder: RidDERP, kind, creepy :D &lt;3","post_content_html":"Ridder: RidDERP, kind, creepy <object class=\"emojione\" data=\"https:\/\/resources.enjin.com\/1489581540\/themes\/core\/images\/emojione\/svg\/1f600.svg?0\" type=\"image\/svg+xml\" standby=\":d\">:d<\/object> &lt;3","post_content_clean":"Ridder: RidDERP, kind, creepy :D <3","post_user_id":"5264359","show_signature":"1","last_edit_time":"0","post_votes":"0","post_unhidden":"0","post_admin_hidden":"0","post_locked":"0","last_edit_user":"0","votes":null,"post_username":"bertus112","avatar":"https:\/\/assets-cloud.enjin.com\/users\/5264359\/avatar\/medium.1400094074.png","user_online":false,"user_votes":"894","user_posts":"1926","url":"https:\/\/www.enjin.com\/ajax.php?s=redirect&cmd=forum-post&mobile=1&preset=12571633&id=62487858"},{"post_id":"62487912","post_time":"1393347717","post_content":"Bertus: Great friend, loves to interact with players, awesome guy","post_content_html":"Bertus: Great friend, loves to interact with players, awesome guy","post_content_clean":"Bertus: Great friend, loves to interact with players, awesome guy","post_user_id":"6539818","show_signature":"1","last_edit_time":"0","post_votes":"0","post_unhidden":"0","post_admin_hidden":"0","post_locked":"0","last_edit_user":"0","votes":null,"post_username":"{Doomed to Destruction}","avatar":"https:\/\/assets-cloud.enjin.com\/users\/6539818\/avatar\/medium.1400116899.png","user_online":false,"user_votes":"145","user_posts":"701","url":"https:\/\/www.enjin.com\/ajax.php?s=redirect&cmd=forum-post&mobile=1&preset=12571633&id=62487912"},{"post_id":"62502491","post_time":"1393360021","post_content":"Doomed: Kind, sometimes too kind, obviously doesn't care about people's pasts *cough* still friends with camilla *cough* You always defend your friends.\r\n\r\n:)","post_content_html":"Doomed: Kind, sometimes too kind, obviously doesn't care about people's pasts *cough* still friends with camilla *cough* You always defend your friends.<br \/> <br \/> <object class=\"emojione\" data=\"https:\/\/resources.enjin.com\/1489581540\/themes\/core\/images\/emojione\/svg\/1f642.svg?0\" type=\"image\/svg+xml\" standby=\":)\">:)<\/object>","post_content_clean":"Doomed: Kind, sometimes too kind, obviously doesn't care about people's pasts *cough* still friends with camilla *cough* You always defend your friends. \r \r :)","post_user_id":"5375337","show_signature":"1","last_edit_time":"0","post_votes":"1","post_unhidden":"0","post_admin_hidden":"0","post_locked":"0","last_edit_user":"0","votes":null,"post_username":"Scarlet Witch","avatar":"https:\/\/assets-cloud.enjin.com\/users\/5375337\/avatar\/medium.1437162398.jpeg","user_online":false,"user_votes":"741","user_posts":"1506","url":"https:\/\/www.enjin.com\/ajax.php?s=redirect&cmd=forum-post&mobile=1&preset=12571633&id=62502491"},{"post_id":"62502626","post_time":"1393360115","post_content":"um um well you like [size=5][color=#dd2423]LOKI[\/color][\/size] and seem cool......","post_content_html":"um um well you like <span style=\"font-size:1.5em\">LOKI<\/span> and seem cool......","post_content_clean":"um um well you like LOKI and seem cool......","post_user_id":"7050341","show_signature":"1","last_edit_time":"0","post_votes":"0","post_unhidden":"0","post_admin_hidden":"0","post_locked":"0","last_edit_user":"0","votes":null,"post_username":"steeler7fan","avatar":"https:\/\/assets-cloud.enjin.com\/users\/7050341\/avatar\/medium.1400127443.png","user_online":false,"user_votes":"96","user_posts":"788","url":"https:\/\/www.enjin.com\/ajax.php?s=redirect&cmd=forum-post&mobile=1&preset=12571633&id=62502626"},{"post_id":"62502891","post_time":"1393360312","post_content":"Steeler: Great pvper, loves steelers :D great friend, known him a long time.\r\nCreeper: great mod, loves to help, watches me like a hawk :D lol","post_content_html":"Steeler: Great pvper, loves steelers <object class=\"emojione\" data=\"https:\/\/resources.enjin.com\/1489581540\/themes\/core\/images\/emojione\/svg\/1f600.svg?0\" type=\"image\/svg+xml\" standby=\":d\">:d<\/object> great friend, known him a long time.<br \/> <br \/> Creeper: great mod, loves to help, watches me like a hawk <object class=\"emojione\" data=\"https:\/\/resources.enjin.com\/1489581540\/themes\/core\/images\/emojione\/svg\/1f600.svg?0\" type=\"image\/svg+xml\" standby=\":d\">:d<\/object> lol","post_content_clean":"Steeler: Great pvper, loves steelers :D great friend, known him a long time.\r Creeper: great mod, loves to help, watches me like a hawk :D lol","post_user_id":"6539818","show_signature":"1","last_edit_time":"0","post_votes":"0","post_unhidden":"0","post_admin_hidden":"0","post_locked":"0","last_edit_user":"0","votes":null,"post_username":"{Doomed to Destruction}","avatar":"https:\/\/assets-cloud.enjin.com\/users\/6539818\/avatar\/medium.1400116899.png","user_online":false,"user_votes":"145","user_posts":"701","url":"https:\/\/www.enjin.com\/ajax.php?s=redirect&cmd=forum-post&mobile=1&preset=12571633&id=62502891"},{"post_id":"62511024","post_time":"1393365718","post_content":"[color=#2360dd]Doom: awesome, never met a person like this awesome, cool, pokemon master[\/color]","post_content_html":"Doom: awesome, never met a person like this awesome, cool, pokemon master","post_content_clean":"Doom: awesome, never met a person like this awesome, cool, pokemon master","post_user_id":"7661412","show_signature":"1","last_edit_time":"0","post_votes":"0","post_unhidden":"0","post_admin_hidden":"0","post_locked":"0","last_edit_user":"0","votes":null,"post_username":"\u2694 Danneh~MC\u2502SAO \u2694","avatar":"https:\/\/assets-cloud.enjin.com\/users\/7661412\/avatar\/medium.1410214521.jpeg","user_online":false,"user_votes":"395","user_posts":"1534","url":"https:\/\/www.enjin.com\/ajax.php?s=redirect&cmd=forum-post&mobile=1&preset=12571633&id=62511024"},{"post_id":"62511462","post_time":"1393366006","post_content":"[b][color=#181818]you're always complementing me about my youtube channel! I really think the server could use some complements when they feel down or just in general. You're very nice ingame and I think you're a great person![\/color][\/b]","post_content_html":"<b>you're always complementing me about my youtube channel! I really think the server could use some complements when they feel down or just in general. You're very nice ingame and I think you're a great person!<\/b>","post_content_clean":"you're always complementing me about my youtube channel! I really think the server could use some complements when they feel down or just in general. You're very nice ingame and I think you're a great person!","post_user_id":"5567911","show_signature":"1","last_edit_time":"0","post_votes":"1","post_unhidden":"0","post_admin_hidden":"0","post_locked":"0","last_edit_user":"0","votes":null,"post_username":"griffin0505","avatar":"https:\/\/assets-cloud.enjin.com\/users\/5567911\/avatar\/medium.1409206640.png","user_online":false,"user_votes":"198","user_posts":"1695","url":"https:\/\/www.enjin.com\/ajax.php?s=redirect&cmd=forum-post&mobile=1&preset=12571633&id=62511462"}],"total_items":"72","pages":8,"voted":false,"new_post_id":"62483274","thread_labels":[],"top_posters":{"result":[{"post_user_id":"7661412","posts":"14","username":"\u2694 Danneh~MC\u2502SAO \u2694","avatar":"https:\/\/assets-cloud.enjin.com\/users\/7661412\/avatar\/medium.1410214521.jpeg"},{"post_user_id":"6539818","posts":"7","username":"{Doomed to Destruction}","avatar":"https:\/\/assets-cloud.enjin.com\/users\/6539818\/avatar\/medium.1400116899.png"},{"post_user_id":"7993835","posts":"5","username":"Turkey","avatar":"https:\/\/assets-cloud.enjin.com\/users\/7993835\/avatar\/medium.1400126453.png"},{"post_user_id":"8329402","posts":"4","username":"SockMonkeys4Life","avatar":"https:\/\/assets-cloud.enjin.com\/users\/8329402\/avatar\/medium.1400136774.png"},{"post_user_id":"6556307","posts":"4","username":"~Harriskin\/Harrison~","avatar":"https:\/\/assets-cloud.enjin.com\/users\/6556307\/avatar\/medium.1415022635.png"},{"post_user_id":"7361443","posts":"4","username":"\u2704{snugglezxD:3emo} mojo215","avatar":"https:\/\/assets-cloud.enjin.com\/users\/7361443\/avatar\/medium.1455751269.jpeg"},{"post_user_id":"7336507","posts":"3","username":"Kill","avatar":"https:\/\/assets-cloud.enjin.com\/users\/7336507\/avatar\/medium.1410654289.jpeg"},{"post_user_id":"7050341","posts":"2","username":"steeler7fan","avatar":"https:\/\/assets-cloud.enjin.com\/users\/7050341\/avatar\/medium.1400127443.png"},{"post_user_id":"8656906","posts":"2","username":"Hex4G","avatar":"https:\/\/assets-cloud.enjin.com\/users\/8656906\/avatar\/medium.1407241778.png"},{"post_user_id":"5748484","posts":"2","username":"mary","avatar":"https:\/\/assets-cloud.enjin.com\/users\/5748484\/avatar\/medium.1445642587.jpeg"},{"post_user_id":"6806305","posts":"2","username":"User","avatar":"https:\/\/resources.enjin.com\/1465083537\/profile\/images\/avatar\/medium.png"},{"post_user_id":"7285109","posts":"2","username":"Detah","avatar":"https:\/\/assets-cloud.enjin.com\/users\/7285109\/avatar\/medium.1400130105.png"}],"num_users":"32"},"moderation_access":false,"poll_post":null,"post_access":true,"new_thread_access":true},"id":"1234567","jsonrpc":"2.0"}
{"result":{"thread":{"preset_id":"12571633","forum_id":"2419048","thread_id":"11277045","thread_subject":"Rate the Person Above U: their personalities","thread_replies":"71","thread_views":"15076","thread_type":"normal","thread_status":"locked","thread_user_id":"7661412","thread_username":"13823113181888642177","thread_avatar":"https:\/\/assets-cloud.enjin.com\/users\/7661412\/avatar\/medium.1410214521.jpeg","thread_lastpost_user_id":"8656906","thread_lastpost_username":"13900288411507505486","thread_lastpost_time":"1393422074","thread_moved_id":"0","thread_post_time":"1393297280","url":"https:\/\/www.enjin.com\/ajax.php?s=redirect&cmd=forum-thread&mobile=1&preset=12571633&id=11277045","post_count":"1","category_id":"1907006","forum_name":"General Discussion","forum_description":"Discussion about general topics.","disable_voting":"0","show_signature":"1","url_cms":"https:\/\/www.craftsurvivalgames.com\/forum\/m\/12571633\/viewthread\/11277045-rate-person-above-u-their-personalities"},"posts":[{"post_id":"62512227","post_time":"1393366514","post_content":"[size=6][color=#2360dd]U r the best youtube dude i ever met and I &lt;33 ur youtube channel![\/color][\/size]","post_content_html":"<span style=\"font-size:2.0em\">U r the best youtube dude i ever met and I &lt;33 ur youtube channel!<\/span>","post_content_clean":"U r the best youtube dude i ever met and I <33 ur youtube channel!","post_user_id":"7661412","show_signature":"1","last_edit_time":"0","post_votes":"0","post_unhidden":"0","post_admin_hidden":"0","post_locked":"0","last_edit_user":"0","votes":null,"post_username":"\u2694 Danneh~MC\u2502SAO \u2694","avatar":"https:\/\/assets-cloud.enjin.com\/users\/7661412\/avatar\/medium.1410214521.jpeg","user_online":false,"user_votes":"395","user_posts":"1534","url":"https:\/\/www.enjin.com\/ajax.php?s=redirect&cmd=forum-post&mobile=1&preset=12571633&id=62512227"},{"post_id":"62512595","post_time":"1393366743","post_content":"[b]Daniel. Very intresting person and overall a nice person. :p\r\n\r\n~Dylan[\/b]","post_content_html":"<b>Daniel. Very intresting person and overall a nice person. <object class=\"emojione\" data=\"https:\/\/resources.enjin.com\/1489581540\/themes\/core\/images\/emojione\/svg\/1f61b.svg?0\" type=\"image\/svg+xml\" standby=\":p\">:p<\/object><br \/> <br \/> ~Dylan<\/b>","post_content_clean":"Daniel. Very intresting person and overall a nice person. :p\r \r ~Dylan","post_user_id":"7336507","show_signature":"0","last_edit_time":"0","post_votes":"1","post_unhidden":"0","post_admin_hidden":"0","post_locked":"0","last_edit_user":"0","votes":null,"post_username":"Kill","avatar":"https:\/\/assets-cloud.enjin.com\/users\/7336507\/avatar\/medium.1410654289.jpeg","user_online":false,"user_votes":null,"user_posts":0,"url":"https:\/\/www.enjin.com\/ajax.php?s=redirect&cmd=forum-post&mobile=1&preset=12571633&id=62512595"},{"post_id":"62514618","post_time":"1393368125","post_content":"Dylan. Amazing guy, always has good words to say, and has great suggestions to help make things better!","post_content_html":"Dylan. Amazing guy, always has good words to say, and has great suggestions to help make things better!","post_content_clean":"Dylan. Amazing guy, always has good words to say, and has great suggestions to help make things better!","post_user_id":"6539818","show_signature":"1","last_edit_time":"0","post_votes":"0","post_unhidden":"0","post_admin_hidden":"0","post_locked":"0","last_edit_user":"0","votes":null,"post_username":"{Doomed to Destruction}","avatar":"https:\/\/assets-cloud.enjin.com\/users\/6539818\/avatar\/medium.1400116899.png","user_online":false,"user_votes":"145","user_posts":"701","url":"https:\/\/www.enjin.com\/ajax.php?s=redirect&cmd=forum-post&mobile=1&preset=12571633&id=62514618"},{"post_id":"62514821","post_time":"1393368285","post_content":"likes to doom people","post_content_html":"likes to doom people","post_content_clean":"likes to doom people","post_user_id":"7361443","show_signature":"1","last_edit_time":"0","post_votes":"0","post_unhidden":"0","post_admin_hidden":"0","post_locked":"0","last_edit_user":"0","votes":null,"post_username":"\u2704{snugglezxD:3emo} mojo215","avatar":"https:\/\/assets-cloud.enjin.com\/users\/7361443\/avatar\/medium.1455751269.jpeg","user_online":false,"user_votes":"0","user_posts":"2641","url":"https:\/\/www.enjin.com\/ajax.php?s=redirect&cmd=forum-post&mobile=1&preset=12571633&id=62514821"},{"post_id":"62514893","post_time":"1393368338","post_content":"[color=#2360dd]lol mojo.[\/color]","post_content_html":"lol mojo.","post_content_clean":"lol mojo.","post_user_id":"7661412","show_signature":"1","last_edit_time":"0","post_votes":"0","post_unhidden":"0","post_admin_hidden":"0","post_locked":"0","last_edit_user":"0","votes":null,"post_username":"\u2694 Danneh~MC\u2502SAO \u2694","avatar":"https:\/\/assets-cloud.enjin.com\/users\/7661412\/avatar\/medium.1410214521.jpeg","user_online":false,"user_votes":"395","user_posts":"1534","url":"https:\/\/www.enjin.com\/ajax.php?s=redirect&cmd=forum-post&mobile=1&preset=12571633&id=62514893"},{"post_id":"62515002","post_time":"1393368416","post_content":"nothing for me","post_content_html":"nothing for me","post_content_clean":"nothing for me","post_user_id":"7361443","show_signature":"1","last_edit_time":"0","post_votes":"0","post_unhidden":"0","post_admin_hidden":"0","post_locked":"0","last_edit_user":"0","votes":null,"post_username":"\u2704{snugglezxD:3emo} mojo215","avatar":"https:\/\/assets-cloud.enjin.com\/users\/7361443\/avatar\/medium.1455751269.jpeg","user_online":false,"user_votes":"0","user_posts":"2641","url":"https:\/\/www.enjin.com\/ajax.php?s=redirect&cmd=forum-post&mobile=1&preset=12571633&id=62515002"},{"post_id":"62515046","post_time":"1393368444","post_content":"Daniel: Amwesome guy, loves Pok\u00e9mon, always has a compliment ready, hardly ever has negative things to say. AMAZING BRO!","post_content_html":"Daniel: Amwesome guy, loves Pok\u00e9mon, always has a compliment ready, hardly ever has negative things to say. AMAZING BRO!","post_content_clean":"Daniel: Amwesome guy, loves Pok\u00e9mon, always has a compliment ready, hardly ever has negative things to say. AMAZING BRO!","post_user_id":"6539818","show_signature":"1","last_edit_time":"0","post_votes":"1","post_unhidden":"0","post_admin_hidden":"0","post_locked":"0","last_edit_user":"0","votes":null,"post_username":"{Doomed to Destruction}","avatar":"https:\/\/assets-cloud.enjin.com\/users\/6539818\/avatar\/medium.1400116899.png","user_online":false,"user_votes":"145","user_posts":"701","url":"https:\/\/www.enjin.com\/ajax.php?s=redirect&cmd=forum-post&mobile=1&preset=12571633&id=62515046"},{"post_id":"62515178","post_time":"1393368529","post_content":"nothing for me  :cry:  :cry:  :dizzy:  :o  :furious:  :dizzy:  :undecided:","post_content_html":"nothing for me  <object class=\"emojione\" data=\"https:\/\/resources.enjin.com\/1489581540\/themes\/core\/images\/emojione\/svg\/1f622.svg?0\" type=\"image\/svg+xml\" standby=\":cry:\">:cry:<\/object>  <object class=\"emojione\" data=\"https:\/\/resources.enjin.com\/1489581540\/themes\/core\/images\/emojione\/svg\/1f622.svg?0\" type=\"image\/svg+xml\" standby=\":cry:\">:cry:<\/object>  <object class=\"emojione\" data=\"https:\/\/resources.enjin.com\/1489581540\/themes\/core\/images\/emojione\/svg\/1f635.svg?0\" type=\"image\/svg+xml\" standby=\":dizzy:\">:dizzy:<\/object>  <object class=\"emojione\" data=\"https:\/\/resources.enjin.com\/1489581540\/themes\/core\/images\/emojione\/svg\/1f632.svg?0\" type=\"image\/svg+xml\" standby=\":o\">:o<\/object>  <object class=\"emojione\" data=\"https:\/\/resources.enjin.com\/1489581540\/themes\/core\/images\/emojione\/svg\/1f621.svg?0\" type=\"image\/svg+xml\" standby=\":furious:\">:furious:<\/object>  <object class=\"emojione\" data=\"https:\/\/resources.enjin.com\/1489581540\/themes\/core\/images\/emojione\/svg\/1f635.svg?0\" type=\"image\/svg+xml\" standby=\":dizzy:\">:dizzy:<\/object>  <object class=\"emojione\" data=\"https:\/\/resources.enjin.com\/1489581540\/themes\/core\/images\/emojione\/svg\/1f613.svg?0\" type=\"image\/svg+xml\" standby=\":undecided:\">:undecided:<\/object>","post_content_clean":"nothing for me  :cry:  :cry:  :dizzy:  :o  :furious:  :dizzy:  :undecided:","post_user_id":"7361443","show_signature":"1","last_edit_time":"0","post_votes":"0","post_unhidden":"0","post_admin_hidden":"0","post_locked":"0","last_edit_user":"0","votes":null,"post_username":"\u2704{snugglezxD:3emo} mojo215","avatar":"https:\/\/assets-cloud.enjin.com\/users\/7361443\/avatar\/medium.1455751269.jpeg","user_online":false,"user_votes":"0","user_posts":"2641","url":"https:\/\/www.enjin.com\/ajax.php?s=redirect&cmd=forum-post&mobile=1&preset=12571633&id=62515178"},{"post_id":"62515257","post_time":"1393368589","post_content":"Mojo: has swag, mojor awesomeness, great guy, is kind to everyone :D","post_content_html":"Mojo: has swag, mojor awesomeness, great guy, is kind to everyone <object class=\"emojione\" data=\"https:\/\/resources.enjin.com\/1489581540\/themes\/core\/images\/emojione\/svg\/1f600.svg?0\" type=\"image\/svg+xml\" standby=\":d\">:d<\/object>","post_content_clean":"Mojo: has swag, mojor awesomeness, great guy, is kind to everyone :D","post_user_id":"6539818","show_signature":"1","last_edit_time":"0","post_votes":"0","post_unhidden":"0","post_admin_hidden":"0","post_locked":"0","last_edit_user":"0","votes":null,"post_username":"{Doomed to Destruction}","avatar":"https:\/\/assets-cloud.enjin.com\/users\/6539818\/avatar\/medium.1400116899.png","user_online":false,"user_votes":"145","user_posts":"701","url":"https:\/\/www.enjin.com\/ajax.php?s=redirect&cmd=forum-post&mobile=1&preset=12571633&id=62515257"},{"post_id":"62519234","post_time":"1393371355","post_content":"Doom: Great pvper, nice, has swag, great friend","post_content_html":"Doom: Great pvper, nice, has swag, great friend","post_content_clean":"Doom: Great pvper, nice, has swag, great friend","post_user_id":"6556307","show_signature":"1","last_edit_time":"0","post_votes":"0","post_unhidden":"0","post_admin_hidden":"0","post_locked":"0","last_edit_user":"0","votes":null,"post_username":"~Harriskin\/Harrison~","avatar":"https:\/\/assets-cloud.enjin.com\/users\/6556307\/avatar\/medium.1415022635.png","user_online":false,"user_votes":"219","user_posts":"1402","url":"https:\/\/www.enjin.com\/ajax.php?s=redirect&cmd=forum-post&mobile=1&preset=12571633&id=62519234"}],"total_items":"72","pages":8,"voted":false,"new_post_id":"62512227","thread_labels":[],"top_posters":{"result":[{"post_user_id":"7661412","posts":"14","username":"\u2694 Danneh~MC\u2502SAO \u2694","avatar":"https:\/\/assets-cloud.enjin.com\/users\/7661412\/avatar\/medium.1410214521.jpeg"},{"post_user_id":"6539818","posts":"7","username":"{Doomed to Destruction}","avatar":"https:\/\/assets-cloud.enjin.com\/users\/6539818\/avatar\/medium.1400116899.png"},{"post_user_id":"7993835","posts":"5","username":"Turkey","avatar":"https:\/\/assets-cloud.enjin.com\/users\/7993835\/avatar\/medium.1400126453.png"},{"post_user_id":"6556307","posts":"4","username":"~Harriskin\/Harrison~","avatar":"https:\/\/assets-cloud.enjin.com\/users\/6556307\/avatar\/medium.1415022635.png"},{"post_user_id":"7361443","posts":"4","username":"\u2704{snugglezxD:3emo} mojo215","avatar":"https:\/\/assets-cloud.enjin.com\/users\/7361443\/avatar\/medium.1455751269.jpeg"},{"post_user_id":"8329402","posts":"4","username":"SockMonkeys4Life","avatar":"https:\/\/assets-cloud.enjin.com\/users\/8329402\/avatar\/medium.1400136774.png"},{"post_user_id":"7336507","posts":"3","username":"Kill","avatar":"https:\/\/assets-cloud.enjin.com\/users\/7336507\/avatar\/medium.1410654289.jpeg"},{"post_user_id":"6806305","posts":"2","username":"User","avatar":"https:\/\/resources.enjin.com\/1465083537\/profile\/images\/avatar\/medium.png"},{"post_user_id":"7285109","posts":"2","username":"Detah","avatar":"https:\/\/assets-cloud.enjin.com\/users\/7285109\/avatar\/medium.1400130105.png"},{"post_user_id":"6672203","posts":"2","username":"\u01a4\u0280ox\u0251","avatar":"https:\/\/assets-cloud.enjin.com\/users\/6672203\/avatar\/medium.1419832957.png"},{"post_user_id":"7050341","posts":"2","username":"steeler7fan","avatar":"https:\/\/assets-cloud.enjin.com\/users\/7050341\/avatar\/medium.1400127443.png"},{"post_user_id":"8656906","posts":"2","username":"Hex4G","avatar":"https:\/\/assets-cloud.enjin.com\/users\/8656906\/avatar\/medium.1407241778.png"}],"num_users":"32"},"moderation_access":false,"poll_post":null,"post_access":true,"new_thread_access":true},"id":"1234567","jsonrpc":"2.0"}
{"result":{"thread":{"preset_id":"12571633","forum_id":"2419048","thread_id":"11277045","thread_subject":"Rate the Person Above U: their personalities","thread_replies":"71","thread_views":"15076","thread_type":"normal","thread_status":"locked","thread_user_id":"7661412","thread_username":"13823113181888642177","thread_avatar":"https:\/\/assets-cloud.enjin.com\/users\/7661412\/avatar\/medium.1400136774.png","thread_lastpost_user_id":"8656906","thread_lastpost_username":"13900288411507505486","thread_lastpost_time":"1393422074","thread_moved_id":"0","thread_post_time":"1393297280","url":"https:\/\/www.enjin.com\/ajax.php?s=redirect&cmd=forum-thread&mobile=1&preset=12571633&id=11277045","post_count":"1","category_id":"1907006","forum_name":"General Discussion","forum_description":"Discussion about general topics.","disable_voting":"0","show_signature":"1","url_cms":"https:\/\/www.craftsurvivalgames.com\/forum\/m\/12571633\/viewthread\/11277045-rate-person-above-u-their-personalities"},"posts":[{"post_id":"62519309","post_time":"1393371398","post_content":"Excuse me shadow?!","post_content_html":"Excuse me shadow?!","post_content_clean":"Excuse me shadow?!","post_user_id":"8329402","show_signature":"1","last_edit_time":"0","post_votes":"0","post_unhidden":"0","post_admin_hidden":"0","post_locked":"0","last_edit_user":"0","votes":null,"post_username":"SockMonkeys4Life","avatar":"https:\/\/assets-cloud.enjin.com\/users\/8329402\/avatar\/medium.1400136774.png","user_online":false,"user_votes":"72","user_posts":"446","url":"https:\/\/www.enjin.com\/ajax.php?s=redirect&cmd=forum-post&mobile=1&preset=12571633&id=62519309"},{"post_id":"62519632","post_time":"1393371625","post_content":"Dude what the heck you have to say something about the person above you. Next time know t","post_content_html":"Dude what the heck you have to say something about the person above you. Next time know t","post_content_clean":"Dude what the heck you have to say something about the person above you. Next time know t","post_user_id":"6556307","show_signature":"1","last_edit_time":"0","post_votes":"0","post_unhidden":"0","post_admin_hidden":"0","post_locked":"0","last_edit_user":"0","votes":null,"post_username":"~Harriskin\/Harrison~","avatar":"https:\/\/assets-cloud.enjin.com\/users\/6556307\/avatar\/medium.1415022635.png","user_online":false,"user_votes":"219","user_posts":"1402","url":"https:\/\/www.enjin.com\/ajax.php?s=redirect&cmd=forum-post&mobile=1&preset=12571633&id=62519632"},{"post_id":"62519729","post_time":"1393371700","post_content":"Awesome because he's a slime !","post_content_html":"Awesome because he's a slime !","post_content_clean":"Awesome because he's a slime !","post_user_id":"6934081","show_signature":"1","last_edit_time":"0","post_votes":"1","post_unhidden":"0","post_admin_hidden":"0","post_locked":"0","last_edit_user":"0","votes":null,"post_username":"Marsh Or Zach","avatar":"https:\/\/assets-cloud.enjin.com\/users\/6934081\/avatar\/medium.1400125658.png","user_online":false,"user_votes":"171","user_posts":"861","url":"https:\/\/www.enjin.com\/ajax.php?s=redirect&cmd=forum-post&mobile=1&preset=12571633&id=62519729"},{"post_id":"62519840","post_time":"1393371765","post_content":"Awesome because we slime bros!","post_content_html":"Awesome because we slime bros!","post_content_clean":"Awesome because we slime bros!","post_user_id":"6556307","show_signature":"1","last_edit_time":"0","post_votes":"0","post_unhidden":"0","post_admin_hidden":"0","post_locked":"0","last_edit_user":"0","votes":null,"post_username":"~Harriskin\/Harrison~","avatar":"https:\/\/assets-cloud.enjin.com\/users\/6556307\/avatar\/medium.1415022635.png","user_online":false,"user_votes":"219","user_posts":"1402","url":"https:\/\/www.enjin.com\/ajax.php?s=redirect&cmd=forum-post&mobile=1&preset=12571633&id=62519840"},{"post_id":"62519953","post_time":"1393371843","post_content":"Harris : Awesome sweg bray who has helped me and great friends ;D","post_content_html":"Harris : Awesome sweg bray who has helped me and great friends ;D","post_content_clean":"Harris : Awesome sweg bray who has helped me and great friends ;D","post_user_id":"6759027","show_signature":"1","last_edit_time":"0","post_votes":"0","post_unhidden":"0","post_admin_hidden":"0","post_locked":"0","last_edit_user":"0","votes":null,"post_username":"xBlaze","avatar":"https:\/\/assets-cloud.enjin.com\/users\/6759027\/avatar\/medium.1496333371.jpeg","user_online":false,"user_votes":"3","user_posts":"606","url":"https:\/\/www.enjin.com\/ajax.php?s=redirect&cmd=forum-post&mobile=1&preset=12571633&id=62519953"},{"post_id":"62522742","post_time":"1393373801","post_content":"lol","post_content_html":"lol","post_content_clean":"lol","post_user_id":"7661412","show_signature":"1","last_edit_time":"0","post_votes":"0","post_unhidden":"0","post_admin_hidden":"0","post_locked":"0","last_edit_user":"0","votes":null,"post_username":"\u2694 Danneh~MC\u2502SAO \u2694","avatar":"https:\/\/assets-cloud.enjin.com\/users\/7661412\/avatar\/medium.1410214521.jpeg","user_online":false,"user_votes":"395","user_posts":"1534","url":"https:\/\/www.enjin.com\/ajax.php?s=redirect&cmd=forum-post&mobile=1&preset=12571633&id=62522742"},{"post_id":"62529147","post_time":"1393378881","post_content":"One of my best buds on CSG, great guy and amazing helper :D","post_content_html":"One of my best buds on CSG, great guy and amazing helper <object class=\"emojione\" data=\"https:\/\/resources.enjin.com\/1489581540\/themes\/core\/images\/emojione\/svg\/1f600.svg?0\" type=\"image\/svg+xml\" standby=\":d\">:d<\/object>","post_content_clean":"One of my best buds on CSG, great guy and amazing helper :D","post_user_id":"7993835","show_signature":"1","last_edit_time":"0","post_votes":"0","post_unhidden":"0","post_admin_hidden":"0","post_locked":"0","last_edit_user":"0","votes":null,"post_username":"Turkey","avatar":"https:\/\/assets-cloud.enjin.com\/users\/7993835\/avatar\/medium.1400126453.png","user_online":false,"user_votes":"152","user_posts":"522","url":"https:\/\/www.enjin.com\/ajax.php?s=redirect&cmd=forum-post&mobile=1&preset=12571633&id=62529147"},{"post_id":"62529595","post_time":"1393379222","post_content":"he is a turkey spider","post_content_html":"he is a turkey spider","post_content_clean":"he is a turkey spider","post_user_id":"7361443","show_signature":"1","last_edit_time":"0","post_votes":"0","post_unhidden":"0","post_admin_hidden":"0","post_locked":"0","last_edit_user":"0","votes":null,"post_username":"\u2704{snugglezxD:3emo} mojo215","avatar":"https:\/\/assets-cloud.enjin.com\/users\/7361443\/avatar\/medium.1455751269.jpeg","user_online":false,"user_votes":"0","user_posts":"2641","url":"https:\/\/www.enjin.com\/ajax.php?s=redirect&cmd=forum-post&mobile=1&preset=12571633&id=62529595"},{"post_id":"62530458","post_time":"1393379929","post_content":"idk them &lt;3","post_content_html":"idk them &lt;3","post_content_clean":"idk them <3","post_user_id":"7386394","show_signature":"1","last_edit_time":"0","post_votes":"0","post_unhidden":"0","post_admin_hidden":"0","post_locked":"0","last_edit_user":"0","votes":null,"post_username":"Daxti","avatar":"https:\/\/assets-cloud.enjin.com\/users\/7386394\/avatar\/medium.1554710178.jpeg","user_online":false,"user_votes":"39","user_posts":"211","url":"https:\/\/www.enjin.com\/ajax.php?s=redirect&cmd=forum-post&mobile=1&preset=12571633&id=62530458"},{"post_id":"62530654","post_time":"1393380109","post_content":"My clan leader :3 and a cool guy","post_content_html":"My clan leader :3 and a cool guy","post_content_clean":"My clan leader :3 and a cool guy","post_user_id":"7993835","show_signature":"1","last_edit_time":"0","post_votes":"0","post_unhidden":"0","post_admin_hidden":"0","post_locked":"0","last_edit_user":"0","votes":null,"post_username":"Turkey","avatar":"https:\/\/assets-cloud.enjin.com\/users\/7993835\/avatar\/medium.1400126453.png","user_online":false,"user_votes":"152","user_posts":"522","url":"https:\/\/www.enjin.com\/ajax.php?s=redirect&cmd=forum-post&mobile=1&preset=12571633&id=62530654"}],"total_items":"72","pages":8,"voted":false,"new_post_id":"62519309","thread_labels":[],"top_posters":{"result":[{"post_user_id":"7661412","posts":"14","username":"\u2694 Danneh~MC\u2502SAO \u2694","avatar":"https:\/\/assets-cloud.enjin.com\/users\/7661412\/avatar\/medium.1410214521.jpeg"},{"post_user_id":"6539818","posts":"7","username":"{Doomed to Destruction}","avatar":"https:\/\/assets-cloud.enjin.com\/users\/6539818\/avatar\/medium.1400116899.png"},{"post_user_id":"7993835","posts":"5","username":"Turkey","avatar":"https:\/\/assets-cloud.enjin.com\/users\/7993835\/avatar\/medium.1400126453.png"},{"post_user_id":"6556307","posts":"4","username":"~Harriskin\/Harrison~","avatar":"https:\/\/assets-cloud.enjin.com\/users\/6556307\/avatar\/medium.1415022635.png"},{"post_user_id":"7361443","posts":"4","username":"\u2704{snugglezxD:3emo} mojo215","avatar":"https:\/\/assets-cloud.enjin.com\/users\/7361443\/avatar\/medium.1455751269.jpeg"},{"post_user_id":"8329402","posts":"4","username":"SockMonkeys4Life","avatar":"https:\/\/assets-cloud.enjin.com\/users\/8329402\/avatar\/medium.1400136774.png"},{"post_user_id":"7336507","posts":"3","username":"Kill","avatar":"https:\/\/assets-cloud.enjin.com\/users\/7336507\/avatar\/medium.1410654289.jpeg"},{"post_user_id":"6806305","posts":"2","username":"User","avatar":"https:\/\/resources.enjin.com\/1465083537\/profile\/images\/avatar\/medium.png"},{"post_user_id":"7285109","posts":"2","username":"Detah","avatar":"https:\/\/assets-cloud.enjin.com\/users\/7285109\/avatar\/medium.1400130105.png"},{"post_user_id":"6672203","posts":"2","username":"\u01a4\u0280ox\u0251","avatar":"https:\/\/assets-cloud.enjin.com\/users\/6672203\/avatar\/medium.1419832957.png"},{"post_user_id":"7050341","posts":"2","username":"steeler7fan","avatar":"https:\/\/assets-cloud.enjin.com\/users\/7050341\/avatar\/medium.1400127443.png"},{"post_user_id":"8656906","posts":"2","username":"Hex4G","avatar":"https:\/\/assets-cloud.enjin.com\/users\/8656906\/avatar\/medium.1407241778.png"}],"num_users":"32"},"moderation_access":false,"poll_post":null,"post_access":true,"new_thread_access":true},"id":"1234567","jsonrpc":"2.0"}
{"result":{"thread":{"preset_id":"12571633","forum_id":"2419048","thread_id":"11277045","thread_subject":"Rate the Person Above U: their personalities","thread_replies":"71","thread_views":"15076","thread_type":"normal","thread_status":"locked","thread_user_id":"7661412","thread_username":"13823113181888642177","thread_avatar":"https:\/\/assets-cloud.enjin.com\/users\/7661412\/avatar\/medium.1406468426.jpeg","thread_lastpost_user_id":"8656906","thread_lastpost_username":"13900288411507505486","thread_lastpost_time":"1393422074","thread_moved_id":"0","thread_post_time":"1393297280","url":"https:\/\/www.enjin.com\/ajax.php?s=redirect&cmd=forum-thread&mobile=1&preset=12571633&id=11277045","post_count":"1","category_id":"1907006","forum_name":"General Discussion","forum_description":"Discussion about general topics.","disable_voting":"0","show_signature":"1","url_cms":"https:\/\/www.craftsurvivalgames.com\/forum\/m\/12571633\/viewthread\/11277045-rate-person-above-u-their-personalities"},"posts":[{"post_id":"62531027","post_time":"1393380388","post_content":"Has A Moustache. Fine In My Book.","post_content_html":"Has A Moustache. Fine In My Book.","post_content_clean":"Has A Moustache. Fine In My Book.","post_user_id":"5496936","show_signature":"1","last_edit_time":"0","post_votes":"0","post_unhidden":"0","post_admin_hidden":"0","post_locked":"0","last_edit_user":"0","votes":null,"post_username":"Dwarfs_Digging","avatar":"https:\/\/assets-cloud.enjin.com\/users\/5496936\/avatar\/medium.1406468426.jpeg","user_online":false,"user_votes":"158","user_posts":"1398","url":"https:\/\/www.enjin.com\/ajax.php?s=redirect&cmd=forum-post&mobile=1&preset=12571633&id=62531027"},{"post_id":"62531276","post_time":"1393380588","post_content":"[color=#7a7a7a]Dwarfs: Loves bunnies :P, cool, and an overall really nice person to have around. :)[\/color]","post_content_html":"Dwarfs: Loves bunnies <object class=\"emojione\" data=\"https:\/\/resources.enjin.com\/1489581540\/themes\/core\/images\/emojione\/svg\/1f61b.svg?0\" type=\"image\/svg+xml\" standby=\":p\">:p<\/object>, cool, and an overall really nice person to have around. <object class=\"emojione\" data=\"https:\/\/resources.enjin.com\/1489581540\/themes\/core\/images\/emojione\/svg\/1f642.svg?0\" type=\"image\/svg+xml\" standby=\":)\">:)<\/object>","post_content_clean":"Dwarfs: Loves bunnies :P, cool, and an overall really nice person to have around. :)","post_user_id":"4185955","show_signature":"1","last_edit_time":"0","post_votes":"0","post_unhidden":"0","post_admin_hidden":"0","post_locked":"0","last_edit_user":"0","votes":null,"post_username":"Chronicler","avatar":"https:\/\/assets-cloud.enjin.com\/users\/4185955\/avatar\/medium.1565809392.png","user_online":false,"user_votes":"779","user_posts":"2045","url":"https:\/\/www.enjin.com\/ajax.php?s=redirect&cmd=forum-post&mobile=1&preset=12571633&id=62531276"},{"post_id":"62531488","post_time":"1393380767","post_content":"i212: A very kind, helpful, mature, and respectful person.  He's honestly changed the server, and everyone on it in so many ways. I do not know where we would be without him. :)","post_content_html":"i212: A very kind, helpful, mature, and respectful person.  He's honestly changed the server, and everyone on it in so many ways. I do not know where we would be without him. <object class=\"emojione\" data=\"https:\/\/resources.enjin.com\/1489581540\/themes\/core\/images\/emojione\/svg\/1f642.svg?0\" type=\"image\/svg+xml\" standby=\":)\">:)<\/object>","post_content_clean":"i212: A very kind, helpful, mature, and respectful person.  He's honestly changed the server, and everyone on it in so many ways. I do not know where we would be without him. :)","post_user_id":"7285109","show_signature":"1","last_edit_time":"0","post_votes":"2","post_unhidden":"0","post_admin_hidden":"0","post_locked":"0","last_edit_user":"0","votes":null,"post_username":"Detah","avatar":"https:\/\/assets-cloud.enjin.com\/users\/7285109\/avatar\/medium.1400130105.png","user_online":false,"user_votes":"2268","user_posts":"5250","url":"https:\/\/www.enjin.com\/ajax.php?s=redirect&cmd=forum-post&mobile=1&preset=12571633&id=62531488"},{"post_id":"62531830","post_time":"1393381053","post_content":"IKR Death has a deep voice xD. I really thought he was 15-16 years old. Vjjking: I heard you are a really cool dude, glad that you got unbanned, and overall seem nice.","post_content_html":"IKR Death has a deep voice xD. I really thought he was 15-16 years old. Vjjking: I heard you are a really cool dude, glad that you got unbanned, and overall seem nice.","post_content_clean":"IKR Death has a deep voice xD. I really thought he was 15-16 years old. Vjjking: I heard you are a really cool dude, glad that you got unbanned, and overall seem nice.","post_user_id":"7002527","show_signature":"1","last_edit_time":"0","post_votes":"0","post_unhidden":"0","post_admin_hidden":"0","post_locked":"0","last_edit_user":"0","votes":null,"post_username":"bjbuisker","avatar":"https:\/\/assets-cloud.enjin.com\/users\/7002527\/avatar\/medium.1400120720.png","user_online":false,"user_votes":"41","user_posts":"261","url":"https:\/\/www.enjin.com\/ajax.php?s=redirect&cmd=forum-post&mobile=1&preset=12571633&id=62531830"},{"post_id":"62531875","post_time":"1393381096","post_content":"[color=#6e23dd]Rages at everything... hates life... Lol jk \/\/ Created Royal Army :3[\/color]","post_content_html":"Rages at everything... hates life... Lol jk \/\/ Created Royal Army :3","post_content_clean":"Rages at everything... hates life... Lol jk \/\/ Created Royal Army :3","post_user_id":"6622119","show_signature":"1","last_edit_time":"0","post_votes":"0","post_unhidden":"0","post_admin_hidden":"0","post_locked":"0","last_edit_user":"0","votes":null,"post_username":"Tylxr","avatar":"https:\/\/assets-cloud.enjin.com\/users\/6622119\/avatar\/medium.1486252566.png","user_online":false,"user_votes":"2","user_posts":"712","url":"https:\/\/www.enjin.com\/ajax.php?s=redirect&cmd=forum-post&mobile=1&preset=12571633&id=62531875"},{"post_id":"62531889","post_time":"1393381107","post_content":"[color=#2360dd]bjb is an OP pvper. dont mess around with him *hint hint[\/color]","post_content_html":"bjb is an OP pvper. dont mess around with him *hint hint","post_content_clean":"bjb is an OP pvper. dont mess around with him *hint hint","post_user_id":"7661412","show_signature":"1","last_edit_time":"0","post_votes":"0","post_unhidden":"0","post_admin_hidden":"0","post_locked":"0","last_edit_user":"0","votes":null,"post_username":"\u2694 Danneh~MC\u2502SAO \u2694","avatar":"https:\/\/assets-cloud.enjin.com\/users\/7661412\/avatar\/medium.1410214521.jpeg","user_online":false,"user_votes":"395","user_posts":"1534","url":"https:\/\/www.enjin.com\/ajax.php?s=redirect&cmd=forum-post&mobile=1&preset=12571633&id=62531889"},{"post_id":"62532217","post_time":"1393381391","post_content":"Has a great skin! :D","post_content_html":"Has a great skin! <object class=\"emojione\" data=\"https:\/\/resources.enjin.com\/1489581540\/themes\/core\/images\/emojione\/svg\/1f600.svg?0\" type=\"image\/svg+xml\" standby=\":d\">:d<\/object>","post_content_clean":"Has a great skin! :D","post_user_id":"8329402","show_signature":"1","last_edit_time":"0","post_votes":"0","post_unhidden":"0","post_admin_hidden":"0","post_locked":"0","last_edit_user":"0","votes":null,"post_username":"SockMonkeys4Life","avatar":"https:\/\/assets-cloud.enjin.com\/users\/8329402\/avatar\/medium.1400136774.png","user_online":false,"user_votes":"72","user_posts":"446","url":"https:\/\/www.enjin.com\/ajax.php?s=redirect&cmd=forum-post&mobile=1&preset=12571633&id=62532217"},{"post_id":"62532670","post_time":"1393381769","post_content":"[color=#2360dd]thank u very much![\/color]","post_content_html":"thank u very much!","post_content_clean":"thank u very much!","post_user_id":"7661412","show_signature":"1","last_edit_time":"0","post_votes":"0","post_unhidden":"0","post_admin_hidden":"0","post_locked":"0","last_edit_user":"0","votes":null,"post_username":"\u2694 Danneh~MC\u2502SAO \u2694","avatar":"https:\/\/assets-cloud.enjin.com\/users\/7661412\/avatar\/medium.1410214521.jpeg","user_online":false,"user_votes":"395","user_posts":"1534","url":"https:\/\/www.enjin.com\/ajax.php?s=redirect&cmd=forum-post&mobile=1&preset=12571633&id=62532670"},{"post_id":"62532975","post_time":"1393382027","post_content":"No prob!","post_content_html":"No prob!","post_content_clean":"No prob!","post_user_id":"8329402","show_signature":"1","last_edit_time":"0","post_votes":"0","post_unhidden":"0","post_admin_hidden":"0","post_locked":"0","last_edit_user":"0","votes":null,"post_username":"SockMonkeys4Life","avatar":"https:\/\/assets-cloud.enjin.com\/users\/8329402\/avatar\/medium.1400136774.png","user_online":false,"user_votes":"72","user_posts":"446","url":"https:\/\/www.enjin.com\/ajax.php?s=redirect&cmd=forum-post&mobile=1&preset=12571633&id=62532975"},{"post_id":"62534360","post_time":"1393383250","post_content":"[color=#2360dd]:D[\/color]","post_content_html":"<object class=\"emojione\" data=\"https:\/\/resources.enjin.com\/1489581540\/themes\/core\/images\/emojione\/svg\/1f600.svg?0\" type=\"image\/svg+xml\" standby=\":d\">:d<\/object>","post_content_clean":":D","post_user_id":"7661412","show_signature":"1","last_edit_time":"0","post_votes":"0","post_unhidden":"0","post_admin_hidden":"0","post_locked":"0","last_edit_user":"0","votes":null,"post_username":"\u2694 Danneh~MC\u2502SAO \u2694","avatar":"https:\/\/assets-cloud.enjin.com\/users\/7661412\/avatar\/medium.1410214521.jpeg","user_online":false,"user_votes":"395","user_posts":"1534","url":"https:\/\/www.enjin.com\/ajax.php?s=redirect&cmd=forum-post&mobile=1&preset=12571633&id=62534360"}],"total_items":"72","pages":8,"voted":false,"new_post_id":"62531027","thread_labels":[],"top_posters":{"result":[{"post_user_id":"7661412","posts":"14","username":"\u2694 Danneh~MC\u2502SAO \u2694","avatar":"https:\/\/assets-cloud.enjin.com\/users\/7661412\/avatar\/medium.1410214521.jpeg"},{"post_user_id":"6539818","posts":"7","username":"{Doomed to Destruction}","avatar":"https:\/\/assets-cloud.enjin.com\/users\/6539818\/avatar\/medium.1400116899.png"},{"post_user_id":"7993835","posts":"5","username":"Turkey","avatar":"https:\/\/assets-cloud.enjin.com\/users\/7993835\/avatar\/medium.1400126453.png"},{"post_user_id":"6556307","posts":"4","username":"~Harriskin\/Harrison~","avatar":"https:\/\/assets-cloud.enjin.com\/users\/6556307\/avatar\/medium.1415022635.png"},{"post_user_id":"7361443","posts":"4","username":"\u2704{snugglezxD:3emo} mojo215","avatar":"https:\/\/assets-cloud.enjin.com\/users\/7361443\/avatar\/medium.1455751269.jpeg"},{"post_user_id":"8329402","posts":"4","username":"SockMonkeys4Life","avatar":"https:\/\/assets-cloud.enjin.com\/users\/8329402\/avatar\/medium.1400136774.png"},{"post_user_id":"7336507","posts":"3","username":"Kill","avatar":"https:\/\/assets-cloud.enjin.com\/users\/7336507\/avatar\/medium.1410654289.jpeg"},{"post_user_id":"6806305","posts":"2","username":"User","avatar":"https:\/\/resources.enjin.com\/1465083537\/profile\/images\/avatar\/medium.png"},{"post_user_id":"7285109","posts":"2","username":"Detah","avatar":"https:\/\/assets-cloud.enjin.com\/users\/7285109\/avatar\/medium.1400130105.png"},{"post_user_id":"6672203","posts":"2","username":"\u01a4\u0280ox\u0251","avatar":"https:\/\/assets-cloud.enjin.com\/users\/6672203\/avatar\/medium.1419832957.png"},{"post_user_id":"7050341","posts":"2","username":"steeler7fan","avatar":"https:\/\/assets-cloud.enjin.com\/users\/7050341\/avatar\/medium.1400127443.png"},{"post_user_id":"8656906","posts":"2","username":"Hex4G","avatar":"https:\/\/assets-cloud.enjin.com\/users\/8656906\/avatar\/medium.1407241778.png"}],"num_users":"32"},"moderation_access":false,"poll_post":null,"post_access":true,"new_thread_access":true},"id":"1234567","jsonrpc":"2.0"}
{"result":{"thread":{"preset_id":"12571633","forum_id":"2419048","thread_id":"11277045","thread_subject":"Rate the Person Above U: their personalities","thread_replies":"71","thread_views":"15076","thread_type":"normal","thread_status":"locked","thread_user_id":"7661412","thread_username":"13823113181888642177","thread_avatar":"https:\/\/assets-cloud.enjin.com\/users\/7661412\/avatar\/medium.1410654289.jpeg","thread_lastpost_user_id":"8656906","thread_lastpost_username":"13900288411507505486","thread_lastpost_time":"1393422074","thread_moved_id":"0","thread_post_time":"1393297280","url":"https:\/\/www.enjin.com\/ajax.php?s=redirect&cmd=forum-thread&mobile=1&preset=12571633&id=11277045","post_count":"1","category_id":"1907006","forum_name":"General Discussion","forum_description":"Discussion about general topics.","disable_voting":"0","show_signature":"0","url_cms":"https:\/\/www.craftsurvivalgames.com\/forum\/m\/12571633\/viewthread\/11277045-rate-person-above-u-their-personalities"},"posts":[{"post_id":"62535582","post_time":"1393384317","post_content":"[b]Swagilishious. Lol, I don't know how I came up with that. :lol:\r\n\r\n~Kill[\/b]","post_content_html":"<b>Swagilishious. Lol, I don't know how I came up with that. <object class=\"emojione\" data=\"https:\/\/resources.enjin.com\/1489581540\/themes\/core\/images\/emojione\/svg\/1f606.svg?0\" type=\"image\/svg+xml\" standby=\":lol:\">:lol:<\/object><br \/> <br \/> ~Kill<\/b>","post_content_clean":"Swagilishious. Lol, I don't know how I came up with that. :lol:\r \r ~Kill","post_user_id":"7336507","show_signature":"0","last_edit_time":"1393384333","post_votes":"2","post_unhidden":"0","post_admin_hidden":"0","post_locked":"0","last_edit_user":"0","votes":null,"post_username":"Kill","avatar":"https:\/\/assets-cloud.enjin.com\/users\/7336507\/avatar\/medium.1410654289.jpeg","user_online":false,"user_votes":null,"user_posts":0,"url":"https:\/\/www.enjin.com\/ajax.php?s=redirect&cmd=forum-post&mobile=1&preset=12571633&id=62535582"},{"post_id":"62560091","post_time":"1393422074","post_content":"Dylan, a friendly, respectful and mature friend! You've helped out a lot of people bro!","post_content_html":"Dylan, a friendly, respectful and mature friend! You've helped out a lot of people bro!","post_content_clean":"Dylan, a friendly, respectful and mature friend! You've helped out a lot of people bro!","post_user_id":"8656906","show_signature":"0","last_edit_time":"0","post_votes":"0","post_unhidden":"0","post_admin_hidden":"0","post_locked":"0","last_edit_user":"0","votes":null,"post_username":"Hex4G","avatar":"https:\/\/assets-cloud.enjin.com\/users\/8656906\/avatar\/medium.1407241778.png","user_online":false,"user_votes":"133","user_posts":"859","url":"https:\/\/www.enjin.com\/ajax.php?s=redirect&cmd=forum-post&mobile=1&preset=12571633&id=62560091"}],"total_items":"72","pages":8,"voted":false,"new_post_id":"62535582","thread_labels":[],"top_posters":{"result":[{"post_user_id":"7661412","posts":"14","username":"\u2694 Danneh~MC\u2502SAO \u2694","avatar":"https:\/\/assets-cloud.enjin.com\/users\/7661412\/avatar\/medium.1410214521.jpeg"},{"post_user_id":"6539818","posts":"7","username":"{Doomed to Destruction}","avatar":"https:\/\/assets-cloud.enjin.com\/users\/6539818\/avatar\/medium.1400116899.png"},{"post_user_id":"7993835","posts":"5","username":"Turkey","avatar":"https:\/\/assets-cloud.enjin.com\/users\/7993835\/avatar\/medium.1400126453.png"},{"post_user_id":"6556307","posts":"4","username":"~Harriskin\/Harrison~","avatar":"https:\/\/assets-cloud.enjin.com\/users\/6556307\/avatar\/medium.1415022635.png"},{"post_user_id":"7361443","posts":"4","username":"\u2704{snugglezxD:3emo} mojo215","avatar":"https:\/\/assets-cloud.enjin.com\/users\/7361443\/avatar\/medium.1455751269.jpeg"},{"post_user_id":"8329402","posts":"4","username":"SockMonkeys4Life","avatar":"https:\/\/assets-cloud.enjin.com\/users\/8329402\/avatar\/medium.1400136774.png"},{"post_user_id":"7336507","posts":"3","username":"Kill","avatar":"https:\/\/assets-cloud.enjin.com\/users\/7336507\/avatar\/medium.1410654289.jpeg"},{"post_user_id":"6806305","posts":"2","username":"User","avatar":"https:\/\/resources.enjin.com\/1465083537\/profile\/images\/avatar\/medium.png"},{"post_user_id":"7285109","posts":"2","username":"Detah","avatar":"https:\/\/assets-cloud.enjin.com\/users\/7285109\/avatar\/medium.1400130105.png"},{"post_user_id":"6672203","posts":"2","username":"\u01a4\u0280ox\u0251","avatar":"https:\/\/assets-cloud.enjin.com\/users\/6672203\/avatar\/medium.1419832957.png"},{"post_user_id":"7050341","posts":"2","username":"steeler7fan","avatar":"https:\/\/assets-cloud.enjin.com\/users\/7050341\/avatar\/medium.1400127443.png"},{"post_user_id":"8656906","posts":"2","username":"Hex4G","avatar":"https:\/\/assets-cloud.enjin.com\/users\/8656906\/avatar\/medium.1407241778.png"}],"num_users":"32"},"moderation_access":false,"poll_post":null,"post_access":true,"new_thread_access":true},"id":"1234567","jsonrpc":"2.0"}
