{"result":{"thread":{"preset_id":"12571633","forum_id":"2419080","thread_id":"11339665","thread_subject":"Paytonator123 enderglitches","thread_replies":"20","thread_views":"664","thread_type":"normal","thread_status":"locked","thread_user_id":"3553747","thread_username":"1350104119481540490","thread_avatar":"https:\/\/assets-cloud.enjin.com\/users\/3553747\/avatar\/medium.1439834345.jpeg","thread_lastpost_user_id":"4185955","thread_lastpost_username":"1354981717400560312","thread_lastpost_time":"1393693542","thread_moved_id":"0","thread_post_time":"1393649878","url":"https:\/\/www.enjin.com\/ajax.php?s=redirect&cmd=forum-thread&mobile=1&preset=12571633&id=11339665","post_count":"1","category_id":"1906989","forum_name":"Report a Player","forum_description":"Found a player breaking rules? Post them here with evidence!","disable_voting":"0","show_signature":"1","url_cms":"https:\/\/www.craftsurvivalgames.com\/forum\/m\/12571633\/viewthread\/11339665-paytonator123-enderglitches"},"posts":[{"post_id":"62794125","post_time":"1393649878","post_content":"1. Who are you reporting? Paytonator123\r\n\r\n2. Which server did this take place in? Factions\r\n\r\n3. Which rule did you witness them break or violate? Enderglitching\r\n[youtube]YhiZz8i1d3w[\/youtube]\r\n\r\nHe was holding enderpearls when he got up.","post_content_html":"1. Who are you reporting? Paytonator123<br \/> <br \/> 2. Which server did this take place in? Factions<br \/> <br \/> 3. Which rule did you witness them break or violate? Enderglitching<br \/> <iframe width=\"425\" height=\"344\" src=\"https:\/\/www.youtube.com\/embed\/YhiZz8i1d3w\"frameborder=\"0\" allowfullscreen><\/iframe><br \/> He was holding enderpearls when he got up.","post_content_clean":"1. Who are you reporting? Paytonator123\r \r 2. Which server did this take place in? Factions\r \r 3. Which rule did you witness them break or violate? Enderglitching\r YhiZz8i1d3w\r \r He was holding enderpearls when he got up.","post_user_id":"3553747","show_signature":"1","last_edit_time":"1393649982","post_votes":"1","post_unhidden":"0","post_admin_hidden":"0","post_locked":"0","last_edit_user":"0","votes":null,"post_username":"ElshSolo Player","avatar":"https:\/\/assets-cloud.enjin.com\/users\/3553747\/avatar\/medium.1439834345.jpeg","user_online":false,"user_votes":"107","user_posts":"609","url":"https:\/\/www.enjin.com\/ajax.php?s=redirect&cmd=forum-post&mobile=1&preset=12571633&id=62794125"},{"post_id":"62794781","post_time":"1393650618","post_content":"Solid proof, I have heard he has done this before. 3-Day ban I think, as the rule states.","post_content_html":"Solid proof, I have heard he has done this before. 3-Day ban I think, as the rule states.","post_content_clean":"Solid proof, I have heard he has done this before. 3-Day ban I think, as the rule states.","post_user_id":"8656906","show_signature":"1","last_edit_time":"0","post_votes":"1","post_unhidden":"0","post_admin_hidden":"0","post_locked":"0","last_edit_user":"0","votes":null,"post_username":"Hex4G","avatar":"https:\/\/assets-cloud.enjin.com\/users\/8656906\/avatar\/medium.1407241778.png","user_online":false,"user_votes":"133","user_posts":"859","url":"https:\/\/www.enjin.com\/ajax.php?s=redirect&cmd=forum-post&mobile=1&preset=12571633&id=62794781"},{"post_id":"62795158","post_time":"1393651039","post_content":"He does it all the time, he did it more than once to our faction and bases. I agree i seen him do it alot.","post_content_html":"He does it all the time, he did it more than once to our faction and bases. I agree i seen him do it alot.","post_content_clean":"He does it all the time, he did it more than once to our faction and bases. I agree i seen him do it alot.","post_user_id":"4995899","show_signature":"1","last_edit_time":"0","post_votes":"0","post_unhidden":"0","post_admin_hidden":"0","post_locked":"0","last_edit_user":"0","votes":null,"post_username":"kenkatadm","avatar":"https:\/\/assets-cloud.enjin.com\/users\/4995899\/avatar\/medium.1400089045.png","user_online":false,"user_votes":"6","user_posts":"50","url":"https:\/\/www.enjin.com\/ajax.php?s=redirect&cmd=forum-post&mobile=1&preset=12571633&id=62795158"},{"post_id":"62795258","post_time":"1393651188","post_content":"[b]I already had home set in there..[\/b]","post_content_html":"<b>I already had home set in there..<\/b>","post_content_clean":"I already had home set in there..","post_user_id":"6640535","show_signature":"1","last_edit_time":"0","post_votes":"0","post_unhidden":"0","post_admin_hidden":"0","post_locked":"0","last_edit_user":"0","votes":null,"post_username":"Paytonator123","avatar":"https:\/\/assets-cloud.enjin.com\/users\/6640535\/avatar\/medium.1400117159.png","user_online":false,"user_votes":"104","user_posts":"323","url":"https:\/\/www.enjin.com\/ajax.php?s=redirect&cmd=forum-post&mobile=1&preset=12571633&id=62795258"},{"post_id":"62795374","post_time":"1393651361","post_content":"It shows you were holding an enderpearl.","post_content_html":"It shows you were holding an enderpearl.","post_content_clean":"It shows you were holding an enderpearl.","post_user_id":"3553747","show_signature":"1","last_edit_time":"0","post_votes":"0","post_unhidden":"0","post_admin_hidden":"0","post_locked":"0","last_edit_user":"0","votes":null,"post_username":"ElshSolo Player","avatar":"https:\/\/assets-cloud.enjin.com\/users\/3553747\/avatar\/medium.1439834345.jpeg","user_online":false,"user_votes":"107","user_posts":"609","url":"https:\/\/www.enjin.com\/ajax.php?s=redirect&cmd=forum-post&mobile=1&preset=12571633&id=62795374"},{"post_id":"62795426","post_time":"1393651418","post_content":"[b]That is no proof. You said I had glitched once I was already there... you didnt even record me until I started hitting you.[\/b]","post_content_html":"<b>That is no proof. You said I had glitched once I was already there... you didnt even record me until I started hitting you.<\/b>","post_content_clean":"That is no proof. You said I had glitched once I was already there... you didnt even record me until I started hitting you.","post_user_id":"6640535","show_signature":"1","last_edit_time":"0","post_votes":"0","post_unhidden":"0","post_admin_hidden":"0","post_locked":"0","last_edit_user":"0","votes":null,"post_username":"Paytonator123","avatar":"https:\/\/assets-cloud.enjin.com\/users\/6640535\/avatar\/medium.1400117159.png","user_online":false,"user_votes":"104","user_posts":"323","url":"https:\/\/www.enjin.com\/ajax.php?s=redirect&cmd=forum-post&mobile=1&preset=12571633&id=62795426"},{"post_id":"62795504","post_time":"1393651533","post_content":"That's a strange thing to say because we see the enderpearl. Honestly if you're going to lie about it make a better story.","post_content_html":"That's a strange thing to say because we see the enderpearl. Honestly if you're going to lie about it make a better story.","post_content_clean":"That's a strange thing to say because we see the enderpearl. Honestly if you're going to lie about it make a better story.","post_user_id":"8948615","show_signature":"1","last_edit_time":"0","post_votes":"0","post_unhidden":"0","post_admin_hidden":"0","post_locked":"0","last_edit_user":"0","votes":null,"post_username":"XxRogueGamerxX","avatar":"https:\/\/resources.enjin.com\/1465083537\/profile\/images\/avatar\/medium.png","user_online":false,"user_votes":"12","user_posts":"63","url":"https:\/\/www.enjin.com\/ajax.php?s=redirect&cmd=forum-post&mobile=1&preset=12571633&id=62795504"},{"post_id":"62795665","post_time":"1393651714","post_content":"Plus unlike you we haven't gotten in trouble for breaking any rules. You have a history your word is a little untrustworthy.","post_content_html":"Plus unlike you we haven't gotten in trouble for breaking any rules. You have a history your word is a little untrustworthy.","post_content_clean":"Plus unlike you we haven't gotten in trouble for breaking any rules. You have a history your word is a little untrustworthy.","post_user_id":"8948615","show_signature":"1","last_edit_time":"0","post_votes":"0","post_unhidden":"0","post_admin_hidden":"0","post_locked":"0","last_edit_user":"0","votes":null,"post_username":"XxRogueGamerxX","avatar":"https:\/\/resources.enjin.com\/1465083537\/profile\/images\/avatar\/medium.png","user_online":false,"user_votes":"12","user_posts":"63","url":"https:\/\/www.enjin.com\/ajax.php?s=redirect&cmd=forum-post&mobile=1&preset=12571633&id=62795665"},{"post_id":"62795679","post_time":"1393651730","post_content":"[b]Im just saying that's not very solid proof... and whoever said jack doesn't do anything he is accusing him of something false and that is not right.[\/b]","post_content_html":"<b>Im just saying that's not very solid proof... and whoever said jack doesn't do anything he is accusing him of something false and that is not right.<\/b>","post_content_clean":"Im just saying that's not very solid proof... and whoever said jack doesn't do anything he is accusing him of something false and that is not right.","post_user_id":"6640535","show_signature":"1","last_edit_time":"0","post_votes":"0","post_unhidden":"0","post_admin_hidden":"0","post_locked":"0","last_edit_user":"0","votes":null,"post_username":"Paytonator123","avatar":"https:\/\/assets-cloud.enjin.com\/users\/6640535\/avatar\/medium.1400117159.png","user_online":false,"user_votes":"104","user_posts":"323","url":"https:\/\/www.enjin.com\/ajax.php?s=redirect&cmd=forum-post&mobile=1&preset=12571633&id=62795679"},{"post_id":"62796543","post_time":"1393652856","post_content":"It was said over Skype. Not in game or in forums. It cannot and will not be held against the person who said that. And it clearly shows that you are holding an enderpearl.","post_content_html":"It was said over Skype. Not in game or in forums. It cannot and will not be held against the person who said that. And it clearly shows that you are holding an enderpearl.","post_content_clean":"It was said over Skype. Not in game or in forums. It cannot and will not be held against the person who said that. And it clearly shows that you are holding an enderpearl.","post_user_id":"3553747","show_signature":"1","last_edit_time":"0","post_votes":"0","post_unhidden":"0","post_admin_hidden":"0","post_locked":"0","last_edit_user":"0","votes":null,"post_username":"ElshSolo Player","avatar":"https:\/\/assets-cloud.enjin.com\/users\/3553747\/avatar\/medium.1439834345.jpeg","user_online":false,"user_votes":"107","user_posts":"609","url":"https:\/\/www.enjin.com\/ajax.php?s=redirect&cmd=forum-post&mobile=1&preset=12571633&id=62796543"}],"total_items":"21","pages":3,"voted":false,"new_post_id":false,"thread_labels":[],"top_posters":{"result":[{"post_user_id":"3553747","posts":"3","username":"ElshSolo Player","avatar":"https:\/\/assets-cloud.enjin.com\/users\/3553747\/avatar\/medium.1439834345.jpeg"},{"post_user_id":"6640535","posts":"3","username":"Paytonator123","avatar":"https:\/\/assets-cloud.enjin.com\/users\/6640535\/avatar\/medium.1400117159.png"},{"post_user_id":"6539818","posts":"2","username":"{Doomed to Destruction}","avatar":"https:\/\/assets-cloud.enjin.com\/users\/6539818\/avatar\/medium.1400116899.png"},{"post_user_id":"7249943","posts":"2","username":"Creepaahh","avatar":"https:\/\/assets-cloud.enjin.com\/users\/7249943\/avatar\/medium.1468004541.jpeg"},{"post_user_id":"8948615","posts":"2","username":"XxRogueGamerxX","avatar":"https:\/\/resources.enjin.com\/1465083537\/profile\/images\/avatar\/medium.png"},{"post_user_id":"6987381","posts":"2","username":"NiTeFuRy_","avatar":"https:\/\/assets-cloud.enjin.com\/users\/6987381\/avatar\/medium.1400122786.png"},{"post_user_id":"6240898","posts":"1","username":"spot","avatar":"https:\/\/assets-cloud.enjin.com\/users\/6240898\/avatar\/medium.1400106374.png"},{"post_user_id":"4154830","posts":"1","username":"Payton","avatar":"https:\/\/assets-cloud.enjin.com\/users\/4154830\/avatar\/medium.1400084619.jpeg"},{"post_user_id":"7361443","posts":"1","username":"\u2704{snugglezxD:3emo} mojo215","avatar":"https:\/\/assets-cloud.enjin.com\/users\/7361443\/avatar\/medium.1455751269.jpeg"},{"post_user_id":"8656906","posts":"1","username":"Hex4G","avatar":"https:\/\/assets-cloud.enjin.com\/users\/8656906\/avatar\/medium.1407241778.png"},{"post_user_id":"4185955","posts":"1","username":"Chronicler","avatar":"https:\/\/assets-cloud.enjin.com\/users\/4185955\/avatar\/medium.1565809392.png"},{"post_user_id":"4995899","posts":"1","username":"kenkatadm","avatar":"https:\/\/assets-cloud.enjin.com\/users\/4995899\/avatar\/medium.1400089045.png"}],"num_users":"13"},"moderation_access":false,"poll_post":null,"post_access":true,"new_thread_access":true},"id":"1234567","jsonrpc":"2.0"}
{"result":{"thread":{"preset_id":"12571633","forum_id":"2419080","thread_id":"11339665","thread_subject":"Paytonator123 enderglitches","thread_replies":"20","thread_views":"664","thread_type":"normal","thread_status":"locked","thread_user_id":"3553747","thread_username":"1350104119481540490","thread_avatar":"https:\/\/assets-cloud.enjin.com\/users\/3553747\/avatar\/medium.1400122786.png","thread_lastpost_user_id":"4185955","thread_lastpost_username":"1354981717400560312","thread_lastpost_time":"1393693542","thread_moved_id":"0","thread_post_time":"1393649878","url":"https:\/\/www.enjin.com\/ajax.php?s=redirect&cmd=forum-thread&mobile=1&preset=12571633&id=11339665","post_count":"1","category_id":"1906989","forum_name":"Report a Player","forum_description":"Found a player breaking rules? Post them here with evidence!","disable_voting":"0","show_signature":"1","url_cms":"https:\/\/www.craftsurvivalgames.com\/forum\/m\/12571633\/viewthread\/11339665-paytonator123-enderglitches"},"posts":[{"post_id":"62799583","post_time":"1393657781","post_content":"You have gotta admit it, good raiders ender glitch. We have obsidian all over the base. What do you think how they got in through that obsidian?\r\nThey ender glitch.\r\nThere is no raiding without ender glitch. (If they used obsidian for their base)\r\nAll good raiders use ender glitch.\r\nFirst report of a person ender glitching.","post_content_html":"You have gotta admit it, good raiders ender glitch. We have obsidian all over the base. What do you think how they got in through that obsidian?<br \/> <br \/> They ender glitch.<br \/> <br \/> There is no raiding without ender glitch. (If they used obsidian for their base)<br \/> <br \/> All good raiders use ender glitch.<br \/> <br \/> First report of a person ender glitching.","post_content_clean":"You have gotta admit it, good raiders ender glitch. We have obsidian all over the base. What do you think how they got in through that obsidian? \r They ender glitch.\r There is no raiding without ender glitch. (If they used obsidian for their base)\r All good raiders use ender glitch. \r First report of a person ender glitching.","post_user_id":"6987381","show_signature":"1","last_edit_time":"0","post_votes":"3","post_unhidden":"0","post_admin_hidden":"0","post_locked":"0","last_edit_user":"0","votes":null,"post_username":"NiTeFuRy_","avatar":"https:\/\/assets-cloud.enjin.com\/users\/6987381\/avatar\/medium.1400122786.png","user_online":false,"user_votes":"168","user_posts":"1215","url":"https:\/\/www.enjin.com\/ajax.php?s=redirect&cmd=forum-post&mobile=1&preset=12571633&id=62799583"},{"post_id":"62799716","post_time":"1393658003","post_content":"Payton dont forget you had already been lower than 10 hearts b4 shoop started hitting you. when you ender you get damage whether you have armour or not!","post_content_html":"Payton dont forget you had already been lower than 10 hearts b4 shoop started hitting you. when you ender you get damage whether you have armour or not!","post_content_clean":"Payton dont forget you had already been lower than 10 hearts b4 shoop started hitting you. when you ender you get damage whether you have armour or not!","post_user_id":"1858801","show_signature":"1","last_edit_time":"0","post_votes":"0","post_unhidden":"0","post_admin_hidden":"0","post_locked":"0","last_edit_user":"0","votes":null,"post_username":"TexSupport","avatar":"https:\/\/assets-cloud.enjin.com\/users\/1858801\/avatar\/medium.1545528815.jpeg","user_online":false,"user_votes":"167","user_posts":"1175","url":"https:\/\/www.enjin.com\/ajax.php?s=redirect&cmd=forum-post&mobile=1&preset=12571633&id=62799716"},{"post_id":"62800749","post_time":"1393659947","post_content":"personly I see nothing wrong with enderglitching as shadow says all good pvpers\/raiders do it\r\nwhat other way does it give to get into a base :\/\r\nbut if the rules say so....\r\n\r\nbut I think there should be a rule change","post_content_html":"personly I see nothing wrong with enderglitching as shadow says all good pvpers\/raiders do it<br \/> <br \/> what other way does it give to get into a base :\/<br \/> <br \/> but if the rules say so....<br \/> <br \/> but I think there should be a rule change","post_content_clean":"personly I see nothing wrong with enderglitching as shadow says all good pvpers\/raiders do it\r what other way does it give to get into a base :\/\r but if the rules say so....\r \r but I think there should be a rule change","post_user_id":"6240898","show_signature":"1","last_edit_time":"0","post_votes":"0","post_unhidden":"0","post_admin_hidden":"0","post_locked":"0","last_edit_user":"0","votes":null,"post_username":"spot","avatar":"https:\/\/assets-cloud.enjin.com\/users\/6240898\/avatar\/medium.1400106374.png","user_online":false,"user_votes":"258","user_posts":"2284","url":"https:\/\/www.enjin.com\/ajax.php?s=redirect&cmd=forum-post&mobile=1&preset=12571633&id=62800749"},{"post_id":"62801281","post_time":"1393661038","post_content":"Yeah I agree spotter.","post_content_html":"Yeah I agree spotter.","post_content_clean":"Yeah I agree spotter.","post_user_id":"6987381","show_signature":"1","last_edit_time":"0","post_votes":"1","post_unhidden":"0","post_admin_hidden":"0","post_locked":"0","last_edit_user":"0","votes":null,"post_username":"NiTeFuRy_","avatar":"https:\/\/assets-cloud.enjin.com\/users\/6987381\/avatar\/medium.1400122786.png","user_online":false,"user_votes":"168","user_posts":"1215","url":"https:\/\/www.enjin.com\/ajax.php?s=redirect&cmd=forum-post&mobile=1&preset=12571633&id=62801281"},{"post_id":"62812225","post_time":"1393680430","post_content":"It's still a glitch, whether you guys like it or not.\r\nDisgrace to the Payton name!","post_content_html":"It's still a glitch, whether you guys like it or not.<br \/> <br \/> Disgrace to the Payton name!","post_content_clean":"It's still a glitch, whether you guys like it or not. \r Disgrace to the Payton name!","post_user_id":"4154830","show_signature":"1","last_edit_time":"0","post_votes":"0","post_unhidden":"0","post_admin_hidden":"0","post_locked":"0","last_edit_user":"0","votes":null,"post_username":"Payton","avatar":"https:\/\/assets-cloud.enjin.com\/users\/4154830\/avatar\/medium.1400084619.jpeg","user_online":false,"user_votes":"15","user_posts":"47","url":"https:\/\/www.enjin.com\/ajax.php?s=redirect&cmd=forum-post&mobile=1&preset=12571633&id=62812225"},{"post_id":"62812646","post_time":"1393680986","post_content":"I think they rules apply to people who glitch like blick glitching or stuff like that. Not ender glitching because it is being used for a raid, not to harm the server or anything. This is kind of a hard case. It kind of seems that Payton came up through the glass hole that you broke, and start pvping from there.....","post_content_html":"I think they rules apply to people who glitch like blick glitching or stuff like that. Not ender glitching because it is being used for a raid, not to harm the server or anything. This is kind of a hard case. It kind of seems that Payton came up through the glass hole that you broke, and start pvping from there.....","post_content_clean":"I think they rules apply to people who glitch like blick glitching or stuff like that. Not ender glitching because it is being used for a raid, not to harm the server or anything. This is kind of a hard case. It kind of seems that Payton came up through the glass hole that you broke, and start pvping from there.....","post_user_id":"6539818","show_signature":"1","last_edit_time":"0","post_votes":"0","post_unhidden":"0","post_admin_hidden":"0","post_locked":"0","last_edit_user":"0","votes":null,"post_username":"{Doomed to Destruction}","avatar":"https:\/\/assets-cloud.enjin.com\/users\/6539818\/avatar\/medium.1400116899.png","user_online":false,"user_votes":"145","user_posts":"701","url":"https:\/\/www.enjin.com\/ajax.php?s=redirect&cmd=forum-post&mobile=1&preset=12571633&id=62812646"},{"post_id":"62812707","post_time":"1393681062","post_content":"Even if he did not ender glitch through the base, that is still pvp hopping which is still punishable by a jail period I believe. Either way Paytonator is going to get some kind of punishment.","post_content_html":"Even if he did not ender glitch through the base, that is still pvp hopping which is still punishable by a jail period I believe. Either way Paytonator is going to get some kind of punishment.","post_content_clean":"Even if he did not ender glitch through the base, that is still pvp hopping which is still punishable by a jail period I believe. Either way Paytonator is going to get some kind of punishment.","post_user_id":"7249943","show_signature":"1","last_edit_time":"0","post_votes":"0","post_unhidden":"0","post_admin_hidden":"0","post_locked":"0","last_edit_user":"0","votes":null,"post_username":"Creepaahh","avatar":"https:\/\/assets-cloud.enjin.com\/users\/7249943\/avatar\/medium.1468004541.jpeg","user_online":false,"user_votes":null,"user_posts":0,"url":"https:\/\/www.enjin.com\/ajax.php?s=redirect&cmd=forum-post&mobile=1&preset=12571633&id=62812707"},{"post_id":"62812809","post_time":"1393681177","post_content":"Was the pvp hopping when he got nocked through the sand\/sandstone\/yellow block?","post_content_html":"Was the pvp hopping when he got nocked through the sand\/sandstone\/yellow block?","post_content_clean":"Was the pvp hopping when he got nocked through the sand\/sandstone\/yellow block?","post_user_id":"6539818","show_signature":"1","last_edit_time":"0","post_votes":"0","post_unhidden":"0","post_admin_hidden":"0","post_locked":"0","last_edit_user":"0","votes":null,"post_username":"{Doomed to Destruction}","avatar":"https:\/\/assets-cloud.enjin.com\/users\/6539818\/avatar\/medium.1400116899.png","user_online":false,"user_votes":"145","user_posts":"701","url":"https:\/\/www.enjin.com\/ajax.php?s=redirect&cmd=forum-post&mobile=1&preset=12571633&id=62812809"},{"post_id":"62812871","post_time":"1393681238","post_content":"Yes it was, and what I am saying is even if he did not ender glitch through the wall, it is pvp hopping, since he was in combat and he left it, whether by \/home or ender pearls.","post_content_html":"Yes it was, and what I am saying is even if he did not ender glitch through the wall, it is pvp hopping, since he was in combat and he left it, whether by \/home or ender pearls.","post_content_clean":"Yes it was, and what I am saying is even if he did not ender glitch through the wall, it is pvp hopping, since he was in combat and he left it, whether by \/home or ender pearls.","post_user_id":"7249943","show_signature":"1","last_edit_time":"0","post_votes":"0","post_unhidden":"0","post_admin_hidden":"0","post_locked":"0","last_edit_user":"0","votes":null,"post_username":"Creepaahh","avatar":"https:\/\/assets-cloud.enjin.com\/users\/7249943\/avatar\/medium.1468004541.jpeg","user_online":false,"user_votes":null,"user_posts":0,"url":"https:\/\/www.enjin.com\/ajax.php?s=redirect&cmd=forum-post&mobile=1&preset=12571633&id=62812871"},{"post_id":"62813815","post_time":"1393682271","post_content":"i do it all the time just saying\r\nso does basicly everyone on the server","post_content_html":"i do it all the time just saying<br \/> <br \/> so does basicly everyone on the server","post_content_clean":"i do it all the time just saying\r so does basicly everyone on the server","post_user_id":"7361443","show_signature":"1","last_edit_time":"0","post_votes":"0","post_unhidden":"0","post_admin_hidden":"0","post_locked":"0","last_edit_user":"0","votes":null,"post_username":"\u2704{snugglezxD:3emo} mojo215","avatar":"https:\/\/assets-cloud.enjin.com\/users\/7361443\/avatar\/medium.1455751269.jpeg","user_online":false,"user_votes":"0","user_posts":"2641","url":"https:\/\/www.enjin.com\/ajax.php?s=redirect&cmd=forum-post&mobile=1&preset=12571633&id=62813815"}],"total_items":"21","pages":3,"voted":false,"new_post_id":"62799583","thread_labels":[],"top_posters":{"result":[{"post_user_id":"6640535","posts":"3","username":"Paytonator123","avatar":"https:\/\/assets-cloud.enjin.com\/users\/6640535\/avatar\/medium.1400117159.png"},{"post_user_id":"3553747","posts":"3","username":"ElshSolo Player","avatar":"https:\/\/assets-cloud.enjin.com\/users\/3553747\/avatar\/medium.1439834345.jpeg"},{"post_user_id":"8948615","posts":"2","username":"XxRogueGamerxX","avatar":"https:\/\/resources.enjin.com\/1465083537\/profile\/images\/avatar\/medium.png"},{"post_user_id":"6987381","posts":"2","username":"NiTeFuRy_","avatar":"https:\/\/assets-cloud.enjin.com\/users\/6987381\/avatar\/medium.1400122786.png"},{"post_user_id":"6539818","posts":"2","username":"{Doomed to Destruction}","avatar":"https:\/\/assets-cloud.enjin.com\/users\/6539818\/avatar\/medium.1400116899.png"},{"post_user_id":"7249943","posts":"2","username":"Creepaahh","avatar":"https:\/\/assets-cloud.enjin.com\/users\/7249943\/avatar\/medium.1468004541.jpeg"},{"post_user_id":"8656906","posts":"1","username":"Hex4G","avatar":"https:\/\/assets-cloud.enjin.com\/users\/8656906\/avatar\/medium.1407241778.png"},{"post_user_id":"4185955","posts":"1","username":"Chronicler","avatar":"https:\/\/assets-cloud.enjin.com\/users\/4185955\/avatar\/medium.1565809392.png"},{"post_user_id":"4995899","posts":"1","username":"kenkatadm","avatar":"https:\/\/assets-cloud.enjin.com\/users\/4995899\/avatar\/medium.1400089045.png"},{"post_user_id":"1858801","posts":"1","username":"TexSupport","avatar":"https:\/\/assets-cloud.enjin.com\/users\/1858801\/avatar\/medium.1545528815.jpeg"},{"post_user_id":"6240898","posts":"1","username":"spot","avatar":"https:\/\/assets-cloud.enjin.com\/users\/6240898\/avatar\/medium.1400106374.png"},{"post_user_id":"4154830","posts":"1","username":"Payton","avatar":"https:\/\/assets-cloud.enjin.com\/users\/4154830\/avatar\/medium.1400084619.jpeg"}],"num_users":"13"},"moderation_access":false,"poll_post":null,"post_access":true,"new_thread_access":true},"id":"1234567","jsonrpc":"2.0"}
{"result":{"thread":{"preset_id":"12571633","forum_id":"2419080","thread_id":"11339665","thread_subject":"Paytonator123 enderglitches","thread_replies":"20","thread_views":"664","thread_type":"normal","thread_status":"locked","thread_user_id":"3553747","thread_username":"1350104119481540490","thread_avatar":"https:\/\/assets-cloud.enjin.com\/users\/3553747\/avatar\/medium.1565809392.png","thread_lastpost_user_id":"4185955","thread_lastpost_username":"1354981717400560312","thread_lastpost_time":"1393693542","thread_moved_id":"0","thread_post_time":"1393649878","url":"https:\/\/www.enjin.com\/ajax.php?s=redirect&cmd=forum-thread&mobile=1&preset=12571633&id=11339665","post_count":"1","category_id":"1906989","forum_name":"Report a Player","forum_description":"Found a player breaking rules? Post them here with evidence!","disable_voting":"0","show_signature":"1","url_cms":"https:\/\/www.craftsurvivalgames.com\/forum\/m\/12571633\/viewthread\/11339665-paytonator123-enderglitches"},"posts":[{"post_id":"62825558","post_time":"1393693542","post_content":"[color=#7a7a7a]It's still glitching whether you like it or not. This &quot;ender glitching&quot; will be more heavily enforced from now on. We also ask that people continue to report instances like this. Ender glitching in the first place is a real cheap trick anyway and defeats the purpose of people fortifying their base. Paytonator will be jailed for 3 days for glitching. Thread locked.[\/color]","post_content_html":"It's still glitching whether you like it or not. This &quot;ender glitching&quot; will be more heavily enforced from now on. We also ask that people continue to report instances like this. Ender glitching in the first place is a real cheap trick anyway and defeats the purpose of people fortifying their base. Paytonator will be jailed for 3 days for glitching. Thread locked.","post_content_clean":"It's still glitching whether you like it or not. This \"ender glitching\" will be more heavily enforced from now on. We also ask that people continue to report instances like this. Ender glitching in the first place is a real cheap trick anyway and defeats the purpose of people fortifying their base. Paytonator will be jailed for 3 days for glitching. Thread locked.","post_user_id":"4185955","show_signature":"1","last_edit_time":"0","post_votes":"3","post_unhidden":"0","post_admin_hidden":"0","post_locked":"0","last_edit_user":"0","votes":null,"post_username":"Chronicler","avatar":"https:\/\/assets-cloud.enjin.com\/users\/4185955\/avatar\/medium.1565809392.png","user_online":false,"user_votes":"779","user_posts":"2045","url":"https:\/\/www.enjin.com\/ajax.php?s=redirect&cmd=forum-post&mobile=1&preset=12571633&id=62825558"}],"total_items":"21","pages":3,"voted":false,"new_post_id":"62825558","thread_labels":[],"top_posters":{"result":[{"post_user_id":"3553747","posts":"3","username":"ElshSolo Player","avatar":"https:\/\/assets-cloud.enjin.com\/users\/3553747\/avatar\/medium.1439834345.jpeg"},{"post_user_id":"6640535","posts":"3","username":"Paytonator123","avatar":"https:\/\/assets-cloud.enjin.com\/users\/6640535\/avatar\/medium.1400117159.png"},{"post_user_id":"6539818","posts":"2","username":"{Doomed to Destruction}","avatar":"https:\/\/assets-cloud.enjin.com\/users\/6539818\/avatar\/medium.1400116899.png"},{"post_user_id":"7249943","posts":"2","username":"Creepaahh","avatar":"https:\/\/assets-cloud.enjin.com\/users\/7249943\/avatar\/medium.1468004541.jpeg"},{"post_user_id":"8948615","posts":"2","username":"XxRogueGamerxX","avatar":"https:\/\/resources.enjin.com\/1465083537\/profile\/images\/avatar\/medium.png"},{"post_user_id":"6987381","posts":"2","username":"NiTeFuRy_","avatar":"https:\/\/assets-cloud.enjin.com\/users\/6987381\/avatar\/medium.1400122786.png"},{"post_user_id":"1858801","posts":"1","username":"TexSupport","avatar":"https:\/\/assets-cloud.enjin.com\/users\/1858801\/avatar\/medium.1545528815.jpeg"},{"post_user_id":"6240898","posts":"1","username":"spot","avatar":"https:\/\/assets-cloud.enjin.com\/users\/6240898\/avatar\/medium.1400106374.png"},{"post_user_id":"4154830","posts":"1","username":"Payton","avatar":"https:\/\/assets-cloud.enjin.com\/users\/4154830\/avatar\/medium.1400084619.jpeg"},{"post_user_id":"7361443","posts":"1","username":"\u2704{snugglezxD:3emo} mojo215","avatar":"https:\/\/assets-cloud.enjin.com\/users\/7361443\/avatar\/medium.1455751269.jpeg"},{"post_user_id":"8656906","posts":"1","username":"Hex4G","avatar":"https:\/\/assets-cloud.enjin.com\/users\/8656906\/avatar\/medium.1407241778.png"},{"post_user_id":"4185955","posts":"1","username":"Chronicler","avatar":"https:\/\/assets-cloud.enjin.com\/users\/4185955\/avatar\/medium.1565809392.png"}],"num_users":"13"},"moderation_access":false,"poll_post":null,"post_access":true,"new_thread_access":true},"id":"1234567","jsonrpc":"2.0"}
