{"result":{"thread":{"preset_id":"12571633","forum_id":"4414908","thread_id":"13536750","thread_subject":"Is This a Fair Fight In Skyblock?","thread_replies":"31","thread_views":"10877","thread_type":"normal","thread_status":"locked","thread_user_id":"10567067","thread_username":"Creeperhead2006","thread_avatar":"https:\/\/resources.enjin.com\/1465083537\/profile\/images\/avatar\/medium.png","thread_lastpost_user_id":"6240898","thread_lastpost_username":"13706908831541551754","thread_lastpost_time":"1403994398","thread_moved_id":"0","thread_post_time":"1403921074","url":"https:\/\/www.enjin.com\/ajax.php?s=redirect&cmd=forum-thread&mobile=1&preset=12571633&id=13536750","post_count":"1","category_id":"1907006","forum_name":"SkyBlock General Discussion","forum_description":"Discuss with other players about Skyblock.","disable_voting":"0","show_signature":"1","url_cms":"https:\/\/www.craftsurvivalgames.com\/forum\/m\/12571633\/viewthread\/13536750-this-fair-fight-in-skyblock"},"posts":[{"post_id":"72352571","post_time":"1403921074","post_content":"[color=#2360dd]The Video: https:\/\/www.youtube.com\/watch?v=E-xOwh_cXmo&amp;feature=youtu.be\r\n\r\n\r\nThis is Like a 6v1 and is it fair? Im Not a Hacker Either\r\n\r\n\r\n\r\nP.S If any Mods see this can you plz Send me How im supposed to Write Things like this?\r\nIm New On this Website[\/color]","post_content_html":"The Video: <a rel=\"nofollow\" href=\"https:\/\/www.youtube.com\/watch?v=E-xOwh_cXmo&amp;feature=youtu.be\" class=\"bbcode_url\" title=\"https:\/\/www.youtube.com\/watch?v=E-xOwh_cXmo&amp;feature=youtu.be\" data-safe-url=\"https:\/\/redirect.enjin.com\/n\/ec477efb53\">https:\/\/www.youtube.com\/watch?v=E-xOwh_cXmo&amp;feature=youtu.be<\/a><br \/> <br \/> This is Like a 6v1 and is it fair? Im Not a Hacker Either<br \/> <br \/> P.S If any Mods see this can you plz Send me How im supposed to Write Things like this?<br \/> <br \/> Im New On this Website","post_content_clean":"The Video: https:\/\/www.youtube.com\/watch?v=E-xOwh_cXmo&feature=youtu.be\r \r         \r                      This is Like a 6v1 and is it fair? Im Not a Hacker Either\r \r \r \r                                              P.S If any Mods see this can you plz Send me How im supposed to Write Things like this?\r                                                   Im New On this Website","post_user_id":"10567067","show_signature":"1","last_edit_time":"1403921151","post_votes":"0","post_unhidden":"0","post_admin_hidden":"0","post_locked":"0","last_edit_user":"0","votes":null,"post_username":"Creeperhead2006","avatar":"https:\/\/resources.enjin.com\/1465083537\/profile\/images\/avatar\/medium.png","user_online":false,"user_votes":"0","user_posts":"29","url":"https:\/\/www.enjin.com\/ajax.php?s=redirect&cmd=forum-post&mobile=1&preset=12571633&id=72352571"},{"post_id":"72352835","post_time":"1403921346","post_content":"Well you did pretty good for doing a 6v1 with real good pvpers. But I guess it unfair to you.","post_content_html":"Well you did pretty good for doing a 6v1 with real good pvpers. But I guess it unfair to you.","post_content_clean":"Well you did pretty good for doing a 6v1 with real good pvpers. But I guess it unfair to you.","post_user_id":"10360034","show_signature":"1","last_edit_time":"0","post_votes":"0","post_unhidden":"0","post_admin_hidden":"0","post_locked":"0","last_edit_user":"0","votes":null,"post_username":"xXSirJosephXx","avatar":"https:\/\/resources.enjin.com\/1465083537\/profile\/images\/avatar\/medium.png","user_online":false,"user_votes":"2","user_posts":"84","url":"https:\/\/www.enjin.com\/ajax.php?s=redirect&cmd=forum-post&mobile=1&preset=12571633&id=72352835"},{"post_id":"72352934","post_time":"1403921441","post_content":"Thanks That Means a lot to me :)","post_content_html":"Thanks That Means a lot to me <object class=\"emojione\" data=\"https:\/\/resources.enjin.com\/1489581540\/themes\/core\/images\/emojione\/svg\/1f642.svg?0\" type=\"image\/svg+xml\" standby=\":)\">:)<\/object>","post_content_clean":"Thanks That Means a lot to me :)","post_user_id":"10567067","show_signature":"1","last_edit_time":"0","post_votes":"0","post_unhidden":"0","post_admin_hidden":"0","post_locked":"0","last_edit_user":"0","votes":null,"post_username":"Creeperhead2006","avatar":"https:\/\/resources.enjin.com\/1465083537\/profile\/images\/avatar\/medium.png","user_online":false,"user_votes":"0","user_posts":"29","url":"https:\/\/www.enjin.com\/ajax.php?s=redirect&cmd=forum-post&mobile=1&preset=12571633&id=72352934"},{"post_id":"72353079","post_time":"1403921582","post_content":"tbh its like a 2v1 and sometimes a 3v1 keep in mind its actually harder for the team of 2 people because they constantly hit eachother","post_content_html":"tbh its like a 2v1 and sometimes a 3v1 keep in mind its actually harder for the team of 2 people because they constantly hit eachother","post_content_clean":"tbh its like a 2v1 and sometimes a 3v1 keep in mind its actually harder for the team of 2 people because they constantly hit eachother","post_user_id":"6069033","show_signature":"1","last_edit_time":"0","post_votes":"0","post_unhidden":"0","post_admin_hidden":"0","post_locked":"0","last_edit_user":"0","votes":null,"post_username":"shadowspade7","avatar":"https:\/\/resources.enjin.com\/1465083537\/profile\/images\/avatar\/medium.png","user_online":false,"user_votes":"91","user_posts":"696","url":"https:\/\/www.enjin.com\/ajax.php?s=redirect&cmd=forum-post&mobile=1&preset=12571633&id=72353079"},{"post_id":"72353331","post_time":"1403921862","post_content":"Thx Hex :D","post_content_html":"Thx Hex <object class=\"emojione\" data=\"https:\/\/resources.enjin.com\/1489581540\/themes\/core\/images\/emojione\/svg\/1f600.svg?0\" type=\"image\/svg+xml\" standby=\":d\">:d<\/object>","post_content_clean":"Thx Hex :D","post_user_id":"10567067","show_signature":"1","last_edit_time":"0","post_votes":"0","post_unhidden":"0","post_admin_hidden":"0","post_locked":"0","last_edit_user":"0","votes":null,"post_username":"Creeperhead2006","avatar":"https:\/\/resources.enjin.com\/1465083537\/profile\/images\/avatar\/medium.png","user_online":false,"user_votes":"0","user_posts":"29","url":"https:\/\/www.enjin.com\/ajax.php?s=redirect&cmd=forum-post&mobile=1&preset=12571633&id=72353331"},{"post_id":"72353578","post_time":"1403922180","post_content":"[color=#6e23dd]I've pvped you and you're pretty good.[\/color]","post_content_html":"I've pvped you and you're pretty good.","post_content_clean":"I've pvped you and you're pretty good.","post_user_id":"6567858","show_signature":"1","last_edit_time":"0","post_votes":"0","post_unhidden":"0","post_admin_hidden":"0","post_locked":"0","last_edit_user":"0","votes":null,"post_username":"BlueCharmander12","avatar":"https:\/\/assets-cloud.enjin.com\/users\/6567858\/avatar\/medium.1496942453.jpeg","user_online":false,"user_votes":"91","user_posts":"1281","url":"https:\/\/www.enjin.com\/ajax.php?s=redirect&cmd=forum-post&mobile=1&preset=12571633&id=72353578"},{"post_id":"72353617","post_time":"1403922226","post_content":"Thanks :D and so are you :)","post_content_html":"Thanks <object class=\"emojione\" data=\"https:\/\/resources.enjin.com\/1489581540\/themes\/core\/images\/emojione\/svg\/1f600.svg?0\" type=\"image\/svg+xml\" standby=\":d\">:d<\/object> and so are you <object class=\"emojione\" data=\"https:\/\/resources.enjin.com\/1489581540\/themes\/core\/images\/emojione\/svg\/1f642.svg?0\" type=\"image\/svg+xml\" standby=\":)\">:)<\/object>","post_content_clean":"Thanks :D and so are you :)","post_user_id":"10567067","show_signature":"1","last_edit_time":"0","post_votes":"0","post_unhidden":"0","post_admin_hidden":"0","post_locked":"0","last_edit_user":"0","votes":null,"post_username":"Creeperhead2006","avatar":"https:\/\/resources.enjin.com\/1465083537\/profile\/images\/avatar\/medium.png","user_online":false,"user_votes":"0","user_posts":"29","url":"https:\/\/www.enjin.com\/ajax.php?s=redirect&cmd=forum-post&mobile=1&preset=12571633&id=72353617"},{"post_id":"72353803","post_time":"1403922451","post_content":"Wow, nice pvp skills! (: I would die in about 2 seconds if I was 1v6ing.  :undecided:  No joke.","post_content_html":"Wow, nice pvp skills! (: I would die in about 2 seconds if I was 1v6ing.  <object class=\"emojione\" data=\"https:\/\/resources.enjin.com\/1489581540\/themes\/core\/images\/emojione\/svg\/1f613.svg?0\" type=\"image\/svg+xml\" standby=\":undecided:\">:undecided:<\/object>  No joke.","post_content_clean":"Wow, nice pvp skills! (: I would die in about 2 seconds if I was 1v6ing.  :undecided:  No joke.","post_user_id":"7455843","show_signature":"1","last_edit_time":"0","post_votes":"0","post_unhidden":"0","post_admin_hidden":"0","post_locked":"0","last_edit_user":"0","votes":null,"post_username":"Star","avatar":"https:\/\/assets-cloud.enjin.com\/users\/7455843\/avatar\/medium.1417233797.jpeg","user_online":false,"user_votes":"0","user_posts":0,"url":"https:\/\/www.enjin.com\/ajax.php?s=redirect&cmd=forum-post&mobile=1&preset=12571633&id=72353803"},{"post_id":"72354103","post_time":"1403922808","post_content":"[b]if you survive that long by niko and iron, DAYUM your good![\/b]","post_content_html":"<b>if you survive that long by niko and iron, DAYUM your good!<\/b>","post_content_clean":"if you survive that long by niko and iron, DAYUM your good!","post_user_id":"7661412","show_signature":"1","last_edit_time":"0","post_votes":"0","post_unhidden":"0","post_admin_hidden":"0","post_locked":"0","last_edit_user":"0","votes":null,"post_username":"\u2694 Danneh~MC\u2502SAO \u2694","avatar":"https:\/\/assets-cloud.enjin.com\/users\/7661412\/avatar\/medium.1410214521.jpeg","user_online":false,"user_votes":"395","user_posts":"1534","url":"https:\/\/www.enjin.com\/ajax.php?s=redirect&cmd=forum-post&mobile=1&preset=12571633&id=72354103"},{"post_id":"72355094","post_time":"1403923927","post_content":"xD i dont think that you would :D i think you would live alot longer ;)","post_content_html":"xD i dont think that you would <object class=\"emojione\" data=\"https:\/\/resources.enjin.com\/1489581540\/themes\/core\/images\/emojione\/svg\/1f600.svg?0\" type=\"image\/svg+xml\" standby=\":d\">:d<\/object> i think you would live alot longer <object class=\"emojione\" data=\"https:\/\/resources.enjin.com\/1489581540\/themes\/core\/images\/emojione\/svg\/1f609.svg?0\" type=\"image\/svg+xml\" standby=\";)\">;)<\/object>","post_content_clean":"xD i dont think that you would :D i think you would live alot longer ;)","post_user_id":"10567067","show_signature":"1","last_edit_time":"0","post_votes":"0","post_unhidden":"0","post_admin_hidden":"0","post_locked":"0","last_edit_user":"0","votes":null,"post_username":"Creeperhead2006","avatar":"https:\/\/resources.enjin.com\/1465083537\/profile\/images\/avatar\/medium.png","user_online":false,"user_votes":"0","user_posts":"29","url":"https:\/\/www.enjin.com\/ajax.php?s=redirect&cmd=forum-post&mobile=1&preset=12571633&id=72355094"}],"total_items":"32","pages":4,"voted":false,"new_post_id":false,"thread_labels":[],"top_posters":{"result":[{"post_user_id":"10567067","posts":"15","username":"Creeperhead2006","avatar":"https:\/\/resources.enjin.com\/1465083537\/profile\/images\/avatar\/medium.png"},{"post_user_id":"6517735","posts":"1","username":"GalaxyOP","avatar":"https:\/\/assets-cloud.enjin.com\/users\/6517735\/avatar\/medium.1405545553.png"},{"post_user_id":"7823616","posts":"1","username":"Angelaa621","avatar":"https:\/\/assets-cloud.enjin.com\/users\/7823616\/avatar\/medium.1454213303.png"},{"post_user_id":"6240898","posts":"1","username":"spot","avatar":"https:\/\/assets-cloud.enjin.com\/users\/6240898\/avatar\/medium.1400106374.png"},{"post_user_id":"7787187","posts":"1","username":"peachybunny16 \/","avatar":"https:\/\/resources.enjin.com\/1465083537\/profile\/images\/avatar\/medium.png"},{"post_user_id":"5683757","posts":"1","username":"Ghully o.O","avatar":"https:\/\/assets-cloud.enjin.com\/users\/5683757\/avatar\/medium.1420341072.jpeg"},{"post_user_id":"6648983","posts":"1","username":"Boo Stark","avatar":"https:\/\/assets-cloud.enjin.com\/users\/6648983\/avatar\/medium.1437598351.png"},{"post_user_id":"7549112","posts":"1","username":"Alice.","avatar":"https:\/\/assets-cloud.enjin.com\/users\/7549112\/avatar\/medium.1451003212.jpeg"},{"post_user_id":"6987381","posts":"1","username":"NiTeFuRy_","avatar":"https:\/\/assets-cloud.enjin.com\/users\/6987381\/avatar\/medium.1400122786.png"},{"post_user_id":"10360034","posts":"1","username":"xXSirJosephXx","avatar":"https:\/\/resources.enjin.com\/1465083537\/profile\/images\/avatar\/medium.png"},{"post_user_id":"6333014","posts":"1","username":"toby","avatar":"https:\/\/resources.enjin.com\/1465083537\/profile\/images\/avatar\/medium.png"},{"post_user_id":"6069033","posts":"1","username":"shadowspade7","avatar":"https:\/\/resources.enjin.com\/1465083537\/profile\/images\/avatar\/medium.png"}],"num_users":"18"},"moderation_access":false,"poll_post":null,"post_access":true,"new_thread_access":true},"id":"1234567","jsonrpc":"2.0"}
{"result":{"thread":{"preset_id":"12571633","forum_id":"4414908","thread_id":"13536750","thread_subject":"Is This a Fair Fight In Skyblock?","thread_replies":"31","thread_views":"10877","thread_type":"normal","thread_status":"locked","thread_user_id":"10567067","thread_username":"Creeperhead2006","thread_avatar":"https:\/\/resources.enjin.com\/1465083537\/profile\/images\/avatar\/medium.png","thread_lastpost_user_id":"6240898","thread_lastpost_username":"13706908831541551754","thread_lastpost_time":"1403994398","thread_moved_id":"0","thread_post_time":"1403921074","url":"https:\/\/www.enjin.com\/ajax.php?s=redirect&cmd=forum-thread&mobile=1&preset=12571633&id=13536750","post_count":"1","category_id":"1907006","forum_name":"SkyBlock General Discussion","forum_description":"Discuss with other players about Skyblock.","disable_voting":"0","show_signature":"1","url_cms":"https:\/\/www.craftsurvivalgames.com\/forum\/m\/12571633\/viewthread\/13536750-this-fair-fight-in-skyblock"},"posts":[{"post_id":"72355188","post_time":"1403924028","post_content":"Thanks a lot Daniel ;)","post_content_html":"Thanks a lot Daniel <object class=\"emojione\" data=\"https:\/\/resources.enjin.com\/1489581540\/themes\/core\/images\/emojione\/svg\/1f609.svg?0\" type=\"image\/svg+xml\" standby=\";)\">;)<\/object>","post_content_clean":"Thanks a lot Daniel ;)","post_user_id":"10567067","show_signature":"1","last_edit_time":"0","post_votes":"0","post_unhidden":"0","post_admin_hidden":"0","post_locked":"0","last_edit_user":"0","votes":null,"post_username":"Creeperhead2006","avatar":"https:\/\/resources.enjin.com\/1465083537\/profile\/images\/avatar\/medium.png","user_online":false,"user_votes":"0","user_posts":"29","url":"https:\/\/www.enjin.com\/ajax.php?s=redirect&cmd=forum-post&mobile=1&preset=12571633&id=72355188"},{"post_id":"72358997","post_time":"1403928892","post_content":"[size=5][b][color=#6e23dd]You are a pretty good pvper no joke. At i don't think that was a fair fight but at least you killed them :)[\/color][\/b][\/size]","post_content_html":"<span style=\"font-size:1.5em\"><b>You are a pretty good pvper no joke. At i don't think that was a fair fight but at least you killed them <object class=\"emojione\" data=\"https:\/\/resources.enjin.com\/1489581540\/themes\/core\/images\/emojione\/svg\/1f642.svg?0\" type=\"image\/svg+xml\" standby=\":)\">:)<\/object><\/b><\/span>","post_content_clean":"You are a pretty good pvper no joke. At i don't think that was a fair fight but at least you killed them :)","post_user_id":"7823616","show_signature":"1","last_edit_time":"0","post_votes":"0","post_unhidden":"0","post_admin_hidden":"0","post_locked":"0","last_edit_user":"0","votes":null,"post_username":"Angelaa621","avatar":"https:\/\/assets-cloud.enjin.com\/users\/7823616\/avatar\/medium.1454213303.png","user_online":false,"user_votes":"0","user_posts":"3","url":"https:\/\/www.enjin.com\/ajax.php?s=redirect&cmd=forum-post&mobile=1&preset=12571633&id=72358997"},{"post_id":"72359227","post_time":"1403929206","post_content":"xD ikr","post_content_html":"xD ikr","post_content_clean":"xD ikr","post_user_id":"10567067","show_signature":"1","last_edit_time":"0","post_votes":"0","post_unhidden":"0","post_admin_hidden":"0","post_locked":"0","last_edit_user":"0","votes":null,"post_username":"Creeperhead2006","avatar":"https:\/\/resources.enjin.com\/1465083537\/profile\/images\/avatar\/medium.png","user_online":false,"user_votes":"0","user_posts":"29","url":"https:\/\/www.enjin.com\/ajax.php?s=redirect&cmd=forum-post&mobile=1&preset=12571633&id=72359227"},{"post_id":"72360709","post_time":"1403931280","post_content":"Dang them skills though! Nice creeper  :thumb:","post_content_html":"Dang them skills though! Nice creeper  <object class=\"emojione\" data=\"https:\/\/resources.enjin.com\/1489581540\/themes\/core\/images\/emojione\/svg\/1f44d.svg?0\" type=\"image\/svg+xml\" standby=\":thumb:\">:thumb:<\/object>","post_content_clean":"Dang them skills though! Nice creeper  :thumb:","post_user_id":"7787187","show_signature":"1","last_edit_time":"0","post_votes":"0","post_unhidden":"0","post_admin_hidden":"0","post_locked":"0","last_edit_user":"0","votes":null,"post_username":"peachybunny16 \/","avatar":"https:\/\/resources.enjin.com\/1465083537\/profile\/images\/avatar\/medium.png","user_online":false,"user_votes":"62","user_posts":"164","url":"https:\/\/www.enjin.com\/ajax.php?s=redirect&cmd=forum-post&mobile=1&preset=12571633&id=72360709"},{"post_id":"72361447","post_time":"1403932433","post_content":"Ummm no offense, but you just lag all over the place, and it is impossible to hit you. I don't exactly call that skill. Sorry :(\r\nAlso, great job at being able to gapple when you get low! Sorry if this sounds rude, but I fought him a few times today, and all of the people watching say he is amazing at this Lag style of PvP.","post_content_html":"Ummm no offense, but you just lag all over the place, and it is impossible to hit you. I don't exactly call that skill. Sorry :(<br \/> <br \/> Also, great job at being able to gapple when you get low! Sorry if this sounds rude, but I fought him a few times today, and all of the people watching say he is amazing at this Lag style of PvP.","post_content_clean":"Ummm no offense, but you just lag all over the place, and it is impossible to hit you. I don't exactly call that skill. Sorry :(\r Also, great job at being able to gapple when you get low! Sorry if this sounds rude, but I fought him a few times today, and all of the people watching say he is amazing at this Lag style of PvP.","post_user_id":"5683757","show_signature":"1","last_edit_time":"0","post_votes":"0","post_unhidden":"0","post_admin_hidden":"0","post_locked":"0","last_edit_user":"0","votes":null,"post_username":"Ghully o.O","avatar":"https:\/\/assets-cloud.enjin.com\/users\/5683757\/avatar\/medium.1420341072.jpeg","user_online":false,"user_votes":"63","user_posts":"586","url":"https:\/\/www.enjin.com\/ajax.php?s=redirect&cmd=forum-post&mobile=1&preset=12571633&id=72361447"},{"post_id":"72391825","post_time":"1403976033","post_content":"No Offence Taken :D I Do Lag Everywhere #InternetWTF","post_content_html":"No Offence Taken <object class=\"emojione\" data=\"https:\/\/resources.enjin.com\/1489581540\/themes\/core\/images\/emojione\/svg\/1f600.svg?0\" type=\"image\/svg+xml\" standby=\":d\">:d<\/object> I Do Lag Everywhere #InternetWTF","post_content_clean":"No Offence Taken :D I Do Lag Everywhere #InternetWTF","post_user_id":"10567067","show_signature":"1","last_edit_time":"0","post_votes":"0","post_unhidden":"0","post_admin_hidden":"0","post_locked":"0","last_edit_user":"0","votes":null,"post_username":"Creeperhead2006","avatar":"https:\/\/resources.enjin.com\/1465083537\/profile\/images\/avatar\/medium.png","user_online":false,"user_votes":"0","user_posts":"29","url":"https:\/\/www.enjin.com\/ajax.php?s=redirect&cmd=forum-post&mobile=1&preset=12571633&id=72391825"},{"post_id":"72391955","post_time":"1403976161","post_content":"Creeper, may I 1v1 you anytime sooner, those pvp tactics doe.","post_content_html":"Creeper, may I 1v1 you anytime sooner, those pvp tactics doe.","post_content_clean":"Creeper, may I 1v1 you anytime sooner, those pvp tactics doe.","post_user_id":"6648983","show_signature":"1","last_edit_time":"0","post_votes":"0","post_unhidden":"0","post_admin_hidden":"0","post_locked":"0","last_edit_user":"0","votes":null,"post_username":"Boo Stark","avatar":"https:\/\/assets-cloud.enjin.com\/users\/6648983\/avatar\/medium.1437598351.png","user_online":false,"user_votes":"197","user_posts":"1281","url":"https:\/\/www.enjin.com\/ajax.php?s=redirect&cmd=forum-post&mobile=1&preset=12571633&id=72391955"},{"post_id":"72393452","post_time":"1403977701","post_content":"Sure :D Id be happy to, but do you think you can handle the dissapointment? xD jk","post_content_html":"Sure <object class=\"emojione\" data=\"https:\/\/resources.enjin.com\/1489581540\/themes\/core\/images\/emojione\/svg\/1f600.svg?0\" type=\"image\/svg+xml\" standby=\":d\">:d<\/object> Id be happy to, but do you think you can handle the dissapointment? xD jk","post_content_clean":"Sure :D Id be happy to, but do you think you can handle the dissapointment? xD jk","post_user_id":"10567067","show_signature":"1","last_edit_time":"0","post_votes":"0","post_unhidden":"0","post_admin_hidden":"0","post_locked":"0","last_edit_user":"0","votes":null,"post_username":"Creeperhead2006","avatar":"https:\/\/resources.enjin.com\/1465083537\/profile\/images\/avatar\/medium.png","user_online":false,"user_votes":"0","user_posts":"29","url":"https:\/\/www.enjin.com\/ajax.php?s=redirect&cmd=forum-post&mobile=1&preset=12571633&id=72393452"},{"post_id":"72393602","post_time":"1403977852","post_content":"[size=5][color=#2360dd][b]You're perfect at PvP gurl. ;)[\/b][\/color][\/size]","post_content_html":"<span style=\"font-size:1.5em\"><b>You're perfect at PvP gurl. <object class=\"emojione\" data=\"https:\/\/resources.enjin.com\/1489581540\/themes\/core\/images\/emojione\/svg\/1f609.svg?0\" type=\"image\/svg+xml\" standby=\";)\">;)<\/object><\/b><\/span>","post_content_clean":"You're perfect at PvP gurl. ;)","post_user_id":"7549112","show_signature":"1","last_edit_time":"0","post_votes":"0","post_unhidden":"0","post_admin_hidden":"0","post_locked":"0","last_edit_user":"0","votes":null,"post_username":"Alice.","avatar":"https:\/\/assets-cloud.enjin.com\/users\/7549112\/avatar\/medium.1451003212.jpeg","user_online":false,"user_votes":"96","user_posts":"641","url":"https:\/\/www.enjin.com\/ajax.php?s=redirect&cmd=forum-post&mobile=1&preset=12571633&id=72393602"},{"post_id":"72394196","post_time":"1403978418","post_content":"Creeperhead, that's what you call real pvping. (not the 6v1 xD that is not fair)\r\nPeople these days think they are good at PVP because of how much gapples they have.\r\n\r\nI would like to PVP sometime. Your an interesting PVPer.\r\nLast time I had a big challenge in PVP was when I was against BlueCharmander All the time xD","post_content_html":"Creeperhead, that's what you call real pvping. (not the 6v1 xD that is not fair)<br \/> <br \/> People these days think they are good at PVP because of how much gapples they have.<br \/> <br \/> I would like to PVP sometime. Your an interesting PVPer.<br \/> <br \/> Last time I had a big challenge in PVP was when I was against BlueCharmander All the time xD","post_content_clean":"Creeperhead, that's what you call real pvping. (not the 6v1 xD that is not fair)\r People these days think they are good at PVP because of how much gapples they have.\r \r I would like to PVP sometime. Your an interesting PVPer. \r Last time I had a big challenge in PVP was when I was against BlueCharmander All the time xD","post_user_id":"6987381","show_signature":"1","last_edit_time":"0","post_votes":"0","post_unhidden":"0","post_admin_hidden":"0","post_locked":"0","last_edit_user":"0","votes":null,"post_username":"NiTeFuRy_","avatar":"https:\/\/assets-cloud.enjin.com\/users\/6987381\/avatar\/medium.1400122786.png","user_online":false,"user_votes":"168","user_posts":"1215","url":"https:\/\/www.enjin.com\/ajax.php?s=redirect&cmd=forum-post&mobile=1&preset=12571633&id=72394196"}],"total_items":"32","pages":4,"voted":false,"new_post_id":"72355188","thread_labels":[],"top_posters":{"result":[{"post_user_id":"10567067","posts":"15","username":"Creeperhead2006","avatar":"https:\/\/resources.enjin.com\/1465083537\/profile\/images\/avatar\/medium.png"},{"post_user_id":"5683757","posts":"1","username":"Ghully o.O","avatar":"https:\/\/assets-cloud.enjin.com\/users\/5683757\/avatar\/medium.1420341072.jpeg"},{"post_user_id":"6648983","posts":"1","username":"Boo Stark","avatar":"https:\/\/assets-cloud.enjin.com\/users\/6648983\/avatar\/medium.1437598351.png"},{"post_user_id":"7549112","posts":"1","username":"Alice.","avatar":"https:\/\/assets-cloud.enjin.com\/users\/7549112\/avatar\/medium.1451003212.jpeg"},{"post_user_id":"6987381","posts":"1","username":"NiTeFuRy_","avatar":"https:\/\/assets-cloud.enjin.com\/users\/6987381\/avatar\/medium.1400122786.png"},{"post_user_id":"10360034","posts":"1","username":"xXSirJosephXx","avatar":"https:\/\/resources.enjin.com\/1465083537\/profile\/images\/avatar\/medium.png"},{"post_user_id":"6333014","posts":"1","username":"toby","avatar":"https:\/\/resources.enjin.com\/1465083537\/profile\/images\/avatar\/medium.png"},{"post_user_id":"6069033","posts":"1","username":"shadowspade7","avatar":"https:\/\/resources.enjin.com\/1465083537\/profile\/images\/avatar\/medium.png"},{"post_user_id":"5894004","posts":"1","username":"Barb Dwire \/ Sam","avatar":"https:\/\/assets-cloud.enjin.com\/users\/5894004\/avatar\/medium.1562698316.jpeg"},{"post_user_id":"6567858","posts":"1","username":"BlueCharmander12","avatar":"https:\/\/assets-cloud.enjin.com\/users\/6567858\/avatar\/medium.1496942453.jpeg"},{"post_user_id":"7249968","posts":"1","username":"elybigguy","avatar":"https:\/\/assets-cloud.enjin.com\/users\/7249968\/avatar\/medium.1473972857.jpeg"},{"post_user_id":"7455843","posts":"1","username":"Star","avatar":"https:\/\/assets-cloud.enjin.com\/users\/7455843\/avatar\/medium.1417233797.jpeg"}],"num_users":"18"},"moderation_access":false,"poll_post":null,"post_access":true,"new_thread_access":true},"id":"1234567","jsonrpc":"2.0"}
{"result":{"thread":{"preset_id":"12571633","forum_id":"4414908","thread_id":"13536750","thread_subject":"Is This a Fair Fight In Skyblock?","thread_replies":"31","thread_views":"10877","thread_type":"normal","thread_status":"locked","thread_user_id":"10567067","thread_username":"Creeperhead2006","thread_avatar":"https:\/\/resources.enjin.com\/1465083537\/profile\/images\/avatar\/medium.png","thread_lastpost_user_id":"6240898","thread_lastpost_username":"13706908831541551754","thread_lastpost_time":"1403994398","thread_moved_id":"0","thread_post_time":"1403921074","url":"https:\/\/www.enjin.com\/ajax.php?s=redirect&cmd=forum-thread&mobile=1&preset=12571633&id=13536750","post_count":"1","category_id":"1907006","forum_name":"SkyBlock General Discussion","forum_description":"Discuss with other players about Skyblock.","disable_voting":"0","show_signature":"1","url_cms":"https:\/\/www.craftsurvivalgames.com\/forum\/m\/12571633\/viewthread\/13536750-this-fair-fight-in-skyblock"},"posts":[{"post_id":"72394901","post_time":"1403979128","post_content":"[color=#2360dd]xD Thanks :)[\/color]","post_content_html":"xD Thanks <object class=\"emojione\" data=\"https:\/\/resources.enjin.com\/1489581540\/themes\/core\/images\/emojione\/svg\/1f642.svg?0\" type=\"image\/svg+xml\" standby=\":)\">:)<\/object>","post_content_clean":"xD Thanks :)","post_user_id":"10567067","show_signature":"1","last_edit_time":"0","post_votes":"0","post_unhidden":"0","post_admin_hidden":"0","post_locked":"0","last_edit_user":"0","votes":null,"post_username":"Creeperhead2006","avatar":"https:\/\/resources.enjin.com\/1465083537\/profile\/images\/avatar\/medium.png","user_online":false,"user_votes":"0","user_posts":"29","url":"https:\/\/www.enjin.com\/ajax.php?s=redirect&cmd=forum-post&mobile=1&preset=12571633&id=72394901"},{"post_id":"72394941","post_time":"1403979160","post_content":"Ill look Forward to it :D","post_content_html":"Ill look Forward to it <object class=\"emojione\" data=\"https:\/\/resources.enjin.com\/1489581540\/themes\/core\/images\/emojione\/svg\/1f600.svg?0\" type=\"image\/svg+xml\" standby=\":d\">:d<\/object>","post_content_clean":"Ill look Forward to it :D","post_user_id":"10567067","show_signature":"1","last_edit_time":"0","post_votes":"0","post_unhidden":"0","post_admin_hidden":"0","post_locked":"0","last_edit_user":"0","votes":null,"post_username":"Creeperhead2006","avatar":"https:\/\/resources.enjin.com\/1465083537\/profile\/images\/avatar\/medium.png","user_online":false,"user_votes":"0","user_posts":"29","url":"https:\/\/www.enjin.com\/ajax.php?s=redirect&cmd=forum-post&mobile=1&preset=12571633&id=72394941"},{"post_id":"72395772","post_time":"1403979947","post_content":"[b]Wow that was unfair. Your good at pvp. I may have to challenge you :D[\/b]","post_content_html":"<b>Wow that was unfair. Your good at pvp. I may have to challenge you <object class=\"emojione\" data=\"https:\/\/resources.enjin.com\/1489581540\/themes\/core\/images\/emojione\/svg\/1f600.svg?0\" type=\"image\/svg+xml\" standby=\":d\">:d<\/object><\/b>","post_content_clean":"Wow that was unfair. Your good at pvp. I may have to challenge you :D","post_user_id":"6333014","show_signature":"1","last_edit_time":"0","post_votes":"0","post_unhidden":"0","post_admin_hidden":"0","post_locked":"0","last_edit_user":"0","votes":null,"post_username":"toby","avatar":"https:\/\/resources.enjin.com\/1465083537\/profile\/images\/avatar\/medium.png","user_online":false,"user_votes":"134","user_posts":"1023","url":"https:\/\/www.enjin.com\/ajax.php?s=redirect&cmd=forum-post&mobile=1&preset=12571633&id=72395772"},{"post_id":"72396560","post_time":"1403980676","post_content":"[size=5][color=#239edd]Woah! You're goooooooood :D\r\n\r\nI hope to see more videos in the near future :)\r\n\r\n\r\n~Keep PvPing\r\n\r\n-Sam[\/color][\/size]","post_content_html":"<span style=\"font-size:1.5em\">Woah! You're goooooooood <object class=\"emojione\" data=\"https:\/\/resources.enjin.com\/1489581540\/themes\/core\/images\/emojione\/svg\/1f600.svg?0\" type=\"image\/svg+xml\" standby=\":d\">:d<\/object><br \/> <br \/> I hope to see more videos in the near future <object class=\"emojione\" data=\"https:\/\/resources.enjin.com\/1489581540\/themes\/core\/images\/emojione\/svg\/1f642.svg?0\" type=\"image\/svg+xml\" standby=\":)\">:)<\/object><br \/> <br \/> ~Keep PvPing<br \/> <br \/> -Sam<\/span>","post_content_clean":"Woah! You're goooooooood :D\r \r I hope to see more videos in the near future :)\r \r \r ~Keep PvPing\r \r -Sam","post_user_id":"5894004","show_signature":"1","last_edit_time":"0","post_votes":"0","post_unhidden":"0","post_admin_hidden":"0","post_locked":"0","last_edit_user":"0","votes":null,"post_username":"Barb Dwire \/ Sam","avatar":"https:\/\/assets-cloud.enjin.com\/users\/5894004\/avatar\/medium.1562698316.jpeg","user_online":false,"user_votes":"114","user_posts":"749","url":"https:\/\/www.enjin.com\/ajax.php?s=redirect&cmd=forum-post&mobile=1&preset=12571633&id=72396560"},{"post_id":"72396648","post_time":"1403980752","post_content":"Lookin Foreward to it :D","post_content_html":"Lookin Foreward to it <object class=\"emojione\" data=\"https:\/\/resources.enjin.com\/1489581540\/themes\/core\/images\/emojione\/svg\/1f600.svg?0\" type=\"image\/svg+xml\" standby=\":d\">:d<\/object>","post_content_clean":"Lookin Foreward to it :D","post_user_id":"10567067","show_signature":"1","last_edit_time":"0","post_votes":"0","post_unhidden":"0","post_admin_hidden":"0","post_locked":"0","last_edit_user":"0","votes":null,"post_username":"Creeperhead2006","avatar":"https:\/\/resources.enjin.com\/1465083537\/profile\/images\/avatar\/medium.png","user_online":false,"user_votes":"0","user_posts":"29","url":"https:\/\/www.enjin.com\/ajax.php?s=redirect&cmd=forum-post&mobile=1&preset=12571633&id=72396648"},{"post_id":"72396715","post_time":"1403980819","post_content":"Trust me You will :) i get in a lot of 3-10v1 Battles o.o but my armor always ends up breaking :(","post_content_html":"Trust me You will <object class=\"emojione\" data=\"https:\/\/resources.enjin.com\/1489581540\/themes\/core\/images\/emojione\/svg\/1f642.svg?0\" type=\"image\/svg+xml\" standby=\":)\">:)<\/object> i get in a lot of 3-10v1 Battles o.o but my armor always ends up breaking :(","post_content_clean":"Trust me You will :) i get in a lot of 3-10v1 Battles o.o but my armor always ends up breaking :(","post_user_id":"10567067","show_signature":"1","last_edit_time":"0","post_votes":"0","post_unhidden":"0","post_admin_hidden":"0","post_locked":"0","last_edit_user":"0","votes":null,"post_username":"Creeperhead2006","avatar":"https:\/\/resources.enjin.com\/1465083537\/profile\/images\/avatar\/medium.png","user_online":false,"user_votes":"0","user_posts":"29","url":"https:\/\/www.enjin.com\/ajax.php?s=redirect&cmd=forum-post&mobile=1&preset=12571633&id=72396715"},{"post_id":"72397166","post_time":"1403981273","post_content":"Creeper ur really good at pvp and dont hack. There just being DERPS","post_content_html":"Creeper ur really good at pvp and dont hack. There just being DERPS","post_content_clean":"Creeper ur really good at pvp and dont hack. There just being DERPS","post_user_id":"7249968","show_signature":"1","last_edit_time":"0","post_votes":"0","post_unhidden":"0","post_admin_hidden":"0","post_locked":"0","last_edit_user":"0","votes":null,"post_username":"elybigguy","avatar":"https:\/\/assets-cloud.enjin.com\/users\/7249968\/avatar\/medium.1473972857.jpeg","user_online":false,"user_votes":"6","user_posts":"57","url":"https:\/\/www.enjin.com\/ajax.php?s=redirect&cmd=forum-post&mobile=1&preset=12571633&id=72397166"},{"post_id":"72399421","post_time":"1403983452","post_content":"Thanks alot ely :D","post_content_html":"Thanks alot ely <object class=\"emojione\" data=\"https:\/\/resources.enjin.com\/1489581540\/themes\/core\/images\/emojione\/svg\/1f600.svg?0\" type=\"image\/svg+xml\" standby=\":d\">:d<\/object>","post_content_clean":"Thanks alot ely :D","post_user_id":"10567067","show_signature":"1","last_edit_time":"0","post_votes":"0","post_unhidden":"0","post_admin_hidden":"0","post_locked":"0","last_edit_user":"0","votes":null,"post_username":"Creeperhead2006","avatar":"https:\/\/resources.enjin.com\/1465083537\/profile\/images\/avatar\/medium.png","user_online":false,"user_votes":"0","user_posts":"29","url":"https:\/\/www.enjin.com\/ajax.php?s=redirect&cmd=forum-post&mobile=1&preset=12571633&id=72399421"},{"post_id":"72400388","post_time":"1403984342","post_content":"nice skills!\r\n\r\nif possible i will invite you to my fac","post_content_html":"nice skills!<br \/> <br \/> if possible i will invite you to my fac","post_content_clean":"nice skills!\r \r if possible i will invite you to my fac","post_user_id":"9584496","show_signature":"1","last_edit_time":"0","post_votes":"0","post_unhidden":"0","post_admin_hidden":"0","post_locked":"0","last_edit_user":"0","votes":null,"post_username":"TheMadGolem","avatar":"https:\/\/assets-cloud.enjin.com\/users\/9584496\/avatar\/medium.1418311976.png","user_online":false,"user_votes":"7","user_posts":"467","url":"https:\/\/www.enjin.com\/ajax.php?s=redirect&cmd=forum-post&mobile=1&preset=12571633&id=72400388"},{"post_id":"72401271","post_time":"1403985162","post_content":"Sure :D","post_content_html":"Sure <object class=\"emojione\" data=\"https:\/\/resources.enjin.com\/1489581540\/themes\/core\/images\/emojione\/svg\/1f600.svg?0\" type=\"image\/svg+xml\" standby=\":d\">:d<\/object>","post_content_clean":"Sure :D","post_user_id":"10567067","show_signature":"1","last_edit_time":"0","post_votes":"0","post_unhidden":"0","post_admin_hidden":"0","post_locked":"0","last_edit_user":"0","votes":null,"post_username":"Creeperhead2006","avatar":"https:\/\/resources.enjin.com\/1465083537\/profile\/images\/avatar\/medium.png","user_online":false,"user_votes":"0","user_posts":"29","url":"https:\/\/www.enjin.com\/ajax.php?s=redirect&cmd=forum-post&mobile=1&preset=12571633&id=72401271"}],"total_items":"32","pages":4,"voted":false,"new_post_id":"72394901","thread_labels":[],"top_posters":{"result":[{"post_user_id":"10567067","posts":"15","username":"Creeperhead2006","avatar":"https:\/\/resources.enjin.com\/1465083537\/profile\/images\/avatar\/medium.png"},{"post_user_id":"7455843","posts":"1","username":"Star","avatar":"https:\/\/assets-cloud.enjin.com\/users\/7455843\/avatar\/medium.1417233797.jpeg"},{"post_user_id":"9584496","posts":"1","username":"TheMadGolem","avatar":"https:\/\/assets-cloud.enjin.com\/users\/9584496\/avatar\/medium.1418311976.png"},{"post_user_id":"7661412","posts":"1","username":"\u2694 Danneh~MC\u2502SAO \u2694","avatar":"https:\/\/assets-cloud.enjin.com\/users\/7661412\/avatar\/medium.1410214521.jpeg"},{"post_user_id":"6517735","posts":"1","username":"GalaxyOP","avatar":"https:\/\/assets-cloud.enjin.com\/users\/6517735\/avatar\/medium.1405545553.png"},{"post_user_id":"7823616","posts":"1","username":"Angelaa621","avatar":"https:\/\/assets-cloud.enjin.com\/users\/7823616\/avatar\/medium.1454213303.png"},{"post_user_id":"6240898","posts":"1","username":"spot","avatar":"https:\/\/assets-cloud.enjin.com\/users\/6240898\/avatar\/medium.1400106374.png"},{"post_user_id":"7787187","posts":"1","username":"peachybunny16 \/","avatar":"https:\/\/resources.enjin.com\/1465083537\/profile\/images\/avatar\/medium.png"},{"post_user_id":"5683757","posts":"1","username":"Ghully o.O","avatar":"https:\/\/assets-cloud.enjin.com\/users\/5683757\/avatar\/medium.1420341072.jpeg"},{"post_user_id":"6648983","posts":"1","username":"Boo Stark","avatar":"https:\/\/assets-cloud.enjin.com\/users\/6648983\/avatar\/medium.1437598351.png"},{"post_user_id":"7549112","posts":"1","username":"Alice.","avatar":"https:\/\/assets-cloud.enjin.com\/users\/7549112\/avatar\/medium.1451003212.jpeg"},{"post_user_id":"6987381","posts":"1","username":"NiTeFuRy_","avatar":"https:\/\/assets-cloud.enjin.com\/users\/6987381\/avatar\/medium.1400122786.png"}],"num_users":"18"},"moderation_access":false,"poll_post":null,"post_access":true,"new_thread_access":true},"id":"1234567","jsonrpc":"2.0"}
{"result":{"thread":{"preset_id":"12571633","forum_id":"4414908","thread_id":"13536750","thread_subject":"Is This a Fair Fight In Skyblock?","thread_replies":"31","thread_views":"10877","thread_type":"normal","thread_status":"locked","thread_user_id":"10567067","thread_username":"Creeperhead2006","thread_avatar":"https:\/\/assets-cloud.enjin.com\/users\/10567067\/avatar\/medium.1405545553.png","thread_lastpost_user_id":"6240898","thread_lastpost_username":"13706908831541551754","thread_lastpost_time":"1403994398","thread_moved_id":"0","thread_post_time":"1403921074","url":"https:\/\/www.enjin.com\/ajax.php?s=redirect&cmd=forum-thread&mobile=1&preset=12571633&id=13536750","post_count":"1","category_id":"1907006","forum_name":"SkyBlock General Discussion","forum_description":"Discuss with other players about Skyblock.","disable_voting":"0","show_signature":"1","url_cms":"https:\/\/www.craftsurvivalgames.com\/forum\/m\/12571633\/viewthread\/13536750-this-fair-fight-in-skyblock"},"posts":[{"post_id":"72408150","post_time":"1403991883","post_content":"Too strongk","post_content_html":"Too strongk","post_content_clean":"Too strongk","post_user_id":"6517735","show_signature":"1","last_edit_time":"0","post_votes":"0","post_unhidden":"0","post_admin_hidden":"0","post_locked":"0","last_edit_user":"0","votes":null,"post_username":"GalaxyOP","avatar":"https:\/\/assets-cloud.enjin.com\/users\/6517735\/avatar\/medium.1405545553.png","user_online":false,"user_votes":"13","user_posts":"325","url":"https:\/\/www.enjin.com\/ajax.php?s=redirect&cmd=forum-post&mobile=1&preset=12571633&id=72408150"},{"post_id":"72410923","post_time":"1403994398","post_content":"[quote user_id=\"10567067\" avatar=\"https:\/\/cravatar.eu\/helmavatar\/creeperhead2006\/74.png\" name=\"creeperhead2006\"]No Offence Taken :D I Do Lag Everywhere #InternetWTF[\/quote]\r\n\r\nYou said to me when I bet you that you got a 30 ping, is that true?","post_content_html":" <div class=\"bbcode_quote\"> <div class=\"bbcode_quote_head\">@10567067 wrote:<\/div> <div class=\"bbcode_quote_body\">No Offence Taken <object class=\"emojione\" data=\"https:\/\/resources.enjin.com\/1489581540\/themes\/core\/images\/emojione\/svg\/1f600.svg?0\" type=\"image\/svg+xml\" standby=\":d\">:d<\/object> I Do Lag Everywhere #InternetWTF<\/div> <\/div> <br \/> You said to me when I bet you that you got a 30 ping, is that true?","post_content_clean":"No Offence Taken :D I Do Lag Everywhere #InternetWTF\r \r You said to me when I bet you that you got a 30 ping, is that true?","post_user_id":"6240898","show_signature":"1","last_edit_time":"1404013474","post_votes":"0","post_unhidden":"0","post_admin_hidden":"0","post_locked":"0","last_edit_user":"0","votes":null,"post_username":"spot","avatar":"https:\/\/assets-cloud.enjin.com\/users\/6240898\/avatar\/medium.1400106374.png","user_online":false,"user_votes":"258","user_posts":"2284","url":"https:\/\/www.enjin.com\/ajax.php?s=redirect&cmd=forum-post&mobile=1&preset=12571633&id=72410923"}],"total_items":"32","pages":4,"voted":false,"new_post_id":"72408150","thread_labels":[],"top_posters":{"result":[{"post_user_id":"10567067","posts":"15","username":"Creeperhead2006","avatar":"https:\/\/resources.enjin.com\/1465083537\/profile\/images\/avatar\/medium.png"},{"post_user_id":"7455843","posts":"1","username":"Star","avatar":"https:\/\/assets-cloud.enjin.com\/users\/7455843\/avatar\/medium.1417233797.jpeg"},{"post_user_id":"9584496","posts":"1","username":"TheMadGolem","avatar":"https:\/\/assets-cloud.enjin.com\/users\/9584496\/avatar\/medium.1418311976.png"},{"post_user_id":"7661412","posts":"1","username":"\u2694 Danneh~MC\u2502SAO \u2694","avatar":"https:\/\/assets-cloud.enjin.com\/users\/7661412\/avatar\/medium.1410214521.jpeg"},{"post_user_id":"6517735","posts":"1","username":"GalaxyOP","avatar":"https:\/\/assets-cloud.enjin.com\/users\/6517735\/avatar\/medium.1405545553.png"},{"post_user_id":"7823616","posts":"1","username":"Angelaa621","avatar":"https:\/\/assets-cloud.enjin.com\/users\/7823616\/avatar\/medium.1454213303.png"},{"post_user_id":"6240898","posts":"1","username":"spot","avatar":"https:\/\/assets-cloud.enjin.com\/users\/6240898\/avatar\/medium.1400106374.png"},{"post_user_id":"7787187","posts":"1","username":"peachybunny16 \/","avatar":"https:\/\/resources.enjin.com\/1465083537\/profile\/images\/avatar\/medium.png"},{"post_user_id":"5683757","posts":"1","username":"Ghully o.O","avatar":"https:\/\/assets-cloud.enjin.com\/users\/5683757\/avatar\/medium.1420341072.jpeg"},{"post_user_id":"6648983","posts":"1","username":"Boo Stark","avatar":"https:\/\/assets-cloud.enjin.com\/users\/6648983\/avatar\/medium.1437598351.png"},{"post_user_id":"7549112","posts":"1","username":"Alice.","avatar":"https:\/\/assets-cloud.enjin.com\/users\/7549112\/avatar\/medium.1451003212.jpeg"},{"post_user_id":"6987381","posts":"1","username":"NiTeFuRy_","avatar":"https:\/\/assets-cloud.enjin.com\/users\/6987381\/avatar\/medium.1400122786.png"}],"num_users":"18"},"moderation_access":false,"poll_post":null,"post_access":true,"new_thread_access":true},"id":"1234567","jsonrpc":"2.0"}
