{"result":{"thread":{"preset_id":"12571633","forum_id":"2419048","thread_id":"14169521","thread_subject":"Watch this SOO funny","thread_replies":"20","thread_views":"1413","thread_type":"normal","thread_status":"locked","thread_user_id":"6755616","thread_username":"Cuddly","thread_avatar":"https:\/\/assets-cloud.enjin.com\/users\/6755616\/avatar\/medium.1424293866.png","thread_lastpost_user_id":"9584496","thread_lastpost_username":"! Charles Xavier !","thread_lastpost_time":"1407055795","thread_moved_id":"0","thread_post_time":"1406768850","url":"https:\/\/www.enjin.com\/ajax.php?s=redirect&cmd=forum-thread&mobile=1&preset=12571633&id=14169521","post_count":"1","category_id":"1907006","forum_name":"General Discussion","forum_description":"Discussion about general topics.","disable_voting":"0","show_signature":"1","url_cms":"https:\/\/www.craftsurvivalgames.com\/forum\/m\/12571633\/viewthread\/14169521-watch-this-soo-funny"},"posts":[{"post_id":"75012009","post_time":"1406768850","post_content":"This kid is pretending to be Shicking and saything that he owns the server\r\n\r\nhttps:\/\/www.youtube.com\/watch?v=QxEcv2ryzy4","post_content_html":"This kid is pretending to be Shicking and saything that he owns the server<br \/> <br \/> <a rel=\"nofollow\" href=\"https:\/\/www.youtube.com\/watch?v=QxEcv2ryzy4\" class=\"bbcode_url\" title=\"https:\/\/www.youtube.com\/watch?v=QxEcv2ryzy4\" data-safe-url=\"https:\/\/redirect.enjin.com\/n\/33ca70ce98\">https:\/\/www.youtube.com\/watch?v=QxEcv2ryzy4<\/a>","post_content_clean":"This kid is pretending to be Shicking and saything that he owns the server\r \r https:\/\/www.youtube.com\/watch?v=QxEcv2ryzy4","post_user_id":"6755616","show_signature":"1","last_edit_time":"0","post_votes":"0","post_unhidden":"0","post_admin_hidden":"0","post_locked":"0","last_edit_user":"0","votes":null,"post_username":"Cuddly","avatar":"https:\/\/assets-cloud.enjin.com\/users\/6755616\/avatar\/medium.1424293866.png","user_online":false,"user_votes":"23","user_posts":"209","url":"https:\/\/www.enjin.com\/ajax.php?s=redirect&cmd=forum-post&mobile=1&preset=12571633&id=75012009"},{"post_id":"75012169","post_time":"1406768990","post_content":"[color=#6e23dd][size=3]LOL this is just so sad I can't believe someone would actually do that and pretend to be Shicking and say that.[\/size][\/color]","post_content_html":"<span style=\"font-size:1.0em\">LOL this is just so sad I can't believe someone would actually do that and pretend to be Shicking and say that.<\/span>","post_content_clean":"LOL this is just so sad I can't believe someone would actually do that and pretend to be Shicking and say that.","post_user_id":"9065107","show_signature":"1","last_edit_time":"0","post_votes":"0","post_unhidden":"0","post_admin_hidden":"0","post_locked":"0","last_edit_user":"0","votes":null,"post_username":"brebell1","avatar":"https:\/\/resources.enjin.com\/1465083537\/profile\/images\/avatar\/medium.png","user_online":false,"user_votes":"3","user_posts":"81","url":"https:\/\/www.enjin.com\/ajax.php?s=redirect&cmd=forum-post&mobile=1&preset=12571633&id=75012169"},{"post_id":"75014732","post_time":"1406771495","post_content":"[color=#dd9323][b]Honestly, this guy gives me a headache...[\/color]","post_content_html":"<b>Honestly, this guy gives me a headache...<\/b>","post_content_clean":"Honestly, this guy gives me a headache...","post_user_id":"7935503","show_signature":"1","last_edit_time":"0","post_votes":"0","post_unhidden":"0","post_admin_hidden":"0","post_locked":"0","last_edit_user":"0","votes":null,"post_username":"quit bye &lt;3","avatar":"https:\/\/resources.enjin.com\/1465083537\/profile\/images\/avatar\/medium.png","user_online":false,"user_votes":"232","user_posts":"697","url":"https:\/\/www.enjin.com\/ajax.php?s=redirect&cmd=forum-post&mobile=1&preset=12571633&id=75014732"},{"post_id":"75016400","post_time":"1406773118","post_content":"This is funny also: https:\/\/www.youtube.com\/watch?v=pmqnQcMktSs","post_content_html":"This is funny also: <a rel=\"nofollow\" href=\"https:\/\/www.youtube.com\/watch?v=pmqnQcMktSs\" class=\"bbcode_url\" title=\"https:\/\/www.youtube.com\/watch?v=pmqnQcMktSs\" data-safe-url=\"https:\/\/redirect.enjin.com\/n\/b06bbe07b2\">https:\/\/www.youtube.com\/watch?v=pmqnQcMktSs<\/a>","post_content_clean":"This is funny also: https:\/\/www.youtube.com\/watch?v=pmqnQcMktSs","post_user_id":"7677849","show_signature":"1","last_edit_time":"0","post_votes":"0","post_unhidden":"0","post_admin_hidden":"0","post_locked":"0","last_edit_user":"0","votes":null,"post_username":"AwakenSilence","avatar":"https:\/\/assets-cloud.enjin.com\/users\/7677849\/avatar\/medium.1468002557.jpeg","user_online":false,"user_votes":"84","user_posts":"732","url":"https:\/\/www.enjin.com\/ajax.php?s=redirect&cmd=forum-post&mobile=1&preset=12571633&id=75016400"},{"post_id":"75018720","post_time":"1406775515","post_content":"That is fricken scary awaken I am gonna have nightmares now :o","post_content_html":"That is fricken scary awaken I am gonna have nightmares now <object class=\"emojione\" data=\"https:\/\/resources.enjin.com\/1489581540\/themes\/core\/images\/emojione\/svg\/1f632.svg?0\" type=\"image\/svg+xml\" standby=\":o\">:o<\/object>","post_content_clean":"That is fricken scary awaken I am gonna have nightmares now :o","post_user_id":"6556307","show_signature":"1","last_edit_time":"0","post_votes":"0","post_unhidden":"0","post_admin_hidden":"0","post_locked":"0","last_edit_user":"0","votes":null,"post_username":"~Harriskin\/Harrison~","avatar":"https:\/\/assets-cloud.enjin.com\/users\/6556307\/avatar\/medium.1415022635.png","user_online":false,"user_votes":"219","user_posts":"1402","url":"https:\/\/www.enjin.com\/ajax.php?s=redirect&cmd=forum-post&mobile=1&preset=12571633&id=75018720"},{"post_id":"75026000","post_time":"1406784625","post_content":"[color=teal][i]Keep dreamin' . . .","post_content_html":"<i>Keep dreamin' . . .<\/i>","post_content_clean":"Keep dreamin' . . .","post_user_id":"6672203","show_signature":"1","last_edit_time":"0","post_votes":"0","post_unhidden":"0","post_admin_hidden":"0","post_locked":"0","last_edit_user":"0","votes":null,"post_username":"\u01a4\u0280ox\u0251","avatar":"https:\/\/assets-cloud.enjin.com\/users\/6672203\/avatar\/medium.1419832957.png","user_online":false,"user_votes":"193","user_posts":"2525","url":"https:\/\/www.enjin.com\/ajax.php?s=redirect&cmd=forum-post&mobile=1&preset=12571633&id=75026000"},{"post_id":"75026513","post_time":"1406785351","post_content":"Lol this is funny, not even shickings skin xD","post_content_html":"Lol this is funny, not even shickings skin xD","post_content_clean":"Lol this is funny, not even shickings skin xD","post_user_id":"6934081","show_signature":"1","last_edit_time":"0","post_votes":"0","post_unhidden":"0","post_admin_hidden":"0","post_locked":"0","last_edit_user":"0","votes":null,"post_username":"Marsh Or Zach","avatar":"https:\/\/assets-cloud.enjin.com\/users\/6934081\/avatar\/medium.1400125658.png","user_online":false,"user_votes":"171","user_posts":"861","url":"https:\/\/www.enjin.com\/ajax.php?s=redirect&cmd=forum-post&mobile=1&preset=12571633&id=75026513"},{"post_id":"75031289","post_time":"1406792819","post_content":"What's also funny is that Shicking uses a Windows computer... Not a Mac.","post_content_html":"What's also funny is that Shicking uses a Windows computer... Not a Mac.","post_content_clean":"What's also funny is that Shicking uses a Windows computer... Not a Mac.","post_user_id":"3553747","show_signature":"1","last_edit_time":"0","post_votes":"0","post_unhidden":"0","post_admin_hidden":"0","post_locked":"0","last_edit_user":"0","votes":null,"post_username":"ElshSolo Player","avatar":"https:\/\/assets-cloud.enjin.com\/users\/3553747\/avatar\/medium.1439834345.jpeg","user_online":false,"user_votes":"107","user_posts":"609","url":"https:\/\/www.enjin.com\/ajax.php?s=redirect&cmd=forum-post&mobile=1&preset=12571633&id=75031289"},{"post_id":"75043961","post_time":"1406810907","post_content":"[img]http:\/\/media.giphy.com\/media\/3i7zenReaUuI0\/giphy.gif[\/img]\r\n\r\n\r\n[size=5][color=#239edd]Well then... [\/color][\/size][size=5][\/size]","post_content_html":"<img src=\"http:\/\/media.giphy.com\/media\/3i7zenReaUuI0\/giphy.gif\" alt=\"giphy.gif\" class=\"bbcode_img mobile_img\" style=\"\" \/><br \/> <br \/> <span style=\"font-size:1.5em\">Well then... <\/span><span style=\"font-size:1.5em\"><\/span>","post_content_clean":"\r \r \r Well then... ","post_user_id":"5894004","show_signature":"1","last_edit_time":"0","post_votes":"0","post_unhidden":"0","post_admin_hidden":"0","post_locked":"0","last_edit_user":"0","votes":null,"post_username":"Barb Dwire \/ Sam","avatar":"https:\/\/assets-cloud.enjin.com\/users\/5894004\/avatar\/medium.1562698316.jpeg","user_online":false,"user_votes":"114","user_posts":"749","url":"https:\/\/www.enjin.com\/ajax.php?s=redirect&cmd=forum-post&mobile=1&preset=12571633&id=75043961"},{"post_id":"75049681","post_time":"1406817034","post_content":"Oh my god. https:\/\/www.youtube.com\/watch?v=nFHrvxOXT64&amp;list=UUTCagfStkoTDNJHvejoO2kw  .  That's the wannabe shicking kid XD","post_content_html":"Oh my god. <a rel=\"nofollow\" href=\"https:\/\/www.youtube.com\/watch?v=nFHrvxOXT64&amp;list=UUTCagfStkoTDNJHvejoO2kw\" class=\"bbcode_url\" title=\"https:\/\/www.youtube.com\/watch?v=nFHrvxOXT64&amp;list=UUTCagfStkoTDNJHvejoO2kw\" data-safe-url=\"https:\/\/redirect.enjin.com\/n\/c37c8cd51b\">https:\/\/www.youtube.com\/watch?v=nFHrvxOXT64&amp;list=UUTCagfStkoTDNJHvejoO2kw<\/a>  .  That's the wannabe shicking kid XD","post_content_clean":"Oh my god. https:\/\/www.youtube.com\/watch?v=nFHrvxOXT64&list=UUTCagfStkoTDNJHvejoO2kw  .  That's the wannabe shicking kid XD","post_user_id":"7047791","show_signature":"1","last_edit_time":"0","post_votes":"0","post_unhidden":"0","post_admin_hidden":"0","post_locked":"0","last_edit_user":"0","votes":null,"post_username":"BackAndForth","avatar":"https:\/\/assets-cloud.enjin.com\/users\/7047791\/avatar\/medium.1465820885.jpeg","user_online":false,"user_votes":"2","user_posts":"134","url":"https:\/\/www.enjin.com\/ajax.php?s=redirect&cmd=forum-post&mobile=1&preset=12571633&id=75049681"}],"total_items":"21","pages":3,"voted":false,"new_post_id":false,"thread_labels":[],"top_posters":{"result":[{"post_user_id":"4236134","posts":"1","username":"WoodenBlock","avatar":"https:\/\/resources.enjin.com\/1465083537\/profile\/images\/avatar\/medium.png"},{"post_user_id":"6934081","posts":"1","username":"Marsh Or Zach","avatar":"https:\/\/assets-cloud.enjin.com\/users\/6934081\/avatar\/medium.1400125658.png"},{"post_user_id":"7925251","posts":"1","username":"User","avatar":"https:\/\/assets-cloud.enjin.com\/users\/7925251\/avatar\/medium.1425424175.jpeg"},{"post_user_id":"3553747","posts":"1","username":"ElshSolo Player","avatar":"https:\/\/assets-cloud.enjin.com\/users\/3553747\/avatar\/medium.1439834345.jpeg"},{"post_user_id":"7524505","posts":"1","username":"Bapnatsu","avatar":"https:\/\/assets-cloud.enjin.com\/users\/7524505\/avatar\/medium.1403540472.gif"},{"post_user_id":"5894004","posts":"1","username":"Barb Dwire \/ Sam","avatar":"https:\/\/assets-cloud.enjin.com\/users\/5894004\/avatar\/medium.1562698316.jpeg"},{"post_user_id":"6582433","posts":"1","username":"Umut","avatar":"https:\/\/assets-cloud.enjin.com\/users\/6582433\/avatar\/medium.1400120239.png"},{"post_user_id":"7047791","posts":"1","username":"BackAndForth","avatar":"https:\/\/assets-cloud.enjin.com\/users\/7047791\/avatar\/medium.1465820885.jpeg"},{"post_user_id":"9584496","posts":"1","username":"TheMadGolem","avatar":"https:\/\/assets-cloud.enjin.com\/users\/9584496\/avatar\/medium.1418311976.png"},{"post_user_id":"9143949","posts":"1","username":"\u266bAshley\u266b","avatar":"https:\/\/assets-cloud.enjin.com\/users\/9143949\/avatar\/medium.1407189877.png"},{"post_user_id":"6755616","posts":"1","username":"Cuddly","avatar":"https:\/\/assets-cloud.enjin.com\/users\/6755616\/avatar\/medium.1424293866.png"},{"post_user_id":"5264359","posts":"1","username":"bertus112","avatar":"https:\/\/assets-cloud.enjin.com\/users\/5264359\/avatar\/medium.1400094074.png"}],"num_users":"21"},"moderation_access":false,"poll_post":null,"post_access":true,"new_thread_access":true},"id":"1234567","jsonrpc":"2.0"}
{"result":{"thread":{"preset_id":"12571633","forum_id":"2419048","thread_id":"14169521","thread_subject":"Watch this SOO funny","thread_replies":"20","thread_views":"1413","thread_type":"normal","thread_status":"locked","thread_user_id":"6755616","thread_username":"Cuddly","thread_avatar":"https:\/\/assets-cloud.enjin.com\/users\/6755616\/avatar\/medium.1407189877.png","thread_lastpost_user_id":"9584496","thread_lastpost_username":"! Charles Xavier !","thread_lastpost_time":"1407055795","thread_moved_id":"0","thread_post_time":"1406768850","url":"https:\/\/www.enjin.com\/ajax.php?s=redirect&cmd=forum-thread&mobile=1&preset=12571633&id=14169521","post_count":"1","category_id":"1907006","forum_name":"General Discussion","forum_description":"Discussion about general topics.","disable_voting":"0","show_signature":"1","url_cms":"https:\/\/www.craftsurvivalgames.com\/forum\/m\/12571633\/viewthread\/14169521-watch-this-soo-funny"},"posts":[{"post_id":"75051539","post_time":"1406818651","post_content":"The lighting in tht video was killing my eyes... \\@_@\/","post_content_html":"The lighting in tht video was killing my eyes... \\@_@\/","post_content_clean":"The lighting in tht video was killing my eyes... \\@_@\/","post_user_id":"9143949","show_signature":"1","last_edit_time":"0","post_votes":"0","post_unhidden":"0","post_admin_hidden":"0","post_locked":"0","last_edit_user":"0","votes":null,"post_username":"\u266bAshley\u266b","avatar":"https:\/\/assets-cloud.enjin.com\/users\/9143949\/avatar\/medium.1407189877.png","user_online":false,"user_votes":"0","user_posts":"6","url":"https:\/\/www.enjin.com\/ajax.php?s=redirect&cmd=forum-post&mobile=1&preset=12571633&id=75051539"},{"post_id":"75051972","post_time":"1406819032","post_content":"Ermahgerd :3","post_content_html":"Ermahgerd :3","post_content_clean":"Ermahgerd :3","post_user_id":"5264359","show_signature":"1","last_edit_time":"0","post_votes":"0","post_unhidden":"0","post_admin_hidden":"0","post_locked":"0","last_edit_user":"0","votes":null,"post_username":"bertus112","avatar":"https:\/\/assets-cloud.enjin.com\/users\/5264359\/avatar\/medium.1400094074.png","user_online":false,"user_votes":"894","user_posts":"1926","url":"https:\/\/www.enjin.com\/ajax.php?s=redirect&cmd=forum-post&mobile=1&preset=12571633&id=75051972"},{"post_id":"75055336","post_time":"1406822022","post_content":"[quote user_id=\"7677849\" avatar=\"https:\/\/cravatar.eu\/helmavatar\/AwakenSilence14\/74.png\" name=\"AwakenSilence14\"]This is funny also: https:\/\/www.youtube.com\/watch?v=pmqnQcMktSs[\/quote]\r\nI'm not clickin' that.","post_content_html":" <div class=\"bbcode_quote\"> <div class=\"bbcode_quote_head\">@7677849 wrote:<\/div> <div class=\"bbcode_quote_body\">This is funny also: <a rel=\"nofollow\" href=\"https:\/\/www.youtube.com\/watch?v=pmqnQcMktSs\" class=\"bbcode_url\" title=\"https:\/\/www.youtube.com\/watch?v=pmqnQcMktSs\" data-safe-url=\"https:\/\/redirect.enjin.com\/n\/b06bbe07b2\">https:\/\/www.youtube.com\/watch?v=pmqnQcMktSs<\/a><\/div> <\/div> <br \/> I'm not clickin' that.","post_content_clean":"This is funny also: https:\/\/www.youtube.com\/watch?v=pmqnQcMktSs\r I'm not clickin' that.","post_user_id":"6648983","show_signature":"1","last_edit_time":"0","post_votes":"0","post_unhidden":"0","post_admin_hidden":"0","post_locked":"0","last_edit_user":"0","votes":null,"post_username":"Boo Stark","avatar":"https:\/\/assets-cloud.enjin.com\/users\/6648983\/avatar\/medium.1437598351.png","user_online":false,"user_votes":"197","user_posts":"1281","url":"https:\/\/www.enjin.com\/ajax.php?s=redirect&cmd=forum-post&mobile=1&preset=12571633&id=75055336"},{"post_id":"75234510","post_time":"1407008847","post_content":"[color=#6e23dd][b]:') that audio[\/b][\/color]","post_content_html":"<b>:') that audio<\/b>","post_content_clean":":') that audio","post_user_id":"7386394","show_signature":"1","last_edit_time":"1407008984","post_votes":"0","post_unhidden":"0","post_admin_hidden":"0","post_locked":"0","last_edit_user":"0","votes":null,"post_username":"Daxti","avatar":"https:\/\/assets-cloud.enjin.com\/users\/7386394\/avatar\/medium.1554710178.jpeg","user_online":false,"user_votes":"39","user_posts":"211","url":"https:\/\/www.enjin.com\/ajax.php?s=redirect&cmd=forum-post&mobile=1&preset=12571633&id=75234510"},{"post_id":"75236924","post_time":"1407010982","post_content":"Oh my lord he says &quot;Now,&quot; SO MUUUUCCHHHHH","post_content_html":"Oh my lord he says &quot;Now,&quot; SO MUUUUCCHHHHH","post_content_clean":"Oh my lord he says \"Now,\" SO MUUUUCCHHHHH","post_user_id":"6759027","show_signature":"1","last_edit_time":"0","post_votes":"0","post_unhidden":"0","post_admin_hidden":"0","post_locked":"0","last_edit_user":"0","votes":null,"post_username":"xBlaze","avatar":"https:\/\/assets-cloud.enjin.com\/users\/6759027\/avatar\/medium.1496333371.jpeg","user_online":false,"user_votes":"3","user_posts":"606","url":"https:\/\/www.enjin.com\/ajax.php?s=redirect&cmd=forum-post&mobile=1&preset=12571633&id=75236924"},{"post_id":"75239429","post_time":"1407013445","post_content":"I want Shicking himself to comment on this just to see his reaction.","post_content_html":"I want Shicking himself to comment on this just to see his reaction.","post_content_clean":"I want Shicking himself to comment on this just to see his reaction.","post_user_id":"7334706","show_signature":"1","last_edit_time":"0","post_votes":"0","post_unhidden":"0","post_admin_hidden":"0","post_locked":"0","last_edit_user":"0","votes":null,"post_username":"cynns","avatar":"https:\/\/assets-cloud.enjin.com\/users\/7334706\/avatar\/medium.1400127145.png","user_online":false,"user_votes":"257","user_posts":"2090","url":"https:\/\/www.enjin.com\/ajax.php?s=redirect&cmd=forum-post&mobile=1&preset=12571633&id=75239429"},{"post_id":"75243926","post_time":"1407017835","post_content":"I heard some people say they dance bad but this brings it to a whole new level. NOTE: This is the same guy who said &quot;He was Shicking&quot;\r\n\r\n[youtube]yVfNa9aDEfQ[\/youtube]","post_content_html":"I heard some people say they dance bad but this brings it to a whole new level. NOTE: This is the same guy who said &quot;He was Shicking&quot;<br \/> <iframe width=\"425\" height=\"344\" src=\"https:\/\/www.youtube.com\/embed\/yVfNa9aDEfQ\"frameborder=\"0\" allowfullscreen><\/iframe>","post_content_clean":"I heard some people say they dance bad but this brings it to a whole new level. NOTE: This is the same guy who said \"He was Shicking\"\r \r yVfNa9aDEfQ","post_user_id":"4236134","show_signature":"1","last_edit_time":"1407017870","post_votes":"0","post_unhidden":"0","post_admin_hidden":"0","post_locked":"0","last_edit_user":"0","votes":null,"post_username":"WoodenBlock","avatar":"https:\/\/resources.enjin.com\/1465083537\/profile\/images\/avatar\/medium.png","user_online":false,"user_votes":"141","user_posts":"681","url":"https:\/\/www.enjin.com\/ajax.php?s=redirect&cmd=forum-post&mobile=1&preset=12571633&id=75243926"},{"post_id":"75257999","post_time":"1407032407","post_content":"EVERYONE! DO THIS! Go on this (Prison is open) vid! When you are on this vid type in the comments (You aint shick, faker.) then dislike the vid! lets get this too 15 dislikes!!! #Youaintshick","post_content_html":"EVERYONE! DO THIS! Go on this (Prison is open) vid! When you are on this vid type in the comments (You aint shick, faker.) then dislike the vid! lets get this too 15 dislikes!!! #Youaintshick","post_content_clean":"EVERYONE! DO THIS! Go on this (Prison is open) vid! When you are on this vid type in the comments (You aint shick, faker.) then dislike the vid! lets get this too 15 dislikes!!! #Youaintshick","post_user_id":"7925251","show_signature":"1","last_edit_time":"0","post_votes":"0","post_unhidden":"0","post_admin_hidden":"0","post_locked":"0","last_edit_user":"0","votes":null,"post_username":"User","avatar":"https:\/\/assets-cloud.enjin.com\/users\/7925251\/avatar\/medium.1425424175.jpeg","user_online":false,"user_votes":"61","user_posts":"913","url":"https:\/\/www.enjin.com\/ajax.php?s=redirect&cmd=forum-post&mobile=1&preset=12571633&id=75257999"},{"post_id":"75258183","post_time":"1407032613","post_content":"[color=#2360dd]Ahh, cmon now. that's kind of bogus. He just liked the server a lot, that he wanted to own it. The comments are mean enough, but taking action to that, is just not c00l.[\/color]","post_content_html":"Ahh, cmon now. that's kind of bogus. He just liked the server a lot, that he wanted to own it. The comments are mean enough, but taking action to that, is just not c00l.","post_content_clean":"Ahh, cmon now. that's kind of bogus. He just liked the server a lot, that he wanted to own it. The comments are mean enough, but taking action to that, is just not c00l.","post_user_id":"7524505","show_signature":"1","last_edit_time":"0","post_votes":"0","post_unhidden":"0","post_admin_hidden":"0","post_locked":"0","last_edit_user":"0","votes":null,"post_username":"Bapnatsu","avatar":"https:\/\/assets-cloud.enjin.com\/users\/7524505\/avatar\/medium.1403540472.gif","user_online":false,"user_votes":"2","user_posts":"316","url":"https:\/\/www.enjin.com\/ajax.php?s=redirect&cmd=forum-post&mobile=1&preset=12571633&id=75258183"},{"post_id":"75266840","post_time":"1407043534","post_content":"[b][i]I have reported the first video as &quot;fake&quot;.[\/i][\/b]","post_content_html":"<b><i>I have reported the first video as &quot;fake&quot;.<\/i><\/b>","post_content_clean":"I have reported the first video as \"fake\".","post_user_id":"6582433","show_signature":"1","last_edit_time":"0","post_votes":"0","post_unhidden":"0","post_admin_hidden":"0","post_locked":"0","last_edit_user":"0","votes":null,"post_username":"Umut","avatar":"https:\/\/assets-cloud.enjin.com\/users\/6582433\/avatar\/medium.1400120239.png","user_online":false,"user_votes":"129","user_posts":"1214","url":"https:\/\/www.enjin.com\/ajax.php?s=redirect&cmd=forum-post&mobile=1&preset=12571633&id=75266840"}],"total_items":"21","pages":3,"voted":false,"new_post_id":"75051539","thread_labels":[],"top_posters":{"result":[{"post_user_id":"6759027","posts":"1","username":"xBlaze","avatar":"https:\/\/assets-cloud.enjin.com\/users\/6759027\/avatar\/medium.1496333371.jpeg"},{"post_user_id":"6556307","posts":"1","username":"~Harriskin\/Harrison~","avatar":"https:\/\/assets-cloud.enjin.com\/users\/6556307\/avatar\/medium.1415022635.png"},{"post_user_id":"7334706","posts":"1","username":"cynns","avatar":"https:\/\/assets-cloud.enjin.com\/users\/7334706\/avatar\/medium.1400127145.png"},{"post_user_id":"6672203","posts":"1","username":"\u01a4\u0280ox\u0251","avatar":"https:\/\/assets-cloud.enjin.com\/users\/6672203\/avatar\/medium.1419832957.png"},{"post_user_id":"4236134","posts":"1","username":"WoodenBlock","avatar":"https:\/\/resources.enjin.com\/1465083537\/profile\/images\/avatar\/medium.png"},{"post_user_id":"6934081","posts":"1","username":"Marsh Or Zach","avatar":"https:\/\/assets-cloud.enjin.com\/users\/6934081\/avatar\/medium.1400125658.png"},{"post_user_id":"7925251","posts":"1","username":"User","avatar":"https:\/\/assets-cloud.enjin.com\/users\/7925251\/avatar\/medium.1425424175.jpeg"},{"post_user_id":"3553747","posts":"1","username":"ElshSolo Player","avatar":"https:\/\/assets-cloud.enjin.com\/users\/3553747\/avatar\/medium.1439834345.jpeg"},{"post_user_id":"7524505","posts":"1","username":"Bapnatsu","avatar":"https:\/\/assets-cloud.enjin.com\/users\/7524505\/avatar\/medium.1403540472.gif"},{"post_user_id":"5894004","posts":"1","username":"Barb Dwire \/ Sam","avatar":"https:\/\/assets-cloud.enjin.com\/users\/5894004\/avatar\/medium.1562698316.jpeg"},{"post_user_id":"6582433","posts":"1","username":"Umut","avatar":"https:\/\/assets-cloud.enjin.com\/users\/6582433\/avatar\/medium.1400120239.png"},{"post_user_id":"7047791","posts":"1","username":"BackAndForth","avatar":"https:\/\/assets-cloud.enjin.com\/users\/7047791\/avatar\/medium.1465820885.jpeg"}],"num_users":"21"},"moderation_access":false,"poll_post":null,"post_access":true,"new_thread_access":true},"id":"1234567","jsonrpc":"2.0"}
{"result":{"thread":{"preset_id":"12571633","forum_id":"2419048","thread_id":"14169521","thread_subject":"Watch this SOO funny","thread_replies":"20","thread_views":"1414","thread_type":"normal","thread_status":"locked","thread_user_id":"6755616","thread_username":"Cuddly","thread_avatar":"https:\/\/assets-cloud.enjin.com\/users\/6755616\/avatar\/medium.1418311976.png","thread_lastpost_user_id":"9584496","thread_lastpost_username":"! Charles Xavier !","thread_lastpost_time":"1407055795","thread_moved_id":"0","thread_post_time":"1406768850","url":"https:\/\/www.enjin.com\/ajax.php?s=redirect&cmd=forum-thread&mobile=1&preset=12571633&id=14169521","post_count":"1","category_id":"1907006","forum_name":"General Discussion","forum_description":"Discussion about general topics.","disable_voting":"0","show_signature":"1","url_cms":"https:\/\/www.craftsurvivalgames.com\/forum\/m\/12571633\/viewthread\/14169521-watch-this-soo-funny"},"posts":[{"post_id":"75273533","post_time":"1407055795","post_content":"Shicking please see this!!!","post_content_html":"Shicking please see this!!!","post_content_clean":"Shicking please see this!!!","post_user_id":"9584496","show_signature":"1","last_edit_time":"0","post_votes":"0","post_unhidden":"0","post_admin_hidden":"0","post_locked":"0","last_edit_user":"0","votes":null,"post_username":"TheMadGolem","avatar":"https:\/\/assets-cloud.enjin.com\/users\/9584496\/avatar\/medium.1418311976.png","user_online":false,"user_votes":"7","user_posts":"467","url":"https:\/\/www.enjin.com\/ajax.php?s=redirect&cmd=forum-post&mobile=1&preset=12571633&id=75273533"}],"total_items":"21","pages":3,"voted":false,"new_post_id":"75273533","thread_labels":[],"top_posters":{"result":[{"post_user_id":"6934081","posts":"1","username":"Marsh Or Zach","avatar":"https:\/\/assets-cloud.enjin.com\/users\/6934081\/avatar\/medium.1400125658.png"},{"post_user_id":"7925251","posts":"1","username":"User","avatar":"https:\/\/assets-cloud.enjin.com\/users\/7925251\/avatar\/medium.1425424175.jpeg"},{"post_user_id":"3553747","posts":"1","username":"ElshSolo Player","avatar":"https:\/\/assets-cloud.enjin.com\/users\/3553747\/avatar\/medium.1439834345.jpeg"},{"post_user_id":"7524505","posts":"1","username":"Bapnatsu","avatar":"https:\/\/assets-cloud.enjin.com\/users\/7524505\/avatar\/medium.1403540472.gif"},{"post_user_id":"5894004","posts":"1","username":"Barb Dwire \/ Sam","avatar":"https:\/\/assets-cloud.enjin.com\/users\/5894004\/avatar\/medium.1562698316.jpeg"},{"post_user_id":"6582433","posts":"1","username":"Umut","avatar":"https:\/\/assets-cloud.enjin.com\/users\/6582433\/avatar\/medium.1400120239.png"},{"post_user_id":"7047791","posts":"1","username":"BackAndForth","avatar":"https:\/\/assets-cloud.enjin.com\/users\/7047791\/avatar\/medium.1465820885.jpeg"},{"post_user_id":"9584496","posts":"1","username":"TheMadGolem","avatar":"https:\/\/assets-cloud.enjin.com\/users\/9584496\/avatar\/medium.1418311976.png"},{"post_user_id":"9143949","posts":"1","username":"\u266bAshley\u266b","avatar":"https:\/\/assets-cloud.enjin.com\/users\/9143949\/avatar\/medium.1407189877.png"},{"post_user_id":"6755616","posts":"1","username":"Cuddly","avatar":"https:\/\/assets-cloud.enjin.com\/users\/6755616\/avatar\/medium.1424293866.png"},{"post_user_id":"5264359","posts":"1","username":"bertus112","avatar":"https:\/\/assets-cloud.enjin.com\/users\/5264359\/avatar\/medium.1400094074.png"},{"post_user_id":"9065107","posts":"1","username":"brebell1","avatar":"https:\/\/resources.enjin.com\/1465083537\/profile\/images\/avatar\/medium.png"}],"num_users":"21"},"moderation_access":false,"poll_post":null,"post_access":true,"new_thread_access":true},"id":"1234567","jsonrpc":"2.0"}
