{"result":{"thread":{"preset_id":"12571633","forum_id":"2419048","thread_id":"16193262","thread_subject":"I think it's time!          Read this, it's for the good of CGS","thread_replies":"25","thread_views":"1110","thread_type":"normal","thread_status":"locked","thread_user_id":"6902960","thread_username":"MasteryangXD","thread_avatar":"https:\/\/assets-cloud.enjin.com\/users\/6902960\/avatar\/medium.1415587584.png","thread_lastpost_user_id":"5179658","thread_lastpost_username":"heyho123456789","thread_lastpost_time":"1412966020","thread_moved_id":"0","thread_post_time":"1412898650","url":"https:\/\/www.enjin.com\/ajax.php?s=redirect&cmd=forum-thread&mobile=1&preset=12571633&id=16193262","post_count":"1","category_id":"1907006","forum_name":"General Discussion","forum_description":"Discussion about general topics.","disable_voting":"0","show_signature":"1","url_cms":"https:\/\/www.craftsurvivalgames.com\/forum\/m\/12571633\/viewthread\/16193262-i-think-its-time-read-this-for-good-cgs"},"posts":[{"post_id":"80893574","post_time":"1412898650","post_content":"[color=#2360dd][b]I'm a humble CSG player. I've been here since the laggy spawn with multiple portals to the big and open spawn currently.  At the moment I feel that it's time for me to say something that will hopefully gain a lot of attention. Note* somethings that I say maybe mixes of other peoples thoughts and my thoughts, but in general it's all of the communities ideas\r\n\r\nSo CSG was started 2 years ago. I joined 1.5 years ago. In the 1.5 years that I have played on CSG i've seen a lot of things change. Charchi was the first mod that I ever saw on the server (By first mod I don't mean the first one picked). He was actually doing things 1.5 years ago. To be exact, he was making the prison look better and responded to me when I sent messages to him (I don't know much about charchi abusing :p so i have no right to judge him). We complained about block lag and all of the old issues that CSG used to have. Throughout the 1.5 years i've been on the server, I've seen old issues come back time to time and fixed relatively quickly\r\n\r\nOkay, the main point of me typing all of that was because I wanted to show that CSG has worked together before. I've seen it before.\r\n\r\nI have a couple requests for the server. First of all, we have a great staff with great minds, if we could forget all of the old conflicts and work together that would be great. The server wouldn't be where it is without the staff. It's just recently that i've seen them struggle a bit and get a grip on the server. Another request that I have is that perhaps staff could hop around servers while they are playing? I see some staff members on playing on the same games, but ignoring the fact that there are hackers still lingering around in other sections of the server. I understand that you guys can't be on 24\/7. It would make the server a lot more enjoyable if there was protection 24\/7 and we didn't have to go to the forums for every hack or disrespect report.\r\n\r\nMy final request is in a separate paragraph for a reason. This request is a bit more abstract, so I decided to leave it out of the other paragraph. Basically this request is to perhaps get some fresh staff in. I know, more staff equals more chaos, but new staff could possibly bring a new fresh vibe to the server, then again chaos xD. This request isn't even for me, it's for the people that have shown that they are able to contribute to the server in a positive way. I would love to help the server out as staff, but that decision is not up to me.\r\n\r\nFinal thoughts: It's up to the community of CSG to put the pieces of the server back together. I didn't spend 30 minutes typing for nothing. I spent 30 minutes typing for a group of strong individuals that are ready to stand up get everything back in order.\r\n\r\nThanks to Ironpecker for somewhat in a way giving me inspiration to write this.\r\n\r\nThere may be some wrong information in there, but the forums are for sharing thoughts.\r\n\r\n[\/b][\/color]","post_content_html":"<b>I'm a humble CSG player. I've been here since the laggy spawn with multiple portals to the big and open spawn currently.  At the moment I feel that it's time for me to say something that will hopefully gain a lot of attention. Note* somethings that I say maybe mixes of other peoples thoughts and my thoughts, but in general it's all of the communities ideas<br \/> <br \/> So CSG was started 2 years ago. I joined 1.5 years ago. In the 1.5 years that I have played on CSG i've seen a lot of things change. Charchi was the first mod that I ever saw on the server (By first mod I don't mean the first one picked). He was actually doing things 1.5 years ago. To be exact, he was making the prison look better and responded to me when I sent messages to him (I don't know much about charchi abusing <object class=\"emojione\" data=\"https:\/\/resources.enjin.com\/1489581540\/themes\/core\/images\/emojione\/svg\/1f61b.svg?0\" type=\"image\/svg+xml\" standby=\":p\">:p<\/object> so i have no right to judge him). We complained about block lag and all of the old issues that CSG used to have. Throughout the 1.5 years i've been on the server, I've seen old issues come back time to time and fixed relatively quickly<br \/> <br \/> Okay, the main point of me typing all of that was because I wanted to show that CSG has worked together before. I've seen it before.<br \/> <br \/> I have a couple requests for the server. First of all, we have a great staff with great minds, if we could forget all of the old conflicts and work together that would be great. The server wouldn't be where it is without the staff. It's just recently that i've seen them struggle a bit and get a grip on the server. Another request that I have is that perhaps staff could hop around servers while they are playing? I see some staff members on playing on the same games, but ignoring the fact that there are hackers still lingering around in other sections of the server. I understand that you guys can't be on 24\/7. It would make the server a lot more enjoyable if there was protection 24\/7 and we didn't have to go to the forums for every hack or disrespect report.<br \/> <br \/> My final request is in a separate paragraph for a reason. This request is a bit more abstract, so I decided to leave it out of the other paragraph. Basically this request is to perhaps get some fresh staff in. I know, more staff equals more chaos, but new staff could possibly bring a new fresh vibe to the server, then again chaos xD. This request isn't even for me, it's for the people that have shown that they are able to contribute to the server in a positive way. I would love to help the server out as staff, but that decision is not up to me.<br \/> <br \/> Final thoughts: It's up to the community of CSG to put the pieces of the server back together. I didn't spend 30 minutes typing for nothing. I spent 30 minutes typing for a group of strong individuals that are ready to stand up get everything back in order.<br \/> <br \/> Thanks to Ironpecker for somewhat in a way giving me inspiration to write this.<br \/> <br \/> There may be some wrong information in there, but the forums are for sharing thoughts.<br \/> <br \/> <\/b>","post_content_clean":"I'm a humble CSG player. I've been here since the laggy spawn with multiple portals to the big and open spawn currently.  At the moment I feel that it's time for me to say something that will hopefully gain a lot of attention. Note* somethings that I say maybe mixes of other peoples thoughts and my thoughts, but in general it's all of the communities ideas\r \r So CSG was started 2 years ago. I joined 1.5 years ago. In the 1.5 years that I have played on CSG i've seen a lot of things change. Charchi was the first mod that I ever saw on the server (By first mod I don't mean the first one picked). He was actually doing things 1.5 years ago. To be exact, he was making the prison look better and responded to me when I sent messages to him (I don't know much about charchi abusing :p so i have no right to judge him). We complained about block lag and all of the old issues that CSG used to have. Throughout the 1.5 years i've been on the server, I've seen old issues come back time to time and fixed relatively quickly \r \r Okay, the main point of me typing all of that was because I wanted to show that CSG has worked together before. I've seen it before.\r \r I have a couple requests for the server. First of all, we have a great staff with great minds, if we could forget all of the old conflicts and work together that would be great. The server wouldn't be where it is without the staff. It's just recently that i've seen them struggle a bit and get a grip on the server. Another request that I have is that perhaps staff could hop around servers while they are playing? I see some staff members on playing on the same games, but ignoring the fact that there are hackers still lingering around in other sections of the server. I understand that you guys can't be on 24\/7. It would make the server a lot more enjoyable if there was protection 24\/7 and we didn't have to go to the forums for every hack or disrespect report.\r \r My final request is in a separate paragraph for a reason. This request is a bit more abstract, so I decided to leave it out of the other paragraph. Basically this request is to perhaps get some fresh staff in. I know, more staff equals more chaos, but new staff could possibly bring a new fresh vibe to the server, then again chaos xD. This request isn't even for me, it's for the people that have shown that they are able to contribute to the server in a positive way. I would love to help the server out as staff, but that decision is not up to me.\r \r Final thoughts: It's up to the community of CSG to put the pieces of the server back together. I didn't spend 30 minutes typing for nothing. I spent 30 minutes typing for a group of strong individuals that are ready to stand up get everything back in order. \r \r Thanks to Ironpecker for somewhat in a way giving me inspiration to write this.\r \r There may be some wrong information in there, but the forums are for sharing thoughts. \r \r ","post_user_id":"6902960","show_signature":"1","last_edit_time":"1412972994","post_votes":"0","post_unhidden":"0","post_admin_hidden":"0","post_locked":"0","last_edit_user":"0","votes":null,"post_username":"MasteryangXD","avatar":"https:\/\/assets-cloud.enjin.com\/users\/6902960\/avatar\/medium.1415587584.png","user_online":false,"user_votes":"0","user_posts":"37","url":"https:\/\/www.enjin.com\/ajax.php?s=redirect&cmd=forum-post&mobile=1&preset=12571633&id=80893574"},{"post_id":"80893864","post_time":"1412898917","post_content":"[quote name=\"First of all, we have a great staff with great minds, if we could forget all of the old conflicts and work together that would be great\"][\/quote]\r\nNot much of a conflict, we have good staff with good minds like you said, but we can't forget them, we need to sort them out, and help the problem get fixed.","post_content_html":" <div class=\"bbcode_quote\"> <div class=\"bbcode_quote_head\">First of all, we have a great staff with great minds, if we could forget all of the old conflicts and work together that would be great wrote:<\/div> <div class=\"bbcode_quote_body\"><\/div> <\/div> <br \/> Not much of a conflict, we have good staff with good minds like you said, but we can't forget them, we need to sort them out, and help the problem get fixed.","post_content_clean":"\r Not much of a conflict, we have good staff with good minds like you said, but we can't forget them, we need to sort them out, and help the problem get fixed.","post_user_id":"6648983","show_signature":"1","last_edit_time":"0","post_votes":"0","post_unhidden":"0","post_admin_hidden":"0","post_locked":"0","last_edit_user":"0","votes":null,"post_username":"Boo Stark","avatar":"https:\/\/assets-cloud.enjin.com\/users\/6648983\/avatar\/medium.1437598351.png","user_online":false,"user_votes":"197","user_posts":"1281","url":"https:\/\/www.enjin.com\/ajax.php?s=redirect&cmd=forum-post&mobile=1&preset=12571633&id=80893864"},{"post_id":"80894010","post_time":"1412899071","post_content":"[color=#2360dd][b]I agree with you Boo1216, but the great minds should also be able to resolve this issue quicker and advance the server. It just feels like its been at an halt lately.[\/b][\/color]","post_content_html":"<b>I agree with you Boo1216, but the great minds should also be able to resolve this issue quicker and advance the server. It just feels like its been at an halt lately.<\/b>","post_content_clean":"I agree with you Boo1216, but the great minds should also be able to resolve this issue quicker and advance the server. It just feels like its been at an halt lately.","post_user_id":"6902960","show_signature":"1","last_edit_time":"0","post_votes":"0","post_unhidden":"0","post_admin_hidden":"0","post_locked":"0","last_edit_user":"0","votes":null,"post_username":"MasteryangXD","avatar":"https:\/\/assets-cloud.enjin.com\/users\/6902960\/avatar\/medium.1415587584.png","user_online":false,"user_votes":"0","user_posts":"37","url":"https:\/\/www.enjin.com\/ajax.php?s=redirect&cmd=forum-post&mobile=1&preset=12571633&id=80894010"},{"post_id":"80894107","post_time":"1412899156","post_content":"[color=#2360dd][b]My response above^ was not to sound cocky and ignorant, but purely complimenting what the people at CSG are capable of doing[\/b][\/color]","post_content_html":"<b>My response above^ was not to sound cocky and ignorant, but purely complimenting what the people at CSG are capable of doing<\/b>","post_content_clean":"My response above^ was not to sound cocky and ignorant, but purely complimenting what the people at CSG are capable of doing","post_user_id":"6902960","show_signature":"1","last_edit_time":"0","post_votes":"0","post_unhidden":"0","post_admin_hidden":"0","post_locked":"0","last_edit_user":"0","votes":null,"post_username":"MasteryangXD","avatar":"https:\/\/assets-cloud.enjin.com\/users\/6902960\/avatar\/medium.1415587584.png","user_online":false,"user_votes":"0","user_posts":"37","url":"https:\/\/www.enjin.com\/ajax.php?s=redirect&cmd=forum-post&mobile=1&preset=12571633&id=80894107"},{"post_id":"80894678","post_time":"1412899734","post_content":"[quote user_id=\"6902960\" avatar=\"https:\/\/cravatar.eu\/helmavatar\/masteryangXD\/74.png\" name=\"masteryangXD\"][color=#2360dd][b]My response above^ was not to sound cocky and ignorant, but purely complimenting what the people at CSG are capable of doing[\/b][\/color][\/quote]\r\nI know its a serious matter that needs to resolve as soon as possible.","post_content_html":" <div class=\"bbcode_quote\"> <div class=\"bbcode_quote_head\">@6902960 wrote:<\/div> <div class=\"bbcode_quote_body\"><b>My response above^ was not to sound cocky and ignorant, but purely complimenting what the people at CSG are capable of doing<\/b><\/div> <\/div> <br \/> I know its a serious matter that needs to resolve as soon as possible.","post_content_clean":"My response above^ was not to sound cocky and ignorant, but purely complimenting what the people at CSG are capable of doing\r I know its a serious matter that needs to resolve as soon as possible.","post_user_id":"6648983","show_signature":"1","last_edit_time":"0","post_votes":"0","post_unhidden":"0","post_admin_hidden":"0","post_locked":"0","last_edit_user":"0","votes":null,"post_username":"Boo Stark","avatar":"https:\/\/assets-cloud.enjin.com\/users\/6648983\/avatar\/medium.1437598351.png","user_online":false,"user_votes":"197","user_posts":"1281","url":"https:\/\/www.enjin.com\/ajax.php?s=redirect&cmd=forum-post&mobile=1&preset=12571633&id=80894678"},{"post_id":"80894716","post_time":"1412899783","post_content":"[color=#dd2423][size=5][b]I agree MasteryandXD, 100% [\/b][\/size][\/color]","post_content_html":"<span style=\"font-size:1.5em\"><b>I agree MasteryandXD, 100% <\/b><\/span>","post_content_clean":"I agree MasteryandXD, 100% ","post_user_id":"11032290","show_signature":"1","last_edit_time":"0","post_votes":"0","post_unhidden":"0","post_admin_hidden":"0","post_locked":"0","last_edit_user":"0","votes":null,"post_username":"MCL \/_ A16","avatar":"https:\/\/assets-cloud.enjin.com\/users\/11032290\/avatar\/medium.1411766013.png","user_online":false,"user_votes":"1","user_posts":"285","url":"https:\/\/www.enjin.com\/ajax.php?s=redirect&cmd=forum-post&mobile=1&preset=12571633&id=80894716"},{"post_id":"80894966","post_time":"1412900022","post_content":"Csg did not start off as a prison server.","post_content_html":"Csg did not start off as a prison server.","post_content_clean":"Csg did not start off as a prison server.","post_user_id":"6685279","show_signature":"1","last_edit_time":"0","post_votes":"0","post_unhidden":"0","post_admin_hidden":"0","post_locked":"0","last_edit_user":"0","votes":null,"post_username":"Timely","avatar":"https:\/\/assets-cloud.enjin.com\/users\/6685279\/avatar\/medium.1491786217.jpeg","user_online":false,"user_votes":"32","user_posts":"877","url":"https:\/\/www.enjin.com\/ajax.php?s=redirect&cmd=forum-post&mobile=1&preset=12571633&id=80894966"},{"post_id":"80895029","post_time":"1412900096","post_content":"[color=#2360dd][b]That's what I thought XD[\/b][\/color]","post_content_html":"<b>That's what I thought XD<\/b>","post_content_clean":"That's what I thought XD","post_user_id":"6902960","show_signature":"1","last_edit_time":"0","post_votes":"0","post_unhidden":"0","post_admin_hidden":"0","post_locked":"0","last_edit_user":"0","votes":null,"post_username":"MasteryangXD","avatar":"https:\/\/assets-cloud.enjin.com\/users\/6902960\/avatar\/medium.1415587584.png","user_online":false,"user_votes":"0","user_posts":"37","url":"https:\/\/www.enjin.com\/ajax.php?s=redirect&cmd=forum-post&mobile=1&preset=12571633&id=80895029"},{"post_id":"80895956","post_time":"1412900975","post_content":"One of the main problems with PSG have always been the communication of staff. Too many times I have asked a Mod about something, they give me an answer, I ask another Moderator the same question, they give me an entirely different answer, and the cycle just repeats. Also staff is very divided with one another. Right now it seems to be Team Charchi and, well, Team Everyone Else. If the Mods were to say split the jobs of the community (2 Mods would help build, 2 would patrol the forums, 2 would patrol the server, all would punish rule breakers, etc.), then Mods would have to communicate more with one another. If a company cannot communicate with one another, then everything is just a bag full of chaos.\r\n\r\nAs a Helper, I work my butt off for the server. I get in trouble sometimes for being on PSG too much! I just wish I could say the same thing for the rest of the Mods. As the server gets more and more out of control, Mods seem to be less and less active. Take Death for example. He used to handle all of the reports. Now that he's gone, many reports are going unresolved (mostly, the ones that me and Iron cannot get to). Of course, Loki has been getting more active, but we cannot rely on 3 staff members to pull the whole weight of the server.\r\n\r\nNew staff were recently picked a few months ago, and Shicking and the Mods are still figuring out who to keep, who to get rid of, etc. While it may bring a new sense of vigor to the community, how long does it last? A week? A month? Not long enough to get the community back into PSG for a good amount of time.\r\n\r\nBut ultimately, the real burden of the server falls on the players themselves. If we the players do not sort the pieces out and have fun, then what good is the server? We need to stop yelling down each other's throats, get along with one another, and just have fun. Because I guarantee you, if the whole community has fun on PSG, then half of our problems are resolved. The other half rests on what the community has a whole does to help the server.\r\n\r\n[b]This is not a one man show.\r\n\r\nThis is a team effort.\r\n\r\nAnd PSG is the damn best team I've ever seen.[\/b]","post_content_html":"One of the main problems with PSG have always been the communication of staff. Too many times I have asked a Mod about something, they give me an answer, I ask another Moderator the same question, they give me an entirely different answer, and the cycle just repeats. Also staff is very divided with one another. Right now it seems to be Team Charchi and, well, Team Everyone Else. If the Mods were to say split the jobs of the community (2 Mods would help build, 2 would patrol the forums, 2 would patrol the server, all would punish rule breakers, etc.), then Mods would have to communicate more with one another. If a company cannot communicate with one another, then everything is just a bag full of chaos.<br \/> <br \/> As a Helper, I work my butt off for the server. I get in trouble sometimes for being on PSG too much! I just wish I could say the same thing for the rest of the Mods. As the server gets more and more out of control, Mods seem to be less and less active. Take Death for example. He used to handle all of the reports. Now that he's gone, many reports are going unresolved (mostly, the ones that me and Iron cannot get to). Of course, Loki has been getting more active, but we cannot rely on 3 staff members to pull the whole weight of the server.<br \/> <br \/> New staff were recently picked a few months ago, and Shicking and the Mods are still figuring out who to keep, who to get rid of, etc. While it may bring a new sense of vigor to the community, how long does it last? A week? A month? Not long enough to get the community back into PSG for a good amount of time.<br \/> <br \/> But ultimately, the real burden of the server falls on the players themselves. If we the players do not sort the pieces out and have fun, then what good is the server? We need to stop yelling down each other's throats, get along with one another, and just have fun. Because I guarantee you, if the whole community has fun on PSG, then half of our problems are resolved. The other half rests on what the community has a whole does to help the server.<br \/> <br \/> <b>This is not a one man show.<br \/> <br \/> This is a team effort.<br \/> <br \/> And PSG is the damn best team I've ever seen.<\/b>","post_content_clean":"One of the main problems with PSG have always been the communication of staff. Too many times I have asked a Mod about something, they give me an answer, I ask another Moderator the same question, they give me an entirely different answer, and the cycle just repeats. Also staff is very divided with one another. Right now it seems to be Team Charchi and, well, Team Everyone Else. If the Mods were to say split the jobs of the community (2 Mods would help build, 2 would patrol the forums, 2 would patrol the server, all would punish rule breakers, etc.), then Mods would have to communicate more with one another. If a company cannot communicate with one another, then everything is just a bag full of chaos.\r \r As a Helper, I work my butt off for the server. I get in trouble sometimes for being on PSG too much! I just wish I could say the same thing for the rest of the Mods. As the server gets more and more out of control, Mods seem to be less and less active. Take Death for example. He used to handle all of the reports. Now that he's gone, many reports are going unresolved (mostly, the ones that me and Iron cannot get to). Of course, Loki has been getting more active, but we cannot rely on 3 staff members to pull the whole weight of the server. \r \r New staff were recently picked a few months ago, and Shicking and the Mods are still figuring out who to keep, who to get rid of, etc. While it may bring a new sense of vigor to the community, how long does it last? A week? A month? Not long enough to get the community back into PSG for a good amount of time.\r \r But ultimately, the real burden of the server falls on the players themselves. If we the players do not sort the pieces out and have fun, then what good is the server? We need to stop yelling down each other's throats, get along with one another, and just have fun. Because I guarantee you, if the whole community has fun on PSG, then half of our problems are resolved. The other half rests on what the community has a whole does to help the server.\r \r This is not a one man show.\r \r This is a team effort.\r \r And PSG is the damn best team I've ever seen.","post_user_id":"7249943","show_signature":"1","last_edit_time":"0","post_votes":"0","post_unhidden":"0","post_admin_hidden":"0","post_locked":"0","last_edit_user":"0","votes":null,"post_username":"Creepaahh","avatar":"https:\/\/assets-cloud.enjin.com\/users\/7249943\/avatar\/medium.1468004541.jpeg","user_online":false,"user_votes":null,"user_posts":0,"url":"https:\/\/www.enjin.com\/ajax.php?s=redirect&cmd=forum-post&mobile=1&preset=12571633&id=80895956"},{"post_id":"80896267","post_time":"1412901297","post_content":"[color=#2360dd][b]That was deep[\/b][\/color]","post_content_html":"<b>That was deep<\/b>","post_content_clean":"That was deep","post_user_id":"6902960","show_signature":"1","last_edit_time":"0","post_votes":"0","post_unhidden":"0","post_admin_hidden":"0","post_locked":"0","last_edit_user":"0","votes":null,"post_username":"MasteryangXD","avatar":"https:\/\/assets-cloud.enjin.com\/users\/6902960\/avatar\/medium.1415587584.png","user_online":false,"user_votes":"0","user_posts":"37","url":"https:\/\/www.enjin.com\/ajax.php?s=redirect&cmd=forum-post&mobile=1&preset=12571633&id=80896267"}],"total_items":"26","pages":3,"voted":false,"new_post_id":false,"thread_labels":[],"top_posters":{"result":[{"post_user_id":"6902960","posts":"6","username":"MasteryangXD","avatar":"https:\/\/assets-cloud.enjin.com\/users\/6902960\/avatar\/medium.1415587584.png"},{"post_user_id":"5179658","posts":"3","username":"NewYorkTimes?...","avatar":"https:\/\/resources.enjin.com\/1465083537\/profile\/images\/avatar\/medium.png"},{"post_user_id":"6648983","posts":"2","username":"Boo Stark","avatar":"https:\/\/assets-cloud.enjin.com\/users\/6648983\/avatar\/medium.1437598351.png"},{"post_user_id":"7285109","posts":"2","username":"Detah","avatar":"https:\/\/assets-cloud.enjin.com\/users\/7285109\/avatar\/medium.1400130105.png"},{"post_user_id":"7249943","posts":"2","username":"Creepaahh","avatar":"https:\/\/assets-cloud.enjin.com\/users\/7249943\/avatar\/medium.1468004541.jpeg"},{"post_user_id":"5375337","posts":"2","username":"Scarlet Witch","avatar":"https:\/\/assets-cloud.enjin.com\/users\/5375337\/avatar\/medium.1437162398.jpeg"},{"post_user_id":"7809888","posts":"1","username":"Zyndraaaa","avatar":"https:\/\/assets-cloud.enjin.com\/users\/7809888\/avatar\/medium.1429684812.jpeg"},{"post_user_id":"3553747","posts":"1","username":"ElshSolo Player","avatar":"https:\/\/assets-cloud.enjin.com\/users\/3553747\/avatar\/medium.1439834345.jpeg"},{"post_user_id":"7296608","posts":"1","username":"Anemane360","avatar":"https:\/\/assets-cloud.enjin.com\/users\/7296608\/avatar\/medium.1412101149.jpeg"},{"post_user_id":"11032290","posts":"1","username":"MCL \/_ A16","avatar":"https:\/\/assets-cloud.enjin.com\/users\/11032290\/avatar\/medium.1411766013.png"},{"post_user_id":"11180925","posts":"1","username":"Kill","avatar":"https:\/\/assets-cloud.enjin.com\/users\/11180925\/avatar\/medium.1412550401.jpeg"},{"post_user_id":"6685279","posts":"1","username":"Timely","avatar":"https:\/\/assets-cloud.enjin.com\/users\/6685279\/avatar\/medium.1491786217.jpeg"}],"num_users":"15"},"moderation_access":false,"poll_post":null,"post_access":true,"new_thread_access":true},"id":"1234567","jsonrpc":"2.0"}
{"result":{"thread":{"preset_id":"12571633","forum_id":"2419048","thread_id":"16193262","thread_subject":"I think it's time!          Read this, it's for the good of CGS","thread_replies":"25","thread_views":"1110","thread_type":"normal","thread_status":"locked","thread_user_id":"6902960","thread_username":"MasteryangXD","thread_avatar":"https:\/\/assets-cloud.enjin.com\/users\/6902960\/avatar\/medium.1437162398.jpeg","thread_lastpost_user_id":"5179658","thread_lastpost_username":"heyho123456789","thread_lastpost_time":"1412966020","thread_moved_id":"0","thread_post_time":"1412898650","url":"https:\/\/www.enjin.com\/ajax.php?s=redirect&cmd=forum-thread&mobile=1&preset=12571633&id=16193262","post_count":"1","category_id":"1907006","forum_name":"General Discussion","forum_description":"Discussion about general topics.","disable_voting":"0","show_signature":"1","url_cms":"https:\/\/www.craftsurvivalgames.com\/forum\/m\/12571633\/viewthread\/16193262-i-think-its-time-read-this-for-good-cgs"},"posts":[{"post_id":"80898264","post_time":"1412903409","post_content":"Just so you know, the server started out as just a hunger games server. The spawn was made of iron, gold, and diamond. Then the spawn changed to an all wooden one with still only HG for a while. Factions was created soon after though and that is really when the server started becoming more popular. Everything, and I mean everything, has changed since then. The first staff on the server was Shicking (ofc), Co-Owner: Conerad, Co-Owner, Invisble_Shaed, and Admin\/Mod: EvSxTeabagz. The rules of the server were very loose back then, mods could give players items, players could usually mildly curse without getting in trouble, it was very different. Everything was so simple. After that staff started to become more and more inactive, though, Shick thought it was time to pick more mods. In that first batch was myself, i212, Jadenfong, Armandcool, and Trickdoor. Trick was demoted during his first or second week as trial mod. As you all know, I am now the only one remaining from that batch of mods. About 3-5 months later, the 2nd batch of mods was picked. I believe it consisted of Moose, and Jahowskii. Now, because of Jahow's betrayal, he is gone as well. Our next batch was Charchi and Bertus. Bertus I believe still comes on, but is more inactive than not, and Charchi is well\u2026 you all know what's going on. This next batch of trial mods chosen is all gone now, as of today. Camilla, Jack, and Laz. Next Death, Ridder, and Star were picked and now, from what I heard today, Star quit and its just Death and Ridd. Then finally, we have our current trial mods, Hexagonial, and Jrc. We also now have three helpers who have been doing a great job. So, to sum up our current staff.\r\nMods:\r\nMyself\r\nMoose\r\nKinda Charchi\r\nIdk about Bertus\r\nDeath\r\nRidder\r\n\r\nTrial mods:\r\nHexa\r\nJrc\r\n\r\nHelpers:\r\nCreepaahh\r\nIronPecker\r\nAllpurposeflower\r\n\r\nI know that was a long history lesson on the server's staff, but I thought you might be interested in knowing because you had mentioned picking new staff. Well, of course getting new staff does cause a bit of chaos and is quite a process, but as you can see, most staff doesn't last. Its so hard for us to pick someone who we think is going to stay on the server for a long time and help out. Shicking has a lot of pressure on him, especially now with the Charchi and Jack issues. We cannot expect him to add new staff on top of that. So, be patient, the time may come when we are in desperate need of new staff.\r\n\r\nRecently, staff has been trying to work on the server and improve the overall experience of players to make it less &quot;boring,&quot; as a lot of people say it is. In my opinion, we need to go back to classic and simple spawns, with less OP stuff and less shops. Its more fun that way.\r\n\r\nThough we do have major fights and arguments, we always manage to get through them and band together again. That is true community and true loyalty. I know that together we can get through any obstacle and solve any problem that is in our way. I probably wouldn't have stayed this long if I didn't have hope in this amazing community that I love so much &lt;3","post_content_html":"Just so you know, the server started out as just a hunger games server. The spawn was made of iron, gold, and diamond. Then the spawn changed to an all wooden one with still only HG for a while. Factions was created soon after though and that is really when the server started becoming more popular. Everything, and I mean everything, has changed since then. The first staff on the server was Shicking (ofc), Co-Owner: Conerad, Co-Owner, Invisble_Shaed, and Admin\/Mod: EvSxTeabagz. The rules of the server were very loose back then, mods could give players items, players could usually mildly curse without getting in trouble, it was very different. Everything was so simple. After that staff started to become more and more inactive, though, Shick thought it was time to pick more mods. In that first batch was myself, i212, Jadenfong, Armandcool, and Trickdoor. Trick was demoted during his first or second week as trial mod. As you all know, I am now the only one remaining from that batch of mods. About 3-5 months later, the 2nd batch of mods was picked. I believe it consisted of Moose, and Jahowskii. Now, because of Jahow's betrayal, he is gone as well. Our next batch was Charchi and Bertus. Bertus I believe still comes on, but is more inactive than not, and Charchi is well\u2026 you all know what's going on. This next batch of trial mods chosen is all gone now, as of today. Camilla, Jack, and Laz. Next Death, Ridder, and Star were picked and now, from what I heard today, Star quit and its just Death and Ridd. Then finally, we have our current trial mods, Hexagonial, and Jrc. We also now have three helpers who have been doing a great job. So, to sum up our current staff.<br \/> <br \/> Mods:<br \/> <br \/> Myself<br \/> <br \/> Moose<br \/> <br \/> Kinda Charchi<br \/> <br \/> Idk about Bertus<br \/> <br \/> Death<br \/> <br \/> Ridder<br \/> <br \/> Trial mods:<br \/> <br \/> Hexa<br \/> <br \/> Jrc<br \/> <br \/> Helpers:<br \/> <br \/> Creepaahh<br \/> <br \/> IronPecker<br \/> <br \/> Allpurposeflower<br \/> <br \/> I know that was a long history lesson on the server's staff, but I thought you might be interested in knowing because you had mentioned picking new staff. Well, of course getting new staff does cause a bit of chaos and is quite a process, but as you can see, most staff doesn't last. Its so hard for us to pick someone who we think is going to stay on the server for a long time and help out. Shicking has a lot of pressure on him, especially now with the Charchi and Jack issues. We cannot expect him to add new staff on top of that. So, be patient, the time may come when we are in desperate need of new staff.<br \/> <br \/> Recently, staff has been trying to work on the server and improve the overall experience of players to make it less &quot;boring,&quot; as a lot of people say it is. In my opinion, we need to go back to classic and simple spawns, with less OP stuff and less shops. Its more fun that way.<br \/> <br \/> Though we do have major fights and arguments, we always manage to get through them and band together again. That is true community and true loyalty. I know that together we can get through any obstacle and solve any problem that is in our way. I probably wouldn't have stayed this long if I didn't have hope in this amazing community that I love so much &lt;3","post_content_clean":"Just so you know, the server started out as just a hunger games server. The spawn was made of iron, gold, and diamond. Then the spawn changed to an all wooden one with still only HG for a while. Factions was created soon after though and that is really when the server started becoming more popular. Everything, and I mean everything, has changed since then. The first staff on the server was Shicking (ofc), Co-Owner: Conerad, Co-Owner, Invisble_Shaed, and Admin\/Mod: EvSxTeabagz. The rules of the server were very loose back then, mods could give players items, players could usually mildly curse without getting in trouble, it was very different. Everything was so simple. After that staff started to become more and more inactive, though, Shick thought it was time to pick more mods. In that first batch was myself, i212, Jadenfong, Armandcool, and Trickdoor. Trick was demoted during his first or second week as trial mod. As you all know, I am now the only one remaining from that batch of mods. About 3-5 months later, the 2nd batch of mods was picked. I believe it consisted of Moose, and Jahowskii. Now, because of Jahow's betrayal, he is gone as well. Our next batch was Charchi and Bertus. Bertus I believe still comes on, but is more inactive than not, and Charchi is well\u2026 you all know what's going on. This next batch of trial mods chosen is all gone now, as of today. Camilla, Jack, and Laz. Next Death, Ridder, and Star were picked and now, from what I heard today, Star quit and its just Death and Ridd. Then finally, we have our current trial mods, Hexagonial, and Jrc. We also now have three helpers who have been doing a great job. So, to sum up our current staff.\r Mods:\r Myself\r Moose\r Kinda Charchi\r Idk about Bertus\r Death\r Ridder\r \r Trial mods: \r Hexa \r Jrc\r \r Helpers: \r Creepaahh\r IronPecker\r Allpurposeflower\r \r I know that was a long history lesson on the server's staff, but I thought you might be interested in knowing because you had mentioned picking new staff. Well, of course getting new staff does cause a bit of chaos and is quite a process, but as you can see, most staff doesn't last. Its so hard for us to pick someone who we think is going to stay on the server for a long time and help out. Shicking has a lot of pressure on him, especially now with the Charchi and Jack issues. We cannot expect him to add new staff on top of that. So, be patient, the time may come when we are in desperate need of new staff. \r \r Recently, staff has been trying to work on the server and improve the overall experience of players to make it less \"boring,\" as a lot of people say it is. In my opinion, we need to go back to classic and simple spawns, with less OP stuff and less shops. Its more fun that way.\r \r Though we do have major fights and arguments, we always manage to get through them and band together again. That is true community and true loyalty. I know that together we can get through any obstacle and solve any problem that is in our way. I probably wouldn't have stayed this long if I didn't have hope in this amazing community that I love so much <3","post_user_id":"5375337","show_signature":"1","last_edit_time":"1412905246","post_votes":"0","post_unhidden":"0","post_admin_hidden":"0","post_locked":"0","last_edit_user":"0","votes":null,"post_username":"Scarlet Witch","avatar":"https:\/\/assets-cloud.enjin.com\/users\/5375337\/avatar\/medium.1437162398.jpeg","user_online":false,"user_votes":"741","user_posts":"1506","url":"https:\/\/www.enjin.com\/ajax.php?s=redirect&cmd=forum-post&mobile=1&preset=12571633&id=80898264"},{"post_id":"80898810","post_time":"1412903957","post_content":"Just to put a note out Bertus still comes on everyday basically he just has a different timezone. ^-^","post_content_html":"Just to put a note out Bertus still comes on everyday basically he just has a different timezone. ^-^","post_content_clean":"Just to put a note out Bertus still comes on everyday basically he just has a different timezone. ^-^","post_user_id":"9065107","show_signature":"1","last_edit_time":"0","post_votes":"0","post_unhidden":"0","post_admin_hidden":"0","post_locked":"0","last_edit_user":"0","votes":null,"post_username":"brebell1","avatar":"https:\/\/resources.enjin.com\/1465083537\/profile\/images\/avatar\/medium.png","user_online":false,"user_votes":"3","user_posts":"81","url":"https:\/\/www.enjin.com\/ajax.php?s=redirect&cmd=forum-post&mobile=1&preset=12571633&id=80898810"},{"post_id":"80899242","post_time":"1412904433","post_content":"No offense but first off you completely left out ridder, and yes I realize he isn't on much lately but tbh and again no offense You yourself are one of the must inactive mods (well not lately) who hasn't quit yet, I understand the pressure but would it kill for you to get on a bit more. And um this is awkward but you left out Shicking...","post_content_html":"No offense but first off you completely left out ridder, and yes I realize he isn't on much lately but tbh and again no offense You yourself are one of the must inactive mods (well not lately) who hasn't quit yet, I understand the pressure but would it kill for you to get on a bit more. And um this is awkward but you left out Shicking...","post_content_clean":"No offense but first off you completely left out ridder, and yes I realize he isn't on much lately but tbh and again no offense You yourself are one of the must inactive mods (well not lately) who hasn't quit yet, I understand the pressure but would it kill for you to get on a bit more. And um this is awkward but you left out Shicking...","post_user_id":"6069033","show_signature":"1","last_edit_time":"1412904793","post_votes":"0","post_unhidden":"0","post_admin_hidden":"0","post_locked":"0","last_edit_user":"0","votes":null,"post_username":"shadowspade7","avatar":"https:\/\/resources.enjin.com\/1465083537\/profile\/images\/avatar\/medium.png","user_online":false,"user_votes":"91","user_posts":"696","url":"https:\/\/www.enjin.com\/ajax.php?s=redirect&cmd=forum-post&mobile=1&preset=12571633&id=80899242"},{"post_id":"80899283","post_time":"1412904492","post_content":"[color=#2360dd][b]Thanks for the history lesson xD, i wasn't to sure about that.[\/b][\/color]","post_content_html":"<b>Thanks for the history lesson xD, i wasn't to sure about that.<\/b>","post_content_clean":"Thanks for the history lesson xD, i wasn't to sure about that.","post_user_id":"6902960","show_signature":"1","last_edit_time":"0","post_votes":"0","post_unhidden":"0","post_admin_hidden":"0","post_locked":"0","last_edit_user":"0","votes":null,"post_username":"MasteryangXD","avatar":"https:\/\/assets-cloud.enjin.com\/users\/6902960\/avatar\/medium.1415587584.png","user_online":false,"user_votes":"0","user_posts":"37","url":"https:\/\/www.enjin.com\/ajax.php?s=redirect&cmd=forum-post&mobile=1&preset=12571633&id=80899283"},{"post_id":"80899784","post_time":"1412905008","post_content":"[quote user_id=\"6069033\" avatar=\"https:\/\/cravatar.eu\/helmavatar\/shadowspade7\/74.png\" name=\"shadowspade7\"]No offense but first off you completely left out ridder, and yes I realize he isn't on much lately but tbh and again no offense You yourself are one of the must inactive mods (well not lately) who hasn't quit yet, I understand the pressure but would it kill for you to get on a bit more.[\/quote]\r\nDang, sorry I forgot about Ridder. Idk how I forgot him. I was going through the news and trying to find everyone and apparently I just didn't read his name. But everyone knows he is a mod, so its not a big deal. And just for your information, mister, Im pretty sure we have completely different time zones. Also, Ive been really busy with school and everything. I have SAT's this year, Im trying to practice driving more because I get my license in November, my classes (especially english) are killer and I need to do a lot of work for them, I've been looking at colleges and stuff. So Im lucky I can get on as much as I already do. I have put off a lot of studying and dedicated a lot of time to this server so you should honestly not be talking crap about me being inactive.\r\nTHank you\u2026.. -_-\r\n\r\nOh and yes, it actually might kill me, because if my grades drop lower than a B, my mom might kill me. So there you go.","post_content_html":" <div class=\"bbcode_quote\"> <div class=\"bbcode_quote_head\">@6069033 wrote:<\/div> <div class=\"bbcode_quote_body\">No offense but first off you completely left out ridder, and yes I realize he isn't on much lately but tbh and again no offense You yourself are one of the must inactive mods (well not lately) who hasn't quit yet, I understand the pressure but would it kill for you to get on a bit more.<\/div> <\/div> <br \/> Dang, sorry I forgot about Ridder. Idk how I forgot him. I was going through the news and trying to find everyone and apparently I just didn't read his name. But everyone knows he is a mod, so its not a big deal. And just for your information, mister, Im pretty sure we have completely different time zones. Also, Ive been really busy with school and everything. I have SAT's this year, Im trying to practice driving more because I get my license in November, my classes (especially english) are killer and I need to do a lot of work for them, I've been looking at colleges and stuff. So Im lucky I can get on as much as I already do. I have put off a lot of studying and dedicated a lot of time to this server so you should honestly not be talking crap about me being inactive.<br \/> <br \/> THank you\u2026.. -_-<br \/> <br \/> Oh and yes, it actually might kill me, because if my grades drop lower than a B, my mom might kill me. So there you go.","post_content_clean":"No offense but first off you completely left out ridder, and yes I realize he isn't on much lately but tbh and again no offense You yourself are one of the must inactive mods (well not lately) who hasn't quit yet, I understand the pressure but would it kill for you to get on a bit more.\r Dang, sorry I forgot about Ridder. Idk how I forgot him. I was going through the news and trying to find everyone and apparently I just didn't read his name. But everyone knows he is a mod, so its not a big deal. And just for your information, mister, Im pretty sure we have completely different time zones. Also, Ive been really busy with school and everything. I have SAT's this year, Im trying to practice driving more because I get my license in November, my classes (especially english) are killer and I need to do a lot of work for them, I've been looking at colleges and stuff. So Im lucky I can get on as much as I already do. I have put off a lot of studying and dedicated a lot of time to this server so you should honestly not be talking crap about me being inactive. \r THank you\u2026.. -_-\r \r Oh and yes, it actually might kill me, because if my grades drop lower than a B, my mom might kill me. So there you go.","post_user_id":"5375337","show_signature":"1","last_edit_time":"1412905044","post_votes":"0","post_unhidden":"0","post_admin_hidden":"0","post_locked":"0","last_edit_user":"0","votes":null,"post_username":"Scarlet Witch","avatar":"https:\/\/assets-cloud.enjin.com\/users\/5375337\/avatar\/medium.1437162398.jpeg","user_online":false,"user_votes":"741","user_posts":"1506","url":"https:\/\/www.enjin.com\/ajax.php?s=redirect&cmd=forum-post&mobile=1&preset=12571633&id=80899784"},{"post_id":"80900587","post_time":"1412905798","post_content":"Man when this server only had 250 slots it was awesome! I remember playing MA at my grandparents house and the mini pvp under spawn :\/ good times","post_content_html":"Man when this server only had 250 slots it was awesome! I remember playing MA at my grandparents house and the mini pvp under spawn :\/ good times","post_content_clean":"Man when this server only had 250 slots it was awesome! I remember playing MA at my grandparents house and the mini pvp under spawn :\/ good times","post_user_id":"6477959","show_signature":"1","last_edit_time":"0","post_votes":"0","post_unhidden":"0","post_admin_hidden":"0","post_locked":"0","last_edit_user":"0","votes":null,"post_username":"Fireball71101","avatar":"https:\/\/assets-cloud.enjin.com\/users\/6477959\/avatar\/medium.1424450521.jpeg","user_online":false,"user_votes":"19","user_posts":"702","url":"https:\/\/www.enjin.com\/ajax.php?s=redirect&cmd=forum-post&mobile=1&preset=12571633&id=80900587"},{"post_id":"80908668","post_time":"1412915462","post_content":"[b]Jack is gone :( it won't as fun anymore. [\/b]","post_content_html":"<b>Jack is gone :( it won't as fun anymore. <\/b>","post_content_clean":"Jack is gone :( it won't as fun anymore. ","post_user_id":"7809888","show_signature":"1","last_edit_time":"0","post_votes":"0","post_unhidden":"0","post_admin_hidden":"0","post_locked":"0","last_edit_user":"0","votes":null,"post_username":"Zyndraaaa","avatar":"https:\/\/assets-cloud.enjin.com\/users\/7809888\/avatar\/medium.1429684812.jpeg","user_online":false,"user_votes":"94","user_posts":"633","url":"https:\/\/www.enjin.com\/ajax.php?s=redirect&cmd=forum-post&mobile=1&preset=12571633&id=80908668"},{"post_id":"80910169","post_time":"1412917661","post_content":"[quote user_id=\"4777161\" avatar=\"https:\/\/cravatar.eu\/helmavatar\/Pentagonial\/74.png\" name=\"Pentagonial\"][quote user_id=\"7809888\" avatar=\"https:\/\/cravatar.eu\/helmavatar\/NyteBladeSky\/74.png\" name=\"NyteBladeSky\"][b]Jack is gone :( it won't as fun anymore. [\/b][\/quote]\r\n[b][color=#239edd]All he does is comes on and swears and abuses... You're not missing much.[\/color][\/b][\/quote]\r\n\r\nNo, Jack was a hard working player on this server, he isnt banned from the forums, maybe he comes back. I am quite sure he was working very hard on somthing right before he was banned","post_content_html":" <div class=\"bbcode_quote\"> <div class=\"bbcode_quote_head\">@4777161 wrote:<\/div> <div class=\"bbcode_quote_body\"> <div class=\"bbcode_quote\"> <div class=\"bbcode_quote_head\">@7809888 wrote:<\/div> <div class=\"bbcode_quote_body\"><b>Jack is gone :( it won't as fun anymore. <\/b><\/div> <\/div> <br \/> <b>All he does is comes on and swears and abuses... You're not missing much.<\/b><\/div> <\/div> <br \/> No, Jack was a hard working player on this server, he isnt banned from the forums, maybe he comes back. I am quite sure he was working very hard on somthing right before he was banned","post_content_clean":"Jack is gone :( it won't as fun anymore. \r All he does is comes on and swears and abuses... You're not missing much.\r \r No, Jack was a hard working player on this server, he isnt banned from the forums, maybe he comes back. I am quite sure he was working very hard on somthing right before he was banned","post_user_id":"5179658","show_signature":"1","last_edit_time":"0","post_votes":"0","post_unhidden":"0","post_admin_hidden":"0","post_locked":"0","last_edit_user":"0","votes":null,"post_username":"NewYorkTimes?...","avatar":"https:\/\/resources.enjin.com\/1465083537\/profile\/images\/avatar\/medium.png","user_online":false,"user_votes":"5","user_posts":"1044","url":"https:\/\/www.enjin.com\/ajax.php?s=redirect&cmd=forum-post&mobile=1&preset=12571633&id=80910169"},{"post_id":"80911106","post_time":"1412919179","post_content":"[quote user_id=\"4777161\" avatar=\"https:\/\/cravatar.eu\/helmavatar\/Pentagonial\/74.png\" name=\"Pentagonial\"][quote user_id=\"7809888\" avatar=\"https:\/\/cravatar.eu\/helmavatar\/NyteBladeSky\/74.png\" name=\"NyteBladeSky\"][b]Jack is gone :( it won't as fun anymore. [\/b][\/quote]\r\n[b][color=#239edd]All he does is comes on and swears and abuses... You're not missing much.[\/color][\/b][\/quote]\r\nPent. Last time I talked to him, he was developing something for the server.","post_content_html":" <div class=\"bbcode_quote\"> <div class=\"bbcode_quote_head\">@4777161 wrote:<\/div> <div class=\"bbcode_quote_body\"> <div class=\"bbcode_quote\"> <div class=\"bbcode_quote_head\">@7809888 wrote:<\/div> <div class=\"bbcode_quote_body\"><b>Jack is gone :( it won't as fun anymore. <\/b><\/div> <\/div> <br \/> <b>All he does is comes on and swears and abuses... You're not missing much.<\/b><\/div> <\/div> <br \/> Pent. Last time I talked to him, he was developing something for the server.","post_content_clean":"Jack is gone :( it won't as fun anymore. \r All he does is comes on and swears and abuses... You're not missing much.\r Pent. Last time I talked to him, he was developing something for the server.","post_user_id":"3553747","show_signature":"1","last_edit_time":"0","post_votes":"0","post_unhidden":"0","post_admin_hidden":"0","post_locked":"0","last_edit_user":"0","votes":null,"post_username":"ElshSolo Player","avatar":"https:\/\/assets-cloud.enjin.com\/users\/3553747\/avatar\/medium.1439834345.jpeg","user_online":false,"user_votes":"107","user_posts":"609","url":"https:\/\/www.enjin.com\/ajax.php?s=redirect&cmd=forum-post&mobile=1&preset=12571633&id=80911106"},{"post_id":"80913068","post_time":"1412922326","post_content":"Note for Ridder, he comes on at everyday I believe","post_content_html":"Note for Ridder, he comes on at everyday I believe","post_content_clean":"Note for Ridder, he comes on at everyday I believe","post_user_id":"7296608","show_signature":"1","last_edit_time":"0","post_votes":"0","post_unhidden":"0","post_admin_hidden":"0","post_locked":"0","last_edit_user":"0","votes":null,"post_username":"Anemane360","avatar":"https:\/\/assets-cloud.enjin.com\/users\/7296608\/avatar\/medium.1412101149.jpeg","user_online":false,"user_votes":"9","user_posts":"118","url":"https:\/\/www.enjin.com\/ajax.php?s=redirect&cmd=forum-post&mobile=1&preset=12571633&id=80913068"}],"total_items":"26","pages":3,"voted":false,"new_post_id":"80898264","thread_labels":[],"top_posters":{"result":[{"post_user_id":"6902960","posts":"6","username":"MasteryangXD","avatar":"https:\/\/assets-cloud.enjin.com\/users\/6902960\/avatar\/medium.1415587584.png"},{"post_user_id":"5179658","posts":"3","username":"NewYorkTimes?...","avatar":"https:\/\/resources.enjin.com\/1465083537\/profile\/images\/avatar\/medium.png"},{"post_user_id":"6648983","posts":"2","username":"Boo Stark","avatar":"https:\/\/assets-cloud.enjin.com\/users\/6648983\/avatar\/medium.1437598351.png"},{"post_user_id":"7285109","posts":"2","username":"Detah","avatar":"https:\/\/assets-cloud.enjin.com\/users\/7285109\/avatar\/medium.1400130105.png"},{"post_user_id":"7249943","posts":"2","username":"Creepaahh","avatar":"https:\/\/assets-cloud.enjin.com\/users\/7249943\/avatar\/medium.1468004541.jpeg"},{"post_user_id":"5375337","posts":"2","username":"Scarlet Witch","avatar":"https:\/\/assets-cloud.enjin.com\/users\/5375337\/avatar\/medium.1437162398.jpeg"},{"post_user_id":"3553747","posts":"1","username":"ElshSolo Player","avatar":"https:\/\/assets-cloud.enjin.com\/users\/3553747\/avatar\/medium.1439834345.jpeg"},{"post_user_id":"7296608","posts":"1","username":"Anemane360","avatar":"https:\/\/assets-cloud.enjin.com\/users\/7296608\/avatar\/medium.1412101149.jpeg"},{"post_user_id":"11032290","posts":"1","username":"MCL \/_ A16","avatar":"https:\/\/assets-cloud.enjin.com\/users\/11032290\/avatar\/medium.1411766013.png"},{"post_user_id":"11180925","posts":"1","username":"Kill","avatar":"https:\/\/assets-cloud.enjin.com\/users\/11180925\/avatar\/medium.1412550401.jpeg"},{"post_user_id":"6685279","posts":"1","username":"Timely","avatar":"https:\/\/assets-cloud.enjin.com\/users\/6685279\/avatar\/medium.1491786217.jpeg"},{"post_user_id":"9065107","posts":"1","username":"brebell1","avatar":"https:\/\/resources.enjin.com\/1465083537\/profile\/images\/avatar\/medium.png"}],"num_users":"15"},"moderation_access":false,"poll_post":null,"post_access":true,"new_thread_access":true},"id":"1234567","jsonrpc":"2.0"}
{"result":{"thread":{"preset_id":"12571633","forum_id":"2419048","thread_id":"16193262","thread_subject":"I think it's time!          Read this, it's for the good of CGS","thread_replies":"25","thread_views":"1110","thread_type":"normal","thread_status":"locked","thread_user_id":"6902960","thread_username":"MasteryangXD","thread_avatar":"https:\/\/assets-cloud.enjin.com\/users\/6902960\/avatar\/medium.1468004541.jpeg","thread_lastpost_user_id":"5179658","thread_lastpost_username":"heyho123456789","thread_lastpost_time":"1412966020","thread_moved_id":"0","thread_post_time":"1412898650","url":"https:\/\/www.enjin.com\/ajax.php?s=redirect&cmd=forum-thread&mobile=1&preset=12571633&id=16193262","post_count":"1","category_id":"1907006","forum_name":"General Discussion","forum_description":"Discussion about general topics.","disable_voting":"0","show_signature":"1","url_cms":"https:\/\/www.craftsurvivalgames.com\/forum\/m\/12571633\/viewthread\/16193262-i-think-its-time-read-this-for-good-cgs"},"posts":[{"post_id":"80923276","post_time":"1412938529","post_content":"It is hard for some staff to be on, especially when they have a job, studying, school, bills to pay, etc. Not to mention the switch in timezones can be a real doozy, as some players may claim a Mod to be inactive, but others disagree because they see them on a lot. Perhaps what Shicking could do is add a list of the staff (like on the tab screen above) and add their timezones in. This could help clear up any confusion of when a Moderator can get on.","post_content_html":"It is hard for some staff to be on, especially when they have a job, studying, school, bills to pay, etc. Not to mention the switch in timezones can be a real doozy, as some players may claim a Mod to be inactive, but others disagree because they see them on a lot. Perhaps what Shicking could do is add a list of the staff (like on the tab screen above) and add their timezones in. This could help clear up any confusion of when a Moderator can get on.","post_content_clean":"It is hard for some staff to be on, especially when they have a job, studying, school, bills to pay, etc. Not to mention the switch in timezones can be a real doozy, as some players may claim a Mod to be inactive, but others disagree because they see them on a lot. Perhaps what Shicking could do is add a list of the staff (like on the tab screen above) and add their timezones in. This could help clear up any confusion of when a Moderator can get on.","post_user_id":"7249943","show_signature":"1","last_edit_time":"0","post_votes":"0","post_unhidden":"0","post_admin_hidden":"0","post_locked":"0","last_edit_user":"0","votes":null,"post_username":"Creepaahh","avatar":"https:\/\/assets-cloud.enjin.com\/users\/7249943\/avatar\/medium.1468004541.jpeg","user_online":false,"user_votes":null,"user_posts":0,"url":"https:\/\/www.enjin.com\/ajax.php?s=redirect&cmd=forum-post&mobile=1&preset=12571633&id=80923276"},{"post_id":"80931991","post_time":"1412949789","post_content":"When new moderators are chosen, it causes drama, and that's how some things get started.\r\n\r\nThe server is getting boring, it is true. Survival server would be heck of a fun time, no shops, plain survival, that would be killer. So much fun.\r\n\r\nI don't know what happened to psg, it used to be fun, now it's not.","post_content_html":"When new moderators are chosen, it causes drama, and that's how some things get started.<br \/> <br \/> The server is getting boring, it is true. Survival server would be heck of a fun time, no shops, plain survival, that would be killer. So much fun.<br \/> <br \/> I don't know what happened to psg, it used to be fun, now it's not.","post_content_clean":"When new moderators are chosen, it causes drama, and that's how some things get started.\r \r The server is getting boring, it is true. Survival server would be heck of a fun time, no shops, plain survival, that would be killer. So much fun.\r \r I don't know what happened to psg, it used to be fun, now it's not.","post_user_id":"11180925","show_signature":"0","last_edit_time":"0","post_votes":"0","post_unhidden":"0","post_admin_hidden":"0","post_locked":"0","last_edit_user":"0","votes":null,"post_username":"Kill","avatar":"https:\/\/assets-cloud.enjin.com\/users\/11180925\/avatar\/medium.1412550401.jpeg","user_online":false,"user_votes":"0","user_posts":"17","url":"https:\/\/www.enjin.com\/ajax.php?s=redirect&cmd=forum-post&mobile=1&preset=12571633&id=80931991"},{"post_id":"80935418","post_time":"1412953720","post_content":"[color=#3e3e3e]Also, Loki, you are not the last remaining out of the group. Jaden is still a Moderator, and he has not quit. He has emailed Shicking explaining this.[\/color]","post_content_html":"Also, Loki, you are not the last remaining out of the group. Jaden is still a Moderator, and he has not quit. He has emailed Shicking explaining this.","post_content_clean":"Also, Loki, you are not the last remaining out of the group. Jaden is still a Moderator, and he has not quit. He has emailed Shicking explaining this.","post_user_id":"7285109","show_signature":"1","last_edit_time":"0","post_votes":"0","post_unhidden":"0","post_admin_hidden":"0","post_locked":"0","last_edit_user":"0","votes":null,"post_username":"Detah","avatar":"https:\/\/assets-cloud.enjin.com\/users\/7285109\/avatar\/medium.1400130105.png","user_online":false,"user_votes":"2268","user_posts":"5250","url":"https:\/\/www.enjin.com\/ajax.php?s=redirect&cmd=forum-post&mobile=1&preset=12571633&id=80935418"},{"post_id":"80935774","post_time":"1412954096","post_content":"That is right Death but, he is very in-active at the moment.","post_content_html":"That is right Death but, he is very in-active at the moment.","post_content_clean":"That is right Death but, he is very in-active at the moment.","post_user_id":"5179658","show_signature":"1","last_edit_time":"0","post_votes":"0","post_unhidden":"0","post_admin_hidden":"0","post_locked":"0","last_edit_user":"0","votes":null,"post_username":"NewYorkTimes?...","avatar":"https:\/\/resources.enjin.com\/1465083537\/profile\/images\/avatar\/medium.png","user_online":false,"user_votes":"5","user_posts":"1044","url":"https:\/\/www.enjin.com\/ajax.php?s=redirect&cmd=forum-post&mobile=1&preset=12571633&id=80935774"},{"post_id":"80937367","post_time":"1412955847","post_content":"[quote user_id=\"5179658\" avatar=\"https:\/\/resources.enjin.com\/profile\/images\/avatar\/medium.png\" name=\"NewYorkTimes?...\"]That is right Death but, he is very in-active at the moment.[\/quote]\r\n[color=#3e3e3e]He's currently working on his grades at school, that is why he is inactive, and that's why he emailed Shicking.\r\nHe is still staff.[\/color]","post_content_html":" <div class=\"bbcode_quote\"> <div class=\"bbcode_quote_head\">@5179658 wrote:<\/div> <div class=\"bbcode_quote_body\">That is right Death but, he is very in-active at the moment.<\/div> <\/div> <br \/> He's currently working on his grades at school, that is why he is inactive, and that's why he emailed Shicking.<br \/> <br \/> He is still staff.","post_content_clean":"That is right Death but, he is very in-active at the moment.\r He's currently working on his grades at school, that is why he is inactive, and that's why he emailed Shicking.\r He is still staff.","post_user_id":"7285109","show_signature":"1","last_edit_time":"0","post_votes":"0","post_unhidden":"0","post_admin_hidden":"0","post_locked":"0","last_edit_user":"0","votes":null,"post_username":"Detah","avatar":"https:\/\/assets-cloud.enjin.com\/users\/7285109\/avatar\/medium.1400130105.png","user_online":false,"user_votes":"2268","user_posts":"5250","url":"https:\/\/www.enjin.com\/ajax.php?s=redirect&cmd=forum-post&mobile=1&preset=12571633&id=80937367"},{"post_id":"80946711","post_time":"1412966020","post_content":"[quote user_id=\"7285109\" avatar=\"https:\/\/cravatar.eu\/helmavatar\/Detah\/74.png\" name=\"Detah\"][quote user_id=\"5179658\" avatar=\"https:\/\/resources.enjin.com\/profile\/images\/avatar\/medium.png\" name=\"NewYorkTimes?...\"]That is right Death but, he is very in-active at the moment.[\/quote]\r\n[color=#3e3e3e]He's currently working on his grades at school, that is why he is inactive, and that's why he emailed Shicking.\r\nHe is still staff.[\/color][\/quote]\r\n\r\nGood, somone has track of what is happening here :P\r\nTbh Im in a bad mood, didnt have a good school day, mad because Jack was de-moted, everything is floating in my head.","post_content_html":" <div class=\"bbcode_quote\"> <div class=\"bbcode_quote_head\">@7285109 wrote:<\/div> <div class=\"bbcode_quote_body\"> <div class=\"bbcode_quote\"> <div class=\"bbcode_quote_head\">@5179658 wrote:<\/div> <div class=\"bbcode_quote_body\">That is right Death but, he is very in-active at the moment.<\/div> <\/div> <br \/> He's currently working on his grades at school, that is why he is inactive, and that's why he emailed Shicking.<br \/> <br \/> He is still staff.<\/div> <\/div> <br \/> Good, somone has track of what is happening here <object class=\"emojione\" data=\"https:\/\/resources.enjin.com\/1489581540\/themes\/core\/images\/emojione\/svg\/1f61b.svg?0\" type=\"image\/svg+xml\" standby=\":p\">:p<\/object><br \/> <br \/> Tbh Im in a bad mood, didnt have a good school day, mad because Jack was de-moted, everything is floating in my head.","post_content_clean":"That is right Death but, he is very in-active at the moment.\r He's currently working on his grades at school, that is why he is inactive, and that's why he emailed Shicking.\r He is still staff.\r \r Good, somone has track of what is happening here :P \r Tbh Im in a bad mood, didnt have a good school day, mad because Jack was de-moted, everything is floating in my head.","post_user_id":"5179658","show_signature":"1","last_edit_time":"0","post_votes":"0","post_unhidden":"0","post_admin_hidden":"0","post_locked":"0","last_edit_user":"0","votes":null,"post_username":"NewYorkTimes?...","avatar":"https:\/\/resources.enjin.com\/1465083537\/profile\/images\/avatar\/medium.png","user_online":false,"user_votes":"5","user_posts":"1044","url":"https:\/\/www.enjin.com\/ajax.php?s=redirect&cmd=forum-post&mobile=1&preset=12571633&id=80946711"}],"total_items":"26","pages":3,"voted":false,"new_post_id":"80923276","thread_labels":[],"top_posters":{"result":[{"post_user_id":"6902960","posts":"6","username":"MasteryangXD","avatar":"https:\/\/assets-cloud.enjin.com\/users\/6902960\/avatar\/medium.1415587584.png"},{"post_user_id":"5179658","posts":"3","username":"NewYorkTimes?...","avatar":"https:\/\/resources.enjin.com\/1465083537\/profile\/images\/avatar\/medium.png"},{"post_user_id":"7285109","posts":"2","username":"Detah","avatar":"https:\/\/assets-cloud.enjin.com\/users\/7285109\/avatar\/medium.1400130105.png"},{"post_user_id":"7249943","posts":"2","username":"Creepaahh","avatar":"https:\/\/assets-cloud.enjin.com\/users\/7249943\/avatar\/medium.1468004541.jpeg"},{"post_user_id":"5375337","posts":"2","username":"Scarlet Witch","avatar":"https:\/\/assets-cloud.enjin.com\/users\/5375337\/avatar\/medium.1437162398.jpeg"},{"post_user_id":"6648983","posts":"2","username":"Boo Stark","avatar":"https:\/\/assets-cloud.enjin.com\/users\/6648983\/avatar\/medium.1437598351.png"},{"post_user_id":"11032290","posts":"1","username":"MCL \/_ A16","avatar":"https:\/\/assets-cloud.enjin.com\/users\/11032290\/avatar\/medium.1411766013.png"},{"post_user_id":"11180925","posts":"1","username":"Kill","avatar":"https:\/\/assets-cloud.enjin.com\/users\/11180925\/avatar\/medium.1412550401.jpeg"},{"post_user_id":"6685279","posts":"1","username":"Timely","avatar":"https:\/\/assets-cloud.enjin.com\/users\/6685279\/avatar\/medium.1491786217.jpeg"},{"post_user_id":"9065107","posts":"1","username":"brebell1","avatar":"https:\/\/resources.enjin.com\/1465083537\/profile\/images\/avatar\/medium.png"},{"post_user_id":"6069033","posts":"1","username":"shadowspade7","avatar":"https:\/\/resources.enjin.com\/1465083537\/profile\/images\/avatar\/medium.png"},{"post_user_id":"6477959","posts":"1","username":"Fireball71101","avatar":"https:\/\/assets-cloud.enjin.com\/users\/6477959\/avatar\/medium.1424450521.jpeg"}],"num_users":"15"},"moderation_access":false,"poll_post":null,"post_access":true,"new_thread_access":true},"id":"1234567","jsonrpc":"2.0"}
