{"result":{"thread":{"preset_id":"12571633","forum_id":"2419050","thread_id":"17647692","thread_subject":"Ideas that affect PSG and will affect you","thread_replies":"29","thread_views":"3398","thread_type":"normal","thread_status":"locked","thread_user_id":"7249943","thread_username":"Creepaahh","thread_avatar":"https:\/\/assets-cloud.enjin.com\/users\/7249943\/avatar\/medium.1468004541.jpeg","thread_lastpost_user_id":"9843685","thread_lastpost_username":"Falcondeath52","thread_lastpost_time":"1418313847","thread_moved_id":"0","thread_post_time":"1417898306","url":"https:\/\/www.enjin.com\/ajax.php?s=redirect&cmd=forum-thread&mobile=1&preset=12571633&id=17647692","post_count":0,"category_id":"1023515","forum_name":"News & Announcements","forum_description":"Official news and announcements.","disable_voting":"0","show_signature":"1","url_cms":"https:\/\/www.craftsurvivalgames.com\/forum\/m\/12571633\/viewthread\/17647692-ideas-that-affect-psg-will-you"},"posts":[{"post_id":"85210321","post_time":"1417898306","post_content":"Hello players of PSG. There are several issues of debate that I would like to bring up to you all. But before I begin, I like to thank you all for making this community how amazing it is. Through good times and bad, we've managed to pick up our heads and walk away from trouble. This server wouldn't be possible without you, the players. I thank all of you for making the community what it is today. Now, lets start with the issues that I would like to bring up.\r\n[b]\r\n1. Factions Reset.[\/b]\r\nSo we all know about the supposedly &quot;big&quot; factions reset that happened a while back. But has it really done anything? Has it really helped the server get players back online? Lets look at the quantity of players on Factions. When you look at it player-wise, the server is doing fine. I was on last night and there was about 30 people online, which is good for the old server. However, only about 8 of them were consistent, dedicated players to PSG (me, Hex, Derpy, and Falcon were some of the players online). What about the rest of the people? What about the people who complained so much to keep all of their god armor and gapples? Where are those people? Playing HG2, Prison, and Skyblock. Why? Mostly because once you get great stuff on Factions, there isn't much to do. And that is the reason why so many &quot;newbs&quot; play on that server. Because they want to have amazing stuff and be like the players who hoard everything and have all the glory. So has the reset really done anything to help? Slightly, but it did not have the impact that I feel it should have had on the server.\r\n\r\nWhat can we do to get players from Hunger Games and Skyblock back on one of PSG's oldest servers? The only possible solution would be a complete reset. By doing thus, players will have to work to achieve their god armor, OP bases, and stacks of gapples. &quot;Newbs&quot; or inexperienced players may finally be able to compete with the rest of the server. And most importantly, it will help to bring back some of the morals and themes of Factions; rivalries and alliances, friend and foe, dedication, friendship, cooperation, and teamwork.\r\n\r\n[b]2. Longer Bans for Hacking.[\/b]\r\nSo we all know that on this server, hackers are only banned for a maximum of a month. Why, I don't know, I suppose it's an attempt to try and make the hacker think twice about his ways. But, obviously, this hasn't worked. Any hacker who has been banned for longer than a month has either continued to hack on here, or left. Earlier today, I broke staff protocol by banning a hacker for 2 months, and really, the kid deserved it. He had been banned 3 or 4 times in the past for hacking, and he had to get longer than a month ban. This rule has to be changed if we are to prevent hackers from continuing to play on this server.\r\n\r\n[b]3. Extended Punishments.\r\n[\/b]Before you all start going crazy on this idea, hear me out. By extended punishments, I don't mean a 2 day ban for logging once. I mean the 15 minute mute for spamming because a half hour mute. We go back to the 3-strikes-and-you're-out deal with hackers. Logging becomes a longer jail period. Breaking a rule several times over will result in much more severe punishments than last time.\r\n\r\nSo why would I think about this? Well, it really isn't my idea, it's Hex's. And this is his reasoning behind it; we, the staff, are trying to keep this server as safe a place as possible. When we get people hacking and logging and being rude to other players, it makes our job that much harder. It also doesn't help that people continue to break rules after miniscule punishments. In order for people to stop breaking rules so often, we have to make punishments more severe in order to make sure that player stop breaking rules on this server and on the forums.\r\n\r\nAgain, I thank you all for reading this. Below I have attached a poll to see what you guys think about these ideas. I know that it's difficult to make decisions like these. But in order for the server to continue on, we must have you, the players, decide the course of this server. Do you want to voice your opinions on what PSG should do next? Comment now. Your vote may mean everything. For if you didn't take a stand for all that you loved, who would?\r\n\r\n[color=#dd2423]~Creepaahh[\/color]","post_content_html":"Hello players of PSG. There are several issues of debate that I would like to bring up to you all. But before I begin, I like to thank you all for making this community how amazing it is. Through good times and bad, we've managed to pick up our heads and walk away from trouble. This server wouldn't be possible without you, the players. I thank all of you for making the community what it is today. Now, lets start with the issues that I would like to bring up.<br \/> <br \/> <b><br \/> <br \/> 1. Factions Reset.<\/b><br \/> <br \/> So we all know about the supposedly &quot;big&quot; factions reset that happened a while back. But has it really done anything? Has it really helped the server get players back online? Lets look at the quantity of players on Factions. When you look at it player-wise, the server is doing fine. I was on last night and there was about 30 people online, which is good for the old server. However, only about 8 of them were consistent, dedicated players to PSG (me, Hex, Derpy, and Falcon were some of the players online). What about the rest of the people? What about the people who complained so much to keep all of their god armor and gapples? Where are those people? Playing HG2, Prison, and Skyblock. Why? Mostly because once you get great stuff on Factions, there isn't much to do. And that is the reason why so many &quot;newbs&quot; play on that server. Because they want to have amazing stuff and be like the players who hoard everything and have all the glory. So has the reset really done anything to help? Slightly, but it did not have the impact that I feel it should have had on the server.<br \/> <br \/> What can we do to get players from Hunger Games and Skyblock back on one of PSG's oldest servers? The only possible solution would be a complete reset. By doing thus, players will have to work to achieve their god armor, OP bases, and stacks of gapples. &quot;Newbs&quot; or inexperienced players may finally be able to compete with the rest of the server. And most importantly, it will help to bring back some of the morals and themes of Factions; rivalries and alliances, friend and foe, dedication, friendship, cooperation, and teamwork.<br \/> <br \/> <b>2. Longer Bans for Hacking.<\/b><br \/> <br \/> So we all know that on this server, hackers are only banned for a maximum of a month. Why, I don't know, I suppose it's an attempt to try and make the hacker think twice about his ways. But, obviously, this hasn't worked. Any hacker who has been banned for longer than a month has either continued to hack on here, or left. Earlier today, I broke staff protocol by banning a hacker for 2 months, and really, the kid deserved it. He had been banned 3 or 4 times in the past for hacking, and he had to get longer than a month ban. This rule has to be changed if we are to prevent hackers from continuing to play on this server.<br \/> <br \/> <b>3. Extended Punishments.<br \/> <br \/> <\/b>Before you all start going crazy on this idea, hear me out. By extended punishments, I don't mean a 2 day ban for logging once. I mean the 15 minute mute for spamming because a half hour mute. We go back to the 3-strikes-and-you're-out deal with hackers. Logging becomes a longer jail period. Breaking a rule several times over will result in much more severe punishments than last time.<br \/> <br \/> So why would I think about this? Well, it really isn't my idea, it's Hex's. And this is his reasoning behind it; we, the staff, are trying to keep this server as safe a place as possible. When we get people hacking and logging and being rude to other players, it makes our job that much harder. It also doesn't help that people continue to break rules after miniscule punishments. In order for people to stop breaking rules so often, we have to make punishments more severe in order to make sure that player stop breaking rules on this server and on the forums.<br \/> <br \/> Again, I thank you all for reading this. Below I have attached a poll to see what you guys think about these ideas. I know that it's difficult to make decisions like these. But in order for the server to continue on, we must have you, the players, decide the course of this server. Do you want to voice your opinions on what PSG should do next? Comment now. Your vote may mean everything. For if you didn't take a stand for all that you loved, who would?<br \/> <br \/> ~Creepaahh","post_content_clean":"Hello players of PSG. There are several issues of debate that I would like to bring up to you all. But before I begin, I like to thank you all for making this community how amazing it is. Through good times and bad, we've managed to pick up our heads and walk away from trouble. This server wouldn't be possible without you, the players. I thank all of you for making the community what it is today. Now, lets start with the issues that I would like to bring up.\r \r 1. Factions Reset.\r So we all know about the supposedly \"big\" factions reset that happened a while back. But has it really done anything? Has it really helped the server get players back online? Lets look at the quantity of players on Factions. When you look at it player-wise, the server is doing fine. I was on last night and there was about 30 people online, which is good for the old server. However, only about 8 of them were consistent, dedicated players to PSG (me, Hex, Derpy, and Falcon were some of the players online). What about the rest of the people? What about the people who complained so much to keep all of their god armor and gapples? Where are those people? Playing HG2, Prison, and Skyblock. Why? Mostly because once you get great stuff on Factions, there isn't much to do. And that is the reason why so many \"newbs\" play on that server. Because they want to have amazing stuff and be like the players who hoard everything and have all the glory. So has the reset really done anything to help? Slightly, but it did not have the impact that I feel it should have had on the server.\r \r What can we do to get players from Hunger Games and Skyblock back on one of PSG's oldest servers? The only possible solution would be a complete reset. By doing thus, players will have to work to achieve their god armor, OP bases, and stacks of gapples. \"Newbs\" or inexperienced players may finally be able to compete with the rest of the server. And most importantly, it will help to bring back some of the morals and themes of Factions; rivalries and alliances, friend and foe, dedication, friendship, cooperation, and teamwork.\r \r 2. Longer Bans for Hacking.\r So we all know that on this server, hackers are only banned for a maximum of a month. Why, I don't know, I suppose it's an attempt to try and make the hacker think twice about his ways. But, obviously, this hasn't worked. Any hacker who has been banned for longer than a month has either continued to hack on here, or left. Earlier today, I broke staff protocol by banning a hacker for 2 months, and really, the kid deserved it. He had been banned 3 or 4 times in the past for hacking, and he had to get longer than a month ban. This rule has to be changed if we are to prevent hackers from continuing to play on this server.\r \r 3. Extended Punishments.\r Before you all start going crazy on this idea, hear me out. By extended punishments, I don't mean a 2 day ban for logging once. I mean the 15 minute mute for spamming because a half hour mute. We go back to the 3-strikes-and-you're-out deal with hackers. Logging becomes a longer jail period. Breaking a rule several times over will result in much more severe punishments than last time. \r \r So why would I think about this? Well, it really isn't my idea, it's Hex's. And this is his reasoning behind it; we, the staff, are trying to keep this server as safe a place as possible. When we get people hacking and logging and being rude to other players, it makes our job that much harder. It also doesn't help that people continue to break rules after miniscule punishments. In order for people to stop breaking rules so often, we have to make punishments more severe in order to make sure that player stop breaking rules on this server and on the forums. \r \r Again, I thank you all for reading this. Below I have attached a poll to see what you guys think about these ideas. I know that it's difficult to make decisions like these. But in order for the server to continue on, we must have you, the players, decide the course of this server. Do you want to voice your opinions on what PSG should do next? Comment now. Your vote may mean everything. For if you didn't take a stand for all that you loved, who would?\r \r ~Creepaahh","post_user_id":"7249943","show_signature":"1","last_edit_time":"0","post_votes":"0","post_unhidden":"0","post_admin_hidden":"0","post_locked":"0","last_edit_user":"0","votes":null,"post_username":"Creepaahh","avatar":"https:\/\/assets-cloud.enjin.com\/users\/7249943\/avatar\/medium.1468004541.jpeg","user_online":false,"user_votes":null,"user_posts":0,"url":"https:\/\/www.enjin.com\/ajax.php?s=redirect&cmd=forum-post&mobile=1&preset=12571633&id=85210321"},{"post_id":"85211815","post_time":"1417899868","post_content":"2 and 3","post_content_html":"2 and 3","post_content_clean":"2 and 3","post_user_id":"7361443","show_signature":"1","last_edit_time":"0","post_votes":"0","post_unhidden":"0","post_admin_hidden":"0","post_locked":"0","last_edit_user":"0","votes":null,"post_username":"\u2704{snugglezxD:3emo} mojo215","avatar":"https:\/\/assets-cloud.enjin.com\/users\/7361443\/avatar\/medium.1455751269.jpeg","user_online":false,"user_votes":"0","user_posts":"2641","url":"https:\/\/www.enjin.com\/ajax.php?s=redirect&cmd=forum-post&mobile=1&preset=12571633&id=85211815"},{"post_id":"85212798","post_time":"1417900925","post_content":"Add a beacon with haste 1\/2 or Mining speed.","post_content_html":"Add a beacon with haste 1\/2 or Mining speed.","post_content_clean":"Add a beacon with haste 1\/2 or Mining speed.","post_user_id":"5179658","show_signature":"1","last_edit_time":"0","post_votes":"0","post_unhidden":"0","post_admin_hidden":"0","post_locked":"0","last_edit_user":"0","votes":null,"post_username":"NewYorkTimes?...","avatar":"https:\/\/resources.enjin.com\/1465083537\/profile\/images\/avatar\/medium.png","user_online":false,"user_votes":"5","user_posts":"1044","url":"https:\/\/www.enjin.com\/ajax.php?s=redirect&cmd=forum-post&mobile=1&preset=12571633&id=85212798"},{"post_id":"85213976","post_time":"1417902207","post_content":"We need longer bans for hackers. Like a 7day for first, then 14 day, then 21 day, then 30 day, then 45 day, then 60 day, and 90 day repatedly.","post_content_html":"We need longer bans for hackers. Like a 7day for first, then 14 day, then 21 day, then 30 day, then 45 day, then 60 day, and 90 day repatedly.","post_content_clean":"We need longer bans for hackers. Like a 7day for first, then 14 day, then 21 day, then 30 day, then 45 day, then 60 day, and 90 day repatedly.","post_user_id":"8633176","show_signature":"1","last_edit_time":"0","post_votes":"0","post_unhidden":"0","post_admin_hidden":"0","post_locked":"0","last_edit_user":"0","votes":null,"post_username":"YourCoal","avatar":"https:\/\/assets-cloud.enjin.com\/users\/8633176\/avatar\/medium.1413141170.jpeg","user_online":false,"user_votes":"8","user_posts":"1881","url":"https:\/\/www.enjin.com\/ajax.php?s=redirect&cmd=forum-post&mobile=1&preset=12571633&id=85213976"},{"post_id":"85217788","post_time":"1417906140","post_content":"Longer bans for hackers loggers and scammers.","post_content_html":"Longer bans for hackers loggers and scammers.","post_content_clean":"Longer bans for hackers loggers and scammers.","post_user_id":"11149406","show_signature":"1","last_edit_time":"0","post_votes":"0","post_unhidden":"0","post_admin_hidden":"0","post_locked":"0","last_edit_user":"0","votes":null,"post_username":"Vance","avatar":"https:\/\/assets-cloud.enjin.com\/users\/11149406\/avatar\/medium.1409101243.png","user_online":false,"user_votes":"1","user_posts":"610","url":"https:\/\/www.enjin.com\/ajax.php?s=redirect&cmd=forum-post&mobile=1&preset=12571633&id=85217788"},{"post_id":"85225243","post_time":"1417914220","post_content":"I don't know about 1... 2 and 3 seem perfectly fine though.","post_content_html":"I don't know about 1... 2 and 3 seem perfectly fine though.","post_content_clean":"I don't know about 1... 2 and 3 seem perfectly fine though.","post_user_id":"11858265","show_signature":"1","last_edit_time":"0","post_votes":"0","post_unhidden":"0","post_admin_hidden":"0","post_locked":"0","last_edit_user":"0","votes":null,"post_username":"Swagalicious MC","avatar":"https:\/\/assets-cloud.enjin.com\/users\/11858265\/avatar\/medium.1442348798.jpeg","user_online":false,"user_votes":"1","user_posts":"446","url":"https:\/\/www.enjin.com\/ajax.php?s=redirect&cmd=forum-post&mobile=1&preset=12571633&id=85225243"},{"post_id":"85237781","post_time":"1417930390","post_content":"The server would be more popular if it was like a regular Faction server (No keepInventory, McMmo, Economy price is 1k-1mill example: 300k would be a lot)","post_content_html":"The server would be more popular if it was like a regular Faction server (No keepInventory, McMmo, Economy price is 1k-1mill example: 300k would be a lot)","post_content_clean":"The server would be more popular if it was like a regular Faction server (No keepInventory, McMmo, Economy price is 1k-1mill example: 300k would be a lot)","post_user_id":"7875360","show_signature":"1","last_edit_time":"0","post_votes":"0","post_unhidden":"0","post_admin_hidden":"0","post_locked":"0","last_edit_user":"0","votes":null,"post_username":"IronSword","avatar":"https:\/\/assets-cloud.enjin.com\/users\/7875360\/avatar\/medium.1440483579.png","user_online":false,"user_votes":"53","user_posts":"816","url":"https:\/\/www.enjin.com\/ajax.php?s=redirect&cmd=forum-post&mobile=1&preset=12571633&id=85237781"},{"post_id":"85247298","post_time":"1417950682","post_content":"[quote name=\"IronDragon9855\"]The server would be more popular if it was like a regular Faction server (No keepInventory, McMmo, Economy price is 1k-1mill example: 300k would be a lot)[\/quote]\r\nIron's right about the factions reset. Lootdropping and economy fixing needs to happen. As for McMmo, it's been recommended a bunch but it's unfair. Example: a veteran player could level up his unarmed skill to the point where he could simply punch the weapon out of anyone's hand and render the opponent unable to fight at all.\r\n\r\nAs for the rule changes, me and Creep have both spoken together about this, and I would like to tell you all of why the rules should be tighter. First up:\r\nHackers who are not learning their lessons and continue hack, ban to ban. These people are the people who I or other staff have had to ban multiple times for hacking. I don't like mentioning names, but there has a been a specific player who I have tempbanned over 6 times myself. He\/she are simply not learning their lesson \/ don't care if they're banned, and as such, why should they be allowed to stay?\r\n\r\nPoint 2:\r\nWork\r\nDrawing off from Point 1, having to tempban these hackers over and over again just creates needless work for the staff. I have had to frequently take breaks from working on Duel to deal with a repeat offender hacking once again. Again, these players don't care at all and as such don't have a reason to be here.\r\n\r\nThoughts?","post_content_html":" <div class=\"bbcode_quote\"> <div class=\"bbcode_quote_head\">IronDragon9855 wrote:<\/div> <div class=\"bbcode_quote_body\">The server would be more popular if it was like a regular Faction server (No keepInventory, McMmo, Economy price is 1k-1mill example: 300k would be a lot)<\/div> <\/div> <br \/> Iron's right about the factions reset. Lootdropping and economy fixing needs to happen. As for McMmo, it's been recommended a bunch but it's unfair. Example: a veteran player could level up his unarmed skill to the point where he could simply punch the weapon out of anyone's hand and render the opponent unable to fight at all.<br \/> <br \/> As for the rule changes, me and Creep have both spoken together about this, and I would like to tell you all of why the rules should be tighter. First up:<br \/> <br \/> Hackers who are not learning their lessons and continue hack, ban to ban. These people are the people who I or other staff have had to ban multiple times for hacking. I don't like mentioning names, but there has a been a specific player who I have tempbanned over 6 times myself. He\/she are simply not learning their lesson \/ don't care if they're banned, and as such, why should they be allowed to stay?<br \/> <br \/> Point 2:<br \/> <br \/> Work<br \/> <br \/> Drawing off from Point 1, having to tempban these hackers over and over again just creates needless work for the staff. I have had to frequently take breaks from working on Duel to deal with a repeat offender hacking once again. Again, these players don't care at all and as such don't have a reason to be here.<br \/> <br \/> Thoughts?","post_content_clean":"The server would be more popular if it was like a regular Faction server (No keepInventory, McMmo, Economy price is 1k-1mill example: 300k would be a lot)\r Iron's right about the factions reset. Lootdropping and economy fixing needs to happen. As for McMmo, it's been recommended a bunch but it's unfair. Example: a veteran player could level up his unarmed skill to the point where he could simply punch the weapon out of anyone's hand and render the opponent unable to fight at all.\r \r As for the rule changes, me and Creep have both spoken together about this, and I would like to tell you all of why the rules should be tighter. First up: \r Hackers who are not learning their lessons and continue hack, ban to ban. These people are the people who I or other staff have had to ban multiple times for hacking. I don't like mentioning names, but there has a been a specific player who I have tempbanned over 6 times myself. He\/she are simply not learning their lesson \/ don't care if they're banned, and as such, why should they be allowed to stay?\r \r Point 2: \r Work\r Drawing off from Point 1, having to tempban these hackers over and over again just creates needless work for the staff. I have had to frequently take breaks from working on Duel to deal with a repeat offender hacking once again. Again, these players don't care at all and as such don't have a reason to be here.\r \r Thoughts?","post_user_id":"8656906","show_signature":"0","last_edit_time":"0","post_votes":"0","post_unhidden":"0","post_admin_hidden":"0","post_locked":"0","last_edit_user":"0","votes":null,"post_username":"Hex4G","avatar":"https:\/\/assets-cloud.enjin.com\/users\/8656906\/avatar\/medium.1407241778.png","user_online":false,"user_votes":"133","user_posts":"859","url":"https:\/\/www.enjin.com\/ajax.php?s=redirect&cmd=forum-post&mobile=1&preset=12571633&id=85247298"},{"post_id":"85250162","post_time":"1417956700","post_content":"[b]Regarding the factions reset, I have full support on this suggestion, as the previous reset didn't achieve much. The only solution to this concerning issue would be to: Reset the whole world, reset the economy completely, reset all items, and all donation money reset.\r\nAs for an addition many people have suggested loot dropping, this would be a more rewarding option for a kill besides your opponent losing 4 faction power.\r\nIn regards to the popularity of factions it has decreased by far, as for those players that don't want this reset to commence because of all your &quot;valuable&quot; or &quot;precious&quot; items.","post_content_html":"<b>Regarding the factions reset, I have full support on this suggestion, as the previous reset didn't achieve much. The only solution to this concerning issue would be to: Reset the whole world, reset the economy completely, reset all items, and all donation money reset.<br \/> <br \/> As for an addition many people have suggested loot dropping, this would be a more rewarding option for a kill besides your opponent losing 4 faction power.<br \/> <br \/> In regards to the popularity of factions it has decreased by far, as for those players that don't want this reset to commence because of all your &quot;valuable&quot; or &quot;precious&quot; items.<\/b>","post_content_clean":"Regarding the factions reset, I have full support on this suggestion, as the previous reset didn't achieve much. The only solution to this concerning issue would be to: Reset the whole world, reset the economy completely, reset all items, and all donation money reset.\r As for an addition many people have suggested loot dropping, this would be a more rewarding option for a kill besides your opponent losing 4 faction power. \r In regards to the popularity of factions it has decreased by far, as for those players that don't want this reset to commence because of all your \"valuable\" or \"precious\" items.","post_user_id":"8558848","show_signature":"1","last_edit_time":"0","post_votes":"0","post_unhidden":"0","post_admin_hidden":"0","post_locked":"0","last_edit_user":"0","votes":null,"post_username":"Donnyyourdealer","avatar":"https:\/\/assets-cloud.enjin.com\/users\/8558848\/avatar\/medium.1462535190.jpeg","user_online":false,"user_votes":"54","user_posts":"300","url":"https:\/\/www.enjin.com\/ajax.php?s=redirect&cmd=forum-post&mobile=1&preset=12571633&id=85250162"},{"post_id":"85253321","post_time":"1417961669","post_content":"One tiny problem with dropinventory what if someone with prot 4 vs someone with prot I or iron armor they kind stand now chance","post_content_html":"One tiny problem with dropinventory what if someone with prot 4 vs someone with prot I or iron armor they kind stand now chance","post_content_clean":"One tiny problem with dropinventory what if someone with prot 4 vs someone with prot I or iron armor they kind stand now chance","post_user_id":"12000050","show_signature":"1","last_edit_time":"0","post_votes":"0","post_unhidden":"0","post_admin_hidden":"0","post_locked":"0","last_edit_user":"0","votes":null,"post_username":"DragonIsAwesome","avatar":"https:\/\/resources.enjin.com\/1465083537\/profile\/images\/avatar\/medium.png","user_online":false,"user_votes":"0","user_posts":"151","url":"https:\/\/www.enjin.com\/ajax.php?s=redirect&cmd=forum-post&mobile=1&preset=12571633&id=85253321"}],"total_items":"30","pages":3,"voted":false,"new_post_id":false,"thread_labels":[],"top_posters":{"result":[{"post_user_id":"12000050","posts":"3","username":"DragonIsAwesome","avatar":"https:\/\/resources.enjin.com\/1465083537\/profile\/images\/avatar\/medium.png"},{"post_user_id":"5179658","posts":"3","username":"NewYorkTimes?...","avatar":"https:\/\/resources.enjin.com\/1465083537\/profile\/images\/avatar\/medium.png"},{"post_user_id":"11858265","posts":"2","username":"Swagalicious MC","avatar":"https:\/\/assets-cloud.enjin.com\/users\/11858265\/avatar\/medium.1442348798.jpeg"},{"post_user_id":"7985788","posts":"2","username":"BladeNinja20","avatar":"https:\/\/resources.enjin.com\/1465083537\/profile\/images\/avatar\/medium.png"},{"post_user_id":"8656906","posts":"2","username":"Hex4G","avatar":"https:\/\/assets-cloud.enjin.com\/users\/8656906\/avatar\/medium.1407241778.png"},{"post_user_id":"7361443","posts":"2","username":"\u2704{snugglezxD:3emo} mojo215","avatar":"https:\/\/assets-cloud.enjin.com\/users\/7361443\/avatar\/medium.1455751269.jpeg"},{"post_user_id":"10222836","posts":"2","username":"IxIHampusIxI","avatar":"https:\/\/assets-cloud.enjin.com\/users\/10222836\/avatar\/medium.1417517619.jpeg"},{"post_user_id":"7791824","posts":"2","username":"\u2704snugglezxD:3emo} IronPecker","avatar":"https:\/\/assets-cloud.enjin.com\/users\/7791824\/avatar\/medium.1472606126.png"},{"post_user_id":"11811544","posts":"1","username":"Katniss","avatar":"https:\/\/assets-cloud.enjin.com\/users\/11811544\/avatar\/medium.1418813708.jpeg"},{"post_user_id":"7875360","posts":"1","username":"IronSword","avatar":"https:\/\/assets-cloud.enjin.com\/users\/7875360\/avatar\/medium.1440483579.png"},{"post_user_id":"6672203","posts":"1","username":"\u01a4\u0280ox\u0251","avatar":"https:\/\/assets-cloud.enjin.com\/users\/6672203\/avatar\/medium.1419832957.png"},{"post_user_id":"8558848","posts":"1","username":"Donnyyourdealer","avatar":"https:\/\/assets-cloud.enjin.com\/users\/8558848\/avatar\/medium.1462535190.jpeg"}],"num_users":"20"},"moderation_access":false,"poll_post":null,"post_access":true,"new_thread_access":true},"id":"1234567","jsonrpc":"2.0"}
{"result":{"thread":{"preset_id":"12571633","forum_id":"2419050","thread_id":"17647692","thread_subject":"Ideas that affect PSG and will affect you","thread_replies":"29","thread_views":"3398","thread_type":"normal","thread_status":"locked","thread_user_id":"7249943","thread_username":"Creepaahh","thread_avatar":"https:\/\/assets-cloud.enjin.com\/users\/7249943\/avatar\/medium.1468004541.jpeg","thread_lastpost_user_id":"9843685","thread_lastpost_username":"Falcondeath52","thread_lastpost_time":"1418313847","thread_moved_id":"0","thread_post_time":"1417898306","url":"https:\/\/www.enjin.com\/ajax.php?s=redirect&cmd=forum-thread&mobile=1&preset=12571633&id=17647692","post_count":0,"category_id":"1023515","forum_name":"News & Announcements","forum_description":"Official news and announcements.","disable_voting":"0","show_signature":"1","url_cms":"https:\/\/www.craftsurvivalgames.com\/forum\/m\/12571633\/viewthread\/17647692-ideas-that-affect-psg-will-you"},"posts":[{"post_id":"85210321","post_time":"1417898306","post_content":"Hello players of PSG. There are several issues of debate that I would like to bring up to you all. But before I begin, I like to thank you all for making this community how amazing it is. Through good times and bad, we've managed to pick up our heads and walk away from trouble. This server wouldn't be possible without you, the players. I thank all of you for making the community what it is today. Now, lets start with the issues that I would like to bring up.\r\n[b]\r\n1. Factions Reset.[\/b]\r\nSo we all know about the supposedly &quot;big&quot; factions reset that happened a while back. But has it really done anything? Has it really helped the server get players back online? Lets look at the quantity of players on Factions. When you look at it player-wise, the server is doing fine. I was on last night and there was about 30 people online, which is good for the old server. However, only about 8 of them were consistent, dedicated players to PSG (me, Hex, Derpy, and Falcon were some of the players online). What about the rest of the people? What about the people who complained so much to keep all of their god armor and gapples? Where are those people? Playing HG2, Prison, and Skyblock. Why? Mostly because once you get great stuff on Factions, there isn't much to do. And that is the reason why so many &quot;newbs&quot; play on that server. Because they want to have amazing stuff and be like the players who hoard everything and have all the glory. So has the reset really done anything to help? Slightly, but it did not have the impact that I feel it should have had on the server.\r\n\r\nWhat can we do to get players from Hunger Games and Skyblock back on one of PSG's oldest servers? The only possible solution would be a complete reset. By doing thus, players will have to work to achieve their god armor, OP bases, and stacks of gapples. &quot;Newbs&quot; or inexperienced players may finally be able to compete with the rest of the server. And most importantly, it will help to bring back some of the morals and themes of Factions; rivalries and alliances, friend and foe, dedication, friendship, cooperation, and teamwork.\r\n\r\n[b]2. Longer Bans for Hacking.[\/b]\r\nSo we all know that on this server, hackers are only banned for a maximum of a month. Why, I don't know, I suppose it's an attempt to try and make the hacker think twice about his ways. But, obviously, this hasn't worked. Any hacker who has been banned for longer than a month has either continued to hack on here, or left. Earlier today, I broke staff protocol by banning a hacker for 2 months, and really, the kid deserved it. He had been banned 3 or 4 times in the past for hacking, and he had to get longer than a month ban. This rule has to be changed if we are to prevent hackers from continuing to play on this server.\r\n\r\n[b]3. Extended Punishments.\r\n[\/b]Before you all start going crazy on this idea, hear me out. By extended punishments, I don't mean a 2 day ban for logging once. I mean the 15 minute mute for spamming because a half hour mute. We go back to the 3-strikes-and-you're-out deal with hackers. Logging becomes a longer jail period. Breaking a rule several times over will result in much more severe punishments than last time.\r\n\r\nSo why would I think about this? Well, it really isn't my idea, it's Hex's. And this is his reasoning behind it; we, the staff, are trying to keep this server as safe a place as possible. When we get people hacking and logging and being rude to other players, it makes our job that much harder. It also doesn't help that people continue to break rules after miniscule punishments. In order for people to stop breaking rules so often, we have to make punishments more severe in order to make sure that player stop breaking rules on this server and on the forums.\r\n\r\nAgain, I thank you all for reading this. Below I have attached a poll to see what you guys think about these ideas. I know that it's difficult to make decisions like these. But in order for the server to continue on, we must have you, the players, decide the course of this server. Do you want to voice your opinions on what PSG should do next? Comment now. Your vote may mean everything. For if you didn't take a stand for all that you loved, who would?\r\n\r\n[color=#dd2423]~Creepaahh[\/color]","post_content_html":"Hello players of PSG. There are several issues of debate that I would like to bring up to you all. But before I begin, I like to thank you all for making this community how amazing it is. Through good times and bad, we've managed to pick up our heads and walk away from trouble. This server wouldn't be possible without you, the players. I thank all of you for making the community what it is today. Now, lets start with the issues that I would like to bring up.<br \/> <br \/> <b><br \/> <br \/> 1. Factions Reset.<\/b><br \/> <br \/> So we all know about the supposedly &quot;big&quot; factions reset that happened a while back. But has it really done anything? Has it really helped the server get players back online? Lets look at the quantity of players on Factions. When you look at it player-wise, the server is doing fine. I was on last night and there was about 30 people online, which is good for the old server. However, only about 8 of them were consistent, dedicated players to PSG (me, Hex, Derpy, and Falcon were some of the players online). What about the rest of the people? What about the people who complained so much to keep all of their god armor and gapples? Where are those people? Playing HG2, Prison, and Skyblock. Why? Mostly because once you get great stuff on Factions, there isn't much to do. And that is the reason why so many &quot;newbs&quot; play on that server. Because they want to have amazing stuff and be like the players who hoard everything and have all the glory. So has the reset really done anything to help? Slightly, but it did not have the impact that I feel it should have had on the server.<br \/> <br \/> What can we do to get players from Hunger Games and Skyblock back on one of PSG's oldest servers? The only possible solution would be a complete reset. By doing thus, players will have to work to achieve their god armor, OP bases, and stacks of gapples. &quot;Newbs&quot; or inexperienced players may finally be able to compete with the rest of the server. And most importantly, it will help to bring back some of the morals and themes of Factions; rivalries and alliances, friend and foe, dedication, friendship, cooperation, and teamwork.<br \/> <br \/> <b>2. Longer Bans for Hacking.<\/b><br \/> <br \/> So we all know that on this server, hackers are only banned for a maximum of a month. Why, I don't know, I suppose it's an attempt to try and make the hacker think twice about his ways. But, obviously, this hasn't worked. Any hacker who has been banned for longer than a month has either continued to hack on here, or left. Earlier today, I broke staff protocol by banning a hacker for 2 months, and really, the kid deserved it. He had been banned 3 or 4 times in the past for hacking, and he had to get longer than a month ban. This rule has to be changed if we are to prevent hackers from continuing to play on this server.<br \/> <br \/> <b>3. Extended Punishments.<br \/> <br \/> <\/b>Before you all start going crazy on this idea, hear me out. By extended punishments, I don't mean a 2 day ban for logging once. I mean the 15 minute mute for spamming because a half hour mute. We go back to the 3-strikes-and-you're-out deal with hackers. Logging becomes a longer jail period. Breaking a rule several times over will result in much more severe punishments than last time.<br \/> <br \/> So why would I think about this? Well, it really isn't my idea, it's Hex's. And this is his reasoning behind it; we, the staff, are trying to keep this server as safe a place as possible. When we get people hacking and logging and being rude to other players, it makes our job that much harder. It also doesn't help that people continue to break rules after miniscule punishments. In order for people to stop breaking rules so often, we have to make punishments more severe in order to make sure that player stop breaking rules on this server and on the forums.<br \/> <br \/> Again, I thank you all for reading this. Below I have attached a poll to see what you guys think about these ideas. I know that it's difficult to make decisions like these. But in order for the server to continue on, we must have you, the players, decide the course of this server. Do you want to voice your opinions on what PSG should do next? Comment now. Your vote may mean everything. For if you didn't take a stand for all that you loved, who would?<br \/> <br \/> ~Creepaahh","post_content_clean":"Hello players of PSG. There are several issues of debate that I would like to bring up to you all. But before I begin, I like to thank you all for making this community how amazing it is. Through good times and bad, we've managed to pick up our heads and walk away from trouble. This server wouldn't be possible without you, the players. I thank all of you for making the community what it is today. Now, lets start with the issues that I would like to bring up.\r \r 1. Factions Reset.\r So we all know about the supposedly \"big\" factions reset that happened a while back. But has it really done anything? Has it really helped the server get players back online? Lets look at the quantity of players on Factions. When you look at it player-wise, the server is doing fine. I was on last night and there was about 30 people online, which is good for the old server. However, only about 8 of them were consistent, dedicated players to PSG (me, Hex, Derpy, and Falcon were some of the players online). What about the rest of the people? What about the people who complained so much to keep all of their god armor and gapples? Where are those people? Playing HG2, Prison, and Skyblock. Why? Mostly because once you get great stuff on Factions, there isn't much to do. And that is the reason why so many \"newbs\" play on that server. Because they want to have amazing stuff and be like the players who hoard everything and have all the glory. So has the reset really done anything to help? Slightly, but it did not have the impact that I feel it should have had on the server.\r \r What can we do to get players from Hunger Games and Skyblock back on one of PSG's oldest servers? The only possible solution would be a complete reset. By doing thus, players will have to work to achieve their god armor, OP bases, and stacks of gapples. \"Newbs\" or inexperienced players may finally be able to compete with the rest of the server. And most importantly, it will help to bring back some of the morals and themes of Factions; rivalries and alliances, friend and foe, dedication, friendship, cooperation, and teamwork.\r \r 2. Longer Bans for Hacking.\r So we all know that on this server, hackers are only banned for a maximum of a month. Why, I don't know, I suppose it's an attempt to try and make the hacker think twice about his ways. But, obviously, this hasn't worked. Any hacker who has been banned for longer than a month has either continued to hack on here, or left. Earlier today, I broke staff protocol by banning a hacker for 2 months, and really, the kid deserved it. He had been banned 3 or 4 times in the past for hacking, and he had to get longer than a month ban. This rule has to be changed if we are to prevent hackers from continuing to play on this server.\r \r 3. Extended Punishments.\r Before you all start going crazy on this idea, hear me out. By extended punishments, I don't mean a 2 day ban for logging once. I mean the 15 minute mute for spamming because a half hour mute. We go back to the 3-strikes-and-you're-out deal with hackers. Logging becomes a longer jail period. Breaking a rule several times over will result in much more severe punishments than last time. \r \r So why would I think about this? Well, it really isn't my idea, it's Hex's. And this is his reasoning behind it; we, the staff, are trying to keep this server as safe a place as possible. When we get people hacking and logging and being rude to other players, it makes our job that much harder. It also doesn't help that people continue to break rules after miniscule punishments. In order for people to stop breaking rules so often, we have to make punishments more severe in order to make sure that player stop breaking rules on this server and on the forums. \r \r Again, I thank you all for reading this. Below I have attached a poll to see what you guys think about these ideas. I know that it's difficult to make decisions like these. But in order for the server to continue on, we must have you, the players, decide the course of this server. Do you want to voice your opinions on what PSG should do next? Comment now. Your vote may mean everything. For if you didn't take a stand for all that you loved, who would?\r \r ~Creepaahh","post_user_id":"7249943","show_signature":"1","last_edit_time":"0","post_votes":"0","post_unhidden":"0","post_admin_hidden":"0","post_locked":"0","last_edit_user":"0","votes":null,"post_username":"Creepaahh","avatar":"https:\/\/assets-cloud.enjin.com\/users\/7249943\/avatar\/medium.1468004541.jpeg","user_online":false,"user_votes":null,"user_posts":0,"url":"https:\/\/www.enjin.com\/ajax.php?s=redirect&cmd=forum-post&mobile=1&preset=12571633&id=85210321"},{"post_id":"85253799","post_time":"1417962394","post_content":"Full support on all three of these ideas.\r\nIve been hoping for a reset for a long time.\r\nAnd longer ban times will surely discourage hackers and loggers more than the ones we have now.","post_content_html":"Full support on all three of these ideas.<br \/> <br \/> Ive been hoping for a reset for a long time.<br \/> <br \/> And longer ban times will surely discourage hackers and loggers more than the ones we have now.","post_content_clean":"Full support on all three of these ideas. \r Ive been hoping for a reset for a long time.\r And longer ban times will surely discourage hackers and loggers more than the ones we have now.","post_user_id":"5375337","show_signature":"1","last_edit_time":"0","post_votes":"0","post_unhidden":"0","post_admin_hidden":"0","post_locked":"0","last_edit_user":"0","votes":null,"post_username":"Scarlet Witch","avatar":"https:\/\/assets-cloud.enjin.com\/users\/5375337\/avatar\/medium.1437162398.jpeg","user_online":false,"user_votes":"741","user_posts":"1506","url":"https:\/\/www.enjin.com\/ajax.php?s=redirect&cmd=forum-post&mobile=1&preset=12571633&id=85253799"},{"post_id":"85254974","post_time":"1417964091","post_content":"[quote user_id=\"12000050\" avatar=\"https:\/\/resources.enjin.com\/profile\/images\/avatar\/medium.png\" name=\"DragonIsAwesome\"]One tiny problem with dropinventory what if someone with prot 4 vs someone with prot I or iron armor they kind stand now chance[\/quote]\r\nThey don't have a chance now either. And if you're in P1 and the enemy is in P4, instead of challenging the P4 guy, hold off until you have your own P4.","post_content_html":" <div class=\"bbcode_quote\"> <div class=\"bbcode_quote_head\">@12000050 wrote:<\/div> <div class=\"bbcode_quote_body\">One tiny problem with dropinventory what if someone with prot 4 vs someone with prot I or iron armor they kind stand now chance<\/div> <\/div> <br \/> They don't have a chance now either. And if you're in P1 and the enemy is in P4, instead of challenging the P4 guy, hold off until you have your own P4.","post_content_clean":"One tiny problem with dropinventory what if someone with prot 4 vs someone with prot I or iron armor they kind stand now chance\r They don't have a chance now either. And if you're in P1 and the enemy is in P4, instead of challenging the P4 guy, hold off until you have your own P4.","post_user_id":"8656906","show_signature":"1","last_edit_time":"0","post_votes":"0","post_unhidden":"0","post_admin_hidden":"0","post_locked":"0","last_edit_user":"0","votes":null,"post_username":"Hex4G","avatar":"https:\/\/assets-cloud.enjin.com\/users\/8656906\/avatar\/medium.1407241778.png","user_online":false,"user_votes":"133","user_posts":"859","url":"https:\/\/www.enjin.com\/ajax.php?s=redirect&cmd=forum-post&mobile=1&preset=12571633&id=85254974"},{"post_id":"85255636","post_time":"1417964951","post_content":"People should drop items in factions, this is why Factions isn't near as popular as it used to.","post_content_html":"People should drop items in factions, this is why Factions isn't near as popular as it used to.","post_content_clean":"People should drop items in factions, this is why Factions isn't near as popular as it used to.","post_user_id":"5567911","show_signature":"1","last_edit_time":"0","post_votes":"0","post_unhidden":"0","post_admin_hidden":"0","post_locked":"0","last_edit_user":"0","votes":null,"post_username":"griffin0505","avatar":"https:\/\/assets-cloud.enjin.com\/users\/5567911\/avatar\/medium.1409206640.png","user_online":false,"user_votes":"198","user_posts":"1695","url":"https:\/\/www.enjin.com\/ajax.php?s=redirect&cmd=forum-post&mobile=1&preset=12571633&id=85255636"},{"post_id":"85261507","post_time":"1417971728","post_content":"Hex what I mean is someone with Protection IV raiding someone with only a few armor barely any diamond Protection IV.... Are you saying they should just drop there base and leave.... Also can we make it that you can go into others chest without actually claiming the land... I feel that one me much more fun....","post_content_html":"Hex what I mean is someone with Protection IV raiding someone with only a few armor barely any diamond Protection IV.... Are you saying they should just drop there base and leave.... Also can we make it that you can go into others chest without actually claiming the land... I feel that one me much more fun....","post_content_clean":"Hex what I mean is someone with Protection IV raiding someone with only a few armor barely any diamond Protection IV.... Are you saying they should just drop there base and leave.... Also can we make it that you can go into others chest without actually claiming the land... I feel that one me much more fun....","post_user_id":"12000050","show_signature":"1","last_edit_time":"0","post_votes":"0","post_unhidden":"0","post_admin_hidden":"0","post_locked":"0","last_edit_user":"0","votes":null,"post_username":"DragonIsAwesome","avatar":"https:\/\/resources.enjin.com\/1465083537\/profile\/images\/avatar\/medium.png","user_online":false,"user_votes":"0","user_posts":"151","url":"https:\/\/www.enjin.com\/ajax.php?s=redirect&cmd=forum-post&mobile=1&preset=12571633&id=85261507"},{"post_id":"85261716","post_time":"1417971928","post_content":"I dont like the Idea about MCMMO because think about the new players. They would have 10 sword skill and the other guy 1k. How fear is that? But I do agree that you should drop your items on factions. But if you turn off keepinventory, you should add new donator kits. (Exemple: \/kit lapiz: diamond armor Prot 1, diamond sword sharp 2, now power 1 and 32arrows and have like a 30min cool down)","post_content_html":"I dont like the Idea about MCMMO because think about the new players. They would have 10 sword skill and the other guy 1k. How fear is that? But I do agree that you should drop your items on factions. But if you turn off keepinventory, you should add new donator kits. (Exemple: \/kit lapiz: diamond armor Prot 1, diamond sword sharp 2, now power 1 and 32arrows and have like a 30min cool down)","post_content_clean":"I dont like the Idea about MCMMO because think about the new players. They would have 10 sword skill and the other guy 1k. How fear is that? But I do agree that you should drop your items on factions. But if you turn off keepinventory, you should add new donator kits. (Exemple: \/kit lapiz: diamond armor Prot 1, diamond sword sharp 2, now power 1 and 32arrows and have like a 30min cool down)","post_user_id":"10222836","show_signature":"1","last_edit_time":"0","post_votes":"0","post_unhidden":"0","post_admin_hidden":"0","post_locked":"0","last_edit_user":"0","votes":null,"post_username":"IxIHampusIxI","avatar":"https:\/\/assets-cloud.enjin.com\/users\/10222836\/avatar\/medium.1417517619.jpeg","user_online":false,"user_votes":"1","user_posts":"297","url":"https:\/\/www.enjin.com\/ajax.php?s=redirect&cmd=forum-post&mobile=1&preset=12571633&id=85261716"},{"post_id":"85261945","post_time":"1417972135","post_content":"Hey Hampus I thought you quit CSG?","post_content_html":"Hey Hampus I thought you quit CSG?","post_content_clean":"Hey Hampus I thought you quit CSG?","post_user_id":"12000050","show_signature":"1","last_edit_time":"0","post_votes":"0","post_unhidden":"0","post_admin_hidden":"0","post_locked":"0","last_edit_user":"0","votes":null,"post_username":"DragonIsAwesome","avatar":"https:\/\/resources.enjin.com\/1465083537\/profile\/images\/avatar\/medium.png","user_online":false,"user_votes":"0","user_posts":"151","url":"https:\/\/www.enjin.com\/ajax.php?s=redirect&cmd=forum-post&mobile=1&preset=12571633&id=85261945"},{"post_id":"85262089","post_time":"1417972281","post_content":"[quote user_id=\"12000050\" avatar=\"https:\/\/resources.enjin.com\/profile\/images\/avatar\/medium.png\" name=\"DragonIsAwesome\"]Hey Hampus I thought you quit CSG?[\/quote]\r\nYeah and I will. I'm just waiting for my rank to get transferred to my little sister","post_content_html":" <div class=\"bbcode_quote\"> <div class=\"bbcode_quote_head\">@12000050 wrote:<\/div> <div class=\"bbcode_quote_body\">Hey Hampus I thought you quit CSG?<\/div> <\/div> <br \/> Yeah and I will. I'm just waiting for my rank to get transferred to my little sister","post_content_clean":"Hey Hampus I thought you quit CSG?\r Yeah and I will. I'm just waiting for my rank to get transferred to my little sister","post_user_id":"10222836","show_signature":"1","last_edit_time":"0","post_votes":"0","post_unhidden":"0","post_admin_hidden":"0","post_locked":"0","last_edit_user":"0","votes":null,"post_username":"IxIHampusIxI","avatar":"https:\/\/assets-cloud.enjin.com\/users\/10222836\/avatar\/medium.1417517619.jpeg","user_online":false,"user_votes":"1","user_posts":"297","url":"https:\/\/www.enjin.com\/ajax.php?s=redirect&cmd=forum-post&mobile=1&preset=12571633&id=85262089"},{"post_id":"85265412","post_time":"1417975519","post_content":"What is everyone worried about new players have such a disadvantaged with skills? It is like that with every server that includes Mcmmo. No one is talking about how veteran players have OP armor and swords, but new players have nothing. That is what comes with being a new player, completely nothing. Shicking could add where new players have 100 Mcmmo levels they could redeem to help start them off.\r\n\r\nSide note, I think all of these ideas are great ideas.","post_content_html":"What is everyone worried about new players have such a disadvantaged with skills? It is like that with every server that includes Mcmmo. No one is talking about how veteran players have OP armor and swords, but new players have nothing. That is what comes with being a new player, completely nothing. Shicking could add where new players have 100 Mcmmo levels they could redeem to help start them off.<br \/> <br \/> Side note, I think all of these ideas are great ideas.","post_content_clean":"What is everyone worried about new players have such a disadvantaged with skills? It is like that with every server that includes Mcmmo. No one is talking about how veteran players have OP armor and swords, but new players have nothing. That is what comes with being a new player, completely nothing. Shicking could add where new players have 100 Mcmmo levels they could redeem to help start them off. \r \r Side note, I think all of these ideas are great ideas.","post_user_id":"5933548","show_signature":"1","last_edit_time":"0","post_votes":"0","post_unhidden":"0","post_admin_hidden":"0","post_locked":"0","last_edit_user":"0","votes":null,"post_username":"WirelessKeyboard","avatar":"https:\/\/assets-cloud.enjin.com\/users\/5933548\/avatar\/medium.1465245962.png","user_online":false,"user_votes":"1","user_posts":"840","url":"https:\/\/www.enjin.com\/ajax.php?s=redirect&cmd=forum-post&mobile=1&preset=12571633&id=85265412"},{"post_id":"85268362","post_time":"1417978429","post_content":"[quote user_id=\"5933548\" avatar=\"https:\/\/cravatar.eu\/helmavatar\/WirelessKeyboard\/74.png\" name=\"WirelessKeyboard\"]What is everyone worried about new players have such a disadvantaged with skills? It is like that with every server that includes Mcmmo. No one is talking about how veteran players have OP armor and swords, but new players have nothing. That is what comes with being a new player, completely nothing. Shicking could add where new players have 100 Mcmmo levels they could redeem to help start them off.\r\n\r\nSide note, I think all of these ideas are great ideas.[\/quote]\r\nI hate mcmmo","post_content_html":" <div class=\"bbcode_quote\"> <div class=\"bbcode_quote_head\">@5933548 wrote:<\/div> <div class=\"bbcode_quote_body\">What is everyone worried about new players have such a disadvantaged with skills? It is like that with every server that includes Mcmmo. No one is talking about how veteran players have OP armor and swords, but new players have nothing. That is what comes with being a new player, completely nothing. Shicking could add where new players have 100 Mcmmo levels they could redeem to help start them off.<br \/> <br \/> Side note, I think all of these ideas are great ideas.<\/div> <\/div> <br \/> I hate mcmmo","post_content_clean":"What is everyone worried about new players have such a disadvantaged with skills? It is like that with every server that includes Mcmmo. No one is talking about how veteran players have OP armor and swords, but new players have nothing. That is what comes with being a new player, completely nothing. Shicking could add where new players have 100 Mcmmo levels they could redeem to help start them off. \r \r Side note, I think all of these ideas are great ideas.\r I hate mcmmo","post_user_id":"7361443","show_signature":"1","last_edit_time":"0","post_votes":"0","post_unhidden":"0","post_admin_hidden":"0","post_locked":"0","last_edit_user":"0","votes":null,"post_username":"\u2704{snugglezxD:3emo} mojo215","avatar":"https:\/\/assets-cloud.enjin.com\/users\/7361443\/avatar\/medium.1455751269.jpeg","user_online":false,"user_votes":"0","user_posts":"2641","url":"https:\/\/www.enjin.com\/ajax.php?s=redirect&cmd=forum-post&mobile=1&preset=12571633&id=85268362"}],"total_items":"30","pages":3,"voted":false,"new_post_id":"85253799","thread_labels":[],"top_posters":{"result":[{"post_user_id":"5179658","posts":"3","username":"NewYorkTimes?...","avatar":"https:\/\/resources.enjin.com\/1465083537\/profile\/images\/avatar\/medium.png"},{"post_user_id":"12000050","posts":"3","username":"DragonIsAwesome","avatar":"https:\/\/resources.enjin.com\/1465083537\/profile\/images\/avatar\/medium.png"},{"post_user_id":"7361443","posts":"2","username":"\u2704{snugglezxD:3emo} mojo215","avatar":"https:\/\/assets-cloud.enjin.com\/users\/7361443\/avatar\/medium.1455751269.jpeg"},{"post_user_id":"10222836","posts":"2","username":"IxIHampusIxI","avatar":"https:\/\/assets-cloud.enjin.com\/users\/10222836\/avatar\/medium.1417517619.jpeg"},{"post_user_id":"7791824","posts":"2","username":"\u2704snugglezxD:3emo} IronPecker","avatar":"https:\/\/assets-cloud.enjin.com\/users\/7791824\/avatar\/medium.1472606126.png"},{"post_user_id":"11858265","posts":"2","username":"Swagalicious MC","avatar":"https:\/\/assets-cloud.enjin.com\/users\/11858265\/avatar\/medium.1442348798.jpeg"},{"post_user_id":"7985788","posts":"2","username":"BladeNinja20","avatar":"https:\/\/resources.enjin.com\/1465083537\/profile\/images\/avatar\/medium.png"},{"post_user_id":"8656906","posts":"2","username":"Hex4G","avatar":"https:\/\/assets-cloud.enjin.com\/users\/8656906\/avatar\/medium.1407241778.png"},{"post_user_id":"7249943","posts":"1","username":"Creepaahh","avatar":"https:\/\/assets-cloud.enjin.com\/users\/7249943\/avatar\/medium.1468004541.jpeg"},{"post_user_id":"5567911","posts":"1","username":"griffin0505","avatar":"https:\/\/assets-cloud.enjin.com\/users\/5567911\/avatar\/medium.1409206640.png"},{"post_user_id":"5933548","posts":"1","username":"WirelessKeyboard","avatar":"https:\/\/assets-cloud.enjin.com\/users\/5933548\/avatar\/medium.1465245962.png"},{"post_user_id":"8633176","posts":"1","username":"YourCoal","avatar":"https:\/\/assets-cloud.enjin.com\/users\/8633176\/avatar\/medium.1413141170.jpeg"}],"num_users":"20"},"moderation_access":false,"poll_post":null,"post_access":true,"new_thread_access":true},"id":"1234567","jsonrpc":"2.0"}
{"result":{"thread":{"preset_id":"12571633","forum_id":"2419050","thread_id":"17647692","thread_subject":"Ideas that affect PSG and will affect you","thread_replies":"29","thread_views":"3398","thread_type":"normal","thread_status":"locked","thread_user_id":"7249943","thread_username":"Creepaahh","thread_avatar":"https:\/\/assets-cloud.enjin.com\/users\/7249943\/avatar\/medium.1468004541.jpeg","thread_lastpost_user_id":"9843685","thread_lastpost_username":"Falcondeath52","thread_lastpost_time":"1418313847","thread_moved_id":"0","thread_post_time":"1417898306","url":"https:\/\/www.enjin.com\/ajax.php?s=redirect&cmd=forum-thread&mobile=1&preset=12571633&id=17647692","post_count":0,"category_id":"1023515","forum_name":"News & Announcements","forum_description":"Official news and announcements.","disable_voting":"0","show_signature":"1","url_cms":"https:\/\/www.craftsurvivalgames.com\/forum\/m\/12571633\/viewthread\/17647692-ideas-that-affect-psg-will-you"},"posts":[{"post_id":"85210321","post_time":"1417898306","post_content":"Hello players of PSG. There are several issues of debate that I would like to bring up to you all. But before I begin, I like to thank you all for making this community how amazing it is. Through good times and bad, we've managed to pick up our heads and walk away from trouble. This server wouldn't be possible without you, the players. I thank all of you for making the community what it is today. Now, lets start with the issues that I would like to bring up.\r\n[b]\r\n1. Factions Reset.[\/b]\r\nSo we all know about the supposedly &quot;big&quot; factions reset that happened a while back. But has it really done anything? Has it really helped the server get players back online? Lets look at the quantity of players on Factions. When you look at it player-wise, the server is doing fine. I was on last night and there was about 30 people online, which is good for the old server. However, only about 8 of them were consistent, dedicated players to PSG (me, Hex, Derpy, and Falcon were some of the players online). What about the rest of the people? What about the people who complained so much to keep all of their god armor and gapples? Where are those people? Playing HG2, Prison, and Skyblock. Why? Mostly because once you get great stuff on Factions, there isn't much to do. And that is the reason why so many &quot;newbs&quot; play on that server. Because they want to have amazing stuff and be like the players who hoard everything and have all the glory. So has the reset really done anything to help? Slightly, but it did not have the impact that I feel it should have had on the server.\r\n\r\nWhat can we do to get players from Hunger Games and Skyblock back on one of PSG's oldest servers? The only possible solution would be a complete reset. By doing thus, players will have to work to achieve their god armor, OP bases, and stacks of gapples. &quot;Newbs&quot; or inexperienced players may finally be able to compete with the rest of the server. And most importantly, it will help to bring back some of the morals and themes of Factions; rivalries and alliances, friend and foe, dedication, friendship, cooperation, and teamwork.\r\n\r\n[b]2. Longer Bans for Hacking.[\/b]\r\nSo we all know that on this server, hackers are only banned for a maximum of a month. Why, I don't know, I suppose it's an attempt to try and make the hacker think twice about his ways. But, obviously, this hasn't worked. Any hacker who has been banned for longer than a month has either continued to hack on here, or left. Earlier today, I broke staff protocol by banning a hacker for 2 months, and really, the kid deserved it. He had been banned 3 or 4 times in the past for hacking, and he had to get longer than a month ban. This rule has to be changed if we are to prevent hackers from continuing to play on this server.\r\n\r\n[b]3. Extended Punishments.\r\n[\/b]Before you all start going crazy on this idea, hear me out. By extended punishments, I don't mean a 2 day ban for logging once. I mean the 15 minute mute for spamming because a half hour mute. We go back to the 3-strikes-and-you're-out deal with hackers. Logging becomes a longer jail period. Breaking a rule several times over will result in much more severe punishments than last time.\r\n\r\nSo why would I think about this? Well, it really isn't my idea, it's Hex's. And this is his reasoning behind it; we, the staff, are trying to keep this server as safe a place as possible. When we get people hacking and logging and being rude to other players, it makes our job that much harder. It also doesn't help that people continue to break rules after miniscule punishments. In order for people to stop breaking rules so often, we have to make punishments more severe in order to make sure that player stop breaking rules on this server and on the forums.\r\n\r\nAgain, I thank you all for reading this. Below I have attached a poll to see what you guys think about these ideas. I know that it's difficult to make decisions like these. But in order for the server to continue on, we must have you, the players, decide the course of this server. Do you want to voice your opinions on what PSG should do next? Comment now. Your vote may mean everything. For if you didn't take a stand for all that you loved, who would?\r\n\r\n[color=#dd2423]~Creepaahh[\/color]","post_content_html":"Hello players of PSG. There are several issues of debate that I would like to bring up to you all. But before I begin, I like to thank you all for making this community how amazing it is. Through good times and bad, we've managed to pick up our heads and walk away from trouble. This server wouldn't be possible without you, the players. I thank all of you for making the community what it is today. Now, lets start with the issues that I would like to bring up.<br \/> <br \/> <b><br \/> <br \/> 1. Factions Reset.<\/b><br \/> <br \/> So we all know about the supposedly &quot;big&quot; factions reset that happened a while back. But has it really done anything? Has it really helped the server get players back online? Lets look at the quantity of players on Factions. When you look at it player-wise, the server is doing fine. I was on last night and there was about 30 people online, which is good for the old server. However, only about 8 of them were consistent, dedicated players to PSG (me, Hex, Derpy, and Falcon were some of the players online). What about the rest of the people? What about the people who complained so much to keep all of their god armor and gapples? Where are those people? Playing HG2, Prison, and Skyblock. Why? Mostly because once you get great stuff on Factions, there isn't much to do. And that is the reason why so many &quot;newbs&quot; play on that server. Because they want to have amazing stuff and be like the players who hoard everything and have all the glory. So has the reset really done anything to help? Slightly, but it did not have the impact that I feel it should have had on the server.<br \/> <br \/> What can we do to get players from Hunger Games and Skyblock back on one of PSG's oldest servers? The only possible solution would be a complete reset. By doing thus, players will have to work to achieve their god armor, OP bases, and stacks of gapples. &quot;Newbs&quot; or inexperienced players may finally be able to compete with the rest of the server. And most importantly, it will help to bring back some of the morals and themes of Factions; rivalries and alliances, friend and foe, dedication, friendship, cooperation, and teamwork.<br \/> <br \/> <b>2. Longer Bans for Hacking.<\/b><br \/> <br \/> So we all know that on this server, hackers are only banned for a maximum of a month. Why, I don't know, I suppose it's an attempt to try and make the hacker think twice about his ways. But, obviously, this hasn't worked. Any hacker who has been banned for longer than a month has either continued to hack on here, or left. Earlier today, I broke staff protocol by banning a hacker for 2 months, and really, the kid deserved it. He had been banned 3 or 4 times in the past for hacking, and he had to get longer than a month ban. This rule has to be changed if we are to prevent hackers from continuing to play on this server.<br \/> <br \/> <b>3. Extended Punishments.<br \/> <br \/> <\/b>Before you all start going crazy on this idea, hear me out. By extended punishments, I don't mean a 2 day ban for logging once. I mean the 15 minute mute for spamming because a half hour mute. We go back to the 3-strikes-and-you're-out deal with hackers. Logging becomes a longer jail period. Breaking a rule several times over will result in much more severe punishments than last time.<br \/> <br \/> So why would I think about this? Well, it really isn't my idea, it's Hex's. And this is his reasoning behind it; we, the staff, are trying to keep this server as safe a place as possible. When we get people hacking and logging and being rude to other players, it makes our job that much harder. It also doesn't help that people continue to break rules after miniscule punishments. In order for people to stop breaking rules so often, we have to make punishments more severe in order to make sure that player stop breaking rules on this server and on the forums.<br \/> <br \/> Again, I thank you all for reading this. Below I have attached a poll to see what you guys think about these ideas. I know that it's difficult to make decisions like these. But in order for the server to continue on, we must have you, the players, decide the course of this server. Do you want to voice your opinions on what PSG should do next? Comment now. Your vote may mean everything. For if you didn't take a stand for all that you loved, who would?<br \/> <br \/> ~Creepaahh","post_content_clean":"Hello players of PSG. There are several issues of debate that I would like to bring up to you all. But before I begin, I like to thank you all for making this community how amazing it is. Through good times and bad, we've managed to pick up our heads and walk away from trouble. This server wouldn't be possible without you, the players. I thank all of you for making the community what it is today. Now, lets start with the issues that I would like to bring up.\r \r 1. Factions Reset.\r So we all know about the supposedly \"big\" factions reset that happened a while back. But has it really done anything? Has it really helped the server get players back online? Lets look at the quantity of players on Factions. When you look at it player-wise, the server is doing fine. I was on last night and there was about 30 people online, which is good for the old server. However, only about 8 of them were consistent, dedicated players to PSG (me, Hex, Derpy, and Falcon were some of the players online). What about the rest of the people? What about the people who complained so much to keep all of their god armor and gapples? Where are those people? Playing HG2, Prison, and Skyblock. Why? Mostly because once you get great stuff on Factions, there isn't much to do. And that is the reason why so many \"newbs\" play on that server. Because they want to have amazing stuff and be like the players who hoard everything and have all the glory. So has the reset really done anything to help? Slightly, but it did not have the impact that I feel it should have had on the server.\r \r What can we do to get players from Hunger Games and Skyblock back on one of PSG's oldest servers? The only possible solution would be a complete reset. By doing thus, players will have to work to achieve their god armor, OP bases, and stacks of gapples. \"Newbs\" or inexperienced players may finally be able to compete with the rest of the server. And most importantly, it will help to bring back some of the morals and themes of Factions; rivalries and alliances, friend and foe, dedication, friendship, cooperation, and teamwork.\r \r 2. Longer Bans for Hacking.\r So we all know that on this server, hackers are only banned for a maximum of a month. Why, I don't know, I suppose it's an attempt to try and make the hacker think twice about his ways. But, obviously, this hasn't worked. Any hacker who has been banned for longer than a month has either continued to hack on here, or left. Earlier today, I broke staff protocol by banning a hacker for 2 months, and really, the kid deserved it. He had been banned 3 or 4 times in the past for hacking, and he had to get longer than a month ban. This rule has to be changed if we are to prevent hackers from continuing to play on this server.\r \r 3. Extended Punishments.\r Before you all start going crazy on this idea, hear me out. By extended punishments, I don't mean a 2 day ban for logging once. I mean the 15 minute mute for spamming because a half hour mute. We go back to the 3-strikes-and-you're-out deal with hackers. Logging becomes a longer jail period. Breaking a rule several times over will result in much more severe punishments than last time. \r \r So why would I think about this? Well, it really isn't my idea, it's Hex's. And this is his reasoning behind it; we, the staff, are trying to keep this server as safe a place as possible. When we get people hacking and logging and being rude to other players, it makes our job that much harder. It also doesn't help that people continue to break rules after miniscule punishments. In order for people to stop breaking rules so often, we have to make punishments more severe in order to make sure that player stop breaking rules on this server and on the forums. \r \r Again, I thank you all for reading this. Below I have attached a poll to see what you guys think about these ideas. I know that it's difficult to make decisions like these. But in order for the server to continue on, we must have you, the players, decide the course of this server. Do you want to voice your opinions on what PSG should do next? Comment now. Your vote may mean everything. For if you didn't take a stand for all that you loved, who would?\r \r ~Creepaahh","post_user_id":"7249943","show_signature":"1","last_edit_time":"0","post_votes":"0","post_unhidden":"0","post_admin_hidden":"0","post_locked":"0","last_edit_user":"0","votes":null,"post_username":"Creepaahh","avatar":"https:\/\/assets-cloud.enjin.com\/users\/7249943\/avatar\/medium.1468004541.jpeg","user_online":false,"user_votes":null,"user_posts":0,"url":"https:\/\/www.enjin.com\/ajax.php?s=redirect&cmd=forum-post&mobile=1&preset=12571633&id=85210321"},{"post_id":"85363244","post_time":"1418101018","post_content":"[quote user_id=\"5567911\" avatar=\"https:\/\/cravatar.eu\/helmavatar\/griffin0505\/74.png\" name=\"griffin0505\"]People should drop items in factions, this is why Factions isn't near as popular as it used to.[\/quote]\r\n\r\n[color=darkblue]Completely agree with you, Griffin.\r\n\r\nWhy don't we just disable Golden and Super Golden Apples completely? What's the point of GapplePvP? No skill required. I'm hoping for a 25000x25000 block world. Maybe when the player population increases, we can change that. The shop prices need to become [i]way[\/i] higher, and to whoever is taking this post into consideration and is going to change it, make sure there are no possible ways to glitch the economy. All the unobtainable items and armor that old players have need to be reset. I request for a WHOLE reset. No items, no money, (except for donor money).\r\n\r\nAnother pretty huge request, is to make donors less OP. I suggest taking away \/sethome, \/ext, \/repair all, and a lot more commands. Make Factions a whole separate server for donations like Prison is. And to the donors, don't give them any commands that have an advantage over non-donors in PvP. I remember this Factions server being indescribably frustrating as a non-donor.\r\n\r\nMy last and most wanted suggestion, is to build a new spawn, and let some players apply to build it, (on the test server). A new spawn; a unique spawn that resembles [b]PlaySG Factions[\/b].","post_content_html":" <div class=\"bbcode_quote\"> <div class=\"bbcode_quote_head\">@5567911 wrote:<\/div> <div class=\"bbcode_quote_body\">People should drop items in factions, this is why Factions isn't near as popular as it used to.<\/div> <\/div> <br \/> Completely agree with you, Griffin.<br \/> <br \/> Why don't we just disable Golden and Super Golden Apples completely? What's the point of GapplePvP? No skill required. I'm hoping for a 25000x25000 block world. Maybe when the player population increases, we can change that. The shop prices need to become <i>way<\/i> higher, and to whoever is taking this post into consideration and is going to change it, make sure there are no possible ways to glitch the economy. All the unobtainable items and armor that old players have need to be reset. I request for a WHOLE reset. No items, no money, (except for donor money).<br \/> <br \/> Another pretty huge request, is to make donors less OP. I suggest taking away \/sethome, \/ext, \/repair all, and a lot more commands. Make Factions a whole separate server for donations like Prison is. And to the donors, don't give them any commands that have an advantage over non-donors in PvP. I remember this Factions server being indescribably frustrating as a non-donor.<br \/> <br \/> My last and most wanted suggestion, is to build a new spawn, and let some players apply to build it, (on the test server). A new spawn; a unique spawn that resembles <b>PlaySG Factions<\/b>.","post_content_clean":"People should drop items in factions, this is why Factions isn't near as popular as it used to.\r \r Completely agree with you, Griffin.\r \r Why don't we just disable Golden and Super Golden Apples completely? What's the point of GapplePvP? No skill required. I'm hoping for a 25000x25000 block world. Maybe when the player population increases, we can change that. The shop prices need to become way higher, and to whoever is taking this post into consideration and is going to change it, make sure there are no possible ways to glitch the economy. All the unobtainable items and armor that old players have need to be reset. I request for a WHOLE reset. No items, no money, (except for donor money). \r \r Another pretty huge request, is to make donors less OP. I suggest taking away \/sethome, \/ext, \/repair all, and a lot more commands. Make Factions a whole separate server for donations like Prison is. And to the donors, don't give them any commands that have an advantage over non-donors in PvP. I remember this Factions server being indescribably frustrating as a non-donor.\r \r My last and most wanted suggestion, is to build a new spawn, and let some players apply to build it, (on the test server). A new spawn; a unique spawn that resembles PlaySG Factions.","post_user_id":"7791824","show_signature":"1","last_edit_time":"1418101084","post_votes":"0","post_unhidden":"0","post_admin_hidden":"0","post_locked":"0","last_edit_user":"0","votes":null,"post_username":"\u2704snugglezxD:3emo} IronPecker","avatar":"https:\/\/assets-cloud.enjin.com\/users\/7791824\/avatar\/medium.1472606126.png","user_online":false,"user_votes":"140","user_posts":"1247","url":"https:\/\/www.enjin.com\/ajax.php?s=redirect&cmd=forum-post&mobile=1&preset=12571633&id=85363244"},{"post_id":"85370467","post_time":"1418117811","post_content":"[user avatar=\"https:\/\/cravatar.eu\/helmavatar\/IronPecker\/74.png\" name=\"IronPecker\"]7791824[\/user] &quot;Another pretty huge request, is to make donors less OP. I suggest taking away \/sethome, \/ext, \/repair all, and a lot more commands. Make Factions a whole separate server for donations like Prison is. And to the donors, don't give them any commands that have an advantage over non-donors in PvP. I remember this Factions server being indescribably frustrating as a non-donor.&quot;\r\n\r\nhold up a second. are you giving all the perks donors have away or what? ok maybe sethome can have like only a set amount of homes at one time (ie: lapiz max= 5) and maybe removing \/ext for PvP purposes. as for \/repair all maybe change to \/repair hand.. to what i'm saying is NERF the commands, atleast them keep their perks!","post_content_html":" <span class=\"bbcode_user\"><a  data-minitooltip=\"IronPecker\" data-minitooltip-userid=\"7791824\" href=\"https:\/\/www.craftsurvivalgames.com\/profile\/7791824\"><img src=\"https:\/\/cravatar.eu\/helmavatar\/IronPecker\/74.png\" onerror=\"this.src='https:\/\/resources.enjin.com\/profile\/images\/avatar\/small.png';\" width=\"23\" height=\"23\"><\/a> <a href='https:\/\/www.craftsurvivalgames.com\/profile\/7791824'  class='element_username'>IronPecker<\/a>  <\/span> &quot;Another pretty huge request, is to make donors less OP. I suggest taking away \/sethome, \/ext, \/repair all, and a lot more commands. Make Factions a whole separate server for donations like Prison is. And to the donors, don't give them any commands that have an advantage over non-donors in PvP. I remember this Factions server being indescribably frustrating as a non-donor.&quot;<br \/> <br \/> hold up a second. are you giving all the perks donors have away or what? ok maybe sethome can have like only a set amount of homes at one time (ie: lapiz max= 5) and maybe removing \/ext for PvP purposes. as for \/repair all maybe change to \/repair hand.. to what i'm saying is NERF the commands, atleast them keep their perks!","post_content_clean":"7791824 \"Another pretty huge request, is to make donors less OP. I suggest taking away \/sethome, \/ext, \/repair all, and a lot more commands. Make Factions a whole separate server for donations like Prison is. And to the donors, don't give them any commands that have an advantage over non-donors in PvP. I remember this Factions server being indescribably frustrating as a non-donor.\"\r \r hold up a second. are you giving all the perks donors have away or what? ok maybe sethome can have like only a set amount of homes at one time (ie: lapiz max= 5) and maybe removing \/ext for PvP purposes. as for \/repair all maybe change to \/repair hand.. to what i'm saying is NERF the commands, atleast them keep their perks!","post_user_id":"1858801","show_signature":"1","last_edit_time":"0","post_votes":"0","post_unhidden":"0","post_admin_hidden":"0","post_locked":"0","last_edit_user":"0","votes":null,"post_username":"TexSupport","avatar":"https:\/\/assets-cloud.enjin.com\/users\/1858801\/avatar\/medium.1545528815.jpeg","user_online":false,"user_votes":"167","user_posts":"1175","url":"https:\/\/www.enjin.com\/ajax.php?s=redirect&cmd=forum-post&mobile=1&preset=12571633&id=85370467"},{"post_id":"85398536","post_time":"1418158104","post_content":"[color=#6cdd23]I agree with the faction reset.\r\nLast reset did barely anything. I mean we still got to keep all our items! I think we should reset everything. So clear inventory, $0 bal, a whole new world, ex. I also think that if we get a whole new world access to the last two worlds should be unavailable. I also think \/set home for donors should be less like MrEs said.\r\n\r\nSide note: Example of mcmmo: A friend of mine likes to play onanother faction server and he compares CSG to it. In my option its way to op. They use mcmmo and it makes it super unfair. I like how CSG does not use mcmmo. I think we shouldn't add it.\r\n\r\n-Kat[\/color]","post_content_html":"I agree with the faction reset.<br \/> <br \/> Last reset did barely anything. I mean we still got to keep all our items! I think we should reset everything. So clear inventory, $0 bal, a whole new world, ex. I also think that if we get a whole new world access to the last two worlds should be unavailable. I also think \/set home for donors should be less like MrEs said.<br \/> <br \/> Side note: Example of mcmmo: A friend of mine likes to play onanother faction server and he compares CSG to it. In my option its way to op. They use mcmmo and it makes it super unfair. I like how CSG does not use mcmmo. I think we shouldn't add it.<br \/> <br \/> -Kat","post_content_clean":"I agree with the faction reset.\r Last reset did barely anything. I mean we still got to keep all our items! I think we should reset everything. So clear inventory, $0 bal, a whole new world, ex. I also think that if we get a whole new world access to the last two worlds should be unavailable. I also think \/set home for donors should be less like MrEs said. \r \r Side note: Example of mcmmo: A friend of mine likes to play onanother faction server and he compares CSG to it. In my option its way to op. They use mcmmo and it makes it super unfair. I like how CSG does not use mcmmo. I think we shouldn't add it. \r \r -Kat","post_user_id":"11811544","show_signature":"1","last_edit_time":"1418158146","post_votes":"0","post_unhidden":"0","post_admin_hidden":"0","post_locked":"0","last_edit_user":"0","votes":null,"post_username":"Katniss","avatar":"https:\/\/assets-cloud.enjin.com\/users\/11811544\/avatar\/medium.1418813708.jpeg","user_online":false,"user_votes":"0","user_posts":"132","url":"https:\/\/www.enjin.com\/ajax.php?s=redirect&cmd=forum-post&mobile=1&preset=12571633&id=85398536"},{"post_id":"85410997","post_time":"1418170246","post_content":"[quote user_id=\"1858801\" avatar=\"https:\/\/cravatar.eu\/helmavatar\/Texpert\/74.png\" name=\"Texpert\"][user avatar=\"https:\/\/cravatar.eu\/helmavatar\/IronPecker\/74.png\" name=\"IronPecker\"]7791824[\/user] &quot;Another pretty huge request, is to make donors less OP. I suggest taking away \/sethome, \/ext, \/repair all, and a lot more commands. Make Factions a whole separate server for donations like Prison is. And to the donors, don't give them any commands that have an advantage over non-donors in PvP. I remember this Factions server being indescribably frustrating as a non-donor.&quot;\r\n\r\nhold up a second. are you giving all the perks donors have away or what? ok maybe sethome can have like only a set amount of homes at one time (ie: lapiz max= 5) and maybe removing \/ext for PvP purposes. as for \/repair all maybe change to \/repair hand.. to what i'm saying is NERF the commands, atleast them keep their perks![\/quote]\r\n\r\n[color=darkblue]No. The perks are too overpowered. That's why I said to make donating separate. There are still ways to repair items in vanilla minecraft.","post_content_html":" <div class=\"bbcode_quote\"> <div class=\"bbcode_quote_head\">@1858801 wrote:<\/div> <div class=\"bbcode_quote_body\"> <span class=\"bbcode_user\"><a  data-minitooltip=\"IronPecker\" data-minitooltip-userid=\"7791824\" href=\"https:\/\/www.craftsurvivalgames.com\/profile\/7791824\"><img src=\"https:\/\/cravatar.eu\/helmavatar\/IronPecker\/74.png\" onerror=\"this.src='https:\/\/resources.enjin.com\/profile\/images\/avatar\/small.png';\" width=\"23\" height=\"23\"><\/a> <a href='https:\/\/www.craftsurvivalgames.com\/profile\/7791824'  class='element_username'>IronPecker<\/a>  <\/span> &quot;Another pretty huge request, is to make donors less OP. I suggest taking away \/sethome, \/ext, \/repair all, and a lot more commands. Make Factions a whole separate server for donations like Prison is. And to the donors, don't give them any commands that have an advantage over non-donors in PvP. I remember this Factions server being indescribably frustrating as a non-donor.&quot;<br \/> <br \/> hold up a second. are you giving all the perks donors have away or what? ok maybe sethome can have like only a set amount of homes at one time (ie: lapiz max= 5) and maybe removing \/ext for PvP purposes. as for \/repair all maybe change to \/repair hand.. to what i'm saying is NERF the commands, atleast them keep their perks!<\/div> <\/div> <br \/> No. The perks are too overpowered. That's why I said to make donating separate. There are still ways to repair items in vanilla minecraft.","post_content_clean":"7791824 \"Another pretty huge request, is to make donors less OP. I suggest taking away \/sethome, \/ext, \/repair all, and a lot more commands. Make Factions a whole separate server for donations like Prison is. And to the donors, don't give them any commands that have an advantage over non-donors in PvP. I remember this Factions server being indescribably frustrating as a non-donor.\"\r \r hold up a second. are you giving all the perks donors have away or what? ok maybe sethome can have like only a set amount of homes at one time (ie: lapiz max= 5) and maybe removing \/ext for PvP purposes. as for \/repair all maybe change to \/repair hand.. to what i'm saying is NERF the commands, atleast them keep their perks!\r \r No. The perks are too overpowered. That's why I said to make donating separate. There are still ways to repair items in vanilla minecraft.","post_user_id":"7791824","show_signature":"1","last_edit_time":"0","post_votes":"0","post_unhidden":"0","post_admin_hidden":"0","post_locked":"0","last_edit_user":"0","votes":null,"post_username":"\u2704snugglezxD:3emo} IronPecker","avatar":"https:\/\/assets-cloud.enjin.com\/users\/7791824\/avatar\/medium.1472606126.png","user_online":false,"user_votes":"140","user_posts":"1247","url":"https:\/\/www.enjin.com\/ajax.php?s=redirect&cmd=forum-post&mobile=1&preset=12571633&id=85410997"},{"post_id":"85411723","post_time":"1418170964","post_content":"[color=#2360dd]I have some suggestions:\r\n[B]Hacking:[\/B] 1st offense 1 week ban\r\n2nd offense 3 week ban\r\n3rd offense 2 month ban\r\n4th offense Perm ban\r\n\r\nAs for logging:\r\n[B]Logging:[\/B] 1st offense 30 minute jail\r\n2nd offense 1 hour jail\r\n3rd offense 3 hour jail\r\n4th offense 1 day ban w\/ inventory clear\r\n\r\nAnd last but not least, scamming:\r\n[B]Scamming:[\/B] 1st offense 1 hour jail\r\n2nd offene 3 hour jail\r\n3rd offense 6 hour jail\/ban\r\n4th offense 1 day ban[\/color]","post_content_html":"I have some suggestions:<br \/> <br \/> <b>Hacking:<\/b> 1st offense 1 week ban<br \/> <br \/> 2nd offense 3 week ban<br \/> <br \/> 3rd offense 2 month ban<br \/> <br \/> 4th offense Perm ban<br \/> <br \/> As for logging:<br \/> <br \/> <b>Logging:<\/b> 1st offense 30 minute jail<br \/> <br \/> 2nd offense 1 hour jail<br \/> <br \/> 3rd offense 3 hour jail<br \/> <br \/> 4th offense 1 day ban w\/ inventory clear<br \/> <br \/> And last but not least, scamming:<br \/> <br \/> <b>Scamming:<\/b> 1st offense 1 hour jail<br \/> <br \/> 2nd offene 3 hour jail<br \/> <br \/> 3rd offense 6 hour jail\/ban<br \/> <br \/> 4th offense 1 day ban","post_content_clean":"I have some suggestions:\r Hacking: 1st offense 1 week ban\r                  2nd offense 3 week ban\r                  3rd offense 2 month ban\r                  4th offense Perm ban\r \r As for logging:\r Logging: 1st offense 30 minute jail\r                  2nd offense 1 hour jail\r                  3rd offense 3 hour jail\r                  4th offense 1 day ban w\/ inventory clear\r \r And last but not least, scamming:\r Scamming: 1st offense 1 hour jail\r                      2nd offene 3 hour jail\r                      3rd offense 6 hour jail\/ban\r                       4th offense 1 day ban","post_user_id":"11858265","show_signature":"1","last_edit_time":"1418171141","post_votes":"0","post_unhidden":"0","post_admin_hidden":"0","post_locked":"0","last_edit_user":"0","votes":null,"post_username":"Swagalicious MC","avatar":"https:\/\/assets-cloud.enjin.com\/users\/11858265\/avatar\/medium.1442348798.jpeg","user_online":false,"user_votes":"1","user_posts":"446","url":"https:\/\/www.enjin.com\/ajax.php?s=redirect&cmd=forum-post&mobile=1&preset=12571633&id=85411723"},{"post_id":"85433541","post_time":"1418209082","post_content":"http:\/\/www.craftsurvivalgames.com\/forum\/m\/12571633\/viewthread\/17694379-factions-20\/post\/last#last\r\n\r\nIronPecker's idea is excellent, take a look at it","post_content_html":"<a rel=\"nofollow\" href=\"http:\/\/www.craftsurvivalgames.com\/forum\/m\/12571633\/viewthread\/17694379-factions-20\/post\/last#last\" class=\"bbcode_url\" title=\"http:\/\/www.craftsurvivalgames.com\/forum\/m\/12571633\/viewthread\/17694379-factions-20\/post\/last#last\" data-safe-url=\"https:\/\/redirect.enjin.com\/n\/40e4c5ba47\">http:\/\/www.craftsurvivalgames.com\/forum\/m\/12571633\/viewthread\/17694379-factions-20\/post\/last#last<\/a><br \/> <br \/> IronPecker's idea is excellent, take a look at it","post_content_clean":"http:\/\/www.craftsurvivalgames.com\/forum\/m\/12571633\/viewthread\/17694379-factions-20\/post\/last#last\r \r IronPecker's idea is excellent, take a look at it","post_user_id":"5179658","show_signature":"1","last_edit_time":"0","post_votes":"0","post_unhidden":"0","post_admin_hidden":"0","post_locked":"0","last_edit_user":"0","votes":null,"post_username":"NewYorkTimes?...","avatar":"https:\/\/resources.enjin.com\/1465083537\/profile\/images\/avatar\/medium.png","user_online":false,"user_votes":"5","user_posts":"1044","url":"https:\/\/www.enjin.com\/ajax.php?s=redirect&cmd=forum-post&mobile=1&preset=12571633&id=85433541"},{"post_id":"85435408","post_time":"1418213699","post_content":"I say for the \/fix all we can only use it once per 12 hours so it makes even the donors carry more items as for sethomes if u are raiding by yourself how are u supposed to raid them? What if you need to store? So i say nondonors can have 1 sethome at a time and donors can have a few at a time but it increases depending on your rank","post_content_html":"I say for the \/fix all we can only use it once per 12 hours so it makes even the donors carry more items as for sethomes if u are raiding by yourself how are u supposed to raid them? What if you need to store? So i say nondonors can have 1 sethome at a time and donors can have a few at a time but it increases depending on your rank","post_content_clean":"I say for the \/fix all we can only use it once per 12 hours so it makes even the donors carry more items as for sethomes if u are raiding by yourself how are u supposed to raid them? What if you need to store? So i say nondonors can have 1 sethome at a time and donors can have a few at a time but it increases depending on your rank","post_user_id":"7985788","show_signature":"1","last_edit_time":"0","post_votes":"0","post_unhidden":"0","post_admin_hidden":"0","post_locked":"0","last_edit_user":"0","votes":null,"post_username":"BladeNinja20","avatar":"https:\/\/resources.enjin.com\/1465083537\/profile\/images\/avatar\/medium.png","user_online":false,"user_votes":"5","user_posts":"781","url":"https:\/\/www.enjin.com\/ajax.php?s=redirect&cmd=forum-post&mobile=1&preset=12571633&id=85435408"},{"post_id":"85435493","post_time":"1418213873","post_content":"They should also add ceggs\/ creeper eggs that would be awesome but make them a lot of money in the shop. Also you should be able to mine spawners with silk touch picks","post_content_html":"They should also add ceggs\/ creeper eggs that would be awesome but make them a lot of money in the shop. Also you should be able to mine spawners with silk touch picks","post_content_clean":"They should also add ceggs\/ creeper eggs that would be awesome but make them a lot of money in the shop. Also you should be able to mine spawners with silk touch picks","post_user_id":"7985788","show_signature":"0","last_edit_time":"0","post_votes":"0","post_unhidden":"0","post_admin_hidden":"0","post_locked":"0","last_edit_user":"0","votes":null,"post_username":"BladeNinja20","avatar":"https:\/\/resources.enjin.com\/1465083537\/profile\/images\/avatar\/medium.png","user_online":false,"user_votes":"5","user_posts":"781","url":"https:\/\/www.enjin.com\/ajax.php?s=redirect&cmd=forum-post&mobile=1&preset=12571633&id=85435493"},{"post_id":"85466240","post_time":"1418252596","post_content":"All 3 of these ideas are great. Now all we need to do is implement them. In the past, we discussed ideas but the majority of them weren't implemented and didn't change much. Let's hope these 3 are actually implented and make a change which Im sure they will.\r\nNice job Creepaahh!","post_content_html":"All 3 of these ideas are great. Now all we need to do is implement them. In the past, we discussed ideas but the majority of them weren't implemented and didn't change much. Let's hope these 3 are actually implented and make a change which Im sure they will.<br \/> <br \/> Nice job Creepaahh!","post_content_clean":"All 3 of these ideas are great. Now all we need to do is implement them. In the past, we discussed ideas but the majority of them weren't implemented and didn't change much. Let's hope these 3 are actually implented and make a change which Im sure they will.\r Nice job Creepaahh!","post_user_id":"6672203","show_signature":"1","last_edit_time":"0","post_votes":"0","post_unhidden":"0","post_admin_hidden":"0","post_locked":"0","last_edit_user":"0","votes":null,"post_username":"\u01a4\u0280ox\u0251","avatar":"https:\/\/assets-cloud.enjin.com\/users\/6672203\/avatar\/medium.1419832957.png","user_online":false,"user_votes":"193","user_posts":"2525","url":"https:\/\/www.enjin.com\/ajax.php?s=redirect&cmd=forum-post&mobile=1&preset=12571633&id=85466240"}],"total_items":"30","pages":3,"voted":false,"new_post_id":"85363244","thread_labels":[],"top_posters":{"result":[{"post_user_id":"12000050","posts":"3","username":"DragonIsAwesome","avatar":"https:\/\/resources.enjin.com\/1465083537\/profile\/images\/avatar\/medium.png"},{"post_user_id":"5179658","posts":"3","username":"NewYorkTimes?...","avatar":"https:\/\/resources.enjin.com\/1465083537\/profile\/images\/avatar\/medium.png"},{"post_user_id":"11858265","posts":"2","username":"Swagalicious MC","avatar":"https:\/\/assets-cloud.enjin.com\/users\/11858265\/avatar\/medium.1442348798.jpeg"},{"post_user_id":"7985788","posts":"2","username":"BladeNinja20","avatar":"https:\/\/resources.enjin.com\/1465083537\/profile\/images\/avatar\/medium.png"},{"post_user_id":"8656906","posts":"2","username":"Hex4G","avatar":"https:\/\/assets-cloud.enjin.com\/users\/8656906\/avatar\/medium.1407241778.png"},{"post_user_id":"7361443","posts":"2","username":"\u2704{snugglezxD:3emo} mojo215","avatar":"https:\/\/assets-cloud.enjin.com\/users\/7361443\/avatar\/medium.1455751269.jpeg"},{"post_user_id":"10222836","posts":"2","username":"IxIHampusIxI","avatar":"https:\/\/assets-cloud.enjin.com\/users\/10222836\/avatar\/medium.1417517619.jpeg"},{"post_user_id":"7791824","posts":"2","username":"\u2704snugglezxD:3emo} IronPecker","avatar":"https:\/\/assets-cloud.enjin.com\/users\/7791824\/avatar\/medium.1472606126.png"},{"post_user_id":"11811544","posts":"1","username":"Katniss","avatar":"https:\/\/assets-cloud.enjin.com\/users\/11811544\/avatar\/medium.1418813708.jpeg"},{"post_user_id":"7875360","posts":"1","username":"IronSword","avatar":"https:\/\/assets-cloud.enjin.com\/users\/7875360\/avatar\/medium.1440483579.png"},{"post_user_id":"6672203","posts":"1","username":"\u01a4\u0280ox\u0251","avatar":"https:\/\/assets-cloud.enjin.com\/users\/6672203\/avatar\/medium.1419832957.png"},{"post_user_id":"8558848","posts":"1","username":"Donnyyourdealer","avatar":"https:\/\/assets-cloud.enjin.com\/users\/8558848\/avatar\/medium.1462535190.jpeg"}],"num_users":"20"},"moderation_access":false,"poll_post":null,"post_access":true,"new_thread_access":true},"id":"1234567","jsonrpc":"2.0"}
