{"result":{"thread":{"preset_id":"12571633","forum_id":"4414878","thread_id":"18720150","thread_subject":"NEW Kit PvP! Thoughts and Recommendations?","thread_replies":"28","thread_views":"9558","thread_type":"normal","thread_status":"locked","thread_user_id":"7249943","thread_username":"Creepaahh","thread_avatar":"https:\/\/assets-cloud.enjin.com\/users\/7249943\/avatar\/medium.1468004541.jpeg","thread_lastpost_user_id":"11149406","thread_lastpost_username":"Vance","thread_lastpost_time":"1421715909","thread_moved_id":"0","thread_post_time":"1421532326","url":"https:\/\/www.enjin.com\/ajax.php?s=redirect&cmd=forum-thread&mobile=1&preset=12571633&id=18720150","post_count":"1","category_id":"1907006","forum_name":"KitPvP General Discussion","forum_description":"Discuss with other players about KitPvP.","disable_voting":"0","show_signature":"1","url_cms":"https:\/\/www.craftsurvivalgames.com\/forum\/m\/12571633\/viewthread\/18720150-new-kit-pvp-thoughts-recommendations"},"posts":[{"post_id":"88312825","post_time":"1421532326","post_content":"Well everyone, you asked for it, and here it is! The brand new and revamped Kit PvP, filled with over 30 new custom kits, a completely different map, and a brand new look towards the Kit PvP that we once knew! Any thoughts or recommendations that you'd like to bring up? Post it here! Glitches will also be reported here for a while. Please don't respond to this post with simply &quot;I love it!&quot; or &quot;I hate it!&quot;. Explain why you love\/hate it.\r\n\r\nHappy PvPing!\r\n\r\nLinks to the new map; http:\/\/gyazo.com\/dd8b72c053f6c6fde37a549853094285\r\nhttp:\/\/gyazo.com\/4dd284297be64c2539c5d003c7cba19b\r\nhttp:\/\/gyazo.com\/792b594f79b7521defa4eeaf2bebf998\r\nhttp:\/\/gyazo.com\/a3a0ee51f9795885525aeaea3f0ed379","post_content_html":"Well everyone, you asked for it, and here it is! The brand new and revamped Kit PvP, filled with over 30 new custom kits, a completely different map, and a brand new look towards the Kit PvP that we once knew! Any thoughts or recommendations that you'd like to bring up? Post it here! Glitches will also be reported here for a while. Please don't respond to this post with simply &quot;I love it!&quot; or &quot;I hate it!&quot;. Explain why you love\/hate it.<br \/> <br \/> Happy PvPing!<br \/> <br \/> Links to the new map; <a rel=\"nofollow\" href=\"http:\/\/gyazo.com\/dd8b72c053f6c6fde37a549853094285\" class=\"bbcode_url\" title=\"http:\/\/gyazo.com\/dd8b72c053f6c6fde37a549853094285\" data-safe-url=\"https:\/\/redirect.enjin.com\/n\/cbc3b407b5\">http:\/\/gyazo.com\/dd8b72c053f6c6fde37a549853094285<\/a><br \/> <br \/> <a rel=\"nofollow\" href=\"http:\/\/gyazo.com\/4dd284297be64c2539c5d003c7cba19b\" class=\"bbcode_url\" title=\"http:\/\/gyazo.com\/4dd284297be64c2539c5d003c7cba19b\" data-safe-url=\"https:\/\/redirect.enjin.com\/n\/f89b5668b0\">http:\/\/gyazo.com\/4dd284297be64c2539c5d003c7cba19b<\/a><br \/> <br \/> <a rel=\"nofollow\" href=\"http:\/\/gyazo.com\/792b594f79b7521defa4eeaf2bebf998\" class=\"bbcode_url\" title=\"http:\/\/gyazo.com\/792b594f79b7521defa4eeaf2bebf998\" data-safe-url=\"https:\/\/redirect.enjin.com\/n\/ffeda420b1\">http:\/\/gyazo.com\/792b594f79b7521defa4eeaf2bebf998<\/a><br \/> <br \/> <a rel=\"nofollow\" href=\"http:\/\/gyazo.com\/a3a0ee51f9795885525aeaea3f0ed379\" class=\"bbcode_url\" title=\"http:\/\/gyazo.com\/a3a0ee51f9795885525aeaea3f0ed379\" data-safe-url=\"https:\/\/redirect.enjin.com\/n\/3f5959f4c4\">http:\/\/gyazo.com\/a3a0ee51f9795885525aeaea3f0ed379<\/a>","post_content_clean":"Well everyone, you asked for it, and here it is! The brand new and revamped Kit PvP, filled with over 30 new custom kits, a completely different map, and a brand new look towards the Kit PvP that we once knew! Any thoughts or recommendations that you'd like to bring up? Post it here! Glitches will also be reported here for a while. Please don't respond to this post with simply \"I love it!\" or \"I hate it!\". Explain why you love\/hate it.\r \r Happy PvPing!\r \r Links to the new map; http:\/\/gyazo.com\/dd8b72c053f6c6fde37a549853094285\r http:\/\/gyazo.com\/4dd284297be64c2539c5d003c7cba19b\r http:\/\/gyazo.com\/792b594f79b7521defa4eeaf2bebf998\r http:\/\/gyazo.com\/a3a0ee51f9795885525aeaea3f0ed379","post_user_id":"7249943","show_signature":"1","last_edit_time":"0","post_votes":"0","post_unhidden":"0","post_admin_hidden":"0","post_locked":"0","last_edit_user":"0","votes":null,"post_username":"Creepaahh","avatar":"https:\/\/assets-cloud.enjin.com\/users\/7249943\/avatar\/medium.1468004541.jpeg","user_online":false,"user_votes":null,"user_posts":0,"url":"https:\/\/www.enjin.com\/ajax.php?s=redirect&cmd=forum-post&mobile=1&preset=12571633&id=88312825"},{"post_id":"88314458","post_time":"1421533760","post_content":"What we need to do is have this kit PvP to be named, &quot;OP Kit PvP&quot;. Then have the old kit PvP just as Kit PvP. Another problem is, I hot key and it kicks me for &quot;Auto Soup Hacks&quot;, for people who hot key, they cant even play. If you can get that fixed I will be happy, and many other people. Can you make it so like if you kill you get points that you can use for soup reload, or like those post for soup instead of dragging them, my solution for this is, you click on them so your soups reload, So i hope you can add this in and fix the glitch. Thank you for reading.\r\n~4Times","post_content_html":"What we need to do is have this kit PvP to be named, &quot;OP Kit PvP&quot;. Then have the old kit PvP just as Kit PvP. Another problem is, I hot key and it kicks me for &quot;Auto Soup Hacks&quot;, for people who hot key, they cant even play. If you can get that fixed I will be happy, and many other people. Can you make it so like if you kill you get points that you can use for soup reload, or like those post for soup instead of dragging them, my solution for this is, you click on them so your soups reload, So i hope you can add this in and fix the glitch. Thank you for reading.<br \/> <br \/> ~4Times","post_content_clean":"What we need to do is have this kit PvP to be named, \"OP Kit PvP\". Then have the old kit PvP just as Kit PvP. Another problem is, I hot key and it kicks me for \"Auto Soup Hacks\", for people who hot key, they cant even play. If you can get that fixed I will be happy, and many other people. Can you make it so like if you kill you get points that you can use for soup reload, or like those post for soup instead of dragging them, my solution for this is, you click on them so your soups reload, So i hope you can add this in and fix the glitch. Thank you for reading. \r ~4Times","post_user_id":"10353060","show_signature":"1","last_edit_time":"0","post_votes":"0","post_unhidden":"0","post_admin_hidden":"0","post_locked":"0","last_edit_user":"0","votes":null,"post_username":"xXExoticGamingXx","avatar":"https:\/\/assets-cloud.enjin.com\/users\/10353060\/avatar\/medium.1427079442.png","user_online":false,"user_votes":"0","user_posts":"85","url":"https:\/\/www.enjin.com\/ajax.php?s=redirect&cmd=forum-post&mobile=1&preset=12571633&id=88314458"},{"post_id":"88322930","post_time":"1421541989","post_content":"I like it because you have to get kills to rank up  and get stuff and how you can 1v1 a player easily","post_content_html":"I like it because you have to get kills to rank up  and get stuff and how you can 1v1 a player easily","post_content_clean":"I like it because you have to get kills to rank up  and get stuff and how you can 1v1 a player easily","post_user_id":"12473268","show_signature":"1","last_edit_time":"0","post_votes":"0","post_unhidden":"0","post_admin_hidden":"0","post_locked":"0","last_edit_user":"0","votes":null,"post_username":"Toxicly&spades;","avatar":"https:\/\/assets-cloud.enjin.com\/users\/12473268\/avatar\/medium.1477001675.png","user_online":false,"user_votes":"0","user_posts":"24","url":"https:\/\/www.enjin.com\/ajax.php?s=redirect&cmd=forum-post&mobile=1&preset=12571633&id=88322930"},{"post_id":"88324208","post_time":"1421543448","post_content":"[quote user_id=\"10353060\" avatar=\"https:\/\/cravatar.eu\/helmavatar\/4TimesTheAwesom\/74.png\" name=\"4TimesTheAwesom\"]What we need to do is have this kit PvP to be named, &quot;OP Kit PvP&quot;. Then have the old kit PvP just as Kit PvP. Another problem is, I hot key and it kicks me for &quot;Auto Soup Hacks&quot;, for people who hot key, they cant even play. If you can get that fixed I will be happy, and many other people. Can you make it so like if you kill you get points that you can use for soup reload, or like those post for soup instead of dragging them, my solution for this is, you click on them so your soups reload, So i hope you can add this in and fix the glitch. Thank you for reading.\r\n~4Times[\/quote]\r\nI HATED OLD KITPVP. \/fillall was stupid. The leather armor + sharp 2 diamond sword was absurd. Speed 3 isn't even legit. It was owned by players with money, thats it. I hated old kitpvp and this pvp is so much better. (PS it isn't even op)","post_content_html":" <div class=\"bbcode_quote\"> <div class=\"bbcode_quote_head\">@10353060 wrote:<\/div> <div class=\"bbcode_quote_body\">What we need to do is have this kit PvP to be named, &quot;OP Kit PvP&quot;. Then have the old kit PvP just as Kit PvP. Another problem is, I hot key and it kicks me for &quot;Auto Soup Hacks&quot;, for people who hot key, they cant even play. If you can get that fixed I will be happy, and many other people. Can you make it so like if you kill you get points that you can use for soup reload, or like those post for soup instead of dragging them, my solution for this is, you click on them so your soups reload, So i hope you can add this in and fix the glitch. Thank you for reading.<br \/> <br \/> ~4Times<\/div> <\/div> <br \/> I HATED OLD KITPVP. \/fillall was stupid. The leather armor + sharp 2 diamond sword was absurd. Speed 3 isn't even legit. It was owned by players with money, thats it. I hated old kitpvp and this pvp is so much better. (PS it isn't even op)","post_content_clean":"What we need to do is have this kit PvP to be named, \"OP Kit PvP\". Then have the old kit PvP just as Kit PvP. Another problem is, I hot key and it kicks me for \"Auto Soup Hacks\", for people who hot key, they cant even play. If you can get that fixed I will be happy, and many other people. Can you make it so like if you kill you get points that you can use for soup reload, or like those post for soup instead of dragging them, my solution for this is, you click on them so your soups reload, So i hope you can add this in and fix the glitch. Thank you for reading. \r ~4Times\r I HATED OLD KITPVP. \/fillall was stupid. The leather armor + sharp 2 diamond sword was absurd. Speed 3 isn't even legit. It was owned by players with money, thats it. I hated old kitpvp and this pvp is so much better. (PS it isn't even op)","post_user_id":"7361443","show_signature":"1","last_edit_time":"0","post_votes":"0","post_unhidden":"0","post_admin_hidden":"0","post_locked":"0","last_edit_user":"0","votes":null,"post_username":"\u2704{snugglezxD:3emo} mojo215","avatar":"https:\/\/assets-cloud.enjin.com\/users\/7361443\/avatar\/medium.1455751269.jpeg","user_online":false,"user_votes":"0","user_posts":"2641","url":"https:\/\/www.enjin.com\/ajax.php?s=redirect&cmd=forum-post&mobile=1&preset=12571633&id=88324208"},{"post_id":"88324721","post_time":"1421544019","post_content":"I called it &quot;OP Kit PvP Cus you get, Hulk Smash,Thors Hammer. I wanted the old one and this 1, for people that like the old one.","post_content_html":"I called it &quot;OP Kit PvP Cus you get, Hulk Smash,Thors Hammer. I wanted the old one and this 1, for people that like the old one.","post_content_clean":"I called it \"OP Kit PvP Cus you get, Hulk Smash,Thors Hammer. I wanted the old one and this 1, for people that like the old one.","post_user_id":"10353060","show_signature":"1","last_edit_time":"0","post_votes":"0","post_unhidden":"0","post_admin_hidden":"0","post_locked":"0","last_edit_user":"0","votes":null,"post_username":"xXExoticGamingXx","avatar":"https:\/\/assets-cloud.enjin.com\/users\/10353060\/avatar\/medium.1427079442.png","user_online":false,"user_votes":"0","user_posts":"85","url":"https:\/\/www.enjin.com\/ajax.php?s=redirect&cmd=forum-post&mobile=1&preset=12571633&id=88324721"},{"post_id":"88325631","post_time":"1421545074","post_content":"[quote user_id=\"10353060\" avatar=\"https:\/\/cravatar.eu\/helmavatar\/4TimesTheAwesom\/74.png\" name=\"4TimesTheAwesom\"]I called it &quot;OP Kit PvP Cus you get, Hulk Smash,Thors Hammer. I wanted the old one and this 1, for people that like the old one.[\/quote]\r\nA minority like the old one. It will quickly become like prophunt. While this kitpvp is not &quot;OP&quot;, hulk smash and thor's hammer is literally crap. This pvp is fun and not owned by 1 person with a op kit. Therefore, this pvp is so much better.","post_content_html":" <div class=\"bbcode_quote\"> <div class=\"bbcode_quote_head\">@10353060 wrote:<\/div> <div class=\"bbcode_quote_body\">I called it &quot;OP Kit PvP Cus you get, Hulk Smash,Thors Hammer. I wanted the old one and this 1, for people that like the old one.<\/div> <\/div> <br \/> A minority like the old one. It will quickly become like prophunt. While this kitpvp is not &quot;OP&quot;, hulk smash and thor's hammer is literally crap. This pvp is fun and not owned by 1 person with a op kit. Therefore, this pvp is so much better.","post_content_clean":"I called it \"OP Kit PvP Cus you get, Hulk Smash,Thors Hammer. I wanted the old one and this 1, for people that like the old one.\r A minority like the old one. It will quickly become like prophunt. While this kitpvp is not \"OP\", hulk smash and thor's hammer is literally crap. This pvp is fun and not owned by 1 person with a op kit. Therefore, this pvp is so much better.","post_user_id":"7361443","show_signature":"1","last_edit_time":"0","post_votes":"0","post_unhidden":"0","post_admin_hidden":"0","post_locked":"0","last_edit_user":"0","votes":null,"post_username":"\u2704{snugglezxD:3emo} mojo215","avatar":"https:\/\/assets-cloud.enjin.com\/users\/7361443\/avatar\/medium.1455751269.jpeg","user_online":false,"user_votes":"0","user_posts":"2641","url":"https:\/\/www.enjin.com\/ajax.php?s=redirect&cmd=forum-post&mobile=1&preset=12571633&id=88325631"},{"post_id":"88328165","post_time":"1421548049","post_content":"I just had a random idea for the maps, this really could work for any piping map on the server, you guys could make the maps old PSG spawns but like smaller &quot;ruin&quot; versions of them. The maps could have like random blocks missing or random creators in the map. This is random but i thought it seemed cool.","post_content_html":"I just had a random idea for the maps, this really could work for any piping map on the server, you guys could make the maps old PSG spawns but like smaller &quot;ruin&quot; versions of them. The maps could have like random blocks missing or random creators in the map. This is random but i thought it seemed cool.","post_content_clean":"I just had a random idea for the maps, this really could work for any piping map on the server, you guys could make the maps old PSG spawns but like smaller \"ruin\" versions of them. The maps could have like random blocks missing or random creators in the map. This is random but i thought it seemed cool.","post_user_id":"8576606","show_signature":"1","last_edit_time":"0","post_votes":"0","post_unhidden":"0","post_admin_hidden":"0","post_locked":"0","last_edit_user":"0","votes":null,"post_username":"Kaveman319","avatar":"https:\/\/assets-cloud.enjin.com\/users\/8576606\/avatar\/medium.1408488364.jpeg","user_online":false,"user_votes":"1","user_posts":"68","url":"https:\/\/www.enjin.com\/ajax.php?s=redirect&cmd=forum-post&mobile=1&preset=12571633&id=88328165"},{"post_id":"88328384","post_time":"1421548304","post_content":"[color=#2360dd]Something i am not happy with is the glitch where i get kicked for auto soup for hot keying or trying to swap out soups in my inventory. And i don't really like the &quot;soup&quot; signs around spawn. They should be there, but the process of swapping takes way to long when your under dis stress in a battle. The  sign should just simply refill all the soups. Sense it is a sign and not a command it won't get spammed like \/fillall. But if it does get spammed, you guys could put like a timer that only like once a minute or 45 seconds you can refill soups.[\/color]","post_content_html":"Something i am not happy with is the glitch where i get kicked for auto soup for hot keying or trying to swap out soups in my inventory. And i don't really like the &quot;soup&quot; signs around spawn. They should be there, but the process of swapping takes way to long when your under dis stress in a battle. The  sign should just simply refill all the soups. Sense it is a sign and not a command it won't get spammed like \/fillall. But if it does get spammed, you guys could put like a timer that only like once a minute or 45 seconds you can refill soups.","post_content_clean":"Something i am not happy with is the glitch where i get kicked for auto soup for hot keying or trying to swap out soups in my inventory. And i don't really like the \"soup\" signs around spawn. They should be there, but the process of swapping takes way to long when your under dis stress in a battle. The  sign should just simply refill all the soups. Sense it is a sign and not a command it won't get spammed like \/fillall. But if it does get spammed, you guys could put like a timer that only like once a minute or 45 seconds you can refill soups.","post_user_id":"8576606","show_signature":"1","last_edit_time":"0","post_votes":"0","post_unhidden":"0","post_admin_hidden":"0","post_locked":"0","last_edit_user":"0","votes":null,"post_username":"Kaveman319","avatar":"https:\/\/assets-cloud.enjin.com\/users\/8576606\/avatar\/medium.1408488364.jpeg","user_online":false,"user_votes":"1","user_posts":"68","url":"https:\/\/www.enjin.com\/ajax.php?s=redirect&cmd=forum-post&mobile=1&preset=12571633&id=88328384"},{"post_id":"88334789","post_time":"1421555744","post_content":"Everyone here is used to the easy life. Not all server are gonna have \/fill all and instant refill. Be happy with that we have now.","post_content_html":"Everyone here is used to the easy life. Not all server are gonna have \/fill all and instant refill. Be happy with that we have now.","post_content_clean":"Everyone here is used to the easy life. Not all server are gonna have \/fill all and instant refill. Be happy with that we have now.","post_user_id":"12313974","show_signature":"1","last_edit_time":"0","post_votes":"0","post_unhidden":"0","post_admin_hidden":"0","post_locked":"0","last_edit_user":"0","votes":null,"post_username":"lilmidgetz","avatar":"https:\/\/resources.enjin.com\/1465083537\/profile\/images\/avatar\/medium.png","user_online":false,"user_votes":"0","user_posts":"20","url":"https:\/\/www.enjin.com\/ajax.php?s=redirect&cmd=forum-post&mobile=1&preset=12571633&id=88334789"},{"post_id":"88335940","post_time":"1421557275","post_content":"Thoughts: It's friken [color=#dd2423][\/color]AWSOME!!\r\n\r\nRecommendations: Plz put a less refresh timer on the Prison kit.","post_content_html":"Thoughts: It's friken AWSOME!!<br \/> <br \/> Recommendations: Plz put a less refresh timer on the Prison kit.","post_content_clean":"Thoughts: It's friken AWSOME!!\r \r Recommendations: Plz put a less refresh timer on the Prison kit.","post_user_id":"9342461","show_signature":"1","last_edit_time":"0","post_votes":"0","post_unhidden":"0","post_admin_hidden":"0","post_locked":"0","last_edit_user":"0","votes":null,"post_username":"TNT_TURTLES","avatar":"https:\/\/assets-cloud.enjin.com\/users\/9342461\/avatar\/medium.1403853328.png","user_online":false,"user_votes":"0","user_posts":"29","url":"https:\/\/www.enjin.com\/ajax.php?s=redirect&cmd=forum-post&mobile=1&preset=12571633&id=88335940"}],"total_items":"29","pages":3,"voted":false,"new_post_id":false,"thread_labels":[],"top_posters":{"result":[{"post_user_id":"7361443","posts":"5","username":"\u2704{snugglezxD:3emo} mojo215","avatar":"https:\/\/assets-cloud.enjin.com\/users\/7361443\/avatar\/medium.1455751269.jpeg"},{"post_user_id":"7249943","posts":"3","username":"Creepaahh","avatar":"https:\/\/assets-cloud.enjin.com\/users\/7249943\/avatar\/medium.1468004541.jpeg"},{"post_user_id":"8576606","posts":"3","username":"Kaveman319","avatar":"https:\/\/assets-cloud.enjin.com\/users\/8576606\/avatar\/medium.1408488364.jpeg"},{"post_user_id":"9342461","posts":"2","username":"TNT_TURTLES","avatar":"https:\/\/assets-cloud.enjin.com\/users\/9342461\/avatar\/medium.1403853328.png"},{"post_user_id":"5933548","posts":"2","username":"WirelessKeyboard","avatar":"https:\/\/assets-cloud.enjin.com\/users\/5933548\/avatar\/medium.1465245962.png"},{"post_user_id":"11149406","posts":"2","username":"Vance","avatar":"https:\/\/assets-cloud.enjin.com\/users\/11149406\/avatar\/medium.1409101243.png"},{"post_user_id":"5179658","posts":"2","username":"NewYorkTimes?...","avatar":"https:\/\/resources.enjin.com\/1465083537\/profile\/images\/avatar\/medium.png"},{"post_user_id":"10353060","posts":"2","username":"xXExoticGamingXx","avatar":"https:\/\/assets-cloud.enjin.com\/users\/10353060\/avatar\/medium.1427079442.png"},{"post_user_id":"12313974","posts":"1","username":"lilmidgetz","avatar":"https:\/\/resources.enjin.com\/1465083537\/profile\/images\/avatar\/medium.png"},{"post_user_id":"7334706","posts":"1","username":"cynns","avatar":"https:\/\/assets-cloud.enjin.com\/users\/7334706\/avatar\/medium.1400127145.png"},{"post_user_id":"11032290","posts":"1","username":"MCL \/_ A16","avatar":"https:\/\/assets-cloud.enjin.com\/users\/11032290\/avatar\/medium.1411766013.png"},{"post_user_id":"8846659","posts":"1","username":"TRUCKLOADS","avatar":"https:\/\/assets-cloud.enjin.com\/users\/8846659\/avatar\/medium.1561215246.jpeg"}],"num_users":"16"},"moderation_access":false,"poll_post":null,"post_access":true,"new_thread_access":true},"id":"1234567","jsonrpc":"2.0"}
{"result":{"thread":{"preset_id":"12571633","forum_id":"4414878","thread_id":"18720150","thread_subject":"NEW Kit PvP! Thoughts and Recommendations?","thread_replies":"28","thread_views":"9558","thread_type":"normal","thread_status":"locked","thread_user_id":"7249943","thread_username":"Creepaahh","thread_avatar":"https:\/\/assets-cloud.enjin.com\/users\/7249943\/avatar\/medium.1465245962.png","thread_lastpost_user_id":"11149406","thread_lastpost_username":"Vance","thread_lastpost_time":"1421715909","thread_moved_id":"0","thread_post_time":"1421532326","url":"https:\/\/www.enjin.com\/ajax.php?s=redirect&cmd=forum-thread&mobile=1&preset=12571633&id=18720150","post_count":"1","category_id":"1907006","forum_name":"KitPvP General Discussion","forum_description":"Discuss with other players about KitPvP.","disable_voting":"0","show_signature":"1","url_cms":"https:\/\/www.craftsurvivalgames.com\/forum\/m\/12571633\/viewthread\/18720150-new-kit-pvp-thoughts-recommendations"},"posts":[{"post_id":"88336866","post_time":"1421558499","post_content":"I love the Time Lord and the Ninja kits! This was a great Idea!","post_content_html":"I love the Time Lord and the Ninja kits! This was a great Idea!","post_content_clean":"I love the Time Lord and the Ninja kits! This was a great Idea!","post_user_id":"5933548","show_signature":"1","last_edit_time":"0","post_votes":"0","post_unhidden":"0","post_admin_hidden":"0","post_locked":"0","last_edit_user":"0","votes":null,"post_username":"WirelessKeyboard","avatar":"https:\/\/assets-cloud.enjin.com\/users\/5933548\/avatar\/medium.1465245962.png","user_online":false,"user_votes":"1","user_posts":"840","url":"https:\/\/www.enjin.com\/ajax.php?s=redirect&cmd=forum-post&mobile=1&preset=12571633&id=88336866"},{"post_id":"88337158","post_time":"1421558908","post_content":"I love the new Pvp it's pretty boss","post_content_html":"I love the new Pvp it's pretty boss","post_content_clean":"I love the new Pvp it's pretty boss","post_user_id":"11149406","show_signature":"1","last_edit_time":"0","post_votes":"0","post_unhidden":"0","post_admin_hidden":"0","post_locked":"0","last_edit_user":"0","votes":null,"post_username":"Vance","avatar":"https:\/\/assets-cloud.enjin.com\/users\/11149406\/avatar\/medium.1409101243.png","user_online":false,"user_votes":"1","user_posts":"610","url":"https:\/\/www.enjin.com\/ajax.php?s=redirect&cmd=forum-post&mobile=1&preset=12571633&id=88337158"},{"post_id":"88352897","post_time":"1421586375","post_content":"[warning]DISABLE THE ANTI-HACK PLUGIN[\/warning]\r\n\u00a8\r\nIt's SOOO irritating","post_content_html":"DISABLE THE ANTI-HACK PLUGIN<br \/> <br \/> \u00a8<br \/> <br \/> It's SOOO irritating","post_content_clean":"DISABLE THE ANTI-HACK PLUGIN\r \u00a8\r It's SOOO irritating","post_user_id":"5179658","show_signature":"1","last_edit_time":"0","post_votes":"0","post_unhidden":"0","post_admin_hidden":"0","post_locked":"0","last_edit_user":"0","votes":null,"post_username":"NewYorkTimes?...","avatar":"https:\/\/resources.enjin.com\/1465083537\/profile\/images\/avatar\/medium.png","user_online":false,"user_votes":"5","user_posts":"1044","url":"https:\/\/www.enjin.com\/ajax.php?s=redirect&cmd=forum-post&mobile=1&preset=12571633&id=88352897"},{"post_id":"88353913","post_time":"1421587843","post_content":"The auto kicking plugin is a bit ridiculous, half the time its from people swinging while chasing the other person.\r\nAlso, there's like a glitch where if you go into your inventory too refill, as soon as you get hit while in your inventory, it takes you out of your inventory, resulting in death most of the time.\r\n\r\nAnd a suggestion I have would be to be able to repair your armor, and I'm not saying this is just a donor command, but everyone should be able to one way or another.","post_content_html":"The auto kicking plugin is a bit ridiculous, half the time its from people swinging while chasing the other person.<br \/> <br \/> Also, there's like a glitch where if you go into your inventory too refill, as soon as you get hit while in your inventory, it takes you out of your inventory, resulting in death most of the time.<br \/> <br \/> And a suggestion I have would be to be able to repair your armor, and I'm not saying this is just a donor command, but everyone should be able to one way or another.","post_content_clean":"The auto kicking plugin is a bit ridiculous, half the time its from people swinging while chasing the other person.\r Also, there's like a glitch where if you go into your inventory too refill, as soon as you get hit while in your inventory, it takes you out of your inventory, resulting in death most of the time. \r \r And a suggestion I have would be to be able to repair your armor, and I'm not saying this is just a donor command, but everyone should be able to one way or another.","post_user_id":"7334706","show_signature":"1","last_edit_time":"0","post_votes":"0","post_unhidden":"0","post_admin_hidden":"0","post_locked":"0","last_edit_user":"0","votes":null,"post_username":"cynns","avatar":"https:\/\/assets-cloud.enjin.com\/users\/7334706\/avatar\/medium.1400127145.png","user_online":false,"user_votes":"257","user_posts":"2090","url":"https:\/\/www.enjin.com\/ajax.php?s=redirect&cmd=forum-post&mobile=1&preset=12571633&id=88353913"},{"post_id":"88358868","post_time":"1421593765","post_content":"Why not just add a timer on the soup refill instead of everyone crowding a soup station?","post_content_html":"Why not just add a timer on the soup refill instead of everyone crowding a soup station?","post_content_clean":"Why not just add a timer on the soup refill instead of everyone crowding a soup station?","post_user_id":"11032290","show_signature":"1","last_edit_time":"0","post_votes":"0","post_unhidden":"0","post_admin_hidden":"0","post_locked":"0","last_edit_user":"0","votes":null,"post_username":"MCL \/_ A16","avatar":"https:\/\/assets-cloud.enjin.com\/users\/11032290\/avatar\/medium.1411766013.png","user_online":false,"user_votes":"1","user_posts":"285","url":"https:\/\/www.enjin.com\/ajax.php?s=redirect&cmd=forum-post&mobile=1&preset=12571633&id=88358868"},{"post_id":"88359598","post_time":"1421594460","post_content":"I never see people crowding the soup station. Most of the time it is just one person there and they get away safely.","post_content_html":"I never see people crowding the soup station. Most of the time it is just one person there and they get away safely.","post_content_clean":"I never see people crowding the soup station. Most of the time it is just one person there and they get away safely.","post_user_id":"5933548","show_signature":"1","last_edit_time":"0","post_votes":"0","post_unhidden":"0","post_admin_hidden":"0","post_locked":"0","last_edit_user":"0","votes":null,"post_username":"WirelessKeyboard","avatar":"https:\/\/assets-cloud.enjin.com\/users\/5933548\/avatar\/medium.1465245962.png","user_online":false,"user_votes":"1","user_posts":"840","url":"https:\/\/www.enjin.com\/ajax.php?s=redirect&cmd=forum-post&mobile=1&preset=12571633&id=88359598"},{"post_id":"88360725","post_time":"1421595614","post_content":"I love it but why cant we do like \/fillall\r\nAlso it was a waste of getting macros. I love to rate it maybe 7\/10 but it would be a 10\/10 if we had \/fillall and refill. Thx.\r\n\r\n-MK","post_content_html":"I love it but why cant we do like \/fillall<br \/> <br \/> Also it was a waste of getting macros. I love to rate it maybe 7\/10 but it would be a 10\/10 if we had \/fillall and refill. Thx.<br \/> <br \/> -MK","post_content_clean":"I love it but why cant we do like \/fillall\r Also it was a waste of getting macros. I love to rate it maybe 7\/10 but it would be a 10\/10 if we had \/fillall and refill. Thx.\r \r -MK","post_user_id":"8846659","show_signature":"1","last_edit_time":"0","post_votes":"0","post_unhidden":"0","post_admin_hidden":"0","post_locked":"0","last_edit_user":"0","votes":null,"post_username":"TRUCKLOADS","avatar":"https:\/\/assets-cloud.enjin.com\/users\/8846659\/avatar\/medium.1561215246.jpeg","user_online":false,"user_votes":"6","user_posts":"379","url":"https:\/\/www.enjin.com\/ajax.php?s=redirect&cmd=forum-post&mobile=1&preset=12571633&id=88360725"},{"post_id":"88360833","post_time":"1421595727","post_content":"[quote user_id=\"8846659\" avatar=\"https:\/\/cravatar.eu\/helmavatar\/NikeRun\/74.png\" name=\"NikeRun\"]I love it but why cant we do like \/fillall\r\nAlso it was a waste of getting macros. I love to rate it maybe 7\/10 but it would be a 10\/10 if we had \/fillall and refill. Thx.\r\n\r\n-MK[\/quote]\r\n\/fillall is annoying and only good for bad players.[quote user_id=\"7334706\" avatar=\"https:\/\/cravatar.eu\/helmavatar\/Cynns\/74.png\" name=\"Cynns\"]The auto kicking plugin is a bit ridiculous, half the time its from people swinging while chasing the other person.\r\nAlso, there's like a glitch where if you go into your inventory too refill, as soon as you get hit while in your inventory, it takes you out of your inventory, resulting in death most of the time.\r\n\r\nAnd a suggestion I have would be to be able to repair your armor, and I'm not saying this is just a donor command, but everyone should be able to one way or another.[\/quote]\r\nKB a has this plugin removed... while KB 1 doesn't.","post_content_html":" <div class=\"bbcode_quote\"> <div class=\"bbcode_quote_head\">@8846659 wrote:<\/div> <div class=\"bbcode_quote_body\">I love it but why cant we do like \/fillall<br \/> <br \/> Also it was a waste of getting macros. I love to rate it maybe 7\/10 but it would be a 10\/10 if we had \/fillall and refill. Thx.<br \/> <br \/> -MK<\/div> <\/div> <br \/> \/fillall is annoying and only good for bad players. <div class=\"bbcode_quote\"> <div class=\"bbcode_quote_head\">@7334706 wrote:<\/div> <div class=\"bbcode_quote_body\">The auto kicking plugin is a bit ridiculous, half the time its from people swinging while chasing the other person.<br \/> <br \/> Also, there's like a glitch where if you go into your inventory too refill, as soon as you get hit while in your inventory, it takes you out of your inventory, resulting in death most of the time.<br \/> <br \/> And a suggestion I have would be to be able to repair your armor, and I'm not saying this is just a donor command, but everyone should be able to one way or another.<\/div> <\/div> <br \/> KB a has this plugin removed... while KB 1 doesn't.","post_content_clean":"I love it but why cant we do like \/fillall\r Also it was a waste of getting macros. I love to rate it maybe 7\/10 but it would be a 10\/10 if we had \/fillall and refill. Thx.\r \r -MK\r \/fillall is annoying and only good for bad players.The auto kicking plugin is a bit ridiculous, half the time its from people swinging while chasing the other person.\r Also, there's like a glitch where if you go into your inventory too refill, as soon as you get hit while in your inventory, it takes you out of your inventory, resulting in death most of the time. \r \r And a suggestion I have would be to be able to repair your armor, and I'm not saying this is just a donor command, but everyone should be able to one way or another.\r KB a has this plugin removed... while KB 1 doesn't.","post_user_id":"7361443","show_signature":"1","last_edit_time":"0","post_votes":"0","post_unhidden":"0","post_admin_hidden":"0","post_locked":"0","last_edit_user":"0","votes":null,"post_username":"\u2704{snugglezxD:3emo} mojo215","avatar":"https:\/\/assets-cloud.enjin.com\/users\/7361443\/avatar\/medium.1455751269.jpeg","user_online":false,"user_votes":"0","user_posts":"2641","url":"https:\/\/www.enjin.com\/ajax.php?s=redirect&cmd=forum-post&mobile=1&preset=12571633&id=88360833"},{"post_id":"88367026","post_time":"1421602012","post_content":"Make it so that armour is unbreakable, people that have the leather armour are already at a disadvantage when fighting people with full iron, so when the leather breaks they are at a bigger disadvantage","post_content_html":"Make it so that armour is unbreakable, people that have the leather armour are already at a disadvantage when fighting people with full iron, so when the leather breaks they are at a bigger disadvantage","post_content_clean":"Make it so that armour is unbreakable, people that have the leather armour are already at a disadvantage when fighting people with full iron, so when the leather breaks they are at a bigger disadvantage","post_user_id":"9342461","show_signature":"1","last_edit_time":"0","post_votes":"0","post_unhidden":"0","post_admin_hidden":"0","post_locked":"0","last_edit_user":"0","votes":null,"post_username":"TNT_TURTLES","avatar":"https:\/\/assets-cloud.enjin.com\/users\/9342461\/avatar\/medium.1403853328.png","user_online":false,"user_votes":"0","user_posts":"29","url":"https:\/\/www.enjin.com\/ajax.php?s=redirect&cmd=forum-post&mobile=1&preset=12571633&id=88367026"},{"post_id":"88367402","post_time":"1421602320","post_content":"[quote user_id=\"9342461\" avatar=\"https:\/\/assets-cloud.enjin.com\/users\/9342461\/avatar\/medium.1403853328.png\" name=\"TNT_TURTLES\"]Make it so that armour is unbreakable, people that have the leather armour are already at a disadvantage when fighting people with full iron, so when the leather breaks they are at a bigger disadvantage[\/quote]\r\nThat's part of the risk you take with some of the kits.","post_content_html":" <div class=\"bbcode_quote\"> <div class=\"bbcode_quote_head\">@9342461 wrote:<\/div> <div class=\"bbcode_quote_body\">Make it so that armour is unbreakable, people that have the leather armour are already at a disadvantage when fighting people with full iron, so when the leather breaks they are at a bigger disadvantage<\/div> <\/div> <br \/> That's part of the risk you take with some of the kits.","post_content_clean":"Make it so that armour is unbreakable, people that have the leather armour are already at a disadvantage when fighting people with full iron, so when the leather breaks they are at a bigger disadvantage\r That's part of the risk you take with some of the kits.","post_user_id":"7249943","show_signature":"1","last_edit_time":"0","post_votes":"0","post_unhidden":"0","post_admin_hidden":"0","post_locked":"0","last_edit_user":"0","votes":null,"post_username":"Creepaahh","avatar":"https:\/\/assets-cloud.enjin.com\/users\/7249943\/avatar\/medium.1468004541.jpeg","user_online":false,"user_votes":null,"user_posts":0,"url":"https:\/\/www.enjin.com\/ajax.php?s=redirect&cmd=forum-post&mobile=1&preset=12571633&id=88367402"}],"total_items":"29","pages":3,"voted":false,"new_post_id":"88336866","thread_labels":[],"top_posters":{"result":[{"post_user_id":"7361443","posts":"5","username":"\u2704{snugglezxD:3emo} mojo215","avatar":"https:\/\/assets-cloud.enjin.com\/users\/7361443\/avatar\/medium.1455751269.jpeg"},{"post_user_id":"7249943","posts":"3","username":"Creepaahh","avatar":"https:\/\/assets-cloud.enjin.com\/users\/7249943\/avatar\/medium.1468004541.jpeg"},{"post_user_id":"8576606","posts":"3","username":"Kaveman319","avatar":"https:\/\/assets-cloud.enjin.com\/users\/8576606\/avatar\/medium.1408488364.jpeg"},{"post_user_id":"10353060","posts":"2","username":"xXExoticGamingXx","avatar":"https:\/\/assets-cloud.enjin.com\/users\/10353060\/avatar\/medium.1427079442.png"},{"post_user_id":"9342461","posts":"2","username":"TNT_TURTLES","avatar":"https:\/\/assets-cloud.enjin.com\/users\/9342461\/avatar\/medium.1403853328.png"},{"post_user_id":"5933548","posts":"2","username":"WirelessKeyboard","avatar":"https:\/\/assets-cloud.enjin.com\/users\/5933548\/avatar\/medium.1465245962.png"},{"post_user_id":"11149406","posts":"2","username":"Vance","avatar":"https:\/\/assets-cloud.enjin.com\/users\/11149406\/avatar\/medium.1409101243.png"},{"post_user_id":"5179658","posts":"2","username":"NewYorkTimes?...","avatar":"https:\/\/resources.enjin.com\/1465083537\/profile\/images\/avatar\/medium.png"},{"post_user_id":"7334706","posts":"1","username":"cynns","avatar":"https:\/\/assets-cloud.enjin.com\/users\/7334706\/avatar\/medium.1400127145.png"},{"post_user_id":"11032290","posts":"1","username":"MCL \/_ A16","avatar":"https:\/\/assets-cloud.enjin.com\/users\/11032290\/avatar\/medium.1411766013.png"},{"post_user_id":"8846659","posts":"1","username":"TRUCKLOADS","avatar":"https:\/\/assets-cloud.enjin.com\/users\/8846659\/avatar\/medium.1561215246.jpeg"},{"post_user_id":"12473268","posts":"1","username":"Toxicly&spades;","avatar":"https:\/\/assets-cloud.enjin.com\/users\/12473268\/avatar\/medium.1477001675.png"}],"num_users":"16"},"moderation_access":false,"poll_post":null,"post_access":true,"new_thread_access":true},"id":"1234567","jsonrpc":"2.0"}
{"result":{"thread":{"preset_id":"12571633","forum_id":"4414878","thread_id":"18720150","thread_subject":"NEW Kit PvP! Thoughts and Recommendations?","thread_replies":"28","thread_views":"9558","thread_type":"normal","thread_status":"locked","thread_user_id":"7249943","thread_username":"Creepaahh","thread_avatar":"https:\/\/assets-cloud.enjin.com\/users\/7249943\/avatar\/medium.1420341072.jpeg","thread_lastpost_user_id":"11149406","thread_lastpost_username":"Vance","thread_lastpost_time":"1421715909","thread_moved_id":"0","thread_post_time":"1421532326","url":"https:\/\/www.enjin.com\/ajax.php?s=redirect&cmd=forum-thread&mobile=1&preset=12571633&id=18720150","post_count":"1","category_id":"1907006","forum_name":"KitPvP General Discussion","forum_description":"Discuss with other players about KitPvP.","disable_voting":"0","show_signature":"1","url_cms":"https:\/\/www.craftsurvivalgames.com\/forum\/m\/12571633\/viewthread\/18720150-new-kit-pvp-thoughts-recommendations"},"posts":[{"post_id":"88399526","post_time":"1421628649","post_content":"Ninja kit is a bit annoying.. that is it really.","post_content_html":"Ninja kit is a bit annoying.. that is it really.","post_content_clean":"Ninja kit is a bit annoying.. that is it really.","post_user_id":"5683757","show_signature":"1","last_edit_time":"0","post_votes":"0","post_unhidden":"0","post_admin_hidden":"0","post_locked":"0","last_edit_user":"0","votes":null,"post_username":"Ghully o.O","avatar":"https:\/\/assets-cloud.enjin.com\/users\/5683757\/avatar\/medium.1420341072.jpeg","user_online":false,"user_votes":"63","user_posts":"586","url":"https:\/\/www.enjin.com\/ajax.php?s=redirect&cmd=forum-post&mobile=1&preset=12571633&id=88399526"},{"post_id":"88400174","post_time":"1421629178","post_content":"I think that other than how OP the miner kit was (now been removed) the kits are nicely balanced.  There is no OP kit, there are troll kits, yes, but those are for when you are bored and just messing around.  I do think it is way to easy to rank up.  I got to immortal after less than an hour of starting.  Earlier today when I was playing, the maps were being changed at a time interval.  The problem with this is that sometimes people would be left in the other map while everyone else would be moved.  Also the old map doesn't have the sign to grab more soup if you are on a major killstreak.  I also find it annoying to not be able to \/spawn if I want to get out of the pvp zone without leaving the server and not to be able to \/message someone.  I still think that this new Kitpvp is much more interesting than the old one, which was just filled with people using the assassin kit.","post_content_html":"I think that other than how OP the miner kit was (now been removed) the kits are nicely balanced.  There is no OP kit, there are troll kits, yes, but those are for when you are bored and just messing around.  I do think it is way to easy to rank up.  I got to immortal after less than an hour of starting.  Earlier today when I was playing, the maps were being changed at a time interval.  The problem with this is that sometimes people would be left in the other map while everyone else would be moved.  Also the old map doesn't have the sign to grab more soup if you are on a major killstreak.  I also find it annoying to not be able to \/spawn if I want to get out of the pvp zone without leaving the server and not to be able to \/message someone.  I still think that this new Kitpvp is much more interesting than the old one, which was just filled with people using the assassin kit.","post_content_clean":"I think that other than how OP the miner kit was (now been removed) the kits are nicely balanced.  There is no OP kit, there are troll kits, yes, but those are for when you are bored and just messing around.  I do think it is way to easy to rank up.  I got to immortal after less than an hour of starting.  Earlier today when I was playing, the maps were being changed at a time interval.  The problem with this is that sometimes people would be left in the other map while everyone else would be moved.  Also the old map doesn't have the sign to grab more soup if you are on a major killstreak.  I also find it annoying to not be able to \/spawn if I want to get out of the pvp zone without leaving the server and not to be able to \/message someone.  I still think that this new Kitpvp is much more interesting than the old one, which was just filled with people using the assassin kit.","post_user_id":"7922595","show_signature":"1","last_edit_time":"0","post_votes":"0","post_unhidden":"0","post_admin_hidden":"0","post_locked":"0","last_edit_user":"0","votes":null,"post_username":"Consoling","avatar":"https:\/\/assets-cloud.enjin.com\/users\/7922595\/avatar\/medium.1423013238.png","user_online":false,"user_votes":"73","user_posts":"348","url":"https:\/\/www.enjin.com\/ajax.php?s=redirect&cmd=forum-post&mobile=1&preset=12571633&id=88400174"},{"post_id":"88406524","post_time":"1421635108","post_content":"Thats what I said to keep fillall with a timer because the swapping process is way to inefficient.","post_content_html":"Thats what I said to keep fillall with a timer because the swapping process is way to inefficient.","post_content_clean":"Thats what I said to keep fillall with a timer because the swapping process is way to inefficient.","post_user_id":"8576606","show_signature":"1","last_edit_time":"1421635172","post_votes":"0","post_unhidden":"0","post_admin_hidden":"0","post_locked":"0","last_edit_user":"0","votes":null,"post_username":"Kaveman319","avatar":"https:\/\/assets-cloud.enjin.com\/users\/8576606\/avatar\/medium.1408488364.jpeg","user_online":false,"user_votes":"1","user_posts":"68","url":"https:\/\/www.enjin.com\/ajax.php?s=redirect&cmd=forum-post&mobile=1&preset=12571633&id=88406524"},{"post_id":"88410778","post_time":"1421638989","post_content":"[quote user_id=\"8576606\" avatar=\"https:\/\/cravatar.eu\/helmavatar\/Kaveman319\/74.png\" name=\"Kaveman319\"]Thats what I said to keep fillall with a timer because the swapping process is way to inefficient.[\/quote]\r\n\/fillall is the weapon of the macro spammer noobs","post_content_html":" <div class=\"bbcode_quote\"> <div class=\"bbcode_quote_head\">@8576606 wrote:<\/div> <div class=\"bbcode_quote_body\">Thats what I said to keep fillall with a timer because the swapping process is way to inefficient.<\/div> <\/div> <br \/> \/fillall is the weapon of the macro spammer noobs","post_content_clean":"Thats what I said to keep fillall with a timer because the swapping process is way to inefficient.\r \/fillall is the weapon of the macro spammer noobs","post_user_id":"7361443","show_signature":"1","last_edit_time":"0","post_votes":"0","post_unhidden":"0","post_admin_hidden":"0","post_locked":"0","last_edit_user":"0","votes":null,"post_username":"\u2704{snugglezxD:3emo} mojo215","avatar":"https:\/\/assets-cloud.enjin.com\/users\/7361443\/avatar\/medium.1455751269.jpeg","user_online":false,"user_votes":"0","user_posts":"2641","url":"https:\/\/www.enjin.com\/ajax.php?s=redirect&cmd=forum-post&mobile=1&preset=12571633&id=88410778"},{"post_id":"88411311","post_time":"1421639494","post_content":"I wish the miners kit wasn't removed, although you get strength, you get weak armor. It could of atleast been edited.","post_content_html":"I wish the miners kit wasn't removed, although you get strength, you get weak armor. It could of atleast been edited.","post_content_clean":"I wish the miners kit wasn't removed, although you get strength, you get weak armor. It could of atleast been edited.","post_user_id":"8434842","show_signature":"1","last_edit_time":"0","post_votes":"0","post_unhidden":"0","post_admin_hidden":"0","post_locked":"0","last_edit_user":"0","votes":null,"post_username":"ZeLightbulb","avatar":"https:\/\/assets-cloud.enjin.com\/users\/8434842\/avatar\/medium.1479850476.jpeg","user_online":false,"user_votes":"1","user_posts":"458","url":"https:\/\/www.enjin.com\/ajax.php?s=redirect&cmd=forum-post&mobile=1&preset=12571633&id=88411311"},{"post_id":"88451178","post_time":"1421672440","post_content":"Climber, Prisoner and Hades don't work properly","post_content_html":"Climber, Prisoner and Hades don't work properly","post_content_clean":"Climber, Prisoner and Hades don't work properly","post_user_id":"5179658","show_signature":"1","last_edit_time":"0","post_votes":"0","post_unhidden":"0","post_admin_hidden":"0","post_locked":"0","last_edit_user":"0","votes":null,"post_username":"NewYorkTimes?...","avatar":"https:\/\/resources.enjin.com\/1465083537\/profile\/images\/avatar\/medium.png","user_online":false,"user_votes":"5","user_posts":"1044","url":"https:\/\/www.enjin.com\/ajax.php?s=redirect&cmd=forum-post&mobile=1&preset=12571633&id=88451178"},{"post_id":"88454595","post_time":"1421677313","post_content":"[quote user_id=\"8576606\" avatar=\"https:\/\/cravatar.eu\/helmavatar\/Kaveman319\/74.png\" name=\"Kaveman319\"]Thats what I said to keep fillall with a timer because the swapping process is way to inefficient.[\/quote]\r\nWith a timer, yes, I could see that happening. The only problem is how long would the timer last? We could say a minute but people complain that's too long of a wait. We could say half a minute but then people say its too short. 45 seconds seems to be right where it should be. Perhaps what we could do is for the original Kit PvP map, have \/fillall timer on, and the newer map, have the soup fill stations. It adds some variety to strategy and how to PvP when the maps change.","post_content_html":" <div class=\"bbcode_quote\"> <div class=\"bbcode_quote_head\">@8576606 wrote:<\/div> <div class=\"bbcode_quote_body\">Thats what I said to keep fillall with a timer because the swapping process is way to inefficient.<\/div> <\/div> <br \/> With a timer, yes, I could see that happening. The only problem is how long would the timer last? We could say a minute but people complain that's too long of a wait. We could say half a minute but then people say its too short. 45 seconds seems to be right where it should be. Perhaps what we could do is for the original Kit PvP map, have \/fillall timer on, and the newer map, have the soup fill stations. It adds some variety to strategy and how to PvP when the maps change.","post_content_clean":"Thats what I said to keep fillall with a timer because the swapping process is way to inefficient.\r With a timer, yes, I could see that happening. The only problem is how long would the timer last? We could say a minute but people complain that's too long of a wait. We could say half a minute but then people say its too short. 45 seconds seems to be right where it should be. Perhaps what we could do is for the original Kit PvP map, have \/fillall timer on, and the newer map, have the soup fill stations. It adds some variety to strategy and how to PvP when the maps change.","post_user_id":"7249943","show_signature":"1","last_edit_time":"0","post_votes":"0","post_unhidden":"0","post_admin_hidden":"0","post_locked":"0","last_edit_user":"0","votes":null,"post_username":"Creepaahh","avatar":"https:\/\/assets-cloud.enjin.com\/users\/7249943\/avatar\/medium.1468004541.jpeg","user_online":false,"user_votes":null,"user_posts":0,"url":"https:\/\/www.enjin.com\/ajax.php?s=redirect&cmd=forum-post&mobile=1&preset=12571633&id=88454595"},{"post_id":"88458974","post_time":"1421681981","post_content":"[quote user_id=\"7249943\" avatar=\"https:\/\/assets-cloud.enjin.com\/users\/7249943\/avatar\/medium.1468004541.jpeg\" name=\"Creepaahh\"][quote user_id=\"8576606\" avatar=\"https:\/\/cravatar.eu\/helmavatar\/Kaveman319\/74.png\" name=\"Kaveman319\"]Thats what I said to keep fillall with a timer because the swapping process is way to inefficient.[\/quote]\r\nWith a timer, yes, I could see that happening. The only problem is how long would the timer last? We could say a minute but people complain that's too long of a wait. We could say half a minute but then people say its too short. 45 seconds seems to be right where it should be. Perhaps what we could do is for the original Kit PvP map, have \/fillall timer on, and the newer map, have the soup fill stations. It adds some variety to strategy and how to PvP when the maps change.[\/quote]\r\nThat is a legitimately horrible idea. People will use \/fillall, try to kill, then run. The old one is the map you can run around for 10 hours on, and not get hit.","post_content_html":" <div class=\"bbcode_quote\"> <div class=\"bbcode_quote_head\">@7249943 wrote:<\/div> <div class=\"bbcode_quote_body\"> <div class=\"bbcode_quote\"> <div class=\"bbcode_quote_head\">@8576606 wrote:<\/div> <div class=\"bbcode_quote_body\">Thats what I said to keep fillall with a timer because the swapping process is way to inefficient.<\/div> <\/div> <br \/> With a timer, yes, I could see that happening. The only problem is how long would the timer last? We could say a minute but people complain that's too long of a wait. We could say half a minute but then people say its too short. 45 seconds seems to be right where it should be. Perhaps what we could do is for the original Kit PvP map, have \/fillall timer on, and the newer map, have the soup fill stations. It adds some variety to strategy and how to PvP when the maps change.<\/div> <\/div> <br \/> That is a legitimately horrible idea. People will use \/fillall, try to kill, then run. The old one is the map you can run around for 10 hours on, and not get hit.","post_content_clean":"Thats what I said to keep fillall with a timer because the swapping process is way to inefficient.\r With a timer, yes, I could see that happening. The only problem is how long would the timer last? We could say a minute but people complain that's too long of a wait. We could say half a minute but then people say its too short. 45 seconds seems to be right where it should be. Perhaps what we could do is for the original Kit PvP map, have \/fillall timer on, and the newer map, have the soup fill stations. It adds some variety to strategy and how to PvP when the maps change.\r That is a legitimately horrible idea. People will use \/fillall, try to kill, then run. The old one is the map you can run around for 10 hours on, and not get hit.","post_user_id":"7361443","show_signature":"1","last_edit_time":"0","post_votes":"0","post_unhidden":"0","post_admin_hidden":"0","post_locked":"0","last_edit_user":"0","votes":null,"post_username":"\u2704{snugglezxD:3emo} mojo215","avatar":"https:\/\/assets-cloud.enjin.com\/users\/7361443\/avatar\/medium.1455751269.jpeg","user_online":false,"user_votes":"0","user_posts":"2641","url":"https:\/\/www.enjin.com\/ajax.php?s=redirect&cmd=forum-post&mobile=1&preset=12571633&id=88458974"},{"post_id":"88501900","post_time":"1421715909","post_content":"There is an glitch in assassin where when you refill soups the OP gold sword comes back.","post_content_html":"There is an glitch in assassin where when you refill soups the OP gold sword comes back.","post_content_clean":"There is an glitch in assassin where when you refill soups the OP gold sword comes back.","post_user_id":"11149406","show_signature":"1","last_edit_time":"0","post_votes":"0","post_unhidden":"0","post_admin_hidden":"0","post_locked":"0","last_edit_user":"0","votes":null,"post_username":"Vance","avatar":"https:\/\/assets-cloud.enjin.com\/users\/11149406\/avatar\/medium.1409101243.png","user_online":false,"user_votes":"1","user_posts":"610","url":"https:\/\/www.enjin.com\/ajax.php?s=redirect&cmd=forum-post&mobile=1&preset=12571633&id=88501900"}],"total_items":"29","pages":3,"voted":false,"new_post_id":"88399526","thread_labels":[],"top_posters":{"result":[{"post_user_id":"7361443","posts":"5","username":"\u2704{snugglezxD:3emo} mojo215","avatar":"https:\/\/assets-cloud.enjin.com\/users\/7361443\/avatar\/medium.1455751269.jpeg"},{"post_user_id":"7249943","posts":"3","username":"Creepaahh","avatar":"https:\/\/assets-cloud.enjin.com\/users\/7249943\/avatar\/medium.1468004541.jpeg"},{"post_user_id":"8576606","posts":"3","username":"Kaveman319","avatar":"https:\/\/assets-cloud.enjin.com\/users\/8576606\/avatar\/medium.1408488364.jpeg"},{"post_user_id":"10353060","posts":"2","username":"xXExoticGamingXx","avatar":"https:\/\/assets-cloud.enjin.com\/users\/10353060\/avatar\/medium.1427079442.png"},{"post_user_id":"9342461","posts":"2","username":"TNT_TURTLES","avatar":"https:\/\/assets-cloud.enjin.com\/users\/9342461\/avatar\/medium.1403853328.png"},{"post_user_id":"5933548","posts":"2","username":"WirelessKeyboard","avatar":"https:\/\/assets-cloud.enjin.com\/users\/5933548\/avatar\/medium.1465245962.png"},{"post_user_id":"11149406","posts":"2","username":"Vance","avatar":"https:\/\/assets-cloud.enjin.com\/users\/11149406\/avatar\/medium.1409101243.png"},{"post_user_id":"5179658","posts":"2","username":"NewYorkTimes?...","avatar":"https:\/\/resources.enjin.com\/1465083537\/profile\/images\/avatar\/medium.png"},{"post_user_id":"7334706","posts":"1","username":"cynns","avatar":"https:\/\/assets-cloud.enjin.com\/users\/7334706\/avatar\/medium.1400127145.png"},{"post_user_id":"11032290","posts":"1","username":"MCL \/_ A16","avatar":"https:\/\/assets-cloud.enjin.com\/users\/11032290\/avatar\/medium.1411766013.png"},{"post_user_id":"8846659","posts":"1","username":"TRUCKLOADS","avatar":"https:\/\/assets-cloud.enjin.com\/users\/8846659\/avatar\/medium.1561215246.jpeg"},{"post_user_id":"12473268","posts":"1","username":"Toxicly&spades;","avatar":"https:\/\/assets-cloud.enjin.com\/users\/12473268\/avatar\/medium.1477001675.png"}],"num_users":"16"},"moderation_access":false,"poll_post":null,"post_access":true,"new_thread_access":true},"id":"1234567","jsonrpc":"2.0"}
