{"result":{"thread":{"preset_id":"12571633","forum_id":"2419072","thread_id":"19033176","thread_subject":"Pentagonial's Helper Application","thread_replies":"21","thread_views":"3796","thread_type":"normal","thread_status":"locked","thread_user_id":"4777161","thread_username":"Pentagonial","thread_avatar":"https:\/\/assets-cloud.enjin.com\/users\/4777161\/avatar\/medium.1462283919.jpeg","thread_lastpost_user_id":"3553747","thread_lastpost_username":"Elsh|Solo Player","thread_lastpost_time":"1424384034","thread_moved_id":"0","thread_post_time":"1422501497","url":"https:\/\/www.enjin.com\/ajax.php?s=redirect&cmd=forum-thread&mobile=1&preset=12571633&id=19033176","post_count":"1","category_id":"1023523","forum_name":"Mod Applications","forum_description":"Applications for mod go here!","disable_voting":"0","show_signature":"1","url_cms":"https:\/\/www.craftsurvivalgames.com\/forum\/m\/12571633\/viewthread\/19033176-pentagonials-helper-application"},"posts":[{"post_id":"89201463","post_time":"1422501497","post_content":"[b][size=5][color=#3a7613][justify]Pentagonial's Helper Application[\/justify][\/color][\/size][\/b]\r\n[color=#d113ee][b]IGN -[\/b][\/color] [b][color=#6e23dd]Pentagonial.[\/color][\/b]\r\n\r\n[b][color=#d113ee]How old are you?[\/color][\/b] [color=#6e23dd][b]14, soon turning 15.[\/b][\/color]\r\n\r\n[b][color=#d113ee]What\u2019s your timezone?[\/color][\/b] [color=#6e23dd][b]GMT+8.[\/b][\/color]\r\n\r\n[color=#d113ee][b]What rank are you?[\/b][\/color] [b][color=#6e23dd]King and VIP+.[\/color][\/b]\r\n\r\n[color=#d113ee][b]How long are you on each day?[\/b][\/color] [color=#6e23dd][b]On weekdays, I am usually on for about 2 - 4 hours. On weekends, usually 6 - 9 hours.[\/b][\/color]\r\n\r\n[b][color=#d113ee]How long have you been playing on the server?[\/color][\/b] [color=#6e23dd][b]I have been playing on the server for around about one year and 3\/4.[\/b]\r\n[\/color]\r\n[b][color=#d113ee]Do you have any experience as a Moderator?[\/color][\/b] [b][color=#6e23dd]I have been playing MineCraft for almost 5 years now, Multiplayer for 3 years, I was a moderator of one server name Team Fate, that sadly went down due to griefers and the owner not being able to pay the host. I am experienced with most plugins, I know commands for world edit, no cheat plus and essentials.[\/color][\/b]\r\n\r\n[color=#d113ee][b]Info about yourself?[\/b][\/color] [color=#6e23dd][b]I am moderately lenient, and I would always give someone a second chance. I am a fairly calm person, I won\u2019t lose my temper at anyone, regardless of the time or situation. I like to help people out with whatever they\u2019re doing, I work at my best with a group of people. I like to listen to music and play video games. My favourite artist at the moment is Coldplay, and my favourite song by them is Clocks, I enjoy socialising with people, I\u2019d say I\u2019m a likeable and funny person. If you see me in the server or on the forums just send me a message and I\u2019ll be glad to help you in any way I can![\/b][\/color]\r\n\r\n[b][color=#d113ee]Why do you want to become a moderator?[\/color][\/b] [color=#6e23dd][b]I\u2019d like to become moderator because I would love to help out the server in any way I can. I\u2019m decent at building small scaled objects such as PvP arenas, shops, spawns etc. I am an active player, as I stated earlier, so I can be a reliable source of help whenever it is needed. I am experienced with commands to aid building and catching hackers, so that may come in useful.[\/b][\/color]\r\n\r\n[b][color=#d113ee]Why should we pick you as moderator?[\/color][\/b] [color=#6e23dd][b]I\u2019d like you to pick me for moderator because I am trustworthy and responsible. I don\u2019t usually get angry at people, I don\u2019t hold grudges against anyone, I\u2019m a fair and firm, no matter who they are. I also believe you should pick me because I know how situations can play out, and knowing how to sympathise with players. What I mean is that I can give players pointers if they break a rule on how to avoid breaking it again, which can be a valuable asset.[\/b][\/color]\r\n\r\n[color=#d113ee][b]What do you enjoy the most on the server?[\/b][\/color] [color=#6e23dd][b]The subserves I like to play on are Duel, Factions, HG2, and SkyBlock. Although, I do occasionally play other servers, just these 4 the most. I am very active, getting on about 2 - 4 hours on weekdays, and 6 - 9 hours on weekends. On holidays, maybe even 10 hours + if I\u2019m lucky. Again, if you see me in the server, just say hi and I\u2019ll try to help in any way I can![\/b][\/color]\r\n\r\n[b][color=#d113ee]What can you offer to the server?[\/color][\/b] [color=#6e23dd][b]I can offer my full service to the server. All my plugin experience, my staff and player experience has amassed over 3 years. I am sociable, as I mentioned, so if players need help I do have Skype if you wish to contact me outside of the game. I\u2019m not dead harsh, but not marshmallow soft, I am firm but fair, I know how most players feel in situations. I won\u2019t abuse powers, if I did I would be ashamed of myself, proving to myself I do not deserve to position.[\/b][\/color]\r\n\r\n[color=#d113ee][b]Have you ever been temp-banned?[\/b][\/color] [color=#6e23dd][b]As most players know, I used to be a mass rule breaker, hacking, swearing, glitching and all sorts. I understand my actions were wrong. I intend to work hard to not break any rules.[\/b][\/color]\r\n\r\n[b][color=#d113ee]What will I do if I do not get picked?[\/color][\/b] [b][color=#6e23dd]I will continue to play on the server as I am a dedicated and I won't leave because I didn't get the position.[\/color][\/b]\r\n\r\n[b][color=#d113ee]Some core examples of punishments:[\/color][\/b]\r\n[b][color=#6e23dd]Spamming - 30 minute mute.\r\nSwearing - 35 minute mute, depending on former punishments.\r\nScamming - 3 day ban, depending on former punishments.\r\nHacking - 3 - 31 day ban, heavily influenced on former punishments.\r\nLogging - 15 minute jail, and if the player is a repeat offender a higher punishment and an inventory clear would be in order.[\/color][\/b]\r\n\r\n[b][color=#d113ee]Special thanks to;[\/color][\/b]\r\n[color=#6e23dd][b]Hex4G\r\nPVTheChosenOne\r\nGhostRider1806\r\nBrebell1\r\n11ghull\r\nMojo215\r\nAllpurposeflower\r\nxdeathtriplex\r\nIronPecker\r\nFalconDeath52\r\nAliceTF2\r\nUgot_trolled\r\nHMVDGamez\r\nCreepaahh\r\nCocoalightbulb\r\nbjbuisker\r\nblbuisker\r\nspottergate\r\nJack1505legend\r\npinkyj0015\r\nelshoopadewhoopa\r\nXxRogueGamerxX\r\nHeyho\r\nMCL\r\nDerpyLatios\r\nDarkZorua\r\nUmut\r\nCaramel\r\nMIneWithADHD[\/b][\/color]","post_content_html":"<b><span style=\"font-size:1.5em\">Pentagonial's Helper Application<\/span><\/b><br \/> <br \/> <b>IGN -<\/b> <b>Pentagonial.<\/b><br \/> <br \/> <b>How old are you?<\/b> <b>14, soon turning 15.<\/b><br \/> <br \/> <b>What\u2019s your timezone?<\/b> <b>GMT+8.<\/b><br \/> <br \/> <b>What rank are you?<\/b> <b>King and VIP+.<\/b><br \/> <br \/> <b>How long are you on each day?<\/b> <b>On weekdays, I am usually on for about 2 - 4 hours. On weekends, usually 6 - 9 hours.<\/b><br \/> <br \/> <b>How long have you been playing on the server?<\/b> <b>I have been playing on the server for around about one year and 3\/4.<\/b><br \/> <br \/> <br \/> <br \/> <b>Do you have any experience as a Moderator?<\/b> <b>I have been playing MineCraft for almost 5 years now, Multiplayer for 3 years, I was a moderator of one server name Team Fate, that sadly went down due to griefers and the owner not being able to pay the host. I am experienced with most plugins, I know commands for world edit, no cheat plus and essentials.<\/b><br \/> <br \/> <b>Info about yourself?<\/b> <b>I am moderately lenient, and I would always give someone a second chance. I am a fairly calm person, I won\u2019t lose my temper at anyone, regardless of the time or situation. I like to help people out with whatever they\u2019re doing, I work at my best with a group of people. I like to listen to music and play video games. My favourite artist at the moment is Coldplay, and my favourite song by them is Clocks, I enjoy socialising with people, I\u2019d say I\u2019m a likeable and funny person. If you see me in the server or on the forums just send me a message and I\u2019ll be glad to help you in any way I can!<\/b><br \/> <br \/> <b>Why do you want to become a moderator?<\/b> <b>I\u2019d like to become moderator because I would love to help out the server in any way I can. I\u2019m decent at building small scaled objects such as PvP arenas, shops, spawns etc. I am an active player, as I stated earlier, so I can be a reliable source of help whenever it is needed. I am experienced with commands to aid building and catching hackers, so that may come in useful.<\/b><br \/> <br \/> <b>Why should we pick you as moderator?<\/b> <b>I\u2019d like you to pick me for moderator because I am trustworthy and responsible. I don\u2019t usually get angry at people, I don\u2019t hold grudges against anyone, I\u2019m a fair and firm, no matter who they are. I also believe you should pick me because I know how situations can play out, and knowing how to sympathise with players. What I mean is that I can give players pointers if they break a rule on how to avoid breaking it again, which can be a valuable asset.<\/b><br \/> <br \/> <b>What do you enjoy the most on the server?<\/b> <b>The subserves I like to play on are Duel, Factions, HG2, and SkyBlock. Although, I do occasionally play other servers, just these 4 the most. I am very active, getting on about 2 - 4 hours on weekdays, and 6 - 9 hours on weekends. On holidays, maybe even 10 hours + if I\u2019m lucky. Again, if you see me in the server, just say hi and I\u2019ll try to help in any way I can!<\/b><br \/> <br \/> <b>What can you offer to the server?<\/b> <b>I can offer my full service to the server. All my plugin experience, my staff and player experience has amassed over 3 years. I am sociable, as I mentioned, so if players need help I do have Skype if you wish to contact me outside of the game. I\u2019m not dead harsh, but not marshmallow soft, I am firm but fair, I know how most players feel in situations. I won\u2019t abuse powers, if I did I would be ashamed of myself, proving to myself I do not deserve to position.<\/b><br \/> <br \/> <b>Have you ever been temp-banned?<\/b> <b>As most players know, I used to be a mass rule breaker, hacking, swearing, glitching and all sorts. I understand my actions were wrong. I intend to work hard to not break any rules.<\/b><br \/> <br \/> <b>What will I do if I do not get picked?<\/b> <b>I will continue to play on the server as I am a dedicated and I won't leave because I didn't get the position.<\/b><br \/> <br \/> <b>Some core examples of punishments:<\/b><br \/> <br \/> <b>Spamming - 30 minute mute.<br \/> <br \/> Swearing - 35 minute mute, depending on former punishments.<br \/> <br \/> Scamming - 3 day ban, depending on former punishments.<br \/> <br \/> Hacking - 3 - 31 day ban, heavily influenced on former punishments.<br \/> <br \/> Logging - 15 minute jail, and if the player is a repeat offender a higher punishment and an inventory clear would be in order.<\/b><br \/> <br \/> <b>Special thanks to;<\/b><br \/> <br \/> <b>Hex4G<br \/> <br \/> PVTheChosenOne<br \/> <br \/> GhostRider1806<br \/> <br \/> Brebell1<br \/> <br \/> 11ghull<br \/> <br \/> Mojo215<br \/> <br \/> Allpurposeflower<br \/> <br \/> xdeathtriplex<br \/> <br \/> IronPecker<br \/> <br \/> FalconDeath52<br \/> <br \/> AliceTF2<br \/> <br \/> Ugot_trolled<br \/> <br \/> HMVDGamez<br \/> <br \/> Creepaahh<br \/> <br \/> Cocoalightbulb<br \/> <br \/> bjbuisker<br \/> <br \/> blbuisker<br \/> <br \/> spottergate<br \/> <br \/> Jack1505legend<br \/> <br \/> pinkyj0015<br \/> <br \/> elshoopadewhoopa<br \/> <br \/> XxRogueGamerxX<br \/> <br \/> Heyho<br \/> <br \/> MCL<br \/> <br \/> DerpyLatios<br \/> <br \/> DarkZorua<br \/> <br \/> Umut<br \/> <br \/> Caramel<br \/> <br \/> MIneWithADHD<\/b>","post_content_clean":"Pentagonial's Helper Application\r IGN - Pentagonial.\r \r How old are you? 14, soon turning 15.\r \r What\u2019s your timezone? GMT+8.\r \r What rank are you? King and VIP+.\r \r How long are you on each day? On weekdays, I am usually on for about 2 - 4 hours. On weekends, usually 6 - 9 hours.\r \r How long have you been playing on the server? I have been playing on the server for around about one year and 3\/4.\r \r Do you have any experience as a Moderator? I have been playing MineCraft for almost 5 years now, Multiplayer for 3 years, I was a moderator of one server name Team Fate, that sadly went down due to griefers and the owner not being able to pay the host. I am experienced with most plugins, I know commands for world edit, no cheat plus and essentials.\r \r Info about yourself? I am moderately lenient, and I would always give someone a second chance. I am a fairly calm person, I won\u2019t lose my temper at anyone, regardless of the time or situation. I like to help people out with whatever they\u2019re doing, I work at my best with a group of people. I like to listen to music and play video games. My favourite artist at the moment is Coldplay, and my favourite song by them is Clocks, I enjoy socialising with people, I\u2019d say I\u2019m a likeable and funny person. If you see me in the server or on the forums just send me a message and I\u2019ll be glad to help you in any way I can!\r \r Why do you want to become a moderator? I\u2019d like to become moderator because I would love to help out the server in any way I can. I\u2019m decent at building small scaled objects such as PvP arenas, shops, spawns etc. I am an active player, as I stated earlier, so I can be a reliable source of help whenever it is needed. I am experienced with commands to aid building and catching hackers, so that may come in useful.\r \r Why should we pick you as moderator? I\u2019d like you to pick me for moderator because I am trustworthy and responsible. I don\u2019t usually get angry at people, I don\u2019t hold grudges against anyone, I\u2019m a fair and firm, no matter who they are. I also believe you should pick me because I know how situations can play out, and knowing how to sympathise with players. What I mean is that I can give players pointers if they break a rule on how to avoid breaking it again, which can be a valuable asset.\r \r What do you enjoy the most on the server? The subserves I like to play on are Duel, Factions, HG2, and SkyBlock. Although, I do occasionally play other servers, just these 4 the most. I am very active, getting on about 2 - 4 hours on weekdays, and 6 - 9 hours on weekends. On holidays, maybe even 10 hours + if I\u2019m lucky. Again, if you see me in the server, just say hi and I\u2019ll try to help in any way I can!\r \r What can you offer to the server? I can offer my full service to the server. All my plugin experience, my staff and player experience has amassed over 3 years. I am sociable, as I mentioned, so if players need help I do have Skype if you wish to contact me outside of the game. I\u2019m not dead harsh, but not marshmallow soft, I am firm but fair, I know how most players feel in situations. I won\u2019t abuse powers, if I did I would be ashamed of myself, proving to myself I do not deserve to position.\r \r Have you ever been temp-banned? As most players know, I used to be a mass rule breaker, hacking, swearing, glitching and all sorts. I understand my actions were wrong. I intend to work hard to not break any rules.\r \r What will I do if I do not get picked? I will continue to play on the server as I am a dedicated and I won't leave because I didn't get the position.\r \r Some core examples of punishments:\r Spamming - 30 minute mute.\r Swearing - 35 minute mute, depending on former punishments.\r Scamming - 3 day ban, depending on former punishments.\r Hacking - 3 - 31 day ban, heavily influenced on former punishments.\r Logging - 15 minute jail, and if the player is a repeat offender a higher punishment and an inventory clear would be in order.\r \r Special thanks to;\r Hex4G\r PVTheChosenOne\r GhostRider1806\r Brebell1\r 11ghull\r Mojo215\r Allpurposeflower\r xdeathtriplex\r IronPecker\r FalconDeath52\r AliceTF2\r Ugot_trolled\r HMVDGamez\r Creepaahh\r Cocoalightbulb\r bjbuisker\r blbuisker\r spottergate\r Jack1505legend\r pinkyj0015\r elshoopadewhoopa\r XxRogueGamerxX\r Heyho\r MCL\r DerpyLatios\r DarkZorua\r Umut\r Caramel\r MIneWithADHD","post_user_id":"4777161","show_signature":"1","last_edit_time":"1471672167","post_votes":"0","post_unhidden":"0","post_admin_hidden":"0","post_locked":"0","last_edit_user":"0","votes":null,"post_username":"Pentagonial","avatar":"https:\/\/assets-cloud.enjin.com\/users\/4777161\/avatar\/medium.1462283919.jpeg","user_online":false,"user_votes":"42","user_posts":"578","url":"https:\/\/www.enjin.com\/ajax.php?s=redirect&cmd=forum-post&mobile=1&preset=12571633&id=89201463"},{"post_id":"89205090","post_time":"1422506799","post_content":"Great application Pentagonial, you always have an excellent attitide. You would make a great helper.\r\nGood Luck.","post_content_html":"Great application Pentagonial, you always have an excellent attitide. You would make a great helper.<br \/> <br \/> Good Luck.","post_content_clean":"Great application Pentagonial, you always have an excellent attitide. You would make a great helper.\r Good Luck.","post_user_id":"11032290","show_signature":"1","last_edit_time":"0","post_votes":"0","post_unhidden":"0","post_admin_hidden":"0","post_locked":"0","last_edit_user":"0","votes":null,"post_username":"MCL \/_ A16","avatar":"https:\/\/assets-cloud.enjin.com\/users\/11032290\/avatar\/medium.1411766013.png","user_online":false,"user_votes":"1","user_posts":"285","url":"https:\/\/www.enjin.com\/ajax.php?s=redirect&cmd=forum-post&mobile=1&preset=12571633&id=89205090"},{"post_id":"89205335","post_time":"1422507240","post_content":"[b][color=#dd2423]At first I thought you only changed your act to get staff, but you have been really nice to everyone lately and you seem like great pick especially since you have helped building things for the server an you have really good experience. At one point I was thinking in my head that I would quit if you got staff but I have changed my mind. Best of luck![\/color][\/b]","post_content_html":"<b>At first I thought you only changed your act to get staff, but you have been really nice to everyone lately and you seem like great pick especially since you have helped building things for the server an you have really good experience. At one point I was thinking in my head that I would quit if you got staff but I have changed my mind. Best of luck!<\/b>","post_content_clean":"At first I thought you only changed your act to get staff, but you have been really nice to everyone lately and you seem like great pick especially since you have helped building things for the server an you have really good experience. At one point I was thinking in my head that I would quit if you got staff but I have changed my mind. Best of luck!","post_user_id":"9843685","show_signature":"1","last_edit_time":"0","post_votes":"0","post_unhidden":"0","post_admin_hidden":"0","post_locked":"0","last_edit_user":"0","votes":null,"post_username":"\u262aThe King\u262a","avatar":"https:\/\/assets-cloud.enjin.com\/users\/9843685\/avatar\/medium.1434671201.png","user_online":false,"user_votes":"2","user_posts":"1223","url":"https:\/\/www.enjin.com\/ajax.php?s=redirect&cmd=forum-post&mobile=1&preset=12571633&id=89205335"},{"post_id":"89205654","post_time":"1422507803","post_content":"[b]Trust worthy? I don't think so... anyway gl.[\/b]","post_content_html":"<b>Trust worthy? I don't think so... anyway gl.<\/b>","post_content_clean":"Trust worthy? I don't think so... anyway gl.","post_user_id":"7809888","show_signature":"1","last_edit_time":"0","post_votes":"0","post_unhidden":"0","post_admin_hidden":"0","post_locked":"0","last_edit_user":"0","votes":null,"post_username":"Zyndraaaa","avatar":"https:\/\/assets-cloud.enjin.com\/users\/7809888\/avatar\/medium.1429684812.jpeg","user_online":false,"user_votes":"94","user_posts":"633","url":"https:\/\/www.enjin.com\/ajax.php?s=redirect&cmd=forum-post&mobile=1&preset=12571633&id=89205654"},{"post_id":"89209523","post_time":"1422516272","post_content":"Your application is on point &lt;3 Good luck :)","post_content_html":"Your application is on point &lt;3 Good luck <object class=\"emojione\" data=\"https:\/\/resources.enjin.com\/1489581540\/themes\/core\/images\/emojione\/svg\/1f642.svg?0\" type=\"image\/svg+xml\" standby=\":)\">:)<\/object>","post_content_clean":"Your application is on point <3 Good luck :)","post_user_id":"8559618","show_signature":"1","last_edit_time":"0","post_votes":"0","post_unhidden":"0","post_admin_hidden":"0","post_locked":"0","last_edit_user":"0","votes":null,"post_username":"PINKY&lt;3","avatar":"https:\/\/assets-cloud.enjin.com\/users\/8559618\/avatar\/medium.1422335918.jpeg","user_online":false,"user_votes":"70","user_posts":"349","url":"https:\/\/www.enjin.com\/ajax.php?s=redirect&cmd=forum-post&mobile=1&preset=12571633&id=89209523"},{"post_id":"89239618","post_time":"1422563336","post_content":"[color=#dd2423][b][size=6]Nope sorry. Too rude.[\/size][\/b][\/color]","post_content_html":"<b><span style=\"font-size:2.0em\">Nope sorry. Too rude.<\/span><\/b>","post_content_clean":"Nope sorry. Too rude.","post_user_id":"11858265","show_signature":"1","last_edit_time":"0","post_votes":"0","post_unhidden":"0","post_admin_hidden":"0","post_locked":"0","last_edit_user":"0","votes":null,"post_username":"Swagalicious MC","avatar":"https:\/\/assets-cloud.enjin.com\/users\/11858265\/avatar\/medium.1442348798.jpeg","user_online":false,"user_votes":"1","user_posts":"446","url":"https:\/\/www.enjin.com\/ajax.php?s=redirect&cmd=forum-post&mobile=1&preset=12571633&id=89239618"},{"post_id":"89240499","post_time":"1422564157","post_content":"[b]Oh, Pent.\r\nYou would be a fantastic Helper for the server. Although we didn't get along towards the beginning, you're a really cool person and I'm glad we're friends now ;D\r\nAnyways, amazing application! I have heard from many people you're good with commands, and you could definitely help the server with your knowledge :)\r\nBest of luck![\/b]","post_content_html":"<b>Oh, Pent.<br \/> <br \/> You would be a fantastic Helper for the server. Although we didn't get along towards the beginning, you're a really cool person and I'm glad we're friends now ;D<br \/> <br \/> Anyways, amazing application! I have heard from many people you're good with commands, and you could definitely help the server with your knowledge <object class=\"emojione\" data=\"https:\/\/resources.enjin.com\/1489581540\/themes\/core\/images\/emojione\/svg\/1f642.svg?0\" type=\"image\/svg+xml\" standby=\":)\">:)<\/object><br \/> <br \/> Best of luck!<\/b>","post_content_clean":"Oh, Pent.\r You would be a fantastic Helper for the server. Although we didn't get along towards the beginning, you're a really cool person and I'm glad we're friends now ;D\r Anyways, amazing application! I have heard from many people you're good with commands, and you could definitely help the server with your knowledge :)\r Best of luck!","post_user_id":"6622119","show_signature":"1","last_edit_time":"0","post_votes":"0","post_unhidden":"0","post_admin_hidden":"0","post_locked":"0","last_edit_user":"0","votes":null,"post_username":"Tylxr","avatar":"https:\/\/assets-cloud.enjin.com\/users\/6622119\/avatar\/medium.1486252566.png","user_online":false,"user_votes":"2","user_posts":"712","url":"https:\/\/www.enjin.com\/ajax.php?s=redirect&cmd=forum-post&mobile=1&preset=12571633&id=89240499"},{"post_id":"89244771","post_time":"1422567857","post_content":"[b]Pent, I think you would make a great Helper. You are always trying to help (Even when people don't appreciate it :O) and you are a pretty good friend, as well as an excellent role model. Also, you almost always stick to the rules and you have participated in building\/testing some new gamemodes. Great job on the app as well. Good luck.[\/b]","post_content_html":"<b>Pent, I think you would make a great Helper. You are always trying to help (Even when people don't appreciate it <object class=\"emojione\" data=\"https:\/\/resources.enjin.com\/1489581540\/themes\/core\/images\/emojione\/svg\/1f632.svg?0\" type=\"image\/svg+xml\" standby=\":o\">:o<\/object>) and you are a pretty good friend, as well as an excellent role model. Also, you almost always stick to the rules and you have participated in building\/testing some new gamemodes. Great job on the app as well. Good luck.<\/b>","post_content_clean":"Pent, I think you would make a great Helper. You are always trying to help (Even when people don't appreciate it :O) and you are a pretty good friend, as well as an excellent role model. Also, you almost always stick to the rules and you have participated in building\/testing some new gamemodes. Great job on the app as well. Good luck.","post_user_id":"11728561","show_signature":"1","last_edit_time":"0","post_votes":"0","post_unhidden":"0","post_admin_hidden":"0","post_locked":"0","last_edit_user":"0","votes":null,"post_username":"cavespider453","avatar":"https:\/\/assets-cloud.enjin.com\/users\/11728561\/avatar\/medium.1561177881.jpeg","user_online":false,"user_votes":"2","user_posts":"248","url":"https:\/\/www.enjin.com\/ajax.php?s=redirect&cmd=forum-post&mobile=1&preset=12571633&id=89244771"},{"post_id":"89451084","post_time":"1422796274","post_content":"[quote user_id=\"11858265\" avatar=\"https:\/\/cravatar.eu\/helmavatar\/BudderSwagMaster\/74.png\" name=\"BudderSwagMaster\"][color=#dd2423][b][size=6]Nope sorry. Too rude.[\/size][\/b][\/color][\/quote]\r\n[b][\/[color=#239edd]Well, If he's so rude, Why'd he change? Why's he a good person now? Budder, You look too much into the past and you don't look into the future..\r\n\r\nYour mod application was very well written, Lots of detail, I think you've changed and you've got the right attitude to become a great helper \/ mod. It will make you a very well rounded person and you would make a huge change in CSG if you became a moderator or a helper.\r\n\r\nBest wishes! ~Derpy[\/color]b]","post_content_html":" <div class=\"bbcode_quote\"> <div class=\"bbcode_quote_head\">@11858265 wrote:<\/div> <div class=\"bbcode_quote_body\"><b><span style=\"font-size:2.0em\">Nope sorry. Too rude.<\/span><\/b><\/div> <\/div> <br \/> <b>[\/Well, If he's so rude, Why'd he change? Why's he a good person now? Budder, You look too much into the past and you don't look into the future..<br \/> <br \/> Your mod application was very well written, Lots of detail, I think you've changed and you've got the right attitude to become a great helper \/ mod. It will make you a very well rounded person and you would make a huge change in CSG if you became a moderator or a helper.<br \/> <br \/> Best wishes! ~Derpyb]<\/b>","post_content_clean":"Nope sorry. Too rude.\r Well, If he's so rude, Why'd he change? Why's he a good person now? Budder, You look too much into the past and you don't look into the future..\r \r Your mod application was very well written, Lots of detail, I think you've changed and you've got the right attitude to become a great helper \/ mod. It will make you a very well rounded person and you would make a huge change in CSG if you became a moderator or a helper.\r \r Best wishes! ~Derpyb]","post_user_id":"7966306","show_signature":"1","last_edit_time":"0","post_votes":"0","post_unhidden":"0","post_admin_hidden":"0","post_locked":"0","last_edit_user":"0","votes":null,"post_username":"Derpylatios","avatar":"https:\/\/assets-cloud.enjin.com\/users\/7966306\/avatar\/medium.1460034913.png","user_online":false,"user_votes":"1","user_posts":"919","url":"https:\/\/www.enjin.com\/ajax.php?s=redirect&cmd=forum-post&mobile=1&preset=12571633&id=89451084"},{"post_id":"89456117","post_time":"1422802152","post_content":"Pent, your always really nice to me and I think you would be a great mod. Goodluck!","post_content_html":"Pent, your always really nice to me and I think you would be a great mod. Goodluck!","post_content_clean":"Pent, your always really nice to me and I think you would be a great mod. Goodluck!","post_user_id":"6477959","show_signature":"1","last_edit_time":"0","post_votes":"0","post_unhidden":"0","post_admin_hidden":"0","post_locked":"0","last_edit_user":"0","votes":null,"post_username":"Fireball71101","avatar":"https:\/\/assets-cloud.enjin.com\/users\/6477959\/avatar\/medium.1424450521.jpeg","user_online":false,"user_votes":"19","user_posts":"702","url":"https:\/\/www.enjin.com\/ajax.php?s=redirect&cmd=forum-post&mobile=1&preset=12571633&id=89456117"}],"total_items":"22","pages":3,"voted":false,"new_post_id":false,"thread_labels":[],"top_posters":{"result":[{"post_user_id":"8507481","posts":"1","username":"EdUuXuL0","avatar":"https:\/\/assets-cloud.enjin.com\/users\/8507481\/avatar\/medium.1420391786.jpeg"},{"post_user_id":"9843685","posts":"1","username":"\u262aThe King\u262a","avatar":"https:\/\/assets-cloud.enjin.com\/users\/9843685\/avatar\/medium.1434671201.png"},{"post_user_id":"7249943","posts":"1","username":"Creepaahh","avatar":"https:\/\/assets-cloud.enjin.com\/users\/7249943\/avatar\/medium.1468004541.jpeg"},{"post_user_id":"7809888","posts":"1","username":"Zyndraaaa","avatar":"https:\/\/assets-cloud.enjin.com\/users\/7809888\/avatar\/medium.1429684812.jpeg"},{"post_user_id":"6582433","posts":"1","username":"Umut","avatar":"https:\/\/assets-cloud.enjin.com\/users\/6582433\/avatar\/medium.1400120239.png"},{"post_user_id":"8559618","posts":"1","username":"PINKY&lt;3","avatar":"https:\/\/assets-cloud.enjin.com\/users\/8559618\/avatar\/medium.1422335918.jpeg"},{"post_user_id":"6333014","posts":"1","username":"toby","avatar":"https:\/\/resources.enjin.com\/1465083537\/profile\/images\/avatar\/medium.png"},{"post_user_id":"11858265","posts":"1","username":"Swagalicious MC","avatar":"https:\/\/assets-cloud.enjin.com\/users\/11858265\/avatar\/medium.1442348798.jpeg"},{"post_user_id":"12056949","posts":"1","username":"EliteBacca13","avatar":"https:\/\/assets-cloud.enjin.com\/users\/12056949\/avatar\/medium.1416978955.jpeg"},{"post_user_id":"6622119","posts":"1","username":"Tylxr","avatar":"https:\/\/assets-cloud.enjin.com\/users\/6622119\/avatar\/medium.1486252566.png"},{"post_user_id":"5894004","posts":"1","username":"Barb Dwire \/ Sam","avatar":"https:\/\/assets-cloud.enjin.com\/users\/5894004\/avatar\/medium.1562698316.jpeg"},{"post_user_id":"11728561","posts":"1","username":"cavespider453","avatar":"https:\/\/assets-cloud.enjin.com\/users\/11728561\/avatar\/medium.1561177881.jpeg"}],"num_users":"22"},"moderation_access":false,"poll_post":null,"post_access":true,"new_thread_access":true},"id":"1234567","jsonrpc":"2.0"}
{"result":{"thread":{"preset_id":"12571633","forum_id":"2419072","thread_id":"19033176","thread_subject":"Pentagonial's Helper Application","thread_replies":"21","thread_views":"3796","thread_type":"normal","thread_status":"locked","thread_user_id":"4777161","thread_username":"Pentagonial","thread_avatar":"https:\/\/resources.enjin.com\/1465083537\/profile\/images\/avatar\/medium.png","thread_lastpost_user_id":"3553747","thread_lastpost_username":"Elsh|Solo Player","thread_lastpost_time":"1424384034","thread_moved_id":"0","thread_post_time":"1422501497","url":"https:\/\/www.enjin.com\/ajax.php?s=redirect&cmd=forum-thread&mobile=1&preset=12571633&id=19033176","post_count":"1","category_id":"1023523","forum_name":"Mod Applications","forum_description":"Applications for mod go here!","disable_voting":"0","show_signature":"1","url_cms":"https:\/\/www.craftsurvivalgames.com\/forum\/m\/12571633\/viewthread\/19033176-pentagonials-helper-application"},"posts":[{"post_id":"89477462","post_time":"1422820257","post_content":"[color=#b1dcf3][b][i]When you first started being nice to it kinda startled me because  we weren't the greatest of friends XP but you've really changed in a good way and I think you could be a great influence on the server and a brilliant helper. Good luck, Pent.[\/color]","post_content_html":"<b><i>When you first started being nice to it kinda startled me because  we weren't the greatest of friends XP but you've really changed in a good way and I think you could be a great influence on the server and a brilliant helper. Good luck, Pent.<\/i><\/b>","post_content_clean":"When you first started being nice to it kinda startled me because  we weren't the greatest of friends XP but you've really changed in a good way and I think you could be a great influence on the server and a brilliant helper. Good luck, Pent.","post_user_id":"7496055","show_signature":"1","last_edit_time":"0","post_votes":"0","post_unhidden":"0","post_admin_hidden":"0","post_locked":"0","last_edit_user":"0","votes":null,"post_username":"Limae","avatar":"https:\/\/resources.enjin.com\/1465083537\/profile\/images\/avatar\/medium.png","user_online":false,"user_votes":"5","user_posts":"361","url":"https:\/\/www.enjin.com\/ajax.php?s=redirect&cmd=forum-post&mobile=1&preset=12571633&id=89477462"},{"post_id":"89485771","post_time":"1422826484","post_content":"Pent, you use to be a bit rude, but you have changed and matured so much! I always see you trying to help other players. Your always very forgiving. Good luck :D","post_content_html":"Pent, you use to be a bit rude, but you have changed and matured so much! I always see you trying to help other players. Your always very forgiving. Good luck <object class=\"emojione\" data=\"https:\/\/resources.enjin.com\/1489581540\/themes\/core\/images\/emojione\/svg\/1f600.svg?0\" type=\"image\/svg+xml\" standby=\":d\">:d<\/object>","post_content_clean":"Pent, you use to be a bit rude, but you have changed and matured so much! I always see you trying to help other players. Your always very forgiving. Good luck :D","post_user_id":"8434842","show_signature":"0","last_edit_time":"0","post_votes":"0","post_unhidden":"0","post_admin_hidden":"0","post_locked":"0","last_edit_user":"0","votes":null,"post_username":"ZeLightbulb","avatar":"https:\/\/assets-cloud.enjin.com\/users\/8434842\/avatar\/medium.1479850476.jpeg","user_online":false,"user_votes":"1","user_posts":"458","url":"https:\/\/www.enjin.com\/ajax.php?s=redirect&cmd=forum-post&mobile=1&preset=12571633&id=89485771"},{"post_id":"89873116","post_time":"1423238580","post_content":"As i haven't seen you much in game (because of school and other stuff), you are really nice with other people and  I believe you could be a great helper.","post_content_html":"As i haven't seen you much in game (because of school and other stuff), you are really nice with other people and  I believe you could be a great helper.","post_content_clean":"As i haven't seen you much in game (because of school and other stuff), you are really nice with other people and  I believe you could be a great helper.","post_user_id":"8507481","show_signature":"1","last_edit_time":"0","post_votes":"0","post_unhidden":"0","post_admin_hidden":"0","post_locked":"0","last_edit_user":"0","votes":null,"post_username":"EdUuXuL0","avatar":"https:\/\/assets-cloud.enjin.com\/users\/8507481\/avatar\/medium.1420391786.jpeg","user_online":false,"user_votes":"0","user_posts":"199","url":"https:\/\/www.enjin.com\/ajax.php?s=redirect&cmd=forum-post&mobile=1&preset=12571633&id=89873116"},{"post_id":"89947687","post_time":"1423317850","post_content":"Nice app Pent! You've really improved from that nasty little rule-breaker that I remember from so long ago! Good luck when the next pickings come around!","post_content_html":"Nice app Pent! You've really improved from that nasty little rule-breaker that I remember from so long ago! Good luck when the next pickings come around!","post_content_clean":"Nice app Pent! You've really improved from that nasty little rule-breaker that I remember from so long ago! Good luck when the next pickings come around!","post_user_id":"7249943","show_signature":"1","last_edit_time":"0","post_votes":"0","post_unhidden":"0","post_admin_hidden":"0","post_locked":"0","last_edit_user":"0","votes":null,"post_username":"Creepaahh","avatar":"https:\/\/assets-cloud.enjin.com\/users\/7249943\/avatar\/medium.1468004541.jpeg","user_online":false,"user_votes":null,"user_posts":0,"url":"https:\/\/www.enjin.com\/ajax.php?s=redirect&cmd=forum-post&mobile=1&preset=12571633&id=89947687"},{"post_id":"90272357","post_time":"1423658851","post_content":"Organised and detailed mod application, best of luck.","post_content_html":"Organised and detailed mod application, best of luck.","post_content_clean":"Organised and detailed mod application, best of luck.","post_user_id":"6582433","show_signature":"1","last_edit_time":"0","post_votes":"0","post_unhidden":"0","post_admin_hidden":"0","post_locked":"0","last_edit_user":"0","votes":null,"post_username":"Umut","avatar":"https:\/\/assets-cloud.enjin.com\/users\/6582433\/avatar\/medium.1400120239.png","user_online":false,"user_votes":"129","user_posts":"1214","url":"https:\/\/www.enjin.com\/ajax.php?s=redirect&cmd=forum-post&mobile=1&preset=12571633&id=90272357"},{"post_id":"90535217","post_time":"1423937713","post_content":"Good luck man. :D","post_content_html":"Good luck man. <object class=\"emojione\" data=\"https:\/\/resources.enjin.com\/1489581540\/themes\/core\/images\/emojione\/svg\/1f600.svg?0\" type=\"image\/svg+xml\" standby=\":d\">:d<\/object>","post_content_clean":"Good luck man. :D","post_user_id":"6333014","show_signature":"1","last_edit_time":"0","post_votes":"0","post_unhidden":"0","post_admin_hidden":"0","post_locked":"0","last_edit_user":"0","votes":null,"post_username":"toby","avatar":"https:\/\/resources.enjin.com\/1465083537\/profile\/images\/avatar\/medium.png","user_online":false,"user_votes":"134","user_posts":"1023","url":"https:\/\/www.enjin.com\/ajax.php?s=redirect&cmd=forum-post&mobile=1&preset=12571633&id=90535217"},{"post_id":"90535889","post_time":"1423938322","post_content":"Pent, I only know you because of Kitpvp and you owning me all the time  :LOL: .  This mod app is great, and you seem like a great guy, so Goodluck!","post_content_html":"Pent, I only know you because of Kitpvp and you owning me all the time  <object class=\"emojione\" data=\"https:\/\/resources.enjin.com\/1489581540\/themes\/core\/images\/emojione\/svg\/1f606.svg?0\" type=\"image\/svg+xml\" standby=\":lol:\">:lol:<\/object> .  This mod app is great, and you seem like a great guy, so Goodluck!","post_content_clean":"Pent, I only know you because of Kitpvp and you owning me all the time  :LOL: .  This mod app is great, and you seem like a great guy, so Goodluck!","post_user_id":"12056949","show_signature":"1","last_edit_time":"0","post_votes":"0","post_unhidden":"0","post_admin_hidden":"0","post_locked":"0","last_edit_user":"0","votes":null,"post_username":"EliteBacca13","avatar":"https:\/\/assets-cloud.enjin.com\/users\/12056949\/avatar\/medium.1416978955.jpeg","user_online":false,"user_votes":"0","user_posts":"3","url":"https:\/\/www.enjin.com\/ajax.php?s=redirect&cmd=forum-post&mobile=1&preset=12571633&id=90535889"},{"post_id":"90541183","post_time":"1423942689","post_content":"[b][color=#239edd]You are an amazing person, you have experience and you're really friendly!\r\nI think you would benefit the community c:\r\n\r\n\r\n-Sam\r\n\r\nPs- Why aren't I up there ;) &lt;3 [\/color][\/b]","post_content_html":"<b>You are an amazing person, you have experience and you're really friendly!<br \/> <br \/> I think you would benefit the community c:<br \/> <br \/> -Sam<br \/> <br \/> Ps- Why aren't I up there <object class=\"emojione\" data=\"https:\/\/resources.enjin.com\/1489581540\/themes\/core\/images\/emojione\/svg\/1f609.svg?0\" type=\"image\/svg+xml\" standby=\";)\">;)<\/object> &lt;3 <\/b>","post_content_clean":"You are an amazing person, you have experience and you're really friendly! \r I think you would benefit the community c:\r \r \r -Sam\r \r Ps- Why aren't I up there ;) <3 ","post_user_id":"5894004","show_signature":"1","last_edit_time":"0","post_votes":"0","post_unhidden":"0","post_admin_hidden":"0","post_locked":"0","last_edit_user":"0","votes":null,"post_username":"Barb Dwire \/ Sam","avatar":"https:\/\/assets-cloud.enjin.com\/users\/5894004\/avatar\/medium.1562698316.jpeg","user_online":false,"user_votes":"114","user_posts":"749","url":"https:\/\/www.enjin.com\/ajax.php?s=redirect&cmd=forum-post&mobile=1&preset=12571633&id=90541183"},{"post_id":"90553869","post_time":"1423953157","post_content":"[quote user_id=\"11858265\" avatar=\"https:\/\/cravatar.eu\/helmavatar\/BudderSwagMaster\/74.png\" name=\"BudderSwagMaster\"][color=#dd2423][b][size=6]Nope sorry. Too rude.[\/size][\/b][\/color][\/quote]\r\nxD.. Calling him rude? Look at yourself..\r\n\r\nGreat Application Pent, Hope you get it!","post_content_html":" <div class=\"bbcode_quote\"> <div class=\"bbcode_quote_head\">@11858265 wrote:<\/div> <div class=\"bbcode_quote_body\"><b><span style=\"font-size:2.0em\">Nope sorry. Too rude.<\/span><\/b><\/div> <\/div> <br \/> xD.. Calling him rude? Look at yourself..<br \/> <br \/> Great Application Pent, Hope you get it!","post_content_clean":"Nope sorry. Too rude.\r xD.. Calling him rude? Look at yourself..\r \r Great Application Pent, Hope you get it!","post_user_id":"5308949","show_signature":"1","last_edit_time":"0","post_votes":"0","post_unhidden":"0","post_admin_hidden":"0","post_locked":"0","last_edit_user":"0","votes":null,"post_username":"\uff2d\uff41\uff54\uff54\uff30\uff29\uff23\uff26\uff2c","avatar":"https:\/\/assets-cloud.enjin.com\/users\/5308949\/avatar\/medium.1420081334.png","user_online":false,"user_votes":"141","user_posts":"996","url":"https:\/\/www.enjin.com\/ajax.php?s=redirect&cmd=forum-post&mobile=1&preset=12571633&id=90553869"},{"post_id":"90881833","post_time":"1424281161","post_content":"8 from 10 good luck","post_content_html":"8 from 10 good luck","post_content_clean":"8 from 10 good luck","post_user_id":"9506487","show_signature":"1","last_edit_time":"0","post_votes":"0","post_unhidden":"0","post_admin_hidden":"0","post_locked":"0","last_edit_user":"0","votes":null,"post_username":"ido156012","avatar":"https:\/\/assets-cloud.enjin.com\/users\/9506487\/avatar\/medium.1408951448.png","user_online":false,"user_votes":"1","user_posts":"17","url":"https:\/\/www.enjin.com\/ajax.php?s=redirect&cmd=forum-post&mobile=1&preset=12571633&id=90881833"}],"total_items":"22","pages":3,"voted":false,"new_post_id":"89477462","thread_labels":[],"top_posters":{"result":[{"post_user_id":"10222836","posts":"1","username":"IxIHampusIxI","avatar":"https:\/\/assets-cloud.enjin.com\/users\/10222836\/avatar\/medium.1417517619.jpeg"},{"post_user_id":"7496055","posts":"1","username":"Limae","avatar":"https:\/\/resources.enjin.com\/1465083537\/profile\/images\/avatar\/medium.png"},{"post_user_id":"3553747","posts":"1","username":"ElshSolo Player","avatar":"https:\/\/assets-cloud.enjin.com\/users\/3553747\/avatar\/medium.1439834345.jpeg"},{"post_user_id":"4777161","posts":"1","username":"Pentagonial","avatar":"https:\/\/assets-cloud.enjin.com\/users\/4777161\/avatar\/medium.1462283919.jpeg"},{"post_user_id":"8434842","posts":"1","username":"ZeLightbulb","avatar":"https:\/\/assets-cloud.enjin.com\/users\/8434842\/avatar\/medium.1479850476.jpeg"},{"post_user_id":"11032290","posts":"1","username":"MCL \/_ A16","avatar":"https:\/\/assets-cloud.enjin.com\/users\/11032290\/avatar\/medium.1411766013.png"},{"post_user_id":"8507481","posts":"1","username":"EdUuXuL0","avatar":"https:\/\/assets-cloud.enjin.com\/users\/8507481\/avatar\/medium.1420391786.jpeg"},{"post_user_id":"9843685","posts":"1","username":"\u262aThe King\u262a","avatar":"https:\/\/assets-cloud.enjin.com\/users\/9843685\/avatar\/medium.1434671201.png"},{"post_user_id":"7249943","posts":"1","username":"Creepaahh","avatar":"https:\/\/assets-cloud.enjin.com\/users\/7249943\/avatar\/medium.1468004541.jpeg"},{"post_user_id":"7809888","posts":"1","username":"Zyndraaaa","avatar":"https:\/\/assets-cloud.enjin.com\/users\/7809888\/avatar\/medium.1429684812.jpeg"},{"post_user_id":"6582433","posts":"1","username":"Umut","avatar":"https:\/\/assets-cloud.enjin.com\/users\/6582433\/avatar\/medium.1400120239.png"},{"post_user_id":"8559618","posts":"1","username":"PINKY&lt;3","avatar":"https:\/\/assets-cloud.enjin.com\/users\/8559618\/avatar\/medium.1422335918.jpeg"}],"num_users":"22"},"moderation_access":false,"poll_post":null,"post_access":true,"new_thread_access":true},"id":"1234567","jsonrpc":"2.0"}
{"result":{"thread":{"preset_id":"12571633","forum_id":"2419072","thread_id":"19033176","thread_subject":"Pentagonial's Helper Application","thread_replies":"21","thread_views":"3796","thread_type":"normal","thread_status":"locked","thread_user_id":"4777161","thread_username":"Pentagonial","thread_avatar":"https:\/\/assets-cloud.enjin.com\/users\/4777161\/avatar\/medium.1417517619.jpeg","thread_lastpost_user_id":"3553747","thread_lastpost_username":"Elsh|Solo Player","thread_lastpost_time":"1424384034","thread_moved_id":"0","thread_post_time":"1422501497","url":"https:\/\/www.enjin.com\/ajax.php?s=redirect&cmd=forum-thread&mobile=1&preset=12571633&id=19033176","post_count":"1","category_id":"1023523","forum_name":"Mod Applications","forum_description":"Applications for mod go here!","disable_voting":"0","show_signature":"1","url_cms":"https:\/\/www.craftsurvivalgames.com\/forum\/m\/12571633\/viewthread\/19033176-pentagonials-helper-application"},"posts":[{"post_id":"90948813","post_time":"1424346555","post_content":"It's an very well organized mod app, colorful and plenty off information;) you have really worked on the rude part, I hope to see you as a mod~ hamp (P.S im not in the list :0)","post_content_html":"It's an very well organized mod app, colorful and plenty off information;) you have really worked on the rude part, I hope to see you as a mod~ hamp (P.S im not in the list :0)","post_content_clean":"It's an very well organized mod app, colorful and plenty off information;) you have really worked on the rude part, I hope to see you as a mod~ hamp (P.S im not in the list :0)","post_user_id":"10222836","show_signature":"1","last_edit_time":"0","post_votes":"0","post_unhidden":"0","post_admin_hidden":"0","post_locked":"0","last_edit_user":"0","votes":null,"post_username":"IxIHampusIxI","avatar":"https:\/\/assets-cloud.enjin.com\/users\/10222836\/avatar\/medium.1417517619.jpeg","user_online":false,"user_votes":"1","user_posts":"297","url":"https:\/\/www.enjin.com\/ajax.php?s=redirect&cmd=forum-post&mobile=1&preset=12571633&id=90948813"},{"post_id":"90992567","post_time":"1424384034","post_content":"You've always been a great guy, Pent. And in our Skype calls, you have an abundance of ways you want to help the server out. Be it Factions, KitPvP, Duel, and etc. You would make a great helper m8. ;) Good luck, man.","post_content_html":"You've always been a great guy, Pent. And in our Skype calls, you have an abundance of ways you want to help the server out. Be it Factions, KitPvP, Duel, and etc. You would make a great helper m8. <object class=\"emojione\" data=\"https:\/\/resources.enjin.com\/1489581540\/themes\/core\/images\/emojione\/svg\/1f609.svg?0\" type=\"image\/svg+xml\" standby=\";)\">;)<\/object> Good luck, man.","post_content_clean":"You've always been a great guy, Pent. And in our Skype calls, you have an abundance of ways you want to help the server out. Be it Factions, KitPvP, Duel, and etc. You would make a great helper m8. ;) Good luck, man.","post_user_id":"3553747","show_signature":"1","last_edit_time":"0","post_votes":"0","post_unhidden":"0","post_admin_hidden":"0","post_locked":"0","last_edit_user":"0","votes":null,"post_username":"ElshSolo Player","avatar":"https:\/\/assets-cloud.enjin.com\/users\/3553747\/avatar\/medium.1439834345.jpeg","user_online":false,"user_votes":"107","user_posts":"609","url":"https:\/\/www.enjin.com\/ajax.php?s=redirect&cmd=forum-post&mobile=1&preset=12571633&id=90992567"}],"total_items":"22","pages":3,"voted":false,"new_post_id":"90948813","thread_labels":[],"top_posters":{"result":[{"post_user_id":"11728561","posts":"1","username":"cavespider453","avatar":"https:\/\/assets-cloud.enjin.com\/users\/11728561\/avatar\/medium.1561177881.jpeg"},{"post_user_id":"5308949","posts":"1","username":"\uff2d\uff41\uff54\uff54\uff30\uff29\uff23\uff26\uff2c","avatar":"https:\/\/assets-cloud.enjin.com\/users\/5308949\/avatar\/medium.1420081334.png"},{"post_user_id":"7966306","posts":"1","username":"Derpylatios","avatar":"https:\/\/assets-cloud.enjin.com\/users\/7966306\/avatar\/medium.1460034913.png"},{"post_user_id":"9506487","posts":"1","username":"ido156012","avatar":"https:\/\/assets-cloud.enjin.com\/users\/9506487\/avatar\/medium.1408951448.png"},{"post_user_id":"6477959","posts":"1","username":"Fireball71101","avatar":"https:\/\/assets-cloud.enjin.com\/users\/6477959\/avatar\/medium.1424450521.jpeg"},{"post_user_id":"10222836","posts":"1","username":"IxIHampusIxI","avatar":"https:\/\/assets-cloud.enjin.com\/users\/10222836\/avatar\/medium.1417517619.jpeg"},{"post_user_id":"7496055","posts":"1","username":"Limae","avatar":"https:\/\/resources.enjin.com\/1465083537\/profile\/images\/avatar\/medium.png"},{"post_user_id":"3553747","posts":"1","username":"ElshSolo Player","avatar":"https:\/\/assets-cloud.enjin.com\/users\/3553747\/avatar\/medium.1439834345.jpeg"},{"post_user_id":"4777161","posts":"1","username":"Pentagonial","avatar":"https:\/\/assets-cloud.enjin.com\/users\/4777161\/avatar\/medium.1462283919.jpeg"},{"post_user_id":"8434842","posts":"1","username":"ZeLightbulb","avatar":"https:\/\/assets-cloud.enjin.com\/users\/8434842\/avatar\/medium.1479850476.jpeg"},{"post_user_id":"11032290","posts":"1","username":"MCL \/_ A16","avatar":"https:\/\/assets-cloud.enjin.com\/users\/11032290\/avatar\/medium.1411766013.png"},{"post_user_id":"8507481","posts":"1","username":"EdUuXuL0","avatar":"https:\/\/assets-cloud.enjin.com\/users\/8507481\/avatar\/medium.1420391786.jpeg"}],"num_users":"22"},"moderation_access":false,"poll_post":null,"post_access":true,"new_thread_access":true},"id":"1234567","jsonrpc":"2.0"}
