{"result":{"thread":{"preset_id":"12571633","forum_id":"4414862","thread_id":"24430875","thread_subject":"Please read!","thread_replies":"24","thread_views":"9940","thread_type":"normal","thread_status":"locked","thread_user_id":"7985788","thread_username":"BladeNinja20","thread_avatar":"https:\/\/resources.enjin.com\/1465083537\/profile\/images\/avatar\/medium.png","thread_lastpost_user_id":"6759027","thread_lastpost_username":"YoutubeBlaze","thread_lastpost_time":"1444504775","thread_moved_id":"0","thread_post_time":"1443967410","url":"https:\/\/www.enjin.com\/ajax.php?s=redirect&cmd=forum-thread&mobile=1&preset=12571633&id=24430875","post_count":"1","category_id":"1907006","forum_name":"Prison General Discussion","forum_description":"Discuss with other players about Prison!","disable_voting":"0","show_signature":"1","url_cms":"https:\/\/www.craftsurvivalgames.com\/forum\/m\/12571633\/viewthread\/24430875-please-read"},"posts":[{"post_id":"106877827","post_time":"1443967410","post_content":"This is more of a complaint thread more than anything, ill try and keep it short but lets see.\r\n\r\nSo, as most know Shicking has realesed a reset to Prison. I have a few complaints about it, and 1 of them is the farms. To sum most of this up, whoever has the biggest farm and stands by it the longest is richest.\r\n\r\nMining, it takes like 1hr+ to get a decent amount of iron or gold and if u dont want a whole inv of cobble make it another 1hr. Then it takes around 30 min to mine enough wood to smelt it all because they cant add coal to the mines?! Then u have to risk ur life just to smelt back and forth. And after that entite prosess u can finally sell.\r\n\r\nEnchants: this is mainly about pickaxes. 1 why limit it to eff 3? Why cant we get eff5? It doesnt effect any type of pvp or anything all it does is let ppl mine faster why is that so bad? And cant we at least get fortune 1? Honestly the SD mine has what 1-3 diamonds each reset if that? We need a way to get some diamonds!\r\n\r\nMost people got hyped for this, way to hyped for what it is. People will say &quot;the economy is better now&quot; really its not because when people were in A before SD was open people had 800k-1mil all because they just stay at there farm all day. This isnt fun, this isnt what prison should be. It shouldnt be whoever has the biggest farm and whoever can stay on the longest and watch there farm have all the money. Thats mainly the reason most people have SC as of now, if uve seen my plot uve seen my farms are tiny and ive actually mined and tried but u dont make nearly enough money from it. And I dont find sitting on a farm all day fun either.\r\nEven if I get hate for this post it needed to be said. Comment ideas or whatever.","post_content_html":"This is more of a complaint thread more than anything, ill try and keep it short but lets see.<br \/> <br \/> So, as most know Shicking has realesed a reset to Prison. I have a few complaints about it, and 1 of them is the farms. To sum most of this up, whoever has the biggest farm and stands by it the longest is richest.<br \/> <br \/> Mining, it takes like 1hr+ to get a decent amount of iron or gold and if u dont want a whole inv of cobble make it another 1hr. Then it takes around 30 min to mine enough wood to smelt it all because they cant add coal to the mines?! Then u have to risk ur life just to smelt back and forth. And after that entite prosess u can finally sell.<br \/> <br \/> Enchants: this is mainly about pickaxes. 1 why limit it to eff 3? Why cant we get eff5? It doesnt effect any type of pvp or anything all it does is let ppl mine faster why is that so bad? And cant we at least get fortune 1? Honestly the SD mine has what 1-3 diamonds each reset if that? We need a way to get some diamonds!<br \/> <br \/> Most people got hyped for this, way to hyped for what it is. People will say &quot;the economy is better now&quot; really its not because when people were in A before SD was open people had 800k-1mil all because they just stay at there farm all day. This isnt fun, this isnt what prison should be. It shouldnt be whoever has the biggest farm and whoever can stay on the longest and watch there farm have all the money. Thats mainly the reason most people have SC as of now, if uve seen my plot uve seen my farms are tiny and ive actually mined and tried but u dont make nearly enough money from it. And I dont find sitting on a farm all day fun either.<br \/> <br \/> Even if I get hate for this post it needed to be said. Comment ideas or whatever.","post_content_clean":"This is more of a complaint thread more than anything, ill try and keep it short but lets see.\r \r     So, as most know Shicking has realesed a reset to Prison. I have a few complaints about it, and 1 of them is the farms. To sum most of this up, whoever has the biggest farm and stands by it the longest is richest. \r \r   Mining, it takes like 1hr+ to get a decent amount of iron or gold and if u dont want a whole inv of cobble make it another 1hr. Then it takes around 30 min to mine enough wood to smelt it all because they cant add coal to the mines?! Then u have to risk ur life just to smelt back and forth. And after that entite prosess u can finally sell.\r \r   Enchants: this is mainly about pickaxes. 1 why limit it to eff 3? Why cant we get eff5? It doesnt effect any type of pvp or anything all it does is let ppl mine faster why is that so bad? And cant we at least get fortune 1? Honestly the SD mine has what 1-3 diamonds each reset if that? We need a way to get some diamonds!\r \r    Most people got hyped for this, way to hyped for what it is. People will say \"the economy is better now\" really its not because when people were in A before SD was open people had 800k-1mil all because they just stay at there farm all day. This isnt fun, this isnt what prison should be. It shouldnt be whoever has the biggest farm and whoever can stay on the longest and watch there farm have all the money. Thats mainly the reason most people have SC as of now, if uve seen my plot uve seen my farms are tiny and ive actually mined and tried but u dont make nearly enough money from it. And I dont find sitting on a farm all day fun either.\r Even if I get hate for this post it needed to be said. Comment ideas or whatever.","post_user_id":"7985788","show_signature":"1","last_edit_time":"0","post_votes":"0","post_unhidden":"0","post_admin_hidden":"0","post_locked":"0","last_edit_user":"0","votes":null,"post_username":"BladeNinja20","avatar":"https:\/\/resources.enjin.com\/1465083537\/profile\/images\/avatar\/medium.png","user_online":false,"user_votes":"5","user_posts":"781","url":"https:\/\/www.enjin.com\/ajax.php?s=redirect&cmd=forum-post&mobile=1&preset=12571633&id=106877827"},{"post_id":"106878659","post_time":"1443968453","post_content":"Yea, of course whoever has the biggest farm has the most money. That's because they worked for it. The big farms don't pop out of no where. You can make a farm yourself to get the same results.\r\n\r\nGuessing you're in SD. Gold and iron are pretty common there. More so in SC. It wouldn't take an hour unless you wanted like 20 stacks of it, which is unreasonable. Time is money- you want free fuel? Go to the log mine even though it will take a lot of time. Want it fast and compact? Buy coal. And the furnaces are in pvp for a reason.\r\n\r\nThis is hardcore prison. The Eff3 is perfectly fine. And fortune is a no no. There's only a few diamonds in SD, but that's cuz you only paid 150k for it. Want more diamonds? Pay to rank up. SC has a lot.\r\n\r\nThis was before the nerf on the sugarcane prices. Now that that's happened, it's been getting better. And you keep forgetting that people's fortunes don't pop out of no where. If you can't be active enough to gain a lot of money, that is not the servers fault.","post_content_html":"Yea, of course whoever has the biggest farm has the most money. That's because they worked for it. The big farms don't pop out of no where. You can make a farm yourself to get the same results.<br \/> <br \/> Guessing you're in SD. Gold and iron are pretty common there. More so in SC. It wouldn't take an hour unless you wanted like 20 stacks of it, which is unreasonable. Time is money- you want free fuel? Go to the log mine even though it will take a lot of time. Want it fast and compact? Buy coal. And the furnaces are in pvp for a reason.<br \/> <br \/> This is hardcore prison. The Eff3 is perfectly fine. And fortune is a no no. There's only a few diamonds in SD, but that's cuz you only paid 150k for it. Want more diamonds? Pay to rank up. SC has a lot.<br \/> <br \/> This was before the nerf on the sugarcane prices. Now that that's happened, it's been getting better. And you keep forgetting that people's fortunes don't pop out of no where. If you can't be active enough to gain a lot of money, that is not the servers fault.","post_content_clean":"Yea, of course whoever has the biggest farm has the most money. That's because they worked for it. The big farms don't pop out of no where. You can make a farm yourself to get the same results.\r \r Guessing you're in SD. Gold and iron are pretty common there. More so in SC. It wouldn't take an hour unless you wanted like 20 stacks of it, which is unreasonable. Time is money- you want free fuel? Go to the log mine even though it will take a lot of time. Want it fast and compact? Buy coal. And the furnaces are in pvp for a reason. \r \r This is hardcore prison. The Eff3 is perfectly fine. And fortune is a no no. There's only a few diamonds in SD, but that's cuz you only paid 150k for it. Want more diamonds? Pay to rank up. SC has a lot. \r \r This was before the nerf on the sugarcane prices. Now that that's happened, it's been getting better. And you keep forgetting that people's fortunes don't pop out of no where. If you can't be active enough to gain a lot of money, that is not the servers fault.","post_user_id":"9599448","show_signature":"1","last_edit_time":"1443968500","post_votes":"0","post_unhidden":"0","post_admin_hidden":"0","post_locked":"0","last_edit_user":"0","votes":null,"post_username":"Potahto","avatar":"https:\/\/assets-cloud.enjin.com\/users\/9599448\/avatar\/medium.1439216144.jpeg","user_online":false,"user_votes":"52","user_posts":"501","url":"https:\/\/www.enjin.com\/ajax.php?s=redirect&cmd=forum-post&mobile=1&preset=12571633&id=106878659"},{"post_id":"106879259","post_time":"1443969162","post_content":"But once people make there big farms they just camp it. Then sell it. That cannot be fun! This is supposed to be fun not camping a farm. Its just stupid","post_content_html":"But once people make there big farms they just camp it. Then sell it. That cannot be fun! This is supposed to be fun not camping a farm. Its just stupid","post_content_clean":"But once people make there big farms they just camp it. Then sell it. That cannot be fun! This is supposed to be fun not camping a farm. Its just stupid","post_user_id":"7985788","show_signature":"0","last_edit_time":"0","post_votes":"0","post_unhidden":"0","post_admin_hidden":"0","post_locked":"0","last_edit_user":"0","votes":null,"post_username":"BladeNinja20","avatar":"https:\/\/resources.enjin.com\/1465083537\/profile\/images\/avatar\/medium.png","user_online":false,"user_votes":"5","user_posts":"781","url":"https:\/\/www.enjin.com\/ajax.php?s=redirect&cmd=forum-post&mobile=1&preset=12571633&id=106879259"},{"post_id":"106881188","post_time":"1443971348","post_content":"[quote user_id=\"7985788\" avatar=\"https:\/\/cravatar.eu\/helmavatar\/Spurk\/74.png\" name=\"Spurk\"]But once people make there big farms they just camp it. Then sell it. That cannot be fun! This is supposed to be fun not camping a farm. Its just stupid[\/quote]\r\n[quote user_id=\"7985788\" avatar=\"https:\/\/cravatar.eu\/helmavatar\/Spurk\/74.png\" name=\"Spurk\"]But once people make there big farms they just camp it. Then sell it. That cannot be fun! This is supposed to be fun not camping a farm. Its just stupid[\/quote]\r\n\r\n[b][color=#761413]Time is[\/color][\/b] [b] [color=#3a7613] money.[\/color][\/b]","post_content_html":" <div class=\"bbcode_quote\"> <div class=\"bbcode_quote_head\">@7985788 wrote:<\/div> <div class=\"bbcode_quote_body\">But once people make there big farms they just camp it. Then sell it. That cannot be fun! This is supposed to be fun not camping a farm. Its just stupid<\/div> <\/div>  <div class=\"bbcode_quote\"> <div class=\"bbcode_quote_head\">@7985788 wrote:<\/div> <div class=\"bbcode_quote_body\">But once people make there big farms they just camp it. Then sell it. That cannot be fun! This is supposed to be fun not camping a farm. Its just stupid<\/div> <\/div> <br \/> <b>Time is<\/b> <b>  money.<\/b>","post_content_clean":"But once people make there big farms they just camp it. Then sell it. That cannot be fun! This is supposed to be fun not camping a farm. Its just stupid\r But once people make there big farms they just camp it. Then sell it. That cannot be fun! This is supposed to be fun not camping a farm. Its just stupid\r \r Time is   money.","post_user_id":"7966306","show_signature":"1","last_edit_time":"0","post_votes":"0","post_unhidden":"0","post_admin_hidden":"0","post_locked":"0","last_edit_user":"0","votes":null,"post_username":"Derpylatios","avatar":"https:\/\/assets-cloud.enjin.com\/users\/7966306\/avatar\/medium.1460034913.png","user_online":false,"user_votes":"1","user_posts":"919","url":"https:\/\/www.enjin.com\/ajax.php?s=redirect&cmd=forum-post&mobile=1&preset=12571633&id=106881188"},{"post_id":"106887385","post_time":"1443977666","post_content":"Big farms = People actually trying to get better, Not complaining about it cause they are to lazy to build and want there work cut out for them.  Just wanted to clear up what Potahtoe was trying to explain. You can't be mad because people are better than you at something. Farming is just how you get better. On my plot in prison I have a small cactus farm! And guess what! I actually make money off it! If you just sit there and complain on how people are making a profit cause they are better than you. No offense but you have a real nerve to go up, and file a complaint about Big farms and what ever you even complained about.\r\n\r\n-Burg Out :-P","post_content_html":"Big farms = People actually trying to get better, Not complaining about it cause they are to lazy to build and want there work cut out for them.  Just wanted to clear up what Potahtoe was trying to explain. You can't be mad because people are better than you at something. Farming is just how you get better. On my plot in prison I have a small cactus farm! And guess what! I actually make money off it! If you just sit there and complain on how people are making a profit cause they are better than you. No offense but you have a real nerve to go up, and file a complaint about Big farms and what ever you even complained about.<br \/> <br \/> -Burg Out <object class=\"emojione\" data=\"https:\/\/resources.enjin.com\/1489581540\/themes\/core\/images\/emojione\/svg\/1f61b.svg?0\" type=\"image\/svg+xml\" standby=\":-p\">:-p<\/object>","post_content_clean":"Big farms = People actually trying to get better, Not complaining about it cause they are to lazy to build and want there work cut out for them.  Just wanted to clear up what Potahtoe was trying to explain. You can't be mad because people are better than you at something. Farming is just how you get better. On my plot in prison I have a small cactus farm! And guess what! I actually make money off it! If you just sit there and complain on how people are making a profit cause they are better than you. No offense but you have a real nerve to go up, and file a complaint about Big farms and what ever you even complained about.\r \r                                          -Burg Out :-P","post_user_id":"11640560","show_signature":"1","last_edit_time":"0","post_votes":"0","post_unhidden":"0","post_admin_hidden":"0","post_locked":"0","last_edit_user":"0","votes":null,"post_username":"GetBurged","avatar":"https:\/\/assets-cloud.enjin.com\/users\/11640560\/avatar\/medium.1443731464.jpeg","user_online":false,"user_votes":"0","user_posts":"26","url":"https:\/\/www.enjin.com\/ajax.php?s=redirect&cmd=forum-post&mobile=1&preset=12571633&id=106887385"},{"post_id":"106899579","post_time":"1443990403","post_content":"[color=#239edd]I feel like you don't get the concept of &quot;hardcore&quot; Prison. All these complaints are your opinion and I feel like they are invalid.[\/color]","post_content_html":"I feel like you don't get the concept of &quot;hardcore&quot; Prison. All these complaints are your opinion and I feel like they are invalid.","post_content_clean":"I feel like you don't get the concept of \"hardcore\" Prison. All these complaints are your opinion and I feel like they are invalid.","post_user_id":"12353162","show_signature":"1","last_edit_time":"0","post_votes":"0","post_unhidden":"0","post_admin_hidden":"0","post_locked":"0","last_edit_user":"0","votes":null,"post_username":"Bruiser","avatar":"https:\/\/assets-cloud.enjin.com\/users\/12353162\/avatar\/medium.1444438908.jpeg","user_online":false,"user_votes":"0","user_posts":"87","url":"https:\/\/www.enjin.com\/ajax.php?s=redirect&cmd=forum-post&mobile=1&preset=12571633&id=106899579"},{"post_id":"106903984","post_time":"1443995279","post_content":"Blade is kinda right?\r\nHave you see derpy's gang? Im betting most of them have 1mil already and more\r\nSo are you saying its okay to afk there at your farm and smelt and sell right? okay i dont mine.\r\nBlade come to my farm tons of cactus and sugarcane just for you. You will be as op as them in no time.","post_content_html":"Blade is kinda right?<br \/> <br \/> Have you see derpy's gang? Im betting most of them have 1mil already and more<br \/> <br \/> So are you saying its okay to afk there at your farm and smelt and sell right? okay i dont mine.<br \/> <br \/> Blade come to my farm tons of cactus and sugarcane just for you. You will be as op as them in no time.","post_content_clean":"Blade is kinda right?\r Have you see derpy's gang? Im betting most of them have 1mil already and more\r So are you saying its okay to afk there at your farm and smelt and sell right? okay i dont mine.\r Blade come to my farm tons of cactus and sugarcane just for you. You will be as op as them in no time.","post_user_id":"11396590","show_signature":"1","last_edit_time":"0","post_votes":"0","post_unhidden":"0","post_admin_hidden":"0","post_locked":"0","last_edit_user":"0","votes":null,"post_username":"BobbyDragon1r7","avatar":"https:\/\/resources.enjin.com\/1465083537\/profile\/images\/avatar\/medium.png","user_online":false,"user_votes":"0","user_posts":"42","url":"https:\/\/www.enjin.com\/ajax.php?s=redirect&cmd=forum-post&mobile=1&preset=12571633&id=106903984"},{"post_id":"106904698","post_time":"1443996138","post_content":"[b][color=#dd2423]I don't see anything wrong with prison except no furnaces on plots, strength potions, and only 2 private furnaces for ranks of SD and lower, which you never mentioned.[\/color]\r\n\r\n[color=#2360dd]Since you're in SD you don't know how good SC is. I go mining for a hour or so I have 5 stacks of iron and gold, about 48 diamonds and lots of sand. If you took time to research then you would know how mining is good in SC.[\/color]\r\n\r\n[color=#dd2423]Drugs are economy in prison,[\/color] [color=#2360dd]most people mine for armor, decoration and extra when they run out of that material. If you have a auto-cacti farm you don't get dubs in minuets, it takes me about a day to get almost a full dub. We also worked hard for the cacti, sugarcane, melons ect. To start a cacti farm you need I believe its 60k for one cactus then you wait for it to grow and keep replanting, waiting, replanting you get my point. Same thing with sugarcane except it's even higher to start a farm, 70k I think maybe higher. Then you need to smelt that then sell and I get your point on that, but in SC you get nether furnaces with 4 furnaces not 2.[\/color]\r\n\r\n[color=#d113ee]I honestly see nothing wrong except what is said in the first line, I just believe you don't have a farm and you're complaining that everyone has more money than you because of it.[\/color]\r\n\r\n[u]Time[\/u] [u]is[\/u] [color=#6cdd23][u]money[\/u][\/b][\/color]","post_content_html":"<b>I don't see anything wrong with prison except no furnaces on plots, strength potions, and only 2 private furnaces for ranks of SD and lower, which you never mentioned.<br \/> <br \/> Since you're in SD you don't know how good SC is. I go mining for a hour or so I have 5 stacks of iron and gold, about 48 diamonds and lots of sand. If you took time to research then you would know how mining is good in SC.<br \/> <br \/> Drugs are economy in prison, most people mine for armor, decoration and extra when they run out of that material. If you have a auto-cacti farm you don't get dubs in minuets, it takes me about a day to get almost a full dub. We also worked hard for the cacti, sugarcane, melons ect. To start a cacti farm you need I believe its 60k for one cactus then you wait for it to grow and keep replanting, waiting, replanting you get my point. Same thing with sugarcane except it's even higher to start a farm, 70k I think maybe higher. Then you need to smelt that then sell and I get your point on that, but in SC you get nether furnaces with 4 furnaces not 2.<br \/> <br \/> I honestly see nothing wrong except what is said in the first line, I just believe you don't have a farm and you're complaining that everyone has more money than you because of it.<br \/> <br \/> <u>Time<\/u> <u>is<\/u> <u>money<\/u><\/b>","post_content_clean":"I don't see anything wrong with prison except no furnaces on plots, strength potions, and only 2 private furnaces for ranks of SD and lower, which you never mentioned.\r \r Since you're in SD you don't know how good SC is. I go mining for a hour or so I have 5 stacks of iron and gold, about 48 diamonds and lots of sand. If you took time to research then you would know how mining is good in SC.\r \r Drugs are economy in prison, most people mine for armor, decoration and extra when they run out of that material. If you have a auto-cacti farm you don't get dubs in minuets, it takes me about a day to get almost a full dub. We also worked hard for the cacti, sugarcane, melons ect. To start a cacti farm you need I believe its 60k for one cactus then you wait for it to grow and keep replanting, waiting, replanting you get my point. Same thing with sugarcane except it's even higher to start a farm, 70k I think maybe higher. Then you need to smelt that then sell and I get your point on that, but in SC you get nether furnaces with 4 furnaces not 2.\r \r I honestly see nothing wrong except what is said in the first line, I just believe you don't have a farm and you're complaining that everyone has more money than you because of it.\r \r Time is money","post_user_id":"8542709","show_signature":"1","last_edit_time":"1443996354","post_votes":"0","post_unhidden":"0","post_admin_hidden":"0","post_locked":"0","last_edit_user":"0","votes":null,"post_username":"Bandzz","avatar":"https:\/\/assets-cloud.enjin.com\/users\/8542709\/avatar\/medium.1470014906.jpeg","user_online":false,"user_votes":"0","user_posts":"185","url":"https:\/\/www.enjin.com\/ajax.php?s=redirect&cmd=forum-post&mobile=1&preset=12571633&id=106904698"},{"post_id":"106915746","post_time":"1444010138","post_content":"[color=#2360dd]Well I mean People make there farms to make money, So This is perfectly fine if you spend your own time to make the farm and actually want to make the money you will do it. I am pretty sure most people would prefer this new prison then the previous one[\/color]","post_content_html":"Well I mean People make there farms to make money, So This is perfectly fine if you spend your own time to make the farm and actually want to make the money you will do it. I am pretty sure most people would prefer this new prison then the previous one","post_content_clean":"Well I mean People make there farms to make money, So This is perfectly fine if you spend your own time to make the farm and actually want to make the money you will do it. I am pretty sure most people would prefer this new prison then the previous one","post_user_id":"13186426","show_signature":"1","last_edit_time":"0","post_votes":"0","post_unhidden":"0","post_admin_hidden":"0","post_locked":"0","last_edit_user":"0","votes":null,"post_username":"Dojos\/Formalize","avatar":"https:\/\/assets-cloud.enjin.com\/users\/13186426\/avatar\/medium.1437025763.png","user_online":false,"user_votes":"0","user_posts":"97","url":"https:\/\/www.enjin.com\/ajax.php?s=redirect&cmd=forum-post&mobile=1&preset=12571633&id=106915746"},{"post_id":"106917151","post_time":"1444012304","post_content":"[quote user_id=\"13186426\" avatar=\"https:\/\/cravatar.eu\/helmavatar\/Formalize\/74.png\" name=\"Formalize\"][color=#2360dd]Well I mean People make there farms to make money, So This is perfectly fine if you spend your own time to make the farm and actually want to make the money you will do it. I am pretty sure most people would prefer this new prison then the previous one[\/color][\/quote]\r\n[b][color=#239edd]Yeah, but Blade means that they are camping their farms so they can get a few hundred thousand dollars and some even up to a million. (Derpy can AFK on his farms for half an hour and get 1mil, easy.) HCP hasn't even been out for a month and the economy is already broken.[\/color][\/b]","post_content_html":" <div class=\"bbcode_quote\"> <div class=\"bbcode_quote_head\">@13186426 wrote:<\/div> <div class=\"bbcode_quote_body\">Well I mean People make there farms to make money, So This is perfectly fine if you spend your own time to make the farm and actually want to make the money you will do it. I am pretty sure most people would prefer this new prison then the previous one<\/div> <\/div> <br \/> <b>Yeah, but Blade means that they are camping their farms so they can get a few hundred thousand dollars and some even up to a million. (Derpy can AFK on his farms for half an hour and get 1mil, easy.) HCP hasn't even been out for a month and the economy is already broken.<\/b>","post_content_clean":"Well I mean People make there farms to make money, So This is perfectly fine if you spend your own time to make the farm and actually want to make the money you will do it. I am pretty sure most people would prefer this new prison then the previous one\r Yeah, but Blade means that they are camping their farms so they can get a few hundred thousand dollars and some even up to a million. (Derpy can AFK on his farms for half an hour and get 1mil, easy.) HCP hasn't even been out for a month and the economy is already broken.","post_user_id":"6759027","show_signature":"1","last_edit_time":"0","post_votes":"0","post_unhidden":"0","post_admin_hidden":"0","post_locked":"0","last_edit_user":"0","votes":null,"post_username":"xBlaze","avatar":"https:\/\/assets-cloud.enjin.com\/users\/6759027\/avatar\/medium.1496333371.jpeg","user_online":false,"user_votes":"3","user_posts":"606","url":"https:\/\/www.enjin.com\/ajax.php?s=redirect&cmd=forum-post&mobile=1&preset=12571633&id=106917151"}],"total_items":"25","pages":3,"voted":false,"new_post_id":false,"thread_labels":[],"top_posters":{"result":[{"post_user_id":"7985788","posts":"5","username":"BladeNinja20","avatar":"https:\/\/resources.enjin.com\/1465083537\/profile\/images\/avatar\/medium.png"},{"post_user_id":"6759027","posts":"4","username":"xBlaze","avatar":"https:\/\/assets-cloud.enjin.com\/users\/6759027\/avatar\/medium.1496333371.jpeg"},{"post_user_id":"9599448","posts":"2","username":"Potahto","avatar":"https:\/\/assets-cloud.enjin.com\/users\/9599448\/avatar\/medium.1439216144.jpeg"},{"post_user_id":"12353162","posts":"2","username":"Bruiser","avatar":"https:\/\/assets-cloud.enjin.com\/users\/12353162\/avatar\/medium.1444438908.jpeg"},{"post_user_id":"13186426","posts":"2","username":"Dojos\/Formalize","avatar":"https:\/\/assets-cloud.enjin.com\/users\/13186426\/avatar\/medium.1437025763.png"},{"post_user_id":"9843685","posts":"2","username":"\u262aThe King\u262a","avatar":"https:\/\/assets-cloud.enjin.com\/users\/9843685\/avatar\/medium.1434671201.png"},{"post_user_id":"8656906","posts":"1","username":"Hex4G","avatar":"https:\/\/assets-cloud.enjin.com\/users\/8656906\/avatar\/medium.1407241778.png"},{"post_user_id":"8434842","posts":"1","username":"ZeLightbulb","avatar":"https:\/\/assets-cloud.enjin.com\/users\/8434842\/avatar\/medium.1479850476.jpeg"},{"post_user_id":"7966306","posts":"1","username":"Derpylatios","avatar":"https:\/\/assets-cloud.enjin.com\/users\/7966306\/avatar\/medium.1460034913.png"},{"post_user_id":"7875360","posts":"1","username":"IronSword","avatar":"https:\/\/assets-cloud.enjin.com\/users\/7875360\/avatar\/medium.1440483579.png"},{"post_user_id":"11640560","posts":"1","username":"GetBurged","avatar":"https:\/\/assets-cloud.enjin.com\/users\/11640560\/avatar\/medium.1443731464.jpeg"},{"post_user_id":"11396590","posts":"1","username":"BobbyDragon1r7","avatar":"https:\/\/resources.enjin.com\/1465083537\/profile\/images\/avatar\/medium.png"}],"num_users":"14"},"moderation_access":false,"poll_post":null,"post_access":true,"new_thread_access":true},"id":"1234567","jsonrpc":"2.0"}
{"result":{"thread":{"preset_id":"12571633","forum_id":"4414862","thread_id":"24430875","thread_subject":"Please read!","thread_replies":"24","thread_views":"9940","thread_type":"normal","thread_status":"locked","thread_user_id":"7985788","thread_username":"BladeNinja20","thread_avatar":"https:\/\/assets-cloud.enjin.com\/users\/7985788\/avatar\/medium.1437025763.png","thread_lastpost_user_id":"6759027","thread_lastpost_username":"YoutubeBlaze","thread_lastpost_time":"1444504775","thread_moved_id":"0","thread_post_time":"1443967410","url":"https:\/\/www.enjin.com\/ajax.php?s=redirect&cmd=forum-thread&mobile=1&preset=12571633&id=24430875","post_count":"1","category_id":"1907006","forum_name":"Prison General Discussion","forum_description":"Discuss with other players about Prison!","disable_voting":"0","show_signature":"1","url_cms":"https:\/\/www.craftsurvivalgames.com\/forum\/m\/12571633\/viewthread\/24430875-please-read"},"posts":[{"post_id":"106922773","post_time":"1444023941","post_content":"[b][color=#dd2423]Yeah, I get what ya'll are stating but I mean if you build a big farm why wouldn't you want to make a lot of money off of it I mean doesn't it make sense?\r\n\r\nThe economy really isn't broken people just think it is just because there is a way to make money faster than just mining and smelting all day which is quest honestly, I think everything is fine with the new prison.[\/b][\/color]","post_content_html":"<b>Yeah, I get what ya'll are stating but I mean if you build a big farm why wouldn't you want to make a lot of money off of it I mean doesn't it make sense?<br \/> <br \/> The economy really isn't broken people just think it is just because there is a way to make money faster than just mining and smelting all day which is quest honestly, I think everything is fine with the new prison.<\/b>","post_content_clean":"Yeah, I get what ya'll are stating but I mean if you build a big farm why wouldn't you want to make a lot of money off of it I mean doesn't it make sense?\r \r The economy really isn't broken people just think it is just because there is a way to make money faster than just mining and smelting all day which is quest honestly, I think everything is fine with the new prison.","post_user_id":"13186426","show_signature":"1","last_edit_time":"1444026387","post_votes":"0","post_unhidden":"0","post_admin_hidden":"0","post_locked":"0","last_edit_user":"0","votes":null,"post_username":"Dojos\/Formalize","avatar":"https:\/\/assets-cloud.enjin.com\/users\/13186426\/avatar\/medium.1437025763.png","user_online":false,"user_votes":"0","user_posts":"97","url":"https:\/\/www.enjin.com\/ajax.php?s=redirect&cmd=forum-post&mobile=1&preset=12571633&id=106922773"},{"post_id":"106965485","post_time":"1444091379","post_content":"Yes but u WHATS THE FUN IN JUST SITTING AT UR FARM?!? None of u guys are listening to that part. Whats so fun about sitting at ur farm all day? Nothing! And u barely make money from mining. New prison is bs","post_content_html":"Yes but u WHATS THE FUN IN JUST SITTING AT UR FARM?!? None of u guys are listening to that part. Whats so fun about sitting at ur farm all day? Nothing! And u barely make money from mining. New prison is bs","post_content_clean":"Yes but u WHATS THE FUN IN JUST SITTING AT UR FARM?!? None of u guys are listening to that part. Whats so fun about sitting at ur farm all day? Nothing! And u barely make money from mining. New prison is bs","post_user_id":"7985788","show_signature":"1","last_edit_time":"0","post_votes":"0","post_unhidden":"0","post_admin_hidden":"0","post_locked":"0","last_edit_user":"0","votes":null,"post_username":"BladeNinja20","avatar":"https:\/\/resources.enjin.com\/1465083537\/profile\/images\/avatar\/medium.png","user_online":false,"user_votes":"5","user_posts":"781","url":"https:\/\/www.enjin.com\/ajax.php?s=redirect&cmd=forum-post&mobile=1&preset=12571633&id=106965485"},{"post_id":"106965861","post_time":"1444091893","post_content":"[quote user_id=\"7985788\" avatar=\"https:\/\/cravatar.eu\/helmavatar\/Spurk\/74.png\" name=\"Spurk\"]Yes but u WHATS THE FUN IN JUST SITTING AT UR FARM?!? None of u guys are listening to that part. Whats so fun about sitting at ur farm all day? Nothing! And u barely make money from mining. New prison is bs[\/quote]\r\n[b][color=#239edd]You can have fun while still getting money.[\/color][\/b]","post_content_html":" <div class=\"bbcode_quote\"> <div class=\"bbcode_quote_head\">@7985788 wrote:<\/div> <div class=\"bbcode_quote_body\">Yes but u WHATS THE FUN IN JUST SITTING AT UR FARM?!? None of u guys are listening to that part. Whats so fun about sitting at ur farm all day? Nothing! And u barely make money from mining. New prison is bs<\/div> <\/div> <br \/> <b>You can have fun while still getting money.<\/b>","post_content_clean":"Yes but u WHATS THE FUN IN JUST SITTING AT UR FARM?!? None of u guys are listening to that part. Whats so fun about sitting at ur farm all day? Nothing! And u barely make money from mining. New prison is bs\r You can have fun while still getting money.","post_user_id":"6759027","show_signature":"1","last_edit_time":"0","post_votes":"0","post_unhidden":"0","post_admin_hidden":"0","post_locked":"0","last_edit_user":"0","votes":null,"post_username":"xBlaze","avatar":"https:\/\/assets-cloud.enjin.com\/users\/6759027\/avatar\/medium.1496333371.jpeg","user_online":false,"user_votes":"3","user_posts":"606","url":"https:\/\/www.enjin.com\/ajax.php?s=redirect&cmd=forum-post&mobile=1&preset=12571633&id=106965861"},{"post_id":"106971207","post_time":"1444099634","post_content":"[quote name=\"BladeNinja20\"]Yes but u WHATS THE FUN IN JUST SITTING AT UR FARM?!? None of u guys are listening to that part. Whats so fun about sitting at ur farm all day? Nothing! And u barely make money from mining. New prison is bs[\/quote]\r\nWhat's so fun about going around and mining ores? That's not fun at all either. The point why people make farms or whatever is to make money, they may do this because its just the same as making money by mining but more convienent. While they are afk, they can leave the PC and do IRL things that are productive to do then waste hours mining just to gain money in a game. If you like mining so badly, play single player and mine all you like.","post_content_html":" <div class=\"bbcode_quote\"> <div class=\"bbcode_quote_head\">BladeNinja20 wrote:<\/div> <div class=\"bbcode_quote_body\">Yes but u WHATS THE FUN IN JUST SITTING AT UR FARM?!? None of u guys are listening to that part. Whats so fun about sitting at ur farm all day? Nothing! And u barely make money from mining. New prison is bs<\/div> <\/div> <br \/> What's so fun about going around and mining ores? That's not fun at all either. The point why people make farms or whatever is to make money, they may do this because its just the same as making money by mining but more convienent. While they are afk, they can leave the PC and do IRL things that are productive to do then waste hours mining just to gain money in a game. If you like mining so badly, play single player and mine all you like.","post_content_clean":"Yes but u WHATS THE FUN IN JUST SITTING AT UR FARM?!? None of u guys are listening to that part. Whats so fun about sitting at ur farm all day? Nothing! And u barely make money from mining. New prison is bs\r What's so fun about going around and mining ores? That's not fun at all either. The point why people make farms or whatever is to make money, they may do this because its just the same as making money by mining but more convienent. While they are afk, they can leave the PC and do IRL things that are productive to do then waste hours mining just to gain money in a game. If you like mining so badly, play single player and mine all you like.","post_user_id":"11581368","show_signature":"0","last_edit_time":"0","post_votes":"0","post_unhidden":"0","post_admin_hidden":"0","post_locked":"0","last_edit_user":"0","votes":null,"post_username":"Getzs","avatar":"https:\/\/resources.enjin.com\/1465083537\/profile\/images\/avatar\/medium.png","user_online":false,"user_votes":"0","user_posts":"103","url":"https:\/\/www.enjin.com\/ajax.php?s=redirect&cmd=forum-post&mobile=1&preset=12571633&id=106971207"},{"post_id":"107004358","post_time":"1444162072","post_content":"[quote user_id=\"11581368\" avatar=\"https:\/\/cravatar.eu\/helmavatar\/2000Jason1\/74.png\" name=\"2000Jason1\"][quote name=\"BladeNinja20\"]Yes but u WHATS THE FUN IN JUST SITTING AT UR FARM?!? None of u guys are listening to that part. Whats so fun about sitting at ur farm all day? Nothing! And u barely make money from mining. New prison is bs[\/quote]\r\nWhat's so fun about going around and mining ores? That's not fun at all either. The point why people make farms or whatever is to make money, they may do this because its just the same as making money by mining but more convienent. While they are afk, they can leave the PC and do IRL things that are productive to do then waste hours mining just to gain money in a game. If you like mining so badly, play single player and mine all you like.[\/quote]\r\n[b][color=#239edd]I'd retweet this if it was on Twitter.[\/color][\/b]","post_content_html":" <div class=\"bbcode_quote\"> <div class=\"bbcode_quote_head\">@11581368 wrote:<\/div> <div class=\"bbcode_quote_body\"> <div class=\"bbcode_quote\"> <div class=\"bbcode_quote_head\">BladeNinja20 wrote:<\/div> <div class=\"bbcode_quote_body\">Yes but u WHATS THE FUN IN JUST SITTING AT UR FARM?!? None of u guys are listening to that part. Whats so fun about sitting at ur farm all day? Nothing! And u barely make money from mining. New prison is bs<\/div> <\/div> <br \/> What's so fun about going around and mining ores? That's not fun at all either. The point why people make farms or whatever is to make money, they may do this because its just the same as making money by mining but more convienent. While they are afk, they can leave the PC and do IRL things that are productive to do then waste hours mining just to gain money in a game. If you like mining so badly, play single player and mine all you like.<\/div> <\/div> <br \/> <b>I'd retweet this if it was on Twitter.<\/b>","post_content_clean":"Yes but u WHATS THE FUN IN JUST SITTING AT UR FARM?!? None of u guys are listening to that part. Whats so fun about sitting at ur farm all day? Nothing! And u barely make money from mining. New prison is bs\r What's so fun about going around and mining ores? That's not fun at all either. The point why people make farms or whatever is to make money, they may do this because its just the same as making money by mining but more convienent. While they are afk, they can leave the PC and do IRL things that are productive to do then waste hours mining just to gain money in a game. If you like mining so badly, play single player and mine all you like.\r I'd retweet this if it was on Twitter.","post_user_id":"6759027","show_signature":"1","last_edit_time":"0","post_votes":"0","post_unhidden":"0","post_admin_hidden":"0","post_locked":"0","last_edit_user":"0","votes":null,"post_username":"xBlaze","avatar":"https:\/\/assets-cloud.enjin.com\/users\/6759027\/avatar\/medium.1496333371.jpeg","user_online":false,"user_votes":"3","user_posts":"606","url":"https:\/\/www.enjin.com\/ajax.php?s=redirect&cmd=forum-post&mobile=1&preset=12571633&id=107004358"},{"post_id":"107015538","post_time":"1444174840","post_content":"Thats what Prison is dumbass","post_content_html":"Thats what Prison is dumbass","post_content_clean":"Thats what Prison is dumbass","post_user_id":"7985788","show_signature":"1","last_edit_time":"0","post_votes":"0","post_unhidden":"0","post_admin_hidden":"0","post_locked":"0","last_edit_user":"0","votes":null,"post_username":"BladeNinja20","avatar":"https:\/\/resources.enjin.com\/1465083537\/profile\/images\/avatar\/medium.png","user_online":false,"user_votes":"5","user_posts":"781","url":"https:\/\/www.enjin.com\/ajax.php?s=redirect&cmd=forum-post&mobile=1&preset=12571633&id=107015538"},{"post_id":"107016193","post_time":"1444175690","post_content":"The drug shop is an overpowered way of getting money, and once you've established a decently sized farm you're OP. Mining is actual work, unlike afking in farms all day. This is supposed to be &quot;hardcore prison&quot;, on the contrary things such as quests, overpowered drug stores, and donator commands like \/fix all and \/feed take away anything hardcore from this prison.","post_content_html":"The drug shop is an overpowered way of getting money, and once you've established a decently sized farm you're OP. Mining is actual work, unlike afking in farms all day. This is supposed to be &quot;hardcore prison&quot;, on the contrary things such as quests, overpowered drug stores, and donator commands like \/fix all and \/feed take away anything hardcore from this prison.","post_content_clean":"The drug shop is an overpowered way of getting money, and once you've established a decently sized farm you're OP. Mining is actual work, unlike afking in farms all day. This is supposed to be \"hardcore prison\", on the contrary things such as quests, overpowered drug stores, and donator commands like \/fix all and \/feed take away anything hardcore from this prison.","post_user_id":"9843685","show_signature":"1","last_edit_time":"1444197021","post_votes":"0","post_unhidden":"0","post_admin_hidden":"0","post_locked":"0","last_edit_user":"0","votes":null,"post_username":"\u262aThe King\u262a","avatar":"https:\/\/assets-cloud.enjin.com\/users\/9843685\/avatar\/medium.1434671201.png","user_online":false,"user_votes":"2","user_posts":"1223","url":"https:\/\/www.enjin.com\/ajax.php?s=redirect&cmd=forum-post&mobile=1&preset=12571633&id=107016193"},{"post_id":"107114930","post_time":"1444351775","post_content":"Yeah it is over powered. And like I said ITS SO BORING PEOPLE JUST AFK THEIR FARMS THEN SELL THEN AFK MORE! Is this what everyone got soooo hyped for? Its dumb\r\nand I rly hope it changes","post_content_html":"Yeah it is over powered. And like I said ITS SO BORING PEOPLE JUST AFK THEIR FARMS THEN SELL THEN AFK MORE! Is this what everyone got soooo hyped for? Its dumb<br \/> <br \/> and I rly hope it changes","post_content_clean":"Yeah it is over powered. And like I said ITS SO BORING PEOPLE JUST AFK THEIR FARMS THEN SELL THEN AFK MORE! Is this what everyone got soooo hyped for? Its dumb\r and I rly hope it changes","post_user_id":"7985788","show_signature":"1","last_edit_time":"0","post_votes":"0","post_unhidden":"0","post_admin_hidden":"0","post_locked":"0","last_edit_user":"0","votes":null,"post_username":"BladeNinja20","avatar":"https:\/\/resources.enjin.com\/1465083537\/profile\/images\/avatar\/medium.png","user_online":false,"user_votes":"5","user_posts":"781","url":"https:\/\/www.enjin.com\/ajax.php?s=redirect&cmd=forum-post&mobile=1&preset=12571633&id=107114930"},{"post_id":"107115811","post_time":"1444353270","post_content":"[quote user_id=\"7985788\" avatar=\"https:\/\/cravatar.eu\/helmavatar\/Spurk\/74.png\" name=\"Spurk\"]Yeah it is over powered. And like I said ITS SO BORING PEOPLE JUST AFK THEIR FARMS THEN SELL THEN AFK MORE! Is this what everyone got soooo hyped for? Its dumb\r\nand I rly hope it changes[\/quote]\r\n\r\nMining is not fun either. It is very repetitive. Now, you can actually build your own farm your own way. You can have sugarcane and cocoa beans and cactus. And then you have to harvest and smelt if it's cactus. You have to be careful while smelting so no one kills you, which brings a little pvp into this. Then you have to spend quite a bit of time selling at the barn which also means having to be very careful. So, you want more of a mining aspect in this right? Well isn't mining just clicking your mouse, then selling, then repeating? Which is what you actually don't want? Okay, maybe farms give a bit too much money, but maybe make it so plots cost money and you have to renew them everyone week or so. That would stop people who quit from hogging the plots. It would force people to get on so they won't lose their farm. It makes it a bit more challenging instead of free, permanent farms. Hm, what about that?","post_content_html":" <div class=\"bbcode_quote\"> <div class=\"bbcode_quote_head\">@7985788 wrote:<\/div> <div class=\"bbcode_quote_body\">Yeah it is over powered. And like I said ITS SO BORING PEOPLE JUST AFK THEIR FARMS THEN SELL THEN AFK MORE! Is this what everyone got soooo hyped for? Its dumb<br \/> <br \/> and I rly hope it changes<\/div> <\/div> <br \/> Mining is not fun either. It is very repetitive. Now, you can actually build your own farm your own way. You can have sugarcane and cocoa beans and cactus. And then you have to harvest and smelt if it's cactus. You have to be careful while smelting so no one kills you, which brings a little pvp into this. Then you have to spend quite a bit of time selling at the barn which also means having to be very careful. So, you want more of a mining aspect in this right? Well isn't mining just clicking your mouse, then selling, then repeating? Which is what you actually don't want? Okay, maybe farms give a bit too much money, but maybe make it so plots cost money and you have to renew them everyone week or so. That would stop people who quit from hogging the plots. It would force people to get on so they won't lose their farm. It makes it a bit more challenging instead of free, permanent farms. Hm, what about that?","post_content_clean":"Yeah it is over powered. And like I said ITS SO BORING PEOPLE JUST AFK THEIR FARMS THEN SELL THEN AFK MORE! Is this what everyone got soooo hyped for? Its dumb\r and I rly hope it changes\r \r Mining is not fun either. It is very repetitive. Now, you can actually build your own farm your own way. You can have sugarcane and cocoa beans and cactus. And then you have to harvest and smelt if it's cactus. You have to be careful while smelting so no one kills you, which brings a little pvp into this. Then you have to spend quite a bit of time selling at the barn which also means having to be very careful. So, you want more of a mining aspect in this right? Well isn't mining just clicking your mouse, then selling, then repeating? Which is what you actually don't want? Okay, maybe farms give a bit too much money, but maybe make it so plots cost money and you have to renew them everyone week or so. That would stop people who quit from hogging the plots. It would force people to get on so they won't lose their farm. It makes it a bit more challenging instead of free, permanent farms. Hm, what about that?","post_user_id":"9599448","show_signature":"1","last_edit_time":"0","post_votes":"0","post_unhidden":"0","post_admin_hidden":"0","post_locked":"0","last_edit_user":"0","votes":null,"post_username":"Potahto","avatar":"https:\/\/assets-cloud.enjin.com\/users\/9599448\/avatar\/medium.1439216144.jpeg","user_online":false,"user_votes":"52","user_posts":"501","url":"https:\/\/www.enjin.com\/ajax.php?s=redirect&cmd=forum-post&mobile=1&preset=12571633&id=107115811"},{"post_id":"107122218","post_time":"1444365812","post_content":"[quote user_id=\"9843685\" avatar=\"https:\/\/cravatar.eu\/helmavatar\/KingAss\/74.png\" name=\"KingAss\"]The drug shop is an overpowered way of getting money, and once you've established a decently sized farm you're OP. Mining is actual work, unlike afking in farms all day. This is supposed to be &quot;hardcore prison&quot;, on the contrary things such as quests, overpowered drug stores, and donator commands like \/fix all and \/feed take away anything hardcore from this prison.[\/quote]\r\nAgreeing with this overall, but for now I'll delve a little deeper and explain why. I'm not in the mood to write anything extensive at the moment, but I'll address what I've seen in this thread while skimming it. Blade says the following:\r\n\r\n[i]Mining, it takes like 1hr+ to get a decent amount of iron or gold and if u dont want a whole inv of cobble make it another 1hr. Then it takes around 30 min to mine enough wood to smelt it all because they cant add coal to the mines?! Then u have to risk ur life just to smelt back and forth. And after that entite prosess u can finally sell.\r\n\r\nEnchants: this is mainly about pickaxes. 1 why limit it to eff 3? Why cant we get eff5? It doesnt effect any type of pvp or anything all it does is let ppl mine faster why is that so bad? And cant we at least get fortune 1? Honestly the SD mine has what 1-3 diamonds each reset if that? We need a way to get some diamonds!\r\n[\/i]\r\nThe mining issue is only an issue because of the prices Shicking set and the overall convenience of quests. Because of quests, the prices for the districts had to be jacked up, so as not to be too easy. Take note; quests were never meant to be implemented, and they're something I was vehemently against from the start. The simple fact they give you money is bad enough. I would suggest giving out novelty items for the completion of a quest. You get an absurd amount of money from quests over mining. Who would mine for the sake of mining and not for the sake of completing a quest anymore? That's really what it comes down to, and it's just made worse by the fact that the quests are repeatable. You mention the process of smelting, etc. Keep in mind this was meant to be a [b]lot[\/b] easier, because you would have your own plot to go to in the [b]actual spawn world.[\/b] Kiting is literally impossible in a big fight. You'll simply be running around aimlessly. After all, you're running where exactly? If the plots were to be implemented as I originally said they would, this wouldn't be an issue. But, as far as I know, this is due to technical problems with plugins and not actual fault with the decisions made. Even so, HCP could have been released at the least a few weeks later with these issues rectified.\r\n\r\nEnchants I agree with, for sure. The limiting of efficiency is completely pointless. Shicking frequently told me not to make gameplay decisions that would hinder people who were good. This is an exact example of hindering those who are good, however. It's essentially giving you an enchant level which isn't great, over giving you the opportunity to make it great. Expanding on this, fortune is also meant to be allowed for the same reason I stated. Punch and Knockback both shouldn't have been implemented at all. In what world is knockback a good idea for a competitive PvP environment? As a side note, it makes knocking KOTHs a lot easier than it should be. Also, strength is allowed and the staff aren't allowed to disable it. This makes it possible to 5shot people I believe. Once again, a big no-no.\r\n\r\nI've seen a lot of people say that the effort required to farm justifies the amount of money you get. It should be explained by now why that isn't true, but I'll go on and detail it. Farming, as a gameplay mechanic of HCP, was set to be non-profit unless you were selling to other players. You were meant to make a farm so you had your own reliable source of crops\/pot materials. Not to be rewarded for buying a plant and waiting.\r\n\r\nFor reference, these were the original prices (and new items) that were meant to be set at the start of HCP for each district:\r\nC- 2.5k    [i]Gold + Pot ingredients[\/i]\r\nB- 10k    [i]Blaze rods[\/i]\r\nA- 20k    [i]Dirt, plants, obsidian, diamond[\/i]\r\nSD- 50k    [i]Animals, new types of saplings[\/i]\r\nSC- 75k\/100k    [i]Pot enhancing materials. think glowstone\/redstone[\/i]\r\nSB- 150k    [i]Mob spawner for EXP[\/i]\r\nSA- 200k    [i]Debuffs[\/i]\r\n\r\nThese prices may seem low to you ATM, but this was designed for a Prison without profit afk-machines or quests.","post_content_html":" <div class=\"bbcode_quote\"> <div class=\"bbcode_quote_head\">@9843685 wrote:<\/div> <div class=\"bbcode_quote_body\">The drug shop is an overpowered way of getting money, and once you've established a decently sized farm you're OP. Mining is actual work, unlike afking in farms all day. This is supposed to be &quot;hardcore prison&quot;, on the contrary things such as quests, overpowered drug stores, and donator commands like \/fix all and \/feed take away anything hardcore from this prison.<\/div> <\/div> <br \/> Agreeing with this overall, but for now I'll delve a little deeper and explain why. I'm not in the mood to write anything extensive at the moment, but I'll address what I've seen in this thread while skimming it. Blade says the following:<br \/> <br \/> <i>Mining, it takes like 1hr+ to get a decent amount of iron or gold and if u dont want a whole inv of cobble make it another 1hr. Then it takes around 30 min to mine enough wood to smelt it all because they cant add coal to the mines?! Then u have to risk ur life just to smelt back and forth. And after that entite prosess u can finally sell.<br \/> <br \/> Enchants: this is mainly about pickaxes. 1 why limit it to eff 3? Why cant we get eff5? It doesnt effect any type of pvp or anything all it does is let ppl mine faster why is that so bad? And cant we at least get fortune 1? Honestly the SD mine has what 1-3 diamonds each reset if that? We need a way to get some diamonds!<br \/> <br \/> <\/i><br \/> <br \/> The mining issue is only an issue because of the prices Shicking set and the overall convenience of quests. Because of quests, the prices for the districts had to be jacked up, so as not to be too easy. Take note; quests were never meant to be implemented, and they're something I was vehemently against from the start. The simple fact they give you money is bad enough. I would suggest giving out novelty items for the completion of a quest. You get an absurd amount of money from quests over mining. Who would mine for the sake of mining and not for the sake of completing a quest anymore? That's really what it comes down to, and it's just made worse by the fact that the quests are repeatable. You mention the process of smelting, etc. Keep in mind this was meant to be a <b>lot<\/b> easier, because you would have your own plot to go to in the <b>actual spawn world.<\/b> Kiting is literally impossible in a big fight. You'll simply be running around aimlessly. After all, you're running where exactly? If the plots were to be implemented as I originally said they would, this wouldn't be an issue. But, as far as I know, this is due to technical problems with plugins and not actual fault with the decisions made. Even so, HCP could have been released at the least a few weeks later with these issues rectified.<br \/> <br \/> Enchants I agree with, for sure. The limiting of efficiency is completely pointless. Shicking frequently told me not to make gameplay decisions that would hinder people who were good. This is an exact example of hindering those who are good, however. It's essentially giving you an enchant level which isn't great, over giving you the opportunity to make it great. Expanding on this, fortune is also meant to be allowed for the same reason I stated. Punch and Knockback both shouldn't have been implemented at all. In what world is knockback a good idea for a competitive PvP environment? As a side note, it makes knocking KOTHs a lot easier than it should be. Also, strength is allowed and the staff aren't allowed to disable it. This makes it possible to 5shot people I believe. Once again, a big no-no.<br \/> <br \/> I've seen a lot of people say that the effort required to farm justifies the amount of money you get. It should be explained by now why that isn't true, but I'll go on and detail it. Farming, as a gameplay mechanic of HCP, was set to be non-profit unless you were selling to other players. You were meant to make a farm so you had your own reliable source of crops\/pot materials. Not to be rewarded for buying a plant and waiting.<br \/> <br \/> For reference, these were the original prices (and new items) that were meant to be set at the start of HCP for each district:<br \/> <br \/> C- 2.5k    <i>Gold + Pot ingredients<\/i><br \/> <br \/> B- 10k    <i>Blaze rods<\/i><br \/> <br \/> A- 20k    <i>Dirt, plants, obsidian, diamond<\/i><br \/> <br \/> SD- 50k    <i>Animals, new types of saplings<\/i><br \/> <br \/> SC- 75k\/100k    <i>Pot enhancing materials. think glowstone\/redstone<\/i><br \/> <br \/> SB- 150k    <i>Mob spawner for EXP<\/i><br \/> <br \/> SA- 200k    <i>Debuffs<\/i><br \/> <br \/> These prices may seem low to you ATM, but this was designed for a Prison without profit afk-machines or quests.","post_content_clean":"The drug shop is an overpowered way of getting money, and once you've established a decently sized farm you're OP. Mining is actual work, unlike afking in farms all day. This is supposed to be \"hardcore prison\", on the contrary things such as quests, overpowered drug stores, and donator commands like \/fix all and \/feed take away anything hardcore from this prison.\r Agreeing with this overall, but for now I'll delve a little deeper and explain why. I'm not in the mood to write anything extensive at the moment, but I'll address what I've seen in this thread while skimming it. Blade says the following:\r \r Mining, it takes like 1hr+ to get a decent amount of iron or gold and if u dont want a whole inv of cobble make it another 1hr. Then it takes around 30 min to mine enough wood to smelt it all because they cant add coal to the mines?! Then u have to risk ur life just to smelt back and forth. And after that entite prosess u can finally sell.\r \r Enchants: this is mainly about pickaxes. 1 why limit it to eff 3? Why cant we get eff5? It doesnt effect any type of pvp or anything all it does is let ppl mine faster why is that so bad? And cant we at least get fortune 1? Honestly the SD mine has what 1-3 diamonds each reset if that? We need a way to get some diamonds!\r \r The mining issue is only an issue because of the prices Shicking set and the overall convenience of quests. Because of quests, the prices for the districts had to be jacked up, so as not to be too easy. Take note; quests were never meant to be implemented, and they're something I was vehemently against from the start. The simple fact they give you money is bad enough. I would suggest giving out novelty items for the completion of a quest. You get an absurd amount of money from quests over mining. Who would mine for the sake of mining and not for the sake of completing a quest anymore? That's really what it comes down to, and it's just made worse by the fact that the quests are repeatable. You mention the process of smelting, etc. Keep in mind this was meant to be a lot easier, because you would have your own plot to go to in the actual spawn world. Kiting is literally impossible in a big fight. You'll simply be running around aimlessly. After all, you're running where exactly? If the plots were to be implemented as I originally said they would, this wouldn't be an issue. But, as far as I know, this is due to technical problems with plugins and not actual fault with the decisions made. Even so, HCP could have been released at the least a few weeks later with these issues rectified.\r \r Enchants I agree with, for sure. The limiting of efficiency is completely pointless. Shicking frequently told me not to make gameplay decisions that would hinder people who were good. This is an exact example of hindering those who are good, however. It's essentially giving you an enchant level which isn't great, over giving you the opportunity to make it great. Expanding on this, fortune is also meant to be allowed for the same reason I stated. Punch and Knockback both shouldn't have been implemented at all. In what world is knockback a good idea for a competitive PvP environment? As a side note, it makes knocking KOTHs a lot easier than it should be. Also, strength is allowed and the staff aren't allowed to disable it. This makes it possible to 5shot people I believe. Once again, a big no-no.\r \r I've seen a lot of people say that the effort required to farm justifies the amount of money you get. It should be explained by now why that isn't true, but I'll go on and detail it. Farming, as a gameplay mechanic of HCP, was set to be non-profit unless you were selling to other players. You were meant to make a farm so you had your own reliable source of crops\/pot materials. Not to be rewarded for buying a plant and waiting.\r \r For reference, these were the original prices (and new items) that were meant to be set at the start of HCP for each district:\r C- 2.5k    Gold + Pot ingredients \r B- 10k    Blaze rods\r A- 20k    Dirt, plants, obsidian, diamond\r SD- 50k    Animals, new types of saplings\r SC- 75k\/100k    Pot enhancing materials. think glowstone\/redstone\r SB- 150k    Mob spawner for EXP\r SA- 200k    Debuffs\r \r These prices may seem low to you ATM, but this was designed for a Prison without profit afk-machines or quests.","post_user_id":"8656906","show_signature":"1","last_edit_time":"0","post_votes":"0","post_unhidden":"0","post_admin_hidden":"0","post_locked":"0","last_edit_user":"0","votes":null,"post_username":"Hex4G","avatar":"https:\/\/assets-cloud.enjin.com\/users\/8656906\/avatar\/medium.1407241778.png","user_online":false,"user_votes":"133","user_posts":"859","url":"https:\/\/www.enjin.com\/ajax.php?s=redirect&cmd=forum-post&mobile=1&preset=12571633&id=107122218"}],"total_items":"25","pages":3,"voted":false,"new_post_id":"106922773","thread_labels":[],"top_posters":{"result":[{"post_user_id":"7985788","posts":"5","username":"BladeNinja20","avatar":"https:\/\/resources.enjin.com\/1465083537\/profile\/images\/avatar\/medium.png"},{"post_user_id":"6759027","posts":"4","username":"xBlaze","avatar":"https:\/\/assets-cloud.enjin.com\/users\/6759027\/avatar\/medium.1496333371.jpeg"},{"post_user_id":"13186426","posts":"2","username":"Dojos\/Formalize","avatar":"https:\/\/assets-cloud.enjin.com\/users\/13186426\/avatar\/medium.1437025763.png"},{"post_user_id":"9843685","posts":"2","username":"\u262aThe King\u262a","avatar":"https:\/\/assets-cloud.enjin.com\/users\/9843685\/avatar\/medium.1434671201.png"},{"post_user_id":"9599448","posts":"2","username":"Potahto","avatar":"https:\/\/assets-cloud.enjin.com\/users\/9599448\/avatar\/medium.1439216144.jpeg"},{"post_user_id":"12353162","posts":"2","username":"Bruiser","avatar":"https:\/\/assets-cloud.enjin.com\/users\/12353162\/avatar\/medium.1444438908.jpeg"},{"post_user_id":"11396590","posts":"1","username":"BobbyDragon1r7","avatar":"https:\/\/resources.enjin.com\/1465083537\/profile\/images\/avatar\/medium.png"},{"post_user_id":"8542709","posts":"1","username":"Bandzz","avatar":"https:\/\/assets-cloud.enjin.com\/users\/8542709\/avatar\/medium.1470014906.jpeg"},{"post_user_id":"11581368","posts":"1","username":"Getzs","avatar":"https:\/\/resources.enjin.com\/1465083537\/profile\/images\/avatar\/medium.png"},{"post_user_id":"8656906","posts":"1","username":"Hex4G","avatar":"https:\/\/assets-cloud.enjin.com\/users\/8656906\/avatar\/medium.1407241778.png"},{"post_user_id":"8434842","posts":"1","username":"ZeLightbulb","avatar":"https:\/\/assets-cloud.enjin.com\/users\/8434842\/avatar\/medium.1479850476.jpeg"},{"post_user_id":"7966306","posts":"1","username":"Derpylatios","avatar":"https:\/\/assets-cloud.enjin.com\/users\/7966306\/avatar\/medium.1460034913.png"}],"num_users":"14"},"moderation_access":false,"poll_post":null,"post_access":true,"new_thread_access":true},"id":"1234567","jsonrpc":"2.0"}
{"result":{"thread":{"preset_id":"12571633","forum_id":"4414862","thread_id":"24430875","thread_subject":"Please read!","thread_replies":"24","thread_views":"9940","thread_type":"normal","thread_status":"locked","thread_user_id":"7985788","thread_username":"BladeNinja20","thread_avatar":"https:\/\/assets-cloud.enjin.com\/users\/7985788\/avatar\/medium.1479850476.jpeg","thread_lastpost_user_id":"6759027","thread_lastpost_username":"YoutubeBlaze","thread_lastpost_time":"1444504775","thread_moved_id":"0","thread_post_time":"1443967410","url":"https:\/\/www.enjin.com\/ajax.php?s=redirect&cmd=forum-thread&mobile=1&preset=12571633&id=24430875","post_count":"1","category_id":"1907006","forum_name":"Prison General Discussion","forum_description":"Discuss with other players about Prison!","disable_voting":"0","show_signature":"1","url_cms":"https:\/\/www.craftsurvivalgames.com\/forum\/m\/12571633\/viewthread\/24430875-please-read"},"posts":[{"post_id":"107132831","post_time":"1444398628","post_content":"And please, my gosh, freaking remove strength","post_content_html":"And please, my gosh, freaking remove strength","post_content_clean":"And please, my gosh, freaking remove strength","post_user_id":"8434842","show_signature":"1","last_edit_time":"0","post_votes":"0","post_unhidden":"0","post_admin_hidden":"0","post_locked":"0","last_edit_user":"0","votes":null,"post_username":"ZeLightbulb","avatar":"https:\/\/assets-cloud.enjin.com\/users\/8434842\/avatar\/medium.1479850476.jpeg","user_online":false,"user_votes":"1","user_posts":"458","url":"https:\/\/www.enjin.com\/ajax.php?s=redirect&cmd=forum-post&mobile=1&preset=12571633&id=107132831"},{"post_id":"107138143","post_time":"1444407185","post_content":"hey this reminds me of farmville","post_content_html":"hey this reminds me of farmville","post_content_clean":"hey this reminds me of farmville","post_user_id":"7875360","show_signature":"1","last_edit_time":"0","post_votes":"0","post_unhidden":"0","post_admin_hidden":"0","post_locked":"0","last_edit_user":"0","votes":null,"post_username":"IronSword","avatar":"https:\/\/assets-cloud.enjin.com\/users\/7875360\/avatar\/medium.1440483579.png","user_online":false,"user_votes":"53","user_posts":"816","url":"https:\/\/www.enjin.com\/ajax.php?s=redirect&cmd=forum-post&mobile=1&preset=12571633&id=107138143"},{"post_id":"107141114","post_time":"1444411800","post_content":"[quote user_id=\"8656906\" avatar=\"https:\/\/cravatar.eu\/helmavatar\/Hex4G\/74.png\" name=\"Hex4G\"][quote user_id=\"9843685\" avatar=\"https:\/\/cravatar.eu\/helmavatar\/KingAss\/74.png\" name=\"KingAss\"]The drug shop is an overpowered way of getting money, and once you've established a decently sized farm you're OP. Mining is actual work, unlike afking in farms all day. This is supposed to be &quot;hardcore prison&quot;, on the contrary things such as quests, overpowered drug stores, and donator commands like \/fix all and \/feed take away anything hardcore from this prison.[\/quote]\r\nAgreeing with this overall, but for now I'll delve a little deeper and explain why. I'm not in the mood to write anything extensive at the moment, but I'll address what I've seen in this thread while skimming it. Blade says the following:\r\n\r\n[i]Mining, it takes like 1hr+ to get a decent amount of iron or gold and if u dont want a whole inv of cobble make it another 1hr. Then it takes around 30 min to mine enough wood to smelt it all because they cant add coal to the mines?! Then u have to risk ur life just to smelt back and forth. And after that entite prosess u can finally sell.\r\n\r\nEnchants: this is mainly about pickaxes. 1 why limit it to eff 3? Why cant we get eff5? It doesnt effect any type of pvp or anything all it does is let ppl mine faster why is that so bad? And cant we at least get fortune 1? Honestly the SD mine has what 1-3 diamonds each reset if that? We need a way to get some diamonds!\r\n[\/i]\r\nThe mining issue is only an issue because of the prices Shicking set and the overall convenience of quests. Because of quests, the prices for the districts had to be jacked up, so as not to be too easy. Take note; quests were never meant to be implemented, and they're something I was vehemently against from the start. The simple fact they give you money is bad enough. I would suggest giving out novelty items for the completion of a quest. You get an absurd amount of money from quests over mining. Who would mine for the sake of mining and not for the sake of completing a quest anymore? That's really what it comes down to, and it's just made worse by the fact that the quests are repeatable. You mention the process of smelting, etc. Keep in mind this was meant to be a [b]lot[\/b] easier, because you would have your own plot to go to in the [b]actual spawn world.[\/b] Kiting is literally impossible in a big fight. You'll simply be running around aimlessly. After all, you're running where exactly? If the plots were to be implemented as I originally said they would, this wouldn't be an issue. But, as far as I know, this is due to technical problems with plugins and not actual fault with the decisions made. Even so, HCP could have been released at the least a few weeks later with these issues rectified.\r\n\r\nEnchants I agree with, for sure. The limiting of efficiency is completely pointless. Shicking frequently told me not to make gameplay decisions that would hinder people who were good. This is an exact example of hindering those who are good, however. It's essentially giving you an enchant level which isn't great, over giving you the opportunity to make it great. Expanding on this, fortune is also meant to be allowed for the same reason I stated. Punch and Knockback both shouldn't have been implemented at all. In what world is knockback a good idea for a competitive PvP environment? As a side note, it makes knocking KOTHs a lot easier than it should be. Also, strength is allowed and the staff aren't allowed to disable it. This makes it possible to 5shot people I believe. Once again, a big no-no.\r\n\r\nI've seen a lot of people say that the effort required to farm justifies the amount of money you get. It should be explained by now why that isn't true, but I'll go on and detail it. Farming, as a gameplay mechanic of HCP, was set to be non-profit unless you were selling to other players. You were meant to make a farm so you had your own reliable source of crops\/pot materials. Not to be rewarded for buying a plant and waiting.\r\n\r\nFor reference, these were the original prices (and new items) that were meant to be set at the start of HCP for each district:\r\nC- 2.5k    [i]Gold + Pot ingredients[\/i]\r\nB- 10k    [i]Blaze rods[\/i]\r\nA- 20k    [i]Dirt, plants, obsidian, diamond[\/i]\r\nSD- 50k    [i]Animals, new types of saplings[\/i]\r\nSC- 75k\/100k    [i]Pot enhancing materials. think glowstone\/redstone[\/i]\r\nSB- 150k    [i]Mob spawner for EXP[\/i]\r\nSA- 200k    [i]Debuffs[\/i]\r\n\r\nThese prices may seem low to you ATM, but this was designed for a Prison without profit afk-machines or quests.[\/quote]\r\nAgree with everything there, prison as of now is boring. One more thing is that districts should've been finished before prison was released, because now the only time prison has a decent amount of players is when a district is being released. If they were all released at the same time, up till now we would still have a flow of consistent players on prison, working their way up to higher districts.","post_content_html":" <div class=\"bbcode_quote\"> <div class=\"bbcode_quote_head\">@8656906 wrote:<\/div> <div class=\"bbcode_quote_body\"> <div class=\"bbcode_quote\"> <div class=\"bbcode_quote_head\">@9843685 wrote:<\/div> <div class=\"bbcode_quote_body\">The drug shop is an overpowered way of getting money, and once you've established a decently sized farm you're OP. Mining is actual work, unlike afking in farms all day. This is supposed to be &quot;hardcore prison&quot;, on the contrary things such as quests, overpowered drug stores, and donator commands like \/fix all and \/feed take away anything hardcore from this prison.<\/div> <\/div> <br \/> Agreeing with this overall, but for now I'll delve a little deeper and explain why. I'm not in the mood to write anything extensive at the moment, but I'll address what I've seen in this thread while skimming it. Blade says the following:<br \/> <br \/> <i>Mining, it takes like 1hr+ to get a decent amount of iron or gold and if u dont want a whole inv of cobble make it another 1hr. Then it takes around 30 min to mine enough wood to smelt it all because they cant add coal to the mines?! Then u have to risk ur life just to smelt back and forth. And after that entite prosess u can finally sell.<br \/> <br \/> Enchants: this is mainly about pickaxes. 1 why limit it to eff 3? Why cant we get eff5? It doesnt effect any type of pvp or anything all it does is let ppl mine faster why is that so bad? And cant we at least get fortune 1? Honestly the SD mine has what 1-3 diamonds each reset if that? We need a way to get some diamonds!<br \/> <br \/> <\/i><br \/> <br \/> The mining issue is only an issue because of the prices Shicking set and the overall convenience of quests. Because of quests, the prices for the districts had to be jacked up, so as not to be too easy. Take note; quests were never meant to be implemented, and they're something I was vehemently against from the start. The simple fact they give you money is bad enough. I would suggest giving out novelty items for the completion of a quest. You get an absurd amount of money from quests over mining. Who would mine for the sake of mining and not for the sake of completing a quest anymore? That's really what it comes down to, and it's just made worse by the fact that the quests are repeatable. You mention the process of smelting, etc. Keep in mind this was meant to be a <b>lot<\/b> easier, because you would have your own plot to go to in the <b>actual spawn world.<\/b> Kiting is literally impossible in a big fight. You'll simply be running around aimlessly. After all, you're running where exactly? If the plots were to be implemented as I originally said they would, this wouldn't be an issue. But, as far as I know, this is due to technical problems with plugins and not actual fault with the decisions made. Even so, HCP could have been released at the least a few weeks later with these issues rectified.<br \/> <br \/> Enchants I agree with, for sure. The limiting of efficiency is completely pointless. Shicking frequently told me not to make gameplay decisions that would hinder people who were good. This is an exact example of hindering those who are good, however. It's essentially giving you an enchant level which isn't great, over giving you the opportunity to make it great. Expanding on this, fortune is also meant to be allowed for the same reason I stated. Punch and Knockback both shouldn't have been implemented at all. In what world is knockback a good idea for a competitive PvP environment? As a side note, it makes knocking KOTHs a lot easier than it should be. Also, strength is allowed and the staff aren't allowed to disable it. This makes it possible to 5shot people I believe. Once again, a big no-no.<br \/> <br \/> I've seen a lot of people say that the effort required to farm justifies the amount of money you get. It should be explained by now why that isn't true, but I'll go on and detail it. Farming, as a gameplay mechanic of HCP, was set to be non-profit unless you were selling to other players. You were meant to make a farm so you had your own reliable source of crops\/pot materials. Not to be rewarded for buying a plant and waiting.<br \/> <br \/> For reference, these were the original prices (and new items) that were meant to be set at the start of HCP for each district:<br \/> <br \/> C- 2.5k    <i>Gold + Pot ingredients<\/i><br \/> <br \/> B- 10k    <i>Blaze rods<\/i><br \/> <br \/> A- 20k    <i>Dirt, plants, obsidian, diamond<\/i><br \/> <br \/> SD- 50k    <i>Animals, new types of saplings<\/i><br \/> <br \/> SC- 75k\/100k    <i>Pot enhancing materials. think glowstone\/redstone<\/i><br \/> <br \/> SB- 150k    <i>Mob spawner for EXP<\/i><br \/> <br \/> SA- 200k    <i>Debuffs<\/i><br \/> <br \/> These prices may seem low to you ATM, but this was designed for a Prison without profit afk-machines or quests.<\/div> <\/div> <br \/> Agree with everything there, prison as of now is boring. One more thing is that districts should've been finished before prison was released, because now the only time prison has a decent amount of players is when a district is being released. If they were all released at the same time, up till now we would still have a flow of consistent players on prison, working their way up to higher districts.","post_content_clean":"The drug shop is an overpowered way of getting money, and once you've established a decently sized farm you're OP. Mining is actual work, unlike afking in farms all day. This is supposed to be \"hardcore prison\", on the contrary things such as quests, overpowered drug stores, and donator commands like \/fix all and \/feed take away anything hardcore from this prison.\r Agreeing with this overall, but for now I'll delve a little deeper and explain why. I'm not in the mood to write anything extensive at the moment, but I'll address what I've seen in this thread while skimming it. Blade says the following:\r \r Mining, it takes like 1hr+ to get a decent amount of iron or gold and if u dont want a whole inv of cobble make it another 1hr. Then it takes around 30 min to mine enough wood to smelt it all because they cant add coal to the mines?! Then u have to risk ur life just to smelt back and forth. And after that entite prosess u can finally sell.\r \r Enchants: this is mainly about pickaxes. 1 why limit it to eff 3? Why cant we get eff5? It doesnt effect any type of pvp or anything all it does is let ppl mine faster why is that so bad? And cant we at least get fortune 1? Honestly the SD mine has what 1-3 diamonds each reset if that? We need a way to get some diamonds!\r \r The mining issue is only an issue because of the prices Shicking set and the overall convenience of quests. Because of quests, the prices for the districts had to be jacked up, so as not to be too easy. Take note; quests were never meant to be implemented, and they're something I was vehemently against from the start. The simple fact they give you money is bad enough. I would suggest giving out novelty items for the completion of a quest. You get an absurd amount of money from quests over mining. Who would mine for the sake of mining and not for the sake of completing a quest anymore? That's really what it comes down to, and it's just made worse by the fact that the quests are repeatable. You mention the process of smelting, etc. Keep in mind this was meant to be a lot easier, because you would have your own plot to go to in the actual spawn world. Kiting is literally impossible in a big fight. You'll simply be running around aimlessly. After all, you're running where exactly? If the plots were to be implemented as I originally said they would, this wouldn't be an issue. But, as far as I know, this is due to technical problems with plugins and not actual fault with the decisions made. Even so, HCP could have been released at the least a few weeks later with these issues rectified.\r \r Enchants I agree with, for sure. The limiting of efficiency is completely pointless. Shicking frequently told me not to make gameplay decisions that would hinder people who were good. This is an exact example of hindering those who are good, however. It's essentially giving you an enchant level which isn't great, over giving you the opportunity to make it great. Expanding on this, fortune is also meant to be allowed for the same reason I stated. Punch and Knockback both shouldn't have been implemented at all. In what world is knockback a good idea for a competitive PvP environment? As a side note, it makes knocking KOTHs a lot easier than it should be. Also, strength is allowed and the staff aren't allowed to disable it. This makes it possible to 5shot people I believe. Once again, a big no-no.\r \r I've seen a lot of people say that the effort required to farm justifies the amount of money you get. It should be explained by now why that isn't true, but I'll go on and detail it. Farming, as a gameplay mechanic of HCP, was set to be non-profit unless you were selling to other players. You were meant to make a farm so you had your own reliable source of crops\/pot materials. Not to be rewarded for buying a plant and waiting.\r \r For reference, these were the original prices (and new items) that were meant to be set at the start of HCP for each district:\r C- 2.5k    Gold + Pot ingredients \r B- 10k    Blaze rods\r A- 20k    Dirt, plants, obsidian, diamond\r SD- 50k    Animals, new types of saplings\r SC- 75k\/100k    Pot enhancing materials. think glowstone\/redstone\r SB- 150k    Mob spawner for EXP\r SA- 200k    Debuffs\r \r These prices may seem low to you ATM, but this was designed for a Prison without profit afk-machines or quests.\r Agree with everything there, prison as of now is boring. One more thing is that districts should've been finished before prison was released, because now the only time prison has a decent amount of players is when a district is being released. If they were all released at the same time, up till now we would still have a flow of consistent players on prison, working their way up to higher districts.","post_user_id":"9843685","show_signature":"1","last_edit_time":"0","post_votes":"0","post_unhidden":"0","post_admin_hidden":"0","post_locked":"0","last_edit_user":"0","votes":null,"post_username":"\u262aThe King\u262a","avatar":"https:\/\/assets-cloud.enjin.com\/users\/9843685\/avatar\/medium.1434671201.png","user_online":false,"user_votes":"2","user_posts":"1223","url":"https:\/\/www.enjin.com\/ajax.php?s=redirect&cmd=forum-post&mobile=1&preset=12571633&id=107141114"},{"post_id":"107169405","post_time":"1444455289","post_content":"I honestly think that there should be no farms, no barn, and no enchant limitations. That is that.","post_content_html":"I honestly think that there should be no farms, no barn, and no enchant limitations. That is that.","post_content_clean":"I honestly think that there should be no farms, no barn, and no enchant limitations. That is that.","post_user_id":"12353162","show_signature":"1","last_edit_time":"0","post_votes":"0","post_unhidden":"0","post_admin_hidden":"0","post_locked":"0","last_edit_user":"0","votes":null,"post_username":"Bruiser","avatar":"https:\/\/assets-cloud.enjin.com\/users\/12353162\/avatar\/medium.1444438908.jpeg","user_online":false,"user_votes":"0","user_posts":"87","url":"https:\/\/www.enjin.com\/ajax.php?s=redirect&cmd=forum-post&mobile=1&preset=12571633&id=107169405"},{"post_id":"107196636","post_time":"1444504775","post_content":"[quote user_id=\"12353162\" avatar=\"https:\/\/cravatar.eu\/helmavatar\/bruiser7297\/74.png\" name=\"bruiser7297\"]I honestly think that there should be no farms, no barn, and no enchant limitations. That is that.[\/quote]\r\n[b][color=#239edd]If this is HCP, Hard-Core Prison, there has to be enchant limits on armor and weapons, or people with nothing would be killed over and over by someone with Sharp 5 and Prot 4.[\/color][\/b]","post_content_html":" <div class=\"bbcode_quote\"> <div class=\"bbcode_quote_head\">@12353162 wrote:<\/div> <div class=\"bbcode_quote_body\">I honestly think that there should be no farms, no barn, and no enchant limitations. That is that.<\/div> <\/div> <br \/> <b>If this is HCP, Hard-Core Prison, there has to be enchant limits on armor and weapons, or people with nothing would be killed over and over by someone with Sharp 5 and Prot 4.<\/b>","post_content_clean":"I honestly think that there should be no farms, no barn, and no enchant limitations. That is that.\r If this is HCP, Hard-Core Prison, there has to be enchant limits on armor and weapons, or people with nothing would be killed over and over by someone with Sharp 5 and Prot 4.","post_user_id":"6759027","show_signature":"1","last_edit_time":"0","post_votes":"0","post_unhidden":"0","post_admin_hidden":"0","post_locked":"0","last_edit_user":"0","votes":null,"post_username":"xBlaze","avatar":"https:\/\/assets-cloud.enjin.com\/users\/6759027\/avatar\/medium.1496333371.jpeg","user_online":false,"user_votes":"3","user_posts":"606","url":"https:\/\/www.enjin.com\/ajax.php?s=redirect&cmd=forum-post&mobile=1&preset=12571633&id=107196636"}],"total_items":"25","pages":3,"voted":false,"new_post_id":"107132831","thread_labels":[],"top_posters":{"result":[{"post_user_id":"7985788","posts":"5","username":"BladeNinja20","avatar":"https:\/\/resources.enjin.com\/1465083537\/profile\/images\/avatar\/medium.png"},{"post_user_id":"6759027","posts":"4","username":"xBlaze","avatar":"https:\/\/assets-cloud.enjin.com\/users\/6759027\/avatar\/medium.1496333371.jpeg"},{"post_user_id":"13186426","posts":"2","username":"Dojos\/Formalize","avatar":"https:\/\/assets-cloud.enjin.com\/users\/13186426\/avatar\/medium.1437025763.png"},{"post_user_id":"9843685","posts":"2","username":"\u262aThe King\u262a","avatar":"https:\/\/assets-cloud.enjin.com\/users\/9843685\/avatar\/medium.1434671201.png"},{"post_user_id":"9599448","posts":"2","username":"Potahto","avatar":"https:\/\/assets-cloud.enjin.com\/users\/9599448\/avatar\/medium.1439216144.jpeg"},{"post_user_id":"12353162","posts":"2","username":"Bruiser","avatar":"https:\/\/assets-cloud.enjin.com\/users\/12353162\/avatar\/medium.1444438908.jpeg"},{"post_user_id":"8542709","posts":"1","username":"Bandzz","avatar":"https:\/\/assets-cloud.enjin.com\/users\/8542709\/avatar\/medium.1470014906.jpeg"},{"post_user_id":"11581368","posts":"1","username":"Getzs","avatar":"https:\/\/resources.enjin.com\/1465083537\/profile\/images\/avatar\/medium.png"},{"post_user_id":"8656906","posts":"1","username":"Hex4G","avatar":"https:\/\/assets-cloud.enjin.com\/users\/8656906\/avatar\/medium.1407241778.png"},{"post_user_id":"8434842","posts":"1","username":"ZeLightbulb","avatar":"https:\/\/assets-cloud.enjin.com\/users\/8434842\/avatar\/medium.1479850476.jpeg"},{"post_user_id":"7966306","posts":"1","username":"Derpylatios","avatar":"https:\/\/assets-cloud.enjin.com\/users\/7966306\/avatar\/medium.1460034913.png"},{"post_user_id":"7875360","posts":"1","username":"IronSword","avatar":"https:\/\/assets-cloud.enjin.com\/users\/7875360\/avatar\/medium.1440483579.png"}],"num_users":"14"},"moderation_access":false,"poll_post":null,"post_access":true,"new_thread_access":true},"id":"1234567","jsonrpc":"2.0"}
