{"result":{"thread":{"preset_id":"12571633","forum_id":"2419073","thread_id":"6852930","thread_subject":"Ban happy joe, he did it again.","thread_replies":"23","thread_views":"1469","thread_type":"normal","thread_status":"locked","thread_user_id":"5749827","thread_username":"1366929225587951257","thread_avatar":"https:\/\/assets-cloud.enjin.com\/users\/5749827\/avatar\/medium.1400221466.png","thread_lastpost_user_id":"6177759","thread_lastpost_username":"1370180314229453130","thread_lastpost_time":"1370739268","thread_moved_id":"0","thread_post_time":"1367408334","url":"https:\/\/www.enjin.com\/ajax.php?s=redirect&cmd=forum-thread&mobile=1&preset=12571633&id=6852930","post_count":"1","category_id":"1906989","forum_name":"Ban Appeals","forum_description":"Ban appeals go here!","disable_voting":"0","show_signature":"1","url_cms":"https:\/\/www.craftsurvivalgames.com\/forum\/m\/12571633\/viewthread\/6852930-ban-happy-joe-he-did-again"},"posts":[{"post_id":"38779213","post_time":"1367408334","post_content":"Joe fake to be snake again, it just happen 5min ago and he is very offensive. ","post_content_html":"Joe fake to be snake again, it just happen 5min ago and he is very offensive. ","post_content_clean":"Joe fake to be snake again, it just happen 5min ago and he is very offensive. ","post_user_id":"5749827","show_signature":"1","last_edit_time":"0","post_votes":"2","post_unhidden":"0","post_admin_hidden":"0","post_locked":"0","last_edit_user":"0","votes":null,"post_username":"kids5829","avatar":"https:\/\/assets-cloud.enjin.com\/users\/5749827\/avatar\/medium.1400221466.png","user_online":false,"user_votes":"20","user_posts":"41","url":"https:\/\/www.enjin.com\/ajax.php?s=redirect&cmd=forum-post&mobile=1&preset=12571633&id=38779213"},{"post_id":"38793358","post_time":"1367425806","post_content":"I remember that was a temp ban for it.","post_content_html":"I remember that was a temp ban for it.","post_content_clean":"I remember that was a temp ban for it.","post_user_id":"5763450","show_signature":"1","last_edit_time":"0","post_votes":"1","post_unhidden":"0","post_admin_hidden":"0","post_locked":"0","last_edit_user":"0","votes":null,"post_username":"Last_of_Dead","avatar":"https:\/\/assets-cloud.enjin.com\/users\/5763450\/avatar\/medium.1400104205.png","user_online":false,"user_votes":"346","user_posts":"1259","url":"https:\/\/www.enjin.com\/ajax.php?s=redirect&cmd=forum-post&mobile=1&preset=12571633&id=38793358"},{"post_id":"38816639","post_time":"1367446380","post_content":"It's the second time , and I  warn him not to do that because he may get ban for a few hours he said this \u2018some so scared , I am going to get ban for a few hour :)\u2019 .","post_content_html":"It's the second time , and I  warn him not to do that because he may get ban for a few hours he said this \u2018some so scared , I am going to get ban for a few hour <object class=\"emojione\" data=\"https:\/\/resources.enjin.com\/1489581540\/themes\/core\/images\/emojione\/svg\/1f642.svg?0\" type=\"image\/svg+xml\" standby=\":)\">:)<\/object>\u2019 .","post_content_clean":"It's the second time , and I  warn him not to do that because he may get ban for a few hours he said this \u2018some so scared , I am going to get ban for a few hour :)\u2019 .","post_user_id":"5749827","show_signature":"1","last_edit_time":"0","post_votes":"1","post_unhidden":"0","post_admin_hidden":"0","post_locked":"0","last_edit_user":"0","votes":null,"post_username":"kids5829","avatar":"https:\/\/assets-cloud.enjin.com\/users\/5749827\/avatar\/medium.1400221466.png","user_online":false,"user_votes":"20","user_posts":"41","url":"https:\/\/www.enjin.com\/ajax.php?s=redirect&cmd=forum-post&mobile=1&preset=12571633&id=38816639"},{"post_id":"38817106","post_time":"1367446791","post_content":"All right, I'm starting to understand this more. I'm looking into it.\r\n-Conerad","post_content_html":"All right, I'm starting to understand this more. I'm looking into it.<br \/> <br \/> -Conerad","post_content_clean":"All right, I'm starting to understand this more. I'm looking into it. \r -Conerad","post_user_id":"4471675","show_signature":"1","last_edit_time":"0","post_votes":"0","post_unhidden":"0","post_admin_hidden":"0","post_locked":"0","last_edit_user":"0","votes":null,"post_username":"conerad","avatar":"https:\/\/assets-cloud.enjin.com\/users\/4471675\/avatar\/medium.1400086092.png","user_online":false,"user_votes":"62","user_posts":"104","url":"https:\/\/www.enjin.com\/ajax.php?s=redirect&cmd=forum-post&mobile=1&preset=12571633&id=38817106"},{"post_id":"38817277","post_time":"1367446930","post_content":"Please post if you have more proof.","post_content_html":"Please post if you have more proof.","post_content_clean":"Please post if you have more proof.","post_user_id":"4471675","show_signature":"1","last_edit_time":"0","post_votes":"1","post_unhidden":"0","post_admin_hidden":"0","post_locked":"0","last_edit_user":"0","votes":null,"post_username":"conerad","avatar":"https:\/\/assets-cloud.enjin.com\/users\/4471675\/avatar\/medium.1400086092.png","user_online":false,"user_votes":"62","user_posts":"104","url":"https:\/\/www.enjin.com\/ajax.php?s=redirect&cmd=forum-post&mobile=1&preset=12571633&id=38817277"},{"post_id":"38817293","post_time":"1367446948","post_content":"Thanks :D","post_content_html":"Thanks <object class=\"emojione\" data=\"https:\/\/resources.enjin.com\/1489581540\/themes\/core\/images\/emojione\/svg\/1f600.svg?0\" type=\"image\/svg+xml\" standby=\":d\">:d<\/object>","post_content_clean":"Thanks :D","post_user_id":"5749827","show_signature":"1","last_edit_time":"0","post_votes":"0","post_unhidden":"0","post_admin_hidden":"0","post_locked":"0","last_edit_user":"0","votes":null,"post_username":"kids5829","avatar":"https:\/\/assets-cloud.enjin.com\/users\/5749827\/avatar\/medium.1400221466.png","user_online":false,"user_votes":"20","user_posts":"41","url":"https:\/\/www.enjin.com\/ajax.php?s=redirect&cmd=forum-post&mobile=1&preset=12571633&id=38817293"},{"post_id":"38817349","post_time":"1367447000","post_content":"Whats his full username again?","post_content_html":"Whats his full username again?","post_content_clean":"Whats his full username again?","post_user_id":"4471675","show_signature":"1","last_edit_time":"0","post_votes":"0","post_unhidden":"0","post_admin_hidden":"0","post_locked":"0","last_edit_user":"0","votes":null,"post_username":"conerad","avatar":"https:\/\/assets-cloud.enjin.com\/users\/4471675\/avatar\/medium.1400086092.png","user_online":false,"user_votes":"62","user_posts":"104","url":"https:\/\/www.enjin.com\/ajax.php?s=redirect&cmd=forum-post&mobile=1&preset=12571633&id=38817349"},{"post_id":"38818026","post_time":"1367447566","post_content":"Idk it, when he comes on then I will figure it out.  But if anyone knows it then please tell me.","post_content_html":"Idk it, when he comes on then I will figure it out.  But if anyone knows it then please tell me.","post_content_clean":"Idk it, when he comes on then I will figure it out.  But if anyone knows it then please tell me.","post_user_id":"4471675","show_signature":"1","last_edit_time":"0","post_votes":"0","post_unhidden":"0","post_admin_hidden":"0","post_locked":"0","last_edit_user":"0","votes":null,"post_username":"conerad","avatar":"https:\/\/assets-cloud.enjin.com\/users\/4471675\/avatar\/medium.1400086092.png","user_online":false,"user_votes":"62","user_posts":"104","url":"https:\/\/www.enjin.com\/ajax.php?s=redirect&cmd=forum-post&mobile=1&preset=12571633&id=38818026"},{"post_id":"38818131","post_time":"1367447645","post_content":"kk. :)","post_content_html":"kk. <object class=\"emojione\" data=\"https:\/\/resources.enjin.com\/1489581540\/themes\/core\/images\/emojione\/svg\/1f642.svg?0\" type=\"image\/svg+xml\" standby=\":)\">:)<\/object>","post_content_clean":"kk. :)","post_user_id":"5749827","show_signature":"1","last_edit_time":"0","post_votes":"0","post_unhidden":"0","post_admin_hidden":"0","post_locked":"0","last_edit_user":"0","votes":null,"post_username":"kids5829","avatar":"https:\/\/assets-cloud.enjin.com\/users\/5749827\/avatar\/medium.1400221466.png","user_online":false,"user_votes":"20","user_posts":"41","url":"https:\/\/www.enjin.com\/ajax.php?s=redirect&cmd=forum-post&mobile=1&preset=12571633&id=38818131"},{"post_id":"38819001","post_time":"1367448410","post_content":"Idk who are you, but when i find out who have been unliking this post, i will find you and unlike all your post too :)","post_content_html":"Idk who are you, but when i find out who have been unliking this post, i will find you and unlike all your post too <object class=\"emojione\" data=\"https:\/\/resources.enjin.com\/1489581540\/themes\/core\/images\/emojione\/svg\/1f642.svg?0\" type=\"image\/svg+xml\" standby=\":)\">:)<\/object>","post_content_clean":"Idk who are you, but when i find out who have been unliking this post, i will find you and unlike all your post too :)","post_user_id":"5749827","show_signature":"1","last_edit_time":"0","post_votes":"1","post_unhidden":"0","post_admin_hidden":"0","post_locked":"0","last_edit_user":"0","votes":null,"post_username":"kids5829","avatar":"https:\/\/assets-cloud.enjin.com\/users\/5749827\/avatar\/medium.1400221466.png","user_online":false,"user_votes":"20","user_posts":"41","url":"https:\/\/www.enjin.com\/ajax.php?s=redirect&cmd=forum-post&mobile=1&preset=12571633&id=38819001"}],"total_items":"24","pages":3,"voted":false,"new_post_id":false,"thread_labels":[],"top_posters":{"result":[{"post_user_id":"5749827","posts":"6","username":"kids5829","avatar":"https:\/\/assets-cloud.enjin.com\/users\/5749827\/avatar\/medium.1400221466.png"},{"post_user_id":"4471675","posts":"4","username":"conerad","avatar":"https:\/\/assets-cloud.enjin.com\/users\/4471675\/avatar\/medium.1400086092.png"},{"post_user_id":"1934828","posts":"3","username":"Ryry","avatar":"https:\/\/assets-cloud.enjin.com\/users\/1934828\/avatar\/medium.1434837108.png"},{"post_user_id":"5776583","posts":"2","username":"War_Wolfzer","avatar":"https:\/\/assets-cloud.enjin.com\/users\/5776583\/avatar\/medium.1400103849.png"},{"post_user_id":"6177759","posts":"1","username":"Levi","avatar":"https:\/\/assets-cloud.enjin.com\/users\/6177759\/avatar\/medium.1400108070.png"},{"post_user_id":"5683757","posts":"1","username":"Ghully o.O","avatar":"https:\/\/assets-cloud.enjin.com\/users\/5683757\/avatar\/medium.1420341072.jpeg"},{"post_user_id":"5050598","posts":"1","username":"koofun","avatar":"https:\/\/resources.enjin.com\/1465083537\/profile\/images\/avatar\/medium.png"},{"post_user_id":"5810873","posts":"1","username":"XxTroller13xX","avatar":"https:\/\/resources.enjin.com\/1465083537\/profile\/images\/avatar\/medium.png"},{"post_user_id":"5824725","posts":"1","username":"Benjanny@tweet","avatar":"https:\/\/resources.enjin.com\/1465083537\/profile\/images\/avatar\/medium.png"},{"post_user_id":"4185955","posts":"1","username":"Chronicler","avatar":"https:\/\/assets-cloud.enjin.com\/users\/4185955\/avatar\/medium.1565809392.png"},{"post_user_id":"5514011","posts":"1","username":"ArmandCool","avatar":"https:\/\/assets-cloud.enjin.com\/users\/5514011\/avatar\/medium.1408808960.jpeg"},{"post_user_id":"5295813","posts":"1","username":"Shicking","avatar":"https:\/\/assets-cloud.enjin.com\/users\/5295813\/avatar\/medium.1400092930.png"}],"num_users":"13"},"moderation_access":false,"poll_post":null,"post_access":true,"new_thread_access":true},"id":"1234567","jsonrpc":"2.0"}
{"result":{"thread":{"preset_id":"12571633","forum_id":"2419073","thread_id":"6852930","thread_subject":"Ban happy joe, he did it again.","thread_replies":"23","thread_views":"1469","thread_type":"normal","thread_status":"locked","thread_user_id":"5749827","thread_username":"1366929225587951257","thread_avatar":"https:\/\/assets-cloud.enjin.com\/users\/5749827\/avatar\/medium.1420341072.jpeg","thread_lastpost_user_id":"6177759","thread_lastpost_username":"1370180314229453130","thread_lastpost_time":"1370739268","thread_moved_id":"0","thread_post_time":"1367408334","url":"https:\/\/www.enjin.com\/ajax.php?s=redirect&cmd=forum-thread&mobile=1&preset=12571633&id=6852930","post_count":"1","category_id":"1906989","forum_name":"Ban Appeals","forum_description":"Ban appeals go here!","disable_voting":"0","show_signature":"1","url_cms":"https:\/\/www.craftsurvivalgames.com\/forum\/m\/12571633\/viewthread\/6852930-ban-happy-joe-he-did-again"},"posts":[{"post_id":"38820649","post_time":"1367449795","post_content":"i like it for ya kids  :lol:","post_content_html":"i like it for ya kids  <object class=\"emojione\" data=\"https:\/\/resources.enjin.com\/1489581540\/themes\/core\/images\/emojione\/svg\/1f606.svg?0\" type=\"image\/svg+xml\" standby=\":lol:\">:lol:<\/object>","post_content_clean":"i like it for ya kids  :lol:","post_user_id":"5683757","show_signature":"1","last_edit_time":"0","post_votes":"1","post_unhidden":"0","post_admin_hidden":"0","post_locked":"0","last_edit_user":"0","votes":null,"post_username":"Ghully o.O","avatar":"https:\/\/assets-cloud.enjin.com\/users\/5683757\/avatar\/medium.1420341072.jpeg","user_online":false,"user_votes":"63","user_posts":"586","url":"https:\/\/www.enjin.com\/ajax.php?s=redirect&cmd=forum-post&mobile=1&preset=12571633&id=38820649"},{"post_id":"38820735","post_time":"1367449881","post_content":"Thanks :D","post_content_html":"Thanks <object class=\"emojione\" data=\"https:\/\/resources.enjin.com\/1489581540\/themes\/core\/images\/emojione\/svg\/1f600.svg?0\" type=\"image\/svg+xml\" standby=\":d\">:d<\/object>","post_content_clean":"Thanks :D","post_user_id":"5749827","show_signature":"1","last_edit_time":"0","post_votes":"2","post_unhidden":"0","post_admin_hidden":"0","post_locked":"0","last_edit_user":"0","votes":null,"post_username":"kids5829","avatar":"https:\/\/assets-cloud.enjin.com\/users\/5749827\/avatar\/medium.1400221466.png","user_online":false,"user_votes":"20","user_posts":"41","url":"https:\/\/www.enjin.com\/ajax.php?s=redirect&cmd=forum-post&mobile=1&preset=12571633&id=38820735"},{"post_id":"38823046","post_time":"1367451979","post_content":"If you are talking about how I think you are talking about I know that player.If I see Snake acting unusual, I''ll say but I may not be able to give any proof but here is one thing about me, I rarely lie.","post_content_html":"If you are talking about how I think you are talking about I know that player.If I see Snake acting unusual, I''ll say but I may not be able to give any proof but here is one thing about me, I rarely lie.","post_content_clean":"If you are talking about how I think you are talking about I know that player.If I see Snake acting unusual, I''ll say but I may not be able to give any proof but here is one thing about me, I rarely lie.","post_user_id":"5776583","show_signature":"1","last_edit_time":"0","post_votes":"0","post_unhidden":"0","post_admin_hidden":"0","post_locked":"0","last_edit_user":"0","votes":null,"post_username":"War_Wolfzer","avatar":"https:\/\/assets-cloud.enjin.com\/users\/5776583\/avatar\/medium.1400103849.png","user_online":false,"user_votes":"2","user_posts":"43","url":"https:\/\/www.enjin.com\/ajax.php?s=redirect&cmd=forum-post&mobile=1&preset=12571633&id=38823046"},{"post_id":"38823181","post_time":"1367452113","post_content":"Looked back I know Snake.So I will say if Snake acts unusual.","post_content_html":"Looked back I know Snake.So I will say if Snake acts unusual.","post_content_clean":"Looked back I know Snake.So I will say if Snake acts unusual.","post_user_id":"5776583","show_signature":"1","last_edit_time":"0","post_votes":"0","post_unhidden":"0","post_admin_hidden":"0","post_locked":"0","last_edit_user":"0","votes":null,"post_username":"War_Wolfzer","avatar":"https:\/\/assets-cloud.enjin.com\/users\/5776583\/avatar\/medium.1400103849.png","user_online":false,"user_votes":"2","user_posts":"43","url":"https:\/\/www.enjin.com\/ajax.php?s=redirect&cmd=forum-post&mobile=1&preset=12571633&id=38823181"},{"post_id":"38827083","post_time":"1367455803","post_content":"His username is happy_joe_588","post_content_html":"His username is happy_joe_588","post_content_clean":"His username is happy_joe_588","post_user_id":"5050598","show_signature":"1","last_edit_time":"0","post_votes":"0","post_unhidden":"0","post_admin_hidden":"0","post_locked":"0","last_edit_user":"0","votes":null,"post_username":"koofun","avatar":"https:\/\/resources.enjin.com\/1465083537\/profile\/images\/avatar\/medium.png","user_online":false,"user_votes":"38","user_posts":"383","url":"https:\/\/www.enjin.com\/ajax.php?s=redirect&cmd=forum-post&mobile=1&preset=12571633&id=38827083"},{"post_id":"38854797","post_time":"1367497679","post_content":"Stop unlikeing kids post for no reason. :)","post_content_html":"Stop unlikeing kids post for no reason. <object class=\"emojione\" data=\"https:\/\/resources.enjin.com\/1489581540\/themes\/core\/images\/emojione\/svg\/1f642.svg?0\" type=\"image\/svg+xml\" standby=\":)\">:)<\/object>","post_content_clean":"Stop unlikeing kids post for no reason. :)","post_user_id":"5810873","show_signature":"1","last_edit_time":"0","post_votes":"1","post_unhidden":"0","post_admin_hidden":"0","post_locked":"0","last_edit_user":"0","votes":null,"post_username":"XxTroller13xX","avatar":"https:\/\/resources.enjin.com\/1465083537\/profile\/images\/avatar\/medium.png","user_online":false,"user_votes":"2","user_posts":"11","url":"https:\/\/www.enjin.com\/ajax.php?s=redirect&cmd=forum-post&mobile=1&preset=12571633&id=38854797"},{"post_id":"38855678","post_time":"1367498812","post_content":"Stop trolling kids! :( He is reporting a person, he is helping the server althought idk who is joe but i believe kids is telling the truth.","post_content_html":"Stop trolling kids! :( He is reporting a person, he is helping the server althought idk who is joe but i believe kids is telling the truth.","post_content_clean":"Stop trolling kids! :( He is reporting a person, he is helping the server althought idk who is joe but i believe kids is telling the truth.","post_user_id":"5824725","show_signature":"1","last_edit_time":"0","post_votes":"1","post_unhidden":"0","post_admin_hidden":"0","post_locked":"0","last_edit_user":"0","votes":null,"post_username":"Benjanny@tweet","avatar":"https:\/\/resources.enjin.com\/1465083537\/profile\/images\/avatar\/medium.png","user_online":false,"user_votes":"-1","user_posts":"4","url":"https:\/\/www.enjin.com\/ajax.php?s=redirect&cmd=forum-post&mobile=1&preset=12571633&id=38855678"},{"post_id":"40091783","post_time":"1368975794","post_content":"[[color=#761413]b][u]Conerad, is is Happy_JoE_588[\/u][\/b][\/color]","post_content_html":"<u>Conerad, is is Happy_JoE_588<\/u>","post_content_clean":"b]Conerad, is is Happy_JoE_588","post_user_id":"1934828","show_signature":"1","last_edit_time":"0","post_votes":"0","post_unhidden":"0","post_admin_hidden":"0","post_locked":"0","last_edit_user":"0","votes":null,"post_username":"Ryry","avatar":"https:\/\/assets-cloud.enjin.com\/users\/1934828\/avatar\/medium.1434837108.png","user_online":false,"user_votes":"21","user_posts":"166","url":"https:\/\/www.enjin.com\/ajax.php?s=redirect&cmd=forum-post&mobile=1&preset=12571633&id=40091783"},{"post_id":"40091836","post_time":"1368975841","post_content":"i mean Happy_JoE_588 XD really srry","post_content_html":"i mean Happy_JoE_588 XD really srry","post_content_clean":"i mean Happy_JoE_588 XD really srry","post_user_id":"1934828","show_signature":"1","last_edit_time":"0","post_votes":"0","post_unhidden":"0","post_admin_hidden":"0","post_locked":"0","last_edit_user":"0","votes":null,"post_username":"Ryry","avatar":"https:\/\/assets-cloud.enjin.com\/users\/1934828\/avatar\/medium.1434837108.png","user_online":false,"user_votes":"21","user_posts":"166","url":"https:\/\/www.enjin.com\/ajax.php?s=redirect&cmd=forum-post&mobile=1&preset=12571633&id=40091836"},{"post_id":"40091887","post_time":"1368975886","post_content":"OMG I MEAN HaPPy_JoE_588","post_content_html":"OMG I MEAN HaPPy_JoE_588","post_content_clean":"OMG I MEAN HaPPy_JoE_588","post_user_id":"1934828","show_signature":"1","last_edit_time":"0","post_votes":"0","post_unhidden":"0","post_admin_hidden":"0","post_locked":"0","last_edit_user":"0","votes":null,"post_username":"Ryry","avatar":"https:\/\/assets-cloud.enjin.com\/users\/1934828\/avatar\/medium.1434837108.png","user_online":false,"user_votes":"21","user_posts":"166","url":"https:\/\/www.enjin.com\/ajax.php?s=redirect&cmd=forum-post&mobile=1&preset=12571633&id=40091887"}],"total_items":"24","pages":3,"voted":false,"new_post_id":"38820649","thread_labels":[],"top_posters":{"result":[{"post_user_id":"5749827","posts":"6","username":"kids5829","avatar":"https:\/\/assets-cloud.enjin.com\/users\/5749827\/avatar\/medium.1400221466.png"},{"post_user_id":"4471675","posts":"4","username":"conerad","avatar":"https:\/\/assets-cloud.enjin.com\/users\/4471675\/avatar\/medium.1400086092.png"},{"post_user_id":"1934828","posts":"3","username":"Ryry","avatar":"https:\/\/assets-cloud.enjin.com\/users\/1934828\/avatar\/medium.1434837108.png"},{"post_user_id":"5776583","posts":"2","username":"War_Wolfzer","avatar":"https:\/\/assets-cloud.enjin.com\/users\/5776583\/avatar\/medium.1400103849.png"},{"post_user_id":"5683757","posts":"1","username":"Ghully o.O","avatar":"https:\/\/assets-cloud.enjin.com\/users\/5683757\/avatar\/medium.1420341072.jpeg"},{"post_user_id":"5050598","posts":"1","username":"koofun","avatar":"https:\/\/resources.enjin.com\/1465083537\/profile\/images\/avatar\/medium.png"},{"post_user_id":"5810873","posts":"1","username":"XxTroller13xX","avatar":"https:\/\/resources.enjin.com\/1465083537\/profile\/images\/avatar\/medium.png"},{"post_user_id":"5824725","posts":"1","username":"Benjanny@tweet","avatar":"https:\/\/resources.enjin.com\/1465083537\/profile\/images\/avatar\/medium.png"},{"post_user_id":"4185955","posts":"1","username":"Chronicler","avatar":"https:\/\/assets-cloud.enjin.com\/users\/4185955\/avatar\/medium.1565809392.png"},{"post_user_id":"5514011","posts":"1","username":"ArmandCool","avatar":"https:\/\/assets-cloud.enjin.com\/users\/5514011\/avatar\/medium.1408808960.jpeg"},{"post_user_id":"5295813","posts":"1","username":"Shicking","avatar":"https:\/\/assets-cloud.enjin.com\/users\/5295813\/avatar\/medium.1400092930.png"},{"post_user_id":"5763450","posts":"1","username":"Last_of_Dead","avatar":"https:\/\/assets-cloud.enjin.com\/users\/5763450\/avatar\/medium.1400104205.png"}],"num_users":"13"},"moderation_access":false,"poll_post":null,"post_access":true,"new_thread_access":true},"id":"1234567","jsonrpc":"2.0"}
{"result":{"thread":{"preset_id":"12571633","forum_id":"2419073","thread_id":"6852930","thread_subject":"Ban happy joe, he did it again.","thread_replies":"23","thread_views":"1469","thread_type":"normal","thread_status":"locked","thread_user_id":"5749827","thread_username":"1366929225587951257","thread_avatar":"https:\/\/assets-cloud.enjin.com\/users\/5749827\/avatar\/medium.1565809392.png","thread_lastpost_user_id":"6177759","thread_lastpost_username":"1370180314229453130","thread_lastpost_time":"1370739268","thread_moved_id":"0","thread_post_time":"1367408334","url":"https:\/\/www.enjin.com\/ajax.php?s=redirect&cmd=forum-thread&mobile=1&preset=12571633&id=6852930","post_count":"1","category_id":"1906989","forum_name":"Ban Appeals","forum_description":"Ban appeals go here!","disable_voting":"0","show_signature":"1","url_cms":"https:\/\/www.craftsurvivalgames.com\/forum\/m\/12571633\/viewthread\/6852930-ban-happy-joe-he-did-again"},"posts":[{"post_id":"40097410","post_time":"1368981094","post_content":"[color=#7a7a7a]How do you know this?[\/color]","post_content_html":"How do you know this?","post_content_clean":"How do you know this?","post_user_id":"4185955","show_signature":"1","last_edit_time":"0","post_votes":"0","post_unhidden":"0","post_admin_hidden":"0","post_locked":"0","last_edit_user":"0","votes":null,"post_username":"Chronicler","avatar":"https:\/\/assets-cloud.enjin.com\/users\/4185955\/avatar\/medium.1565809392.png","user_online":false,"user_votes":"779","user_posts":"2045","url":"https:\/\/www.enjin.com\/ajax.php?s=redirect&cmd=forum-post&mobile=1&preset=12571633&id=40097410"},{"post_id":"40097855","post_time":"1368981522","post_content":"No he can't be...","post_content_html":"No he can't be...","post_content_clean":"No he can't be...","post_user_id":"5514011","show_signature":"1","last_edit_time":"0","post_votes":"0","post_unhidden":"0","post_admin_hidden":"0","post_locked":"0","last_edit_user":"0","votes":null,"post_username":"ArmandCool","avatar":"https:\/\/assets-cloud.enjin.com\/users\/5514011\/avatar\/medium.1408808960.jpeg","user_online":false,"user_votes":"376","user_posts":"823","url":"https:\/\/www.enjin.com\/ajax.php?s=redirect&cmd=forum-post&mobile=1&preset=12571633&id=40097855"},{"post_id":"40107246","post_time":"1368989890","post_content":"Conerad is not happy_joe.\r\nHappy_Joe is a player with who we had a lot of trouble in the past.","post_content_html":"Conerad is not happy_joe.<br \/> <br \/> Happy_Joe is a player with who we had a lot of trouble in the past.","post_content_clean":"Conerad is not happy_joe. \r Happy_Joe is a player with who we had a lot of trouble in the past.","post_user_id":"5295813","show_signature":"1","last_edit_time":"0","post_votes":"0","post_unhidden":"0","post_admin_hidden":"0","post_locked":"0","last_edit_user":"0","votes":null,"post_username":"Shicking","avatar":"https:\/\/assets-cloud.enjin.com\/users\/5295813\/avatar\/medium.1400092930.png","user_online":false,"user_votes":"1795","user_posts":"1098","url":"https:\/\/www.enjin.com\/ajax.php?s=redirect&cmd=forum-post&mobile=1&preset=12571633&id=40107246"},{"post_id":"41722679","post_time":"1370739268","post_content":"Oh gee","post_content_html":"Oh gee","post_content_clean":"Oh gee","post_user_id":"6177759","show_signature":"0","last_edit_time":"0","post_votes":"0","post_unhidden":"0","post_admin_hidden":"0","post_locked":"0","last_edit_user":"0","votes":null,"post_username":"Levi","avatar":"https:\/\/assets-cloud.enjin.com\/users\/6177759\/avatar\/medium.1400108070.png","user_online":false,"user_votes":"22","user_posts":"165","url":"https:\/\/www.enjin.com\/ajax.php?s=redirect&cmd=forum-post&mobile=1&preset=12571633&id=41722679"}],"total_items":"24","pages":3,"voted":false,"new_post_id":"40097410","thread_labels":[],"top_posters":{"result":[{"post_user_id":"5749827","posts":"6","username":"kids5829","avatar":"https:\/\/assets-cloud.enjin.com\/users\/5749827\/avatar\/medium.1400221466.png"},{"post_user_id":"4471675","posts":"4","username":"conerad","avatar":"https:\/\/assets-cloud.enjin.com\/users\/4471675\/avatar\/medium.1400086092.png"},{"post_user_id":"1934828","posts":"3","username":"Ryry","avatar":"https:\/\/assets-cloud.enjin.com\/users\/1934828\/avatar\/medium.1434837108.png"},{"post_user_id":"5776583","posts":"2","username":"War_Wolfzer","avatar":"https:\/\/assets-cloud.enjin.com\/users\/5776583\/avatar\/medium.1400103849.png"},{"post_user_id":"5514011","posts":"1","username":"ArmandCool","avatar":"https:\/\/assets-cloud.enjin.com\/users\/5514011\/avatar\/medium.1408808960.jpeg"},{"post_user_id":"5295813","posts":"1","username":"Shicking","avatar":"https:\/\/assets-cloud.enjin.com\/users\/5295813\/avatar\/medium.1400092930.png"},{"post_user_id":"5763450","posts":"1","username":"Last_of_Dead","avatar":"https:\/\/assets-cloud.enjin.com\/users\/5763450\/avatar\/medium.1400104205.png"},{"post_user_id":"6177759","posts":"1","username":"Levi","avatar":"https:\/\/assets-cloud.enjin.com\/users\/6177759\/avatar\/medium.1400108070.png"},{"post_user_id":"5683757","posts":"1","username":"Ghully o.O","avatar":"https:\/\/assets-cloud.enjin.com\/users\/5683757\/avatar\/medium.1420341072.jpeg"},{"post_user_id":"5050598","posts":"1","username":"koofun","avatar":"https:\/\/resources.enjin.com\/1465083537\/profile\/images\/avatar\/medium.png"},{"post_user_id":"5810873","posts":"1","username":"XxTroller13xX","avatar":"https:\/\/resources.enjin.com\/1465083537\/profile\/images\/avatar\/medium.png"},{"post_user_id":"5824725","posts":"1","username":"Benjanny@tweet","avatar":"https:\/\/resources.enjin.com\/1465083537\/profile\/images\/avatar\/medium.png"}],"num_users":"13"},"moderation_access":false,"poll_post":null,"post_access":true,"new_thread_access":true},"id":"1234567","jsonrpc":"2.0"}
