{"result":{"thread":{"preset_id":"12571633","forum_id":"2419049","thread_id":"7472953","thread_subject":"INNAPROPRIATE LANGUAGE ON THIS SERVER","thread_replies":"20","thread_views":"1630","thread_type":"normal","thread_status":"locked","thread_user_id":"5375337","thread_username":"13641455421368885873","thread_avatar":"https:\/\/assets-cloud.enjin.com\/users\/5375337\/avatar\/medium.1437162398.jpeg","thread_lastpost_user_id":"5295813","thread_lastpost_username":"13635541171024291676","thread_lastpost_time":"1371514771","thread_moved_id":"0","thread_post_time":"1371493510","url":"https:\/\/www.enjin.com\/ajax.php?s=redirect&cmd=forum-thread&mobile=1&preset=12571633&id=7472953","post_count":0,"category_id":"1023514","forum_name":"Gaming","forum_description":"Chat about anything gaming related, no matter what platform!.","disable_voting":"0","show_signature":"1","url_cms":"https:\/\/www.craftsurvivalgames.com\/forum\/m\/12571633\/viewthread\/7472953-innapropriate-language-on-this-server"},"posts":[{"post_id":"42415771","post_time":"1371493510","post_content":"I took the liberty of waiting and watching for about an hour to see what happens when mods aren't on. The following screenshots are some of the language and rude things players on this server say.\r\n\r\nIf you have any more pictures of language please feel free to post! Shicking we need to do something about this!!!","post_content_html":"I took the liberty of waiting and watching for about an hour to see what happens when mods aren't on. The following screenshots are some of the language and rude things players on this server say.<br \/> <br \/> If you have any more pictures of language please feel free to post! Shicking we need to do something about this!!!","post_content_clean":"I took the liberty of waiting and watching for about an hour to see what happens when mods aren't on. The following screenshots are some of the language and rude things players on this server say.\r \r If you have any more pictures of language please feel free to post! Shicking we need to do something about this!!!","post_user_id":"5375337","show_signature":"1","last_edit_time":"1371493971","post_votes":"3","post_unhidden":"0","post_admin_hidden":"0","post_locked":"0","last_edit_user":"0","votes":null,"post_username":"Scarlet Witch","avatar":"https:\/\/assets-cloud.enjin.com\/users\/5375337\/avatar\/medium.1437162398.jpeg","user_online":false,"user_votes":"741","user_posts":0,"url":"https:\/\/www.enjin.com\/ajax.php?s=redirect&cmd=forum-post&mobile=1&preset=12571633&id=42415771"},{"post_id":"42416675","post_time":"1371494158","post_content":"Finally, you understand the problem :D Good job creeperkiller, you went in a state of incognito. :)","post_content_html":"Finally, you understand the problem <object class=\"emojione\" data=\"https:\/\/resources.enjin.com\/1489581540\/themes\/core\/images\/emojione\/svg\/1f600.svg?0\" type=\"image\/svg+xml\" standby=\":d\">:d<\/object> Good job creeperkiller, you went in a state of incognito. <object class=\"emojione\" data=\"https:\/\/resources.enjin.com\/1489581540\/themes\/core\/images\/emojione\/svg\/1f642.svg?0\" type=\"image\/svg+xml\" standby=\":)\">:)<\/object>","post_content_clean":"Finally, you understand the problem :D Good job creeperkiller, you went in a state of incognito. :)","post_user_id":"5440874","show_signature":"1","last_edit_time":"0","post_votes":"0","post_unhidden":"0","post_admin_hidden":"0","post_locked":"0","last_edit_user":"0","votes":null,"post_username":"MooseTheEngineer","avatar":"https:\/\/assets-cloud.enjin.com\/users\/5440874\/avatar\/medium.1495487251.jpeg","user_online":false,"user_votes":"0","user_posts":"2843","url":"https:\/\/www.enjin.com\/ajax.php?s=redirect&cmd=forum-post&mobile=1&preset=12571633&id=42416675"},{"post_id":"42423017","post_time":"1371498714","post_content":"Haha thankz moose. I really dont like the langauge that goes on while mods arent on, so i decided to check it out myself XD","post_content_html":"Haha thankz moose. I really dont like the langauge that goes on while mods arent on, so i decided to check it out myself XD","post_content_clean":"Haha thankz moose. I really dont like the langauge that goes on while mods arent on, so i decided to check it out myself XD","post_user_id":"5375337","show_signature":"1","last_edit_time":"0","post_votes":"0","post_unhidden":"0","post_admin_hidden":"0","post_locked":"0","last_edit_user":"0","votes":null,"post_username":"Scarlet Witch","avatar":"https:\/\/assets-cloud.enjin.com\/users\/5375337\/avatar\/medium.1437162398.jpeg","user_online":false,"user_votes":"741","user_posts":"1506","url":"https:\/\/www.enjin.com\/ajax.php?s=redirect&cmd=forum-post&mobile=1&preset=12571633&id=42423017"},{"post_id":"42423798","post_time":"1371499293","post_content":"I did say we will be getting a plugin to stop the bad language.","post_content_html":"I did say we will be getting a plugin to stop the bad language.","post_content_clean":"I did say we will be getting a plugin to stop the bad language.","post_user_id":"1084942","show_signature":"1","last_edit_time":"0","post_votes":"2","post_unhidden":"0","post_admin_hidden":"0","post_locked":"0","last_edit_user":"0","votes":null,"post_username":"Mozzie","avatar":"https:\/\/assets-cloud.enjin.com\/users\/1084942\/avatar\/medium.1400212514.png","user_online":false,"user_votes":"363","user_posts":"590","url":"https:\/\/www.enjin.com\/ajax.php?s=redirect&cmd=forum-post&mobile=1&preset=12571633&id=42423798"},{"post_id":"42427972","post_time":"1371502344","post_content":"Wow, ive never seen more swearing on any other server... This should really be taken care of.","post_content_html":"Wow, ive never seen more swearing on any other server... This should really be taken care of.","post_content_clean":"Wow, ive never seen more swearing on any other server... This should really be taken care of.","post_user_id":"4331303","show_signature":"1","last_edit_time":"0","post_votes":"0","post_unhidden":"0","post_admin_hidden":"0","post_locked":"0","last_edit_user":"0","votes":null,"post_username":"Boom \u30c4","avatar":"https:\/\/assets-cloud.enjin.com\/users\/4331303\/avatar\/medium.1400080585.png","user_online":false,"user_votes":"122","user_posts":"871","url":"https:\/\/www.enjin.com\/ajax.php?s=redirect&cmd=forum-post&mobile=1&preset=12571633&id=42427972"},{"post_id":"42431152","post_time":"1371504706","post_content":"Even in Messages....... I was kidding to her thats why she said LoL after I said it.. xD","post_content_html":"Even in Messages....... I was kidding to her thats why she said LoL after I said it.. xD","post_content_clean":"Even in Messages....... I was kidding to her thats why she said LoL after I said it.. xD","post_user_id":"5763450","show_signature":"1","last_edit_time":"0","post_votes":"0","post_unhidden":"0","post_admin_hidden":"0","post_locked":"0","last_edit_user":"0","votes":null,"post_username":"Last_of_Dead","avatar":"https:\/\/assets-cloud.enjin.com\/users\/5763450\/avatar\/medium.1400104205.png","user_online":false,"user_votes":"346","user_posts":"1259","url":"https:\/\/www.enjin.com\/ajax.php?s=redirect&cmd=forum-post&mobile=1&preset=12571633&id=42431152"},{"post_id":"42431206","post_time":"1371504744","post_content":"She dont like me as the Owner of the fac thats why I was saying it because I was going to leave","post_content_html":"She dont like me as the Owner of the fac thats why I was saying it because I was going to leave","post_content_clean":"She dont like me as the Owner of the fac thats why I was saying it because I was going to leave","post_user_id":"5763450","show_signature":"1","last_edit_time":"0","post_votes":"0","post_unhidden":"0","post_admin_hidden":"0","post_locked":"0","last_edit_user":"0","votes":null,"post_username":"Last_of_Dead","avatar":"https:\/\/assets-cloud.enjin.com\/users\/5763450\/avatar\/medium.1400104205.png","user_online":false,"user_votes":"346","user_posts":"1259","url":"https:\/\/www.enjin.com\/ajax.php?s=redirect&cmd=forum-post&mobile=1&preset=12571633&id=42431206"},{"post_id":"42432496","post_time":"1371505681","post_content":"And why are you reading messages!! That's the only (partially) that we have privacy to talk something that would be offensive or not good to talk on public chat. Thats the first server that I join that Mods keep reading everything about you and stay quiet, and show to the server. If I'd like to show the server It I would say it on public chat.\r\nAfter these new mods (no offence) and the new forum. The server is totally limited and also, I wont talk more on msg because a Mod can Come and read to the world about it....\r\nThats a nice attitude to some of the mods and (a small part of players) and for the rest no!\r\nAnd we try to dont say it on public chat, but now you have no read MESSAGES! Omg! Which way this server is going? As you guys saying that is good for young children, anyway you gonna start to lose the older players that Is the biggest part that Donate for the server.\r\nAnd 1 more thing I payed $250 for this server and when I open the forum I find MY name on it talking with MSG and a Mod reading to everybody.\r\nThats the time that we think WHY I donated and when I said to Shicking to refund he said that he was going to lose 25$ and I stayed with the rank In HOPE that I would be better, but Its worse and worse each day..\r\nAnd creeperkiller how friend you are, thank you for the exposure with everybody..","post_content_html":"And why are you reading messages!! That's the only (partially) that we have privacy to talk something that would be offensive or not good to talk on public chat. Thats the first server that I join that Mods keep reading everything about you and stay quiet, and show to the server. If I'd like to show the server It I would say it on public chat.<br \/> <br \/> After these new mods (no offence) and the new forum. The server is totally limited and also, I wont talk more on msg because a Mod can Come and read to the world about it....<br \/> <br \/> Thats a nice attitude to some of the mods and (a small part of players) and for the rest no!<br \/> <br \/> And we try to dont say it on public chat, but now you have no read MESSAGES! Omg! Which way this server is going? As you guys saying that is good for young children, anyway you gonna start to lose the older players that Is the biggest part that Donate for the server.<br \/> <br \/> And 1 more thing I payed $250 for this server and when I open the forum I find MY name on it talking with MSG and a Mod reading to everybody.<br \/> <br \/> Thats the time that we think WHY I donated and when I said to Shicking to refund he said that he was going to lose 25$ and I stayed with the rank In HOPE that I would be better, but Its worse and worse each day..<br \/> <br \/> And creeperkiller how friend you are, thank you for the exposure with everybody..","post_content_clean":"And why are you reading messages!! That's the only (partially) that we have privacy to talk something that would be offensive or not good to talk on public chat. Thats the first server that I join that Mods keep reading everything about you and stay quiet, and show to the server. If I'd like to show the server It I would say it on public chat. \r After these new mods (no offence) and the new forum. The server is totally limited and also, I wont talk more on msg because a Mod can Come and read to the world about it....\r Thats a nice attitude to some of the mods and (a small part of players) and for the rest no!\r And we try to dont say it on public chat, but now you have no read MESSAGES! Omg! Which way this server is going? As you guys saying that is good for young children, anyway you gonna start to lose the older players that Is the biggest part that Donate for the server.\r And 1 more thing I payed $250 for this server and when I open the forum I find MY name on it talking with MSG and a Mod reading to everybody.\r Thats the time that we think WHY I donated and when I said to Shicking to refund he said that he was going to lose 25$ and I stayed with the rank In HOPE that I would be better, but Its worse and worse each day..\r And creeperkiller how friend you are, thank you for the exposure with everybody..","post_user_id":"5763450","show_signature":"1","last_edit_time":"0","post_votes":"1","post_unhidden":"0","post_admin_hidden":"0","post_locked":"0","last_edit_user":"0","votes":null,"post_username":"Last_of_Dead","avatar":"https:\/\/assets-cloud.enjin.com\/users\/5763450\/avatar\/medium.1400104205.png","user_online":false,"user_votes":"346","user_posts":"1259","url":"https:\/\/www.enjin.com\/ajax.php?s=redirect&cmd=forum-post&mobile=1&preset=12571633&id=42432496"},{"post_id":"42432534","post_time":"1371505705","post_content":"And Now I CANT get my money back, and THANK YOU.\r\n","post_content_html":"And Now I CANT get my money back, and THANK YOU.<br \/> <br \/> ","post_content_clean":"And Now I CANT get my money back, and THANK YOU.\r ","post_user_id":"5763450","show_signature":"1","last_edit_time":"1371505811","post_votes":"0","post_unhidden":"0","post_admin_hidden":"0","post_locked":"0","last_edit_user":"0","votes":null,"post_username":"Last_of_Dead","avatar":"https:\/\/assets-cloud.enjin.com\/users\/5763450\/avatar\/medium.1400104205.png","user_online":false,"user_votes":"346","user_posts":"1259","url":"https:\/\/www.enjin.com\/ajax.php?s=redirect&cmd=forum-post&mobile=1&preset=12571633&id=42432534"},{"post_id":"42438198","post_time":"1371509934","post_content":"Last, private msg are private from other players, they were never private from mods and probably never will be. Private msg or not u were still using bad language.","post_content_html":"Last, private msg are private from other players, they were never private from mods and probably never will be. Private msg or not u were still using bad language.","post_content_clean":"Last, private msg are private from other players, they were never private from mods and probably never will be. Private msg or not u were still using bad language.","post_user_id":"5375337","show_signature":"0","last_edit_time":"0","post_votes":"0","post_unhidden":"0","post_admin_hidden":"0","post_locked":"0","last_edit_user":"0","votes":null,"post_username":"Scarlet Witch","avatar":"https:\/\/assets-cloud.enjin.com\/users\/5375337\/avatar\/medium.1437162398.jpeg","user_online":false,"user_votes":"741","user_posts":"1506","url":"https:\/\/www.enjin.com\/ajax.php?s=redirect&cmd=forum-post&mobile=1&preset=12571633&id=42438198"}],"total_items":"21","pages":3,"voted":false,"new_post_id":false,"thread_labels":[],"top_posters":{"result":[{"post_user_id":"5763450","posts":"8","username":"Last_of_Dead","avatar":"https:\/\/assets-cloud.enjin.com\/users\/5763450\/avatar\/medium.1400104205.png"},{"post_user_id":"5375337","posts":"6","username":"Scarlet Witch","avatar":"https:\/\/assets-cloud.enjin.com\/users\/5375337\/avatar\/medium.1437162398.jpeg"},{"post_user_id":"5295813","posts":"2","username":"Shicking","avatar":"https:\/\/assets-cloud.enjin.com\/users\/5295813\/avatar\/medium.1400092930.png"},{"post_user_id":"6277869","posts":"2","username":"sheeploot","avatar":"https:\/\/assets-cloud.enjin.com\/users\/6277869\/avatar\/medium.1400110584.png"},{"post_user_id":"5440874","posts":"1","username":"MooseTheEngineer","avatar":"https:\/\/assets-cloud.enjin.com\/users\/5440874\/avatar\/medium.1495487251.jpeg"},{"post_user_id":"1084942","posts":"1","username":"Mozzie","avatar":"https:\/\/assets-cloud.enjin.com\/users\/1084942\/avatar\/medium.1400212514.png"},{"post_user_id":"4331303","posts":"1","username":"Boom \u30c4","avatar":"https:\/\/assets-cloud.enjin.com\/users\/4331303\/avatar\/medium.1400080585.png"}],"num_users":"7"},"moderation_access":false,"poll_post":null,"post_access":true,"new_thread_access":true},"id":"1234567","jsonrpc":"2.0"}
{"result":{"thread":{"preset_id":"12571633","forum_id":"2419049","thread_id":"7472953","thread_subject":"INNAPROPRIATE LANGUAGE ON THIS SERVER","thread_replies":"20","thread_views":"1630","thread_type":"normal","thread_status":"locked","thread_user_id":"5375337","thread_username":"13641455421368885873","thread_avatar":"https:\/\/assets-cloud.enjin.com\/users\/5375337\/avatar\/medium.1437162398.jpeg","thread_lastpost_user_id":"5295813","thread_lastpost_username":"13635541171024291676","thread_lastpost_time":"1371514771","thread_moved_id":"0","thread_post_time":"1371493510","url":"https:\/\/www.enjin.com\/ajax.php?s=redirect&cmd=forum-thread&mobile=1&preset=12571633&id=7472953","post_count":0,"category_id":"1023514","forum_name":"Gaming","forum_description":"Chat about anything gaming related, no matter what platform!.","disable_voting":"0","show_signature":"1","url_cms":"https:\/\/www.craftsurvivalgames.com\/forum\/m\/12571633\/viewthread\/7472953-innapropriate-language-on-this-server"},"posts":[{"post_id":"42415771","post_time":"1371493510","post_content":"I took the liberty of waiting and watching for about an hour to see what happens when mods aren't on. The following screenshots are some of the language and rude things players on this server say.\r\n\r\nIf you have any more pictures of language please feel free to post! Shicking we need to do something about this!!!","post_content_html":"I took the liberty of waiting and watching for about an hour to see what happens when mods aren't on. The following screenshots are some of the language and rude things players on this server say.<br \/> <br \/> If you have any more pictures of language please feel free to post! Shicking we need to do something about this!!!","post_content_clean":"I took the liberty of waiting and watching for about an hour to see what happens when mods aren't on. The following screenshots are some of the language and rude things players on this server say.\r \r If you have any more pictures of language please feel free to post! Shicking we need to do something about this!!!","post_user_id":"5375337","show_signature":"1","last_edit_time":"1371493971","post_votes":"3","post_unhidden":"0","post_admin_hidden":"0","post_locked":"0","last_edit_user":"0","votes":null,"post_username":"Scarlet Witch","avatar":"https:\/\/assets-cloud.enjin.com\/users\/5375337\/avatar\/medium.1437162398.jpeg","user_online":false,"user_votes":"741","user_posts":0,"url":"https:\/\/www.enjin.com\/ajax.php?s=redirect&cmd=forum-post&mobile=1&preset=12571633&id=42415771"},{"post_id":"42439010","post_time":"1371510551","post_content":"Hello,\r\nThis is when the conflict occurs between the older and younger players.\r\nSince the younger players don't want to read all of the swear words and sexual references, I will add a plugin that, instead of deleting the whole message and warning you, will simply replace the swear words with ****** and replace caps lock with lowercase letters.\r\nThis should keep older and younger audiences entertained and refrain players from going onto rampages.\r\n\r\n@Last_of_Dead - I will add new things as soon as I can. As many of you guys are aware, I am currently on vacation. Today at night I will configure the firewall and I might have some time to check on the server and add new features in tomorrow.","post_content_html":"Hello,<br \/> <br \/> This is when the conflict occurs between the older and younger players.<br \/> <br \/> Since the younger players don't want to read all of the swear words and sexual references, I will add a plugin that, instead of deleting the whole message and warning you, will simply replace the swear words with ****** and replace caps lock with lowercase letters.<br \/> <br \/> This should keep older and younger audiences entertained and refrain players from going onto rampages.<br \/> <br \/> @Last_of_Dead - I will add new things as soon as I can. As many of you guys are aware, I am currently on vacation. Today at night I will configure the firewall and I might have some time to check on the server and add new features in tomorrow.","post_content_clean":"Hello,\r This is when the conflict occurs between the older and younger players.\r Since the younger players don't want to read all of the swear words and sexual references, I will add a plugin that, instead of deleting the whole message and warning you, will simply replace the swear words with ****** and replace caps lock with lowercase letters.\r This should keep older and younger audiences entertained and refrain players from going onto rampages.\r \r @Last_of_Dead - I will add new things as soon as I can. As many of you guys are aware, I am currently on vacation. Today at night I will configure the firewall and I might have some time to check on the server and add new features in tomorrow.","post_user_id":"5295813","show_signature":"1","last_edit_time":"0","post_votes":"0","post_unhidden":"0","post_admin_hidden":"0","post_locked":"0","last_edit_user":"0","votes":null,"post_username":"Shicking","avatar":"https:\/\/assets-cloud.enjin.com\/users\/5295813\/avatar\/medium.1400092930.png","user_online":false,"user_votes":"1795","user_posts":"1098","url":"https:\/\/www.enjin.com\/ajax.php?s=redirect&cmd=forum-post&mobile=1&preset=12571633&id=42439010"},{"post_id":"42440175","post_time":"1371511458","post_content":"Creeperkiller anyway its not private but you need to show to the Server?","post_content_html":"Creeperkiller anyway its not private but you need to show to the Server?","post_content_clean":"Creeperkiller anyway its not private but you need to show to the Server?","post_user_id":"5763450","show_signature":"1","last_edit_time":"0","post_votes":"0","post_unhidden":"0","post_admin_hidden":"0","post_locked":"0","last_edit_user":"0","votes":null,"post_username":"Last_of_Dead","avatar":"https:\/\/assets-cloud.enjin.com\/users\/5763450\/avatar\/medium.1400104205.png","user_online":false,"user_votes":"346","user_posts":"1259","url":"https:\/\/www.enjin.com\/ajax.php?s=redirect&cmd=forum-post&mobile=1&preset=12571633&id=42440175"},{"post_id":"42440187","post_time":"1371511469","post_content":"Thats really necessary?","post_content_html":"Thats really necessary?","post_content_clean":"Thats really necessary?","post_user_id":"5763450","show_signature":"1","last_edit_time":"0","post_votes":"0","post_unhidden":"0","post_admin_hidden":"0","post_locked":"0","last_edit_user":"0","votes":null,"post_username":"Last_of_Dead","avatar":"https:\/\/assets-cloud.enjin.com\/users\/5763450\/avatar\/medium.1400104205.png","user_online":false,"user_votes":"346","user_posts":"1259","url":"https:\/\/www.enjin.com\/ajax.php?s=redirect&cmd=forum-post&mobile=1&preset=12571633&id=42440187"},{"post_id":"42440478","post_time":"1371511712","post_content":"Shicking enjoy the vacation. Don't waste it on here. Because then the whole vacation is pointless.","post_content_html":"Shicking enjoy the vacation. Don't waste it on here. Because then the whole vacation is pointless.","post_content_clean":"Shicking enjoy the vacation. Don't waste it on here. Because then the whole vacation is pointless.","post_user_id":"6277869","show_signature":"1","last_edit_time":"1371511785","post_votes":"0","post_unhidden":"0","post_admin_hidden":"0","post_locked":"0","last_edit_user":"0","votes":null,"post_username":"sheeploot","avatar":"https:\/\/assets-cloud.enjin.com\/users\/6277869\/avatar\/medium.1400110584.png","user_online":false,"user_votes":"0","user_posts":"927","url":"https:\/\/www.enjin.com\/ajax.php?s=redirect&cmd=forum-post&mobile=1&preset=12571633&id=42440478"},{"post_id":"42440821","post_time":"1371511981","post_content":"Besides I'm literally on all the time watching these things. Please check out my Moderator Application Shicking, &quot;Moderator Application: By sheeploot&quot;","post_content_html":"Besides I'm literally on all the time watching these things. Please check out my Moderator Application Shicking, &quot;Moderator Application: By sheeploot&quot;","post_content_clean":"Besides I'm literally on all the time watching these things. Please check out my Moderator Application Shicking, \"Moderator Application: By sheeploot\"","post_user_id":"6277869","show_signature":"1","last_edit_time":"0","post_votes":"0","post_unhidden":"0","post_admin_hidden":"0","post_locked":"0","last_edit_user":"0","votes":null,"post_username":"sheeploot","avatar":"https:\/\/assets-cloud.enjin.com\/users\/6277869\/avatar\/medium.1400110584.png","user_online":false,"user_votes":"0","user_posts":"927","url":"https:\/\/www.enjin.com\/ajax.php?s=redirect&cmd=forum-post&mobile=1&preset=12571633&id=42440821"},{"post_id":"42442342","post_time":"1371513336","post_content":"[color=#239edd]Last, there is one message up there. There is no need to have a spaz over it. Its not even a bad message. [\/color]","post_content_html":"Last, there is one message up there. There is no need to have a spaz over it. Its not even a bad message. ","post_content_clean":"Last, there is one message up there. There is no need to have a spaz over it. Its not even a bad message. ","post_user_id":"5375337","show_signature":"1","last_edit_time":"0","post_votes":"0","post_unhidden":"0","post_admin_hidden":"0","post_locked":"0","last_edit_user":"0","votes":null,"post_username":"Scarlet Witch","avatar":"https:\/\/assets-cloud.enjin.com\/users\/5375337\/avatar\/medium.1437162398.jpeg","user_online":false,"user_votes":"741","user_posts":"1506","url":"https:\/\/www.enjin.com\/ajax.php?s=redirect&cmd=forum-post&mobile=1&preset=12571633&id=42442342"},{"post_id":"42442415","post_time":"1371513410","post_content":"No, If It would be yours, you would on my place.","post_content_html":"No, If It would be yours, you would on my place.","post_content_clean":"No, If It would be yours, you would on my place.","post_user_id":"5763450","show_signature":"1","last_edit_time":"0","post_votes":"0","post_unhidden":"0","post_admin_hidden":"0","post_locked":"0","last_edit_user":"0","votes":null,"post_username":"Last_of_Dead","avatar":"https:\/\/assets-cloud.enjin.com\/users\/5763450\/avatar\/medium.1400104205.png","user_online":false,"user_votes":"346","user_posts":"1259","url":"https:\/\/www.enjin.com\/ajax.php?s=redirect&cmd=forum-post&mobile=1&preset=12571633&id=42442415"},{"post_id":"42442569","post_time":"1371513531","post_content":"[color=#239edd]No, last unless it was insluting a player that reads these forums then I wouldnt care at all.[\/color]","post_content_html":"No, last unless it was insluting a player that reads these forums then I wouldnt care at all.","post_content_clean":"No, last unless it was insluting a player that reads these forums then I wouldnt care at all.","post_user_id":"5375337","show_signature":"1","last_edit_time":"0","post_votes":"0","post_unhidden":"0","post_admin_hidden":"0","post_locked":"0","last_edit_user":"0","votes":null,"post_username":"Scarlet Witch","avatar":"https:\/\/assets-cloud.enjin.com\/users\/5375337\/avatar\/medium.1437162398.jpeg","user_online":false,"user_votes":"741","user_posts":"1506","url":"https:\/\/www.enjin.com\/ajax.php?s=redirect&cmd=forum-post&mobile=1&preset=12571633&id=42442569"},{"post_id":"42442835","post_time":"1371513779","post_content":"Ok so if you were on my place you would stay Super Happy when people post messages of you That's what you are telling me now... It is not so simple like you think, for you now as Mod is simple to say... only to say.","post_content_html":"Ok so if you were on my place you would stay Super Happy when people post messages of you That's what you are telling me now... It is not so simple like you think, for you now as Mod is simple to say... only to say.","post_content_clean":"Ok so if you were on my place you would stay Super Happy when people post messages of you That's what you are telling me now... It is not so simple like you think, for you now as Mod is simple to say... only to say.","post_user_id":"5763450","show_signature":"1","last_edit_time":"1371518072","post_votes":"0","post_unhidden":"0","post_admin_hidden":"0","post_locked":"0","last_edit_user":"0","votes":null,"post_username":"Last_of_Dead","avatar":"https:\/\/assets-cloud.enjin.com\/users\/5763450\/avatar\/medium.1400104205.png","user_online":false,"user_votes":"346","user_posts":"1259","url":"https:\/\/www.enjin.com\/ajax.php?s=redirect&cmd=forum-post&mobile=1&preset=12571633&id=42442835"}],"total_items":"21","pages":3,"voted":false,"new_post_id":"42439010","thread_labels":[],"top_posters":{"result":[{"post_user_id":"5763450","posts":"8","username":"Last_of_Dead","avatar":"https:\/\/assets-cloud.enjin.com\/users\/5763450\/avatar\/medium.1400104205.png"},{"post_user_id":"5375337","posts":"6","username":"Scarlet Witch","avatar":"https:\/\/assets-cloud.enjin.com\/users\/5375337\/avatar\/medium.1437162398.jpeg"},{"post_user_id":"5295813","posts":"2","username":"Shicking","avatar":"https:\/\/assets-cloud.enjin.com\/users\/5295813\/avatar\/medium.1400092930.png"},{"post_user_id":"6277869","posts":"2","username":"sheeploot","avatar":"https:\/\/assets-cloud.enjin.com\/users\/6277869\/avatar\/medium.1400110584.png"},{"post_user_id":"5440874","posts":"1","username":"MooseTheEngineer","avatar":"https:\/\/assets-cloud.enjin.com\/users\/5440874\/avatar\/medium.1495487251.jpeg"},{"post_user_id":"1084942","posts":"1","username":"Mozzie","avatar":"https:\/\/assets-cloud.enjin.com\/users\/1084942\/avatar\/medium.1400212514.png"},{"post_user_id":"4331303","posts":"1","username":"Boom \u30c4","avatar":"https:\/\/assets-cloud.enjin.com\/users\/4331303\/avatar\/medium.1400080585.png"}],"num_users":"7"},"moderation_access":false,"poll_post":null,"post_access":true,"new_thread_access":true},"id":"1234567","jsonrpc":"2.0"}
{"result":{"thread":{"preset_id":"12571633","forum_id":"2419049","thread_id":"7472953","thread_subject":"INNAPROPRIATE LANGUAGE ON THIS SERVER","thread_replies":"20","thread_views":"1630","thread_type":"normal","thread_status":"locked","thread_user_id":"5375337","thread_username":"13641455421368885873","thread_avatar":"https:\/\/assets-cloud.enjin.com\/users\/5375337\/avatar\/medium.1437162398.jpeg","thread_lastpost_user_id":"5295813","thread_lastpost_username":"13635541171024291676","thread_lastpost_time":"1371514771","thread_moved_id":"0","thread_post_time":"1371493510","url":"https:\/\/www.enjin.com\/ajax.php?s=redirect&cmd=forum-thread&mobile=1&preset=12571633&id=7472953","post_count":0,"category_id":"1023514","forum_name":"Gaming","forum_description":"Chat about anything gaming related, no matter what platform!.","disable_voting":"0","show_signature":"1","url_cms":"https:\/\/www.craftsurvivalgames.com\/forum\/m\/12571633\/viewthread\/7472953-innapropriate-language-on-this-server"},"posts":[{"post_id":"42415771","post_time":"1371493510","post_content":"I took the liberty of waiting and watching for about an hour to see what happens when mods aren't on. The following screenshots are some of the language and rude things players on this server say.\r\n\r\nIf you have any more pictures of language please feel free to post! Shicking we need to do something about this!!!","post_content_html":"I took the liberty of waiting and watching for about an hour to see what happens when mods aren't on. The following screenshots are some of the language and rude things players on this server say.<br \/> <br \/> If you have any more pictures of language please feel free to post! Shicking we need to do something about this!!!","post_content_clean":"I took the liberty of waiting and watching for about an hour to see what happens when mods aren't on. The following screenshots are some of the language and rude things players on this server say.\r \r If you have any more pictures of language please feel free to post! Shicking we need to do something about this!!!","post_user_id":"5375337","show_signature":"1","last_edit_time":"1371493971","post_votes":"3","post_unhidden":"0","post_admin_hidden":"0","post_locked":"0","last_edit_user":"0","votes":null,"post_username":"Scarlet Witch","avatar":"https:\/\/assets-cloud.enjin.com\/users\/5375337\/avatar\/medium.1437162398.jpeg","user_online":false,"user_votes":"741","user_posts":0,"url":"https:\/\/www.enjin.com\/ajax.php?s=redirect&cmd=forum-post&mobile=1&preset=12571633&id=42415771"},{"post_id":"42442901","post_time":"1371513831","post_content":"[color=#239edd]Im sorry but i didnt understand one word of your last post.[\/color]","post_content_html":"Im sorry but i didnt understand one word of your last post.","post_content_clean":"Im sorry but i didnt understand one word of your last post.","post_user_id":"5375337","show_signature":"1","last_edit_time":"0","post_votes":"0","post_unhidden":"0","post_admin_hidden":"0","post_locked":"0","last_edit_user":"0","votes":null,"post_username":"Scarlet Witch","avatar":"https:\/\/assets-cloud.enjin.com\/users\/5375337\/avatar\/medium.1437162398.jpeg","user_online":false,"user_votes":"741","user_posts":"1506","url":"https:\/\/www.enjin.com\/ajax.php?s=redirect&cmd=forum-post&mobile=1&preset=12571633&id=42442901"},{"post_id":"42443951","post_time":"1371514771","post_content":"The forums are not a place to argue.\r\nThread locked.","post_content_html":"The forums are not a place to argue.<br \/> <br \/> Thread locked.","post_content_clean":"The forums are not a place to argue.\r Thread locked.","post_user_id":"5295813","show_signature":"1","last_edit_time":"0","post_votes":"0","post_unhidden":"0","post_admin_hidden":"0","post_locked":"0","last_edit_user":"0","votes":null,"post_username":"Shicking","avatar":"https:\/\/assets-cloud.enjin.com\/users\/5295813\/avatar\/medium.1400092930.png","user_online":false,"user_votes":"1795","user_posts":"1098","url":"https:\/\/www.enjin.com\/ajax.php?s=redirect&cmd=forum-post&mobile=1&preset=12571633&id=42443951"}],"total_items":"21","pages":3,"voted":false,"new_post_id":"42442901","thread_labels":[],"top_posters":{"result":[{"post_user_id":"5763450","posts":"8","username":"Last_of_Dead","avatar":"https:\/\/assets-cloud.enjin.com\/users\/5763450\/avatar\/medium.1400104205.png"},{"post_user_id":"5375337","posts":"6","username":"Scarlet Witch","avatar":"https:\/\/assets-cloud.enjin.com\/users\/5375337\/avatar\/medium.1437162398.jpeg"},{"post_user_id":"6277869","posts":"2","username":"sheeploot","avatar":"https:\/\/assets-cloud.enjin.com\/users\/6277869\/avatar\/medium.1400110584.png"},{"post_user_id":"5295813","posts":"2","username":"Shicking","avatar":"https:\/\/assets-cloud.enjin.com\/users\/5295813\/avatar\/medium.1400092930.png"},{"post_user_id":"5440874","posts":"1","username":"MooseTheEngineer","avatar":"https:\/\/assets-cloud.enjin.com\/users\/5440874\/avatar\/medium.1495487251.jpeg"},{"post_user_id":"1084942","posts":"1","username":"Mozzie","avatar":"https:\/\/assets-cloud.enjin.com\/users\/1084942\/avatar\/medium.1400212514.png"},{"post_user_id":"4331303","posts":"1","username":"Boom \u30c4","avatar":"https:\/\/assets-cloud.enjin.com\/users\/4331303\/avatar\/medium.1400080585.png"}],"num_users":"7"},"moderation_access":false,"poll_post":null,"post_access":true,"new_thread_access":true},"id":"1234567","jsonrpc":"2.0"}
