{"result":{"thread":{"preset_id":"12571633","forum_id":"2419048","thread_id":"7640310","thread_subject":"First Creative World Build Ever - Created by Moose. Helped from Last_of_dead and ArmandCool.","thread_replies":"20","thread_views":"767","thread_type":"normal","thread_status":"locked","thread_user_id":"5440874","thread_username":"1364607932959845462","thread_avatar":"https:\/\/assets-cloud.enjin.com\/users\/5440874\/avatar\/medium.1495487251.jpeg","thread_lastpost_user_id":"5763450","thread_lastpost_username":"1367028713940761909","thread_lastpost_time":"1372611223","thread_moved_id":"0","thread_post_time":"1372532586","url":"https:\/\/www.enjin.com\/ajax.php?s=redirect&cmd=forum-thread&mobile=1&preset=12571633&id=7640310","post_count":"1","category_id":"1907006","forum_name":"General Discussion","forum_description":"Discussion about general topics.","disable_voting":"0","show_signature":"1","url_cms":"https:\/\/www.craftsurvivalgames.com\/forum\/m\/12571633\/viewthread\/7640310-first-creative-world-build-ever-created-by-moose-helped-from-lastofdead-armandcool"},"posts":[{"post_id":"43392040","post_time":"1372532586","post_content":"It is complete. ","post_content_html":"It is complete. ","post_content_clean":"It is complete. ","post_user_id":"5440874","show_signature":"1","last_edit_time":"0","post_votes":"0","post_unhidden":"0","post_admin_hidden":"0","post_locked":"0","last_edit_user":"0","votes":null,"post_username":"MooseTheEngineer","avatar":"https:\/\/assets-cloud.enjin.com\/users\/5440874\/avatar\/medium.1495487251.jpeg","user_online":false,"user_votes":"0","user_posts":"2843","url":"https:\/\/www.enjin.com\/ajax.php?s=redirect&cmd=forum-post&mobile=1&preset=12571633&id=43392040"},{"post_id":"43392243","post_time":"1372532775","post_content":"Not bad, just a suggestion. Don't make it out of all one block and remember, if it looks good in default it will look good in every texturepack so don't build it with a texturepack on, put it on afterwards!","post_content_html":"Not bad, just a suggestion. Don't make it out of all one block and remember, if it looks good in default it will look good in every texturepack so don't build it with a texturepack on, put it on afterwards!","post_content_clean":"Not bad, just a suggestion. Don't make it out of all one block and remember, if it looks good in default it will look good in every texturepack so don't build it with a texturepack on, put it on afterwards!","post_user_id":"1084942","show_signature":"1","last_edit_time":"0","post_votes":"1","post_unhidden":"0","post_admin_hidden":"0","post_locked":"0","last_edit_user":"0","votes":null,"post_username":"Mozzie","avatar":"https:\/\/assets-cloud.enjin.com\/users\/1084942\/avatar\/medium.1400212514.png","user_online":false,"user_votes":"363","user_posts":"590","url":"https:\/\/www.enjin.com\/ajax.php?s=redirect&cmd=forum-post&mobile=1&preset=12571633&id=43392243"},{"post_id":"43392499","post_time":"1372533017","post_content":"I can see what you mean.","post_content_html":"I can see what you mean.","post_content_clean":"I can see what you mean.","post_user_id":"5440874","show_signature":"1","last_edit_time":"0","post_votes":"0","post_unhidden":"0","post_admin_hidden":"0","post_locked":"0","last_edit_user":"0","votes":null,"post_username":"MooseTheEngineer","avatar":"https:\/\/assets-cloud.enjin.com\/users\/5440874\/avatar\/medium.1495487251.jpeg","user_online":false,"user_votes":"0","user_posts":"2843","url":"https:\/\/www.enjin.com\/ajax.php?s=redirect&cmd=forum-post&mobile=1&preset=12571633&id=43392499"},{"post_id":"43392614","post_time":"1372533126","post_content":"I am going to change the blocks.","post_content_html":"I am going to change the blocks.","post_content_clean":"I am going to change the blocks.","post_user_id":"5440874","show_signature":"1","last_edit_time":"1372533151","post_votes":"0","post_unhidden":"0","post_admin_hidden":"0","post_locked":"0","last_edit_user":"0","votes":null,"post_username":"MooseTheEngineer","avatar":"https:\/\/assets-cloud.enjin.com\/users\/5440874\/avatar\/medium.1495487251.jpeg","user_online":false,"user_votes":"0","user_posts":"2843","url":"https:\/\/www.enjin.com\/ajax.php?s=redirect&cmd=forum-post&mobile=1&preset=12571633&id=43392614"},{"post_id":"43392747","post_time":"1372533247","post_content":"Nice :D","post_content_html":"Nice <object class=\"emojione\" data=\"https:\/\/resources.enjin.com\/1489581540\/themes\/core\/images\/emojione\/svg\/1f600.svg?0\" type=\"image\/svg+xml\" standby=\":d\">:d<\/object>","post_content_clean":"Nice :D","post_user_id":"5496936","show_signature":"1","last_edit_time":"0","post_votes":"1","post_unhidden":"0","post_admin_hidden":"0","post_locked":"0","last_edit_user":"0","votes":null,"post_username":"Dwarfs_Digging","avatar":"https:\/\/assets-cloud.enjin.com\/users\/5496936\/avatar\/medium.1406468426.jpeg","user_online":false,"user_votes":"158","user_posts":"1398","url":"https:\/\/www.enjin.com\/ajax.php?s=redirect&cmd=forum-post&mobile=1&preset=12571633&id=43392747"},{"post_id":"43393244","post_time":"1372533730","post_content":"GJ!","post_content_html":"GJ!","post_content_clean":"GJ!","post_user_id":"5295813","show_signature":"1","last_edit_time":"0","post_votes":"4","post_unhidden":"0","post_admin_hidden":"0","post_locked":"0","last_edit_user":"0","votes":null,"post_username":"Shicking","avatar":"https:\/\/assets-cloud.enjin.com\/users\/5295813\/avatar\/medium.1400092930.png","user_online":false,"user_votes":"1795","user_posts":"1098","url":"https:\/\/www.enjin.com\/ajax.php?s=redirect&cmd=forum-post&mobile=1&preset=12571633&id=43393244"},{"post_id":"43393779","post_time":"1372534194","post_content":"Looking better than it was! Nice! :D","post_content_html":"Looking better than it was! Nice! <object class=\"emojione\" data=\"https:\/\/resources.enjin.com\/1489581540\/themes\/core\/images\/emojione\/svg\/1f600.svg?0\" type=\"image\/svg+xml\" standby=\":d\">:d<\/object>","post_content_clean":"Looking better than it was! Nice! :D","post_user_id":"6277869","show_signature":"1","last_edit_time":"0","post_votes":"0","post_unhidden":"0","post_admin_hidden":"0","post_locked":"0","last_edit_user":"0","votes":null,"post_username":"sheeploot","avatar":"https:\/\/assets-cloud.enjin.com\/users\/6277869\/avatar\/medium.1400110584.png","user_online":false,"user_votes":"0","user_posts":"927","url":"https:\/\/www.enjin.com\/ajax.php?s=redirect&cmd=forum-post&mobile=1&preset=12571633&id=43393779"},{"post_id":"43395001","post_time":"1372535338","post_content":"Updated the look. Looks better.","post_content_html":"Updated the look. Looks better.","post_content_clean":"Updated the look. Looks better.","post_user_id":"5440874","show_signature":"1","last_edit_time":"0","post_votes":"0","post_unhidden":"0","post_admin_hidden":"0","post_locked":"0","last_edit_user":"0","votes":null,"post_username":"MooseTheEngineer","avatar":"https:\/\/assets-cloud.enjin.com\/users\/5440874\/avatar\/medium.1495487251.jpeg","user_online":false,"user_votes":"0","user_posts":"2843","url":"https:\/\/www.enjin.com\/ajax.php?s=redirect&cmd=forum-post&mobile=1&preset=12571633&id=43395001"},{"post_id":"43395718","post_time":"1372536114","post_content":"Looks good :D","post_content_html":"Looks good <object class=\"emojione\" data=\"https:\/\/resources.enjin.com\/1489581540\/themes\/core\/images\/emojione\/svg\/1f600.svg?0\" type=\"image\/svg+xml\" standby=\":d\">:d<\/object>","post_content_clean":"Looks good :D","post_user_id":"5264359","show_signature":"1","last_edit_time":"0","post_votes":"1","post_unhidden":"0","post_admin_hidden":"0","post_locked":"0","last_edit_user":"0","votes":null,"post_username":"bertus112","avatar":"https:\/\/assets-cloud.enjin.com\/users\/5264359\/avatar\/medium.1400094074.png","user_online":false,"user_votes":"894","user_posts":"1926","url":"https:\/\/www.enjin.com\/ajax.php?s=redirect&cmd=forum-post&mobile=1&preset=12571633&id=43395718"},{"post_id":"43396945","post_time":"1372537315","post_content":"Looking amazing :D Good job!","post_content_html":"Looking amazing <object class=\"emojione\" data=\"https:\/\/resources.enjin.com\/1489581540\/themes\/core\/images\/emojione\/svg\/1f600.svg?0\" type=\"image\/svg+xml\" standby=\":d\">:d<\/object> Good job!","post_content_clean":"Looking amazing :D Good job!","post_user_id":"5540191","show_signature":"1","last_edit_time":"0","post_votes":"0","post_unhidden":"0","post_admin_hidden":"0","post_locked":"0","last_edit_user":"0","votes":null,"post_username":"Rejisu","avatar":"https:\/\/assets-cloud.enjin.com\/users\/5540191\/avatar\/medium.1400096806.png","user_online":false,"user_votes":"0","user_posts":"3","url":"https:\/\/www.enjin.com\/ajax.php?s=redirect&cmd=forum-post&mobile=1&preset=12571633&id=43396945"}],"total_items":"21","pages":3,"voted":false,"new_post_id":false,"thread_labels":[],"top_posters":{"result":[{"post_user_id":"5440874","posts":"6","username":"MooseTheEngineer","avatar":"https:\/\/assets-cloud.enjin.com\/users\/5440874\/avatar\/medium.1495487251.jpeg"},{"post_user_id":"5763450","posts":"5","username":"Last_of_Dead","avatar":"https:\/\/assets-cloud.enjin.com\/users\/5763450\/avatar\/medium.1400104205.png"},{"post_user_id":"3247543","posts":"1","username":"FriendlyBum","avatar":"https:\/\/assets-cloud.enjin.com\/users\/3247543\/avatar\/medium.1400072406.png"},{"post_user_id":"6240898","posts":"1","username":"spot","avatar":"https:\/\/assets-cloud.enjin.com\/users\/6240898\/avatar\/medium.1400106374.png"},{"post_user_id":"5776718","posts":"1","username":"langson","avatar":"https:\/\/assets-cloud.enjin.com\/users\/5776718\/avatar\/medium.1400103875.png"},{"post_user_id":"3831403","posts":"1","username":"CAMILLA HANSEN","avatar":"https:\/\/assets-cloud.enjin.com\/users\/3831403\/avatar\/medium.1468103027.jpeg"},{"post_user_id":"1084942","posts":"1","username":"Mozzie","avatar":"https:\/\/assets-cloud.enjin.com\/users\/1084942\/avatar\/medium.1400212514.png"},{"post_user_id":"5496936","posts":"1","username":"Dwarfs_Digging","avatar":"https:\/\/assets-cloud.enjin.com\/users\/5496936\/avatar\/medium.1406468426.jpeg"},{"post_user_id":"5295813","posts":"1","username":"Shicking","avatar":"https:\/\/assets-cloud.enjin.com\/users\/5295813\/avatar\/medium.1400092930.png"},{"post_user_id":"6277869","posts":"1","username":"sheeploot","avatar":"https:\/\/assets-cloud.enjin.com\/users\/6277869\/avatar\/medium.1400110584.png"},{"post_user_id":"5264359","posts":"1","username":"bertus112","avatar":"https:\/\/assets-cloud.enjin.com\/users\/5264359\/avatar\/medium.1400094074.png"},{"post_user_id":"5540191","posts":"1","username":"Rejisu","avatar":"https:\/\/assets-cloud.enjin.com\/users\/5540191\/avatar\/medium.1400096806.png"}],"num_users":"12"},"moderation_access":false,"poll_post":null,"post_access":true,"new_thread_access":true},"id":"1234567","jsonrpc":"2.0"}
{"result":{"thread":{"preset_id":"12571633","forum_id":"2419048","thread_id":"7640310","thread_subject":"First Creative World Build Ever - Created by Moose. Helped from Last_of_dead and ArmandCool.","thread_replies":"20","thread_views":"767","thread_type":"normal","thread_status":"locked","thread_user_id":"5440874","thread_username":"1364607932959845462","thread_avatar":"https:\/\/assets-cloud.enjin.com\/users\/5440874\/avatar\/medium.1400104205.png","thread_lastpost_user_id":"5763450","thread_lastpost_username":"1367028713940761909","thread_lastpost_time":"1372611223","thread_moved_id":"0","thread_post_time":"1372532586","url":"https:\/\/www.enjin.com\/ajax.php?s=redirect&cmd=forum-thread&mobile=1&preset=12571633&id=7640310","post_count":"1","category_id":"1907006","forum_name":"General Discussion","forum_description":"Discussion about general topics.","disable_voting":"0","show_signature":"1","url_cms":"https:\/\/www.craftsurvivalgames.com\/forum\/m\/12571633\/viewthread\/7640310-first-creative-world-build-ever-created-by-moose-helped-from-lastofdead-armandcool"},"posts":[{"post_id":"43397884","post_time":"1372538228","post_content":"xD Nobody can see on screenshots but I builded something too on the sky, thats why I only builded half of the castle.","post_content_html":"xD Nobody can see on screenshots but I builded something too on the sky, thats why I only builded half of the castle.","post_content_clean":"xD Nobody can see on screenshots but I builded something too on the sky, thats why I only builded half of the castle.","post_user_id":"5763450","show_signature":"1","last_edit_time":"0","post_votes":"1","post_unhidden":"0","post_admin_hidden":"0","post_locked":"0","last_edit_user":"0","votes":null,"post_username":"Last_of_Dead","avatar":"https:\/\/assets-cloud.enjin.com\/users\/5763450\/avatar\/medium.1400104205.png","user_online":false,"user_votes":"346","user_posts":"1259","url":"https:\/\/www.enjin.com\/ajax.php?s=redirect&cmd=forum-post&mobile=1&preset=12571633&id=43397884"},{"post_id":"43398955","post_time":"1372539273","post_content":"Amazing job!","post_content_html":"Amazing job!","post_content_clean":"Amazing job!","post_user_id":"3247543","show_signature":"1","last_edit_time":"0","post_votes":"0","post_unhidden":"0","post_admin_hidden":"0","post_locked":"0","last_edit_user":"0","votes":null,"post_username":"FriendlyBum","avatar":"https:\/\/assets-cloud.enjin.com\/users\/3247543\/avatar\/medium.1400072406.png","user_online":false,"user_votes":"555","user_posts":"2153","url":"https:\/\/www.enjin.com\/ajax.php?s=redirect&cmd=forum-post&mobile=1&preset=12571633&id=43398955"},{"post_id":"43399013","post_time":"1372539333","post_content":"sexy","post_content_html":"sexy","post_content_clean":"sexy","post_user_id":"6240898","show_signature":"1","last_edit_time":"0","post_votes":"0","post_unhidden":"0","post_admin_hidden":"0","post_locked":"0","last_edit_user":"0","votes":null,"post_username":"spot","avatar":"https:\/\/assets-cloud.enjin.com\/users\/6240898\/avatar\/medium.1400106374.png","user_online":false,"user_votes":"258","user_posts":"2284","url":"https:\/\/www.enjin.com\/ajax.php?s=redirect&cmd=forum-post&mobile=1&preset=12571633&id=43399013"},{"post_id":"43455780","post_time":"1372610514","post_content":"The whole castle is made of sand (stone, chiseled, brick).","post_content_html":"The whole castle is made of sand (stone, chiseled, brick).","post_content_clean":"The whole castle is made of sand (stone, chiseled, brick).","post_user_id":"5440874","show_signature":"1","last_edit_time":"0","post_votes":"0","post_unhidden":"0","post_admin_hidden":"0","post_locked":"0","last_edit_user":"0","votes":null,"post_username":"MooseTheEngineer","avatar":"https:\/\/assets-cloud.enjin.com\/users\/5440874\/avatar\/medium.1495487251.jpeg","user_online":false,"user_votes":"0","user_posts":"2843","url":"https:\/\/www.enjin.com\/ajax.php?s=redirect&cmd=forum-post&mobile=1&preset=12571633&id=43455780"},{"post_id":"43455905","post_time":"1372610635","post_content":"Looks great!","post_content_html":"Looks great!","post_content_clean":"Looks great!","post_user_id":"5776718","show_signature":"1","last_edit_time":"0","post_votes":"0","post_unhidden":"0","post_admin_hidden":"0","post_locked":"0","last_edit_user":"0","votes":null,"post_username":"langson","avatar":"https:\/\/assets-cloud.enjin.com\/users\/5776718\/avatar\/medium.1400103875.png","user_online":false,"user_votes":"5","user_posts":"192","url":"https:\/\/www.enjin.com\/ajax.php?s=redirect&cmd=forum-post&mobile=1&preset=12571633&id=43455905"},{"post_id":"43455931","post_time":"1372610659","post_content":"Yeah. and moose we have to complete the top.","post_content_html":"Yeah. and moose we have to complete the top.","post_content_clean":"Yeah. and moose we have to complete the top.","post_user_id":"5763450","show_signature":"1","last_edit_time":"0","post_votes":"0","post_unhidden":"0","post_admin_hidden":"0","post_locked":"0","last_edit_user":"0","votes":null,"post_username":"Last_of_Dead","avatar":"https:\/\/assets-cloud.enjin.com\/users\/5763450\/avatar\/medium.1400104205.png","user_online":false,"user_votes":"346","user_posts":"1259","url":"https:\/\/www.enjin.com\/ajax.php?s=redirect&cmd=forum-post&mobile=1&preset=12571633&id=43455931"},{"post_id":"43456205","post_time":"1372610908","post_content":"thx :P","post_content_html":"thx <object class=\"emojione\" data=\"https:\/\/resources.enjin.com\/1489581540\/themes\/core\/images\/emojione\/svg\/1f61b.svg?0\" type=\"image\/svg+xml\" standby=\":p\">:p<\/object>","post_content_clean":"thx :P","post_user_id":"5763450","show_signature":"1","last_edit_time":"0","post_votes":"0","post_unhidden":"0","post_admin_hidden":"0","post_locked":"0","last_edit_user":"0","votes":null,"post_username":"Last_of_Dead","avatar":"https:\/\/assets-cloud.enjin.com\/users\/5763450\/avatar\/medium.1400104205.png","user_online":false,"user_votes":"346","user_posts":"1259","url":"https:\/\/www.enjin.com\/ajax.php?s=redirect&cmd=forum-post&mobile=1&preset=12571633&id=43456205"},{"post_id":"43456315","post_time":"1372611017","post_content":"Meet us in creative to see the build personally.","post_content_html":"Meet us in creative to see the build personally.","post_content_clean":"Meet us in creative to see the build personally.","post_user_id":"5440874","show_signature":"1","last_edit_time":"0","post_votes":"0","post_unhidden":"0","post_admin_hidden":"0","post_locked":"0","last_edit_user":"0","votes":null,"post_username":"MooseTheEngineer","avatar":"https:\/\/assets-cloud.enjin.com\/users\/5440874\/avatar\/medium.1495487251.jpeg","user_online":false,"user_votes":"0","user_posts":"2843","url":"https:\/\/www.enjin.com\/ajax.php?s=redirect&cmd=forum-post&mobile=1&preset=12571633&id=43456315"},{"post_id":"43456325","post_time":"1372611029","post_content":"Haha i'm standing down there :3! and AWESOME build!! &gt;;P","post_content_html":"Haha i'm standing down there :3! and AWESOME build!! &gt;;P","post_content_clean":"Haha i'm standing down there :3! and AWESOME build!! >;P","post_user_id":"3831403","show_signature":"1","last_edit_time":"0","post_votes":"1","post_unhidden":"0","post_admin_hidden":"0","post_locked":"0","last_edit_user":"0","votes":null,"post_username":"CAMILLA HANSEN","avatar":"https:\/\/assets-cloud.enjin.com\/users\/3831403\/avatar\/medium.1468103027.jpeg","user_online":false,"user_votes":null,"user_posts":0,"url":"https:\/\/www.enjin.com\/ajax.php?s=redirect&cmd=forum-post&mobile=1&preset=12571633&id=43456325"},{"post_id":"43456454","post_time":"1372611167","post_content":"Moose I cant atm because I have tests on the week :(","post_content_html":"Moose I cant atm because I have tests on the week :(","post_content_clean":"Moose I cant atm because I have tests on the week :(","post_user_id":"5763450","show_signature":"1","last_edit_time":"0","post_votes":"0","post_unhidden":"0","post_admin_hidden":"0","post_locked":"0","last_edit_user":"0","votes":null,"post_username":"Last_of_Dead","avatar":"https:\/\/assets-cloud.enjin.com\/users\/5763450\/avatar\/medium.1400104205.png","user_online":false,"user_votes":"346","user_posts":"1259","url":"https:\/\/www.enjin.com\/ajax.php?s=redirect&cmd=forum-post&mobile=1&preset=12571633&id=43456454"}],"total_items":"21","pages":3,"voted":false,"new_post_id":"43397884","thread_labels":[],"top_posters":{"result":[{"post_user_id":"5440874","posts":"6","username":"MooseTheEngineer","avatar":"https:\/\/assets-cloud.enjin.com\/users\/5440874\/avatar\/medium.1495487251.jpeg"},{"post_user_id":"5763450","posts":"5","username":"Last_of_Dead","avatar":"https:\/\/assets-cloud.enjin.com\/users\/5763450\/avatar\/medium.1400104205.png"},{"post_user_id":"3247543","posts":"1","username":"FriendlyBum","avatar":"https:\/\/assets-cloud.enjin.com\/users\/3247543\/avatar\/medium.1400072406.png"},{"post_user_id":"6240898","posts":"1","username":"spot","avatar":"https:\/\/assets-cloud.enjin.com\/users\/6240898\/avatar\/medium.1400106374.png"},{"post_user_id":"5776718","posts":"1","username":"langson","avatar":"https:\/\/assets-cloud.enjin.com\/users\/5776718\/avatar\/medium.1400103875.png"},{"post_user_id":"3831403","posts":"1","username":"CAMILLA HANSEN","avatar":"https:\/\/assets-cloud.enjin.com\/users\/3831403\/avatar\/medium.1468103027.jpeg"},{"post_user_id":"1084942","posts":"1","username":"Mozzie","avatar":"https:\/\/assets-cloud.enjin.com\/users\/1084942\/avatar\/medium.1400212514.png"},{"post_user_id":"5496936","posts":"1","username":"Dwarfs_Digging","avatar":"https:\/\/assets-cloud.enjin.com\/users\/5496936\/avatar\/medium.1406468426.jpeg"},{"post_user_id":"5295813","posts":"1","username":"Shicking","avatar":"https:\/\/assets-cloud.enjin.com\/users\/5295813\/avatar\/medium.1400092930.png"},{"post_user_id":"6277869","posts":"1","username":"sheeploot","avatar":"https:\/\/assets-cloud.enjin.com\/users\/6277869\/avatar\/medium.1400110584.png"},{"post_user_id":"5264359","posts":"1","username":"bertus112","avatar":"https:\/\/assets-cloud.enjin.com\/users\/5264359\/avatar\/medium.1400094074.png"},{"post_user_id":"5540191","posts":"1","username":"Rejisu","avatar":"https:\/\/assets-cloud.enjin.com\/users\/5540191\/avatar\/medium.1400096806.png"}],"num_users":"12"},"moderation_access":false,"poll_post":null,"post_access":true,"new_thread_access":true},"id":"1234567","jsonrpc":"2.0"}
{"result":{"thread":{"preset_id":"12571633","forum_id":"2419048","thread_id":"7640310","thread_subject":"First Creative World Build Ever - Created by Moose. Helped from Last_of_dead and ArmandCool.","thread_replies":"20","thread_views":"767","thread_type":"normal","thread_status":"locked","thread_user_id":"5440874","thread_username":"1364607932959845462","thread_avatar":"https:\/\/assets-cloud.enjin.com\/users\/5440874\/avatar\/medium.1400104205.png","thread_lastpost_user_id":"5763450","thread_lastpost_username":"1367028713940761909","thread_lastpost_time":"1372611223","thread_moved_id":"0","thread_post_time":"1372532586","url":"https:\/\/www.enjin.com\/ajax.php?s=redirect&cmd=forum-thread&mobile=1&preset=12571633&id=7640310","post_count":"1","category_id":"1907006","forum_name":"General Discussion","forum_description":"Discussion about general topics.","disable_voting":"0","show_signature":"1","url_cms":"https:\/\/www.craftsurvivalgames.com\/forum\/m\/12571633\/viewthread\/7640310-first-creative-world-build-ever-created-by-moose-helped-from-lastofdead-armandcool"},"posts":[{"post_id":"43456526","post_time":"1372611223","post_content":"See Camilla u helped in.... in ..... You helmet in motivation to build XD","post_content_html":"See Camilla u helped in.... in ..... You helmet in motivation to build XD","post_content_clean":"See Camilla u helped in.... in ..... You helmet in motivation to build XD","post_user_id":"5763450","show_signature":"1","last_edit_time":"0","post_votes":"1","post_unhidden":"0","post_admin_hidden":"0","post_locked":"0","last_edit_user":"0","votes":null,"post_username":"Last_of_Dead","avatar":"https:\/\/assets-cloud.enjin.com\/users\/5763450\/avatar\/medium.1400104205.png","user_online":false,"user_votes":"346","user_posts":"1259","url":"https:\/\/www.enjin.com\/ajax.php?s=redirect&cmd=forum-post&mobile=1&preset=12571633&id=43456526"}],"total_items":"21","pages":3,"voted":false,"new_post_id":"43456526","thread_labels":[],"top_posters":{"result":[{"post_user_id":"5440874","posts":"6","username":"MooseTheEngineer","avatar":"https:\/\/assets-cloud.enjin.com\/users\/5440874\/avatar\/medium.1495487251.jpeg"},{"post_user_id":"5763450","posts":"5","username":"Last_of_Dead","avatar":"https:\/\/assets-cloud.enjin.com\/users\/5763450\/avatar\/medium.1400104205.png"},{"post_user_id":"5540191","posts":"1","username":"Rejisu","avatar":"https:\/\/assets-cloud.enjin.com\/users\/5540191\/avatar\/medium.1400096806.png"},{"post_user_id":"3247543","posts":"1","username":"FriendlyBum","avatar":"https:\/\/assets-cloud.enjin.com\/users\/3247543\/avatar\/medium.1400072406.png"},{"post_user_id":"6240898","posts":"1","username":"spot","avatar":"https:\/\/assets-cloud.enjin.com\/users\/6240898\/avatar\/medium.1400106374.png"},{"post_user_id":"5776718","posts":"1","username":"langson","avatar":"https:\/\/assets-cloud.enjin.com\/users\/5776718\/avatar\/medium.1400103875.png"},{"post_user_id":"3831403","posts":"1","username":"CAMILLA HANSEN","avatar":"https:\/\/assets-cloud.enjin.com\/users\/3831403\/avatar\/medium.1468103027.jpeg"},{"post_user_id":"1084942","posts":"1","username":"Mozzie","avatar":"https:\/\/assets-cloud.enjin.com\/users\/1084942\/avatar\/medium.1400212514.png"},{"post_user_id":"5496936","posts":"1","username":"Dwarfs_Digging","avatar":"https:\/\/assets-cloud.enjin.com\/users\/5496936\/avatar\/medium.1406468426.jpeg"},{"post_user_id":"5295813","posts":"1","username":"Shicking","avatar":"https:\/\/assets-cloud.enjin.com\/users\/5295813\/avatar\/medium.1400092930.png"},{"post_user_id":"6277869","posts":"1","username":"sheeploot","avatar":"https:\/\/assets-cloud.enjin.com\/users\/6277869\/avatar\/medium.1400110584.png"},{"post_user_id":"5264359","posts":"1","username":"bertus112","avatar":"https:\/\/assets-cloud.enjin.com\/users\/5264359\/avatar\/medium.1400094074.png"}],"num_users":"12"},"moderation_access":false,"poll_post":null,"post_access":true,"new_thread_access":true},"id":"1234567","jsonrpc":"2.0"}
