{"result":{"thread":{"preset_id":"12571633","forum_id":"2825348","thread_id":"7883063","thread_subject":"Head pyramid lawl","thread_replies":"29","thread_views":"5852","thread_type":"normal","thread_status":"locked","thread_user_id":"5245755","thread_username":"13632019651286777826","thread_avatar":"https:\/\/assets-cloud.enjin.com\/users\/5245755\/avatar\/medium.1400093837.png","thread_lastpost_user_id":"5245755","thread_lastpost_username":"13632019651286777826","thread_lastpost_time":"1374075371","thread_moved_id":"0","thread_post_time":"1374069349","url":"https:\/\/www.enjin.com\/ajax.php?s=redirect&cmd=forum-thread&mobile=1&preset=12571633&id=7883063","post_count":"1","category_id":"1023523","forum_name":"Fan Art","forum_description":"Post all of your art and videos in here!","disable_voting":"1","show_signature":"1","url_cms":"https:\/\/www.craftsurvivalgames.com\/forum\/m\/12571633\/viewthread\/7883063-head-pyramid-lawl"},"posts":[{"post_id":"44822228","post_time":"1374069349","post_content":"This is one of my creative plots on de server :3\r\nits has a Head pyramid and a head feild xD","post_content_html":"This is one of my creative plots on de server :3<br \/> <br \/> its has a Head pyramid and a head feild xD","post_content_clean":"This is one of my creative plots on de server :3\r its has a Head pyramid and a head feild xD","post_user_id":"5245755","show_signature":"1","last_edit_time":"0","post_votes":"0","post_unhidden":"0","post_admin_hidden":"0","post_locked":"0","last_edit_user":"0","votes":null,"post_username":"TheMedieval","avatar":"https:\/\/assets-cloud.enjin.com\/users\/5245755\/avatar\/medium.1400093837.png","user_online":false,"user_votes":"77","user_posts":"703","url":"https:\/\/www.enjin.com\/ajax.php?s=redirect&cmd=forum-post&mobile=1&preset=12571633&id=44822228"},{"post_id":"44822433","post_time":"1374069556","post_content":"lol","post_content_html":"lol","post_content_clean":"lol","post_user_id":"5264359","show_signature":"1","last_edit_time":"0","post_votes":"0","post_unhidden":"0","post_admin_hidden":"0","post_locked":"0","last_edit_user":"0","votes":null,"post_username":"bertus112","avatar":"https:\/\/assets-cloud.enjin.com\/users\/5264359\/avatar\/medium.1400094074.png","user_online":false,"user_votes":"894","user_posts":"1926","url":"https:\/\/www.enjin.com\/ajax.php?s=redirect&cmd=forum-post&mobile=1&preset=12571633&id=44822433"},{"post_id":"44822465","post_time":"1374069587","post_content":"Nice.","post_content_html":"Nice.","post_content_clean":"Nice.","post_user_id":"5440874","show_signature":"1","last_edit_time":"0","post_votes":"0","post_unhidden":"0","post_admin_hidden":"0","post_locked":"0","last_edit_user":"0","votes":null,"post_username":"MooseTheEngineer","avatar":"https:\/\/assets-cloud.enjin.com\/users\/5440874\/avatar\/medium.1495487251.jpeg","user_online":false,"user_votes":"0","user_posts":"2843","url":"https:\/\/www.enjin.com\/ajax.php?s=redirect&cmd=forum-post&mobile=1&preset=12571633&id=44822465"},{"post_id":"44822847","post_time":"1374069976","post_content":"Shickign is everywhere D:","post_content_html":"Shickign is everywhere D:","post_content_clean":"Shickign is everywhere D:","post_user_id":"5264359","show_signature":"1","last_edit_time":"0","post_votes":"0","post_unhidden":"0","post_admin_hidden":"0","post_locked":"0","last_edit_user":"0","votes":null,"post_username":"bertus112","avatar":"https:\/\/assets-cloud.enjin.com\/users\/5264359\/avatar\/medium.1400094074.png","user_online":false,"user_votes":"894","user_posts":"1926","url":"https:\/\/www.enjin.com\/ajax.php?s=redirect&cmd=forum-post&mobile=1&preset=12571633&id=44822847"},{"post_id":"44822932","post_time":"1374070060","post_content":"I am everywhere too.. Wow... AWESOME","post_content_html":"I am everywhere too.. Wow... AWESOME","post_content_clean":"I am everywhere too.. Wow... AWESOME","post_user_id":"5514011","show_signature":"1","last_edit_time":"0","post_votes":"0","post_unhidden":"0","post_admin_hidden":"0","post_locked":"0","last_edit_user":"0","votes":null,"post_username":"ArmandCool","avatar":"https:\/\/assets-cloud.enjin.com\/users\/5514011\/avatar\/medium.1408808960.jpeg","user_online":false,"user_votes":"376","user_posts":"823","url":"https:\/\/www.enjin.com\/ajax.php?s=redirect&cmd=forum-post&mobile=1&preset=12571633&id=44822932"},{"post_id":"44822987","post_time":"1374070117","post_content":"You can teleport... xD","post_content_html":"You can teleport... xD","post_content_clean":"You can teleport... xD","post_user_id":"5264359","show_signature":"1","last_edit_time":"0","post_votes":"0","post_unhidden":"0","post_admin_hidden":"0","post_locked":"0","last_edit_user":"0","votes":null,"post_username":"bertus112","avatar":"https:\/\/assets-cloud.enjin.com\/users\/5264359\/avatar\/medium.1400094074.png","user_online":false,"user_votes":"894","user_posts":"1926","url":"https:\/\/www.enjin.com\/ajax.php?s=redirect&cmd=forum-post&mobile=1&preset=12571633&id=44822987"},{"post_id":"44823763","post_time":"1374070870","post_content":"Oh guys here is for Armand","post_content_html":"Oh guys here is for Armand","post_content_clean":"Oh guys here is for Armand","post_user_id":"5245755","show_signature":"1","last_edit_time":"0","post_votes":"0","post_unhidden":"0","post_admin_hidden":"0","post_locked":"0","last_edit_user":"0","votes":null,"post_username":"TheMedieval","avatar":"https:\/\/assets-cloud.enjin.com\/users\/5245755\/avatar\/medium.1400093837.png","user_online":false,"user_votes":"77","user_posts":"703","url":"https:\/\/www.enjin.com\/ajax.php?s=redirect&cmd=forum-post&mobile=1&preset=12571633&id=44823763"},{"post_id":"44823783","post_time":"1374070889","post_content":"yeah :D","post_content_html":"yeah <object class=\"emojione\" data=\"https:\/\/resources.enjin.com\/1489581540\/themes\/core\/images\/emojione\/svg\/1f600.svg?0\" type=\"image\/svg+xml\" standby=\":d\">:d<\/object>","post_content_clean":"yeah :D","post_user_id":"5264359","show_signature":"1","last_edit_time":"0","post_votes":"0","post_unhidden":"0","post_admin_hidden":"0","post_locked":"0","last_edit_user":"0","votes":null,"post_username":"bertus112","avatar":"https:\/\/assets-cloud.enjin.com\/users\/5264359\/avatar\/medium.1400094074.png","user_online":false,"user_votes":"894","user_posts":"1926","url":"https:\/\/www.enjin.com\/ajax.php?s=redirect&cmd=forum-post&mobile=1&preset=12571633&id=44823783"},{"post_id":"44823847","post_time":"1374070944","post_content":"I will add Moose if he starts gettin on the creative server :)","post_content_html":"I will add Moose if he starts gettin on the creative server <object class=\"emojione\" data=\"https:\/\/resources.enjin.com\/1489581540\/themes\/core\/images\/emojione\/svg\/1f642.svg?0\" type=\"image\/svg+xml\" standby=\":)\">:)<\/object>","post_content_clean":"I will add Moose if he starts gettin on the creative server :)","post_user_id":"5245755","show_signature":"1","last_edit_time":"0","post_votes":"0","post_unhidden":"0","post_admin_hidden":"0","post_locked":"0","last_edit_user":"0","votes":null,"post_username":"TheMedieval","avatar":"https:\/\/assets-cloud.enjin.com\/users\/5245755\/avatar\/medium.1400093837.png","user_online":false,"user_votes":"77","user_posts":"703","url":"https:\/\/www.enjin.com\/ajax.php?s=redirect&cmd=forum-post&mobile=1&preset=12571633&id=44823847"},{"post_id":"44823913","post_time":"1374071001","post_content":"xD","post_content_html":"xD","post_content_clean":"xD","post_user_id":"5264359","show_signature":"1","last_edit_time":"0","post_votes":"0","post_unhidden":"0","post_admin_hidden":"0","post_locked":"0","last_edit_user":"0","votes":null,"post_username":"bertus112","avatar":"https:\/\/assets-cloud.enjin.com\/users\/5264359\/avatar\/medium.1400094074.png","user_online":false,"user_votes":"894","user_posts":"1926","url":"https:\/\/www.enjin.com\/ajax.php?s=redirect&cmd=forum-post&mobile=1&preset=12571633&id=44823913"}],"total_items":"30","pages":3,"voted":false,"new_post_id":false,"thread_labels":[],"top_posters":{"result":[{"post_user_id":"5264359","posts":"14","username":"bertus112","avatar":"https:\/\/assets-cloud.enjin.com\/users\/5264359\/avatar\/medium.1400094074.png"},{"post_user_id":"5245755","posts":"11","username":"TheMedieval","avatar":"https:\/\/assets-cloud.enjin.com\/users\/5245755\/avatar\/medium.1400093837.png"},{"post_user_id":"5514011","posts":"2","username":"ArmandCool","avatar":"https:\/\/assets-cloud.enjin.com\/users\/5514011\/avatar\/medium.1408808960.jpeg"},{"post_user_id":"5277236","posts":"2","username":"[Hi :3]TrickDoor","avatar":"https:\/\/assets-cloud.enjin.com\/users\/5277236\/avatar\/medium.1400100439.png"},{"post_user_id":"5440874","posts":"1","username":"MooseTheEngineer","avatar":"https:\/\/assets-cloud.enjin.com\/users\/5440874\/avatar\/medium.1495487251.jpeg"}],"num_users":"5"},"moderation_access":false,"poll_post":null,"post_access":true,"new_thread_access":true},"id":"1234567","jsonrpc":"2.0"}
{"result":{"thread":{"preset_id":"12571633","forum_id":"2825348","thread_id":"7883063","thread_subject":"Head pyramid lawl","thread_replies":"29","thread_views":"5852","thread_type":"normal","thread_status":"locked","thread_user_id":"5245755","thread_username":"13632019651286777826","thread_avatar":"https:\/\/assets-cloud.enjin.com\/users\/5245755\/avatar\/medium.1408808960.jpeg","thread_lastpost_user_id":"5245755","thread_lastpost_username":"13632019651286777826","thread_lastpost_time":"1374075371","thread_moved_id":"0","thread_post_time":"1374069349","url":"https:\/\/www.enjin.com\/ajax.php?s=redirect&cmd=forum-thread&mobile=1&preset=12571633&id=7883063","post_count":"1","category_id":"1023523","forum_name":"Fan Art","forum_description":"Post all of your art and videos in here!","disable_voting":"1","show_signature":"1","url_cms":"https:\/\/www.craftsurvivalgames.com\/forum\/m\/12571633\/viewthread\/7883063-head-pyramid-lawl"},"posts":[{"post_id":"44824222","post_time":"1374071277","post_content":"[list]\r\n[*] I\r\n[*] see\r\n[*] everything\r\n[\/list]\r\n[table]\r\n[tr]\r\n[th]While[\/th]\r\n[th]I[\/th]\r\n[\/tr]\r\n[tr]\r\n[td]mess with[\/td]\r\n[td]buttons[\/td]\r\n[\/tr]\r\n[\/table]","post_content_html":"<br \/> <ul class=\"bbcode_list\"> <br \/> <li>I<br \/> <\/li> <li>see<br \/> <\/li> <li>everything<br \/> <\/li> <\/ul> <div class=\"bbcode_table_container\"><table  class=\"bbcode_table\"><tr><td  class=\"th\">While<\/td><td  class=\"th\">I<\/td><\/tr><tr><td >mess with<\/td><td >buttons<\/td><\/tr><\/table><\/div>","post_content_clean":"\r  I\r  see\r  everything\r \r \r \r While\r I\r \r \r mess with\r buttons\r \r ","post_user_id":"5514011","show_signature":"1","last_edit_time":"0","post_votes":"0","post_unhidden":"0","post_admin_hidden":"0","post_locked":"0","last_edit_user":"0","votes":null,"post_username":"ArmandCool","avatar":"https:\/\/assets-cloud.enjin.com\/users\/5514011\/avatar\/medium.1408808960.jpeg","user_online":false,"user_votes":"376","user_posts":"823","url":"https:\/\/www.enjin.com\/ajax.php?s=redirect&cmd=forum-post&mobile=1&preset=12571633&id=44824222"},{"post_id":"44824366","post_time":"1374071411","post_content":"xD","post_content_html":"xD","post_content_clean":"xD","post_user_id":"5264359","show_signature":"1","last_edit_time":"0","post_votes":"0","post_unhidden":"0","post_admin_hidden":"0","post_locked":"0","last_edit_user":"0","votes":null,"post_username":"bertus112","avatar":"https:\/\/assets-cloud.enjin.com\/users\/5264359\/avatar\/medium.1400094074.png","user_online":false,"user_votes":"894","user_posts":"1926","url":"https:\/\/www.enjin.com\/ajax.php?s=redirect&cmd=forum-post&mobile=1&preset=12571633&id=44824366"},{"post_id":"44824733","post_time":"1374071748","post_content":"Gimme dat Button","post_content_html":"Gimme dat Button","post_content_clean":"Gimme dat Button","post_user_id":"5245755","show_signature":"1","last_edit_time":"0","post_votes":"0","post_unhidden":"0","post_admin_hidden":"0","post_locked":"0","last_edit_user":"0","votes":null,"post_username":"TheMedieval","avatar":"https:\/\/assets-cloud.enjin.com\/users\/5245755\/avatar\/medium.1400093837.png","user_online":false,"user_votes":"77","user_posts":"703","url":"https:\/\/www.enjin.com\/ajax.php?s=redirect&cmd=forum-post&mobile=1&preset=12571633&id=44824733"},{"post_id":"44826165","post_time":"1374073090","post_content":"lol","post_content_html":"lol","post_content_clean":"lol","post_user_id":"5277236","show_signature":"1","last_edit_time":"0","post_votes":"0","post_unhidden":"0","post_admin_hidden":"0","post_locked":"0","last_edit_user":"0","votes":null,"post_username":"[Hi :3]TrickDoor","avatar":"https:\/\/assets-cloud.enjin.com\/users\/5277236\/avatar\/medium.1400100439.png","user_online":false,"user_votes":"389","user_posts":"2836","url":"https:\/\/www.enjin.com\/ajax.php?s=redirect&cmd=forum-post&mobile=1&preset=12571633&id=44826165"},{"post_id":"44826383","post_time":"1374073288","post_content":"what button?","post_content_html":"what button?","post_content_clean":"what button?","post_user_id":"5264359","show_signature":"1","last_edit_time":"0","post_votes":"0","post_unhidden":"0","post_admin_hidden":"0","post_locked":"0","last_edit_user":"0","votes":null,"post_username":"bertus112","avatar":"https:\/\/assets-cloud.enjin.com\/users\/5264359\/avatar\/medium.1400094074.png","user_online":false,"user_votes":"894","user_posts":"1926","url":"https:\/\/www.enjin.com\/ajax.php?s=redirect&cmd=forum-post&mobile=1&preset=12571633&id=44826383"},{"post_id":"44826516","post_time":"1374073395","post_content":"The button, THE button","post_content_html":"The button, THE button","post_content_clean":"The button, THE button","post_user_id":"5245755","show_signature":"1","last_edit_time":"0","post_votes":"0","post_unhidden":"0","post_admin_hidden":"0","post_locked":"0","last_edit_user":"0","votes":null,"post_username":"TheMedieval","avatar":"https:\/\/assets-cloud.enjin.com\/users\/5245755\/avatar\/medium.1400093837.png","user_online":false,"user_votes":"77","user_posts":"703","url":"https:\/\/www.enjin.com\/ajax.php?s=redirect&cmd=forum-post&mobile=1&preset=12571633&id=44826516"},{"post_id":"44826586","post_time":"1374073456","post_content":":o","post_content_html":"<object class=\"emojione\" data=\"https:\/\/resources.enjin.com\/1489581540\/themes\/core\/images\/emojione\/svg\/1f632.svg?0\" type=\"image\/svg+xml\" standby=\":o\">:o<\/object>","post_content_clean":":o","post_user_id":"5264359","show_signature":"1","last_edit_time":"0","post_votes":"0","post_unhidden":"0","post_admin_hidden":"0","post_locked":"0","last_edit_user":"0","votes":null,"post_username":"bertus112","avatar":"https:\/\/assets-cloud.enjin.com\/users\/5264359\/avatar\/medium.1400094074.png","user_online":false,"user_votes":"894","user_posts":"1926","url":"https:\/\/www.enjin.com\/ajax.php?s=redirect&cmd=forum-post&mobile=1&preset=12571633&id=44826586"},{"post_id":"44826621","post_time":"1374073493","post_content":"Yes now you get it xD","post_content_html":"Yes now you get it xD","post_content_clean":"Yes now you get it xD","post_user_id":"5245755","show_signature":"1","last_edit_time":"0","post_votes":"0","post_unhidden":"0","post_admin_hidden":"0","post_locked":"0","last_edit_user":"0","votes":null,"post_username":"TheMedieval","avatar":"https:\/\/assets-cloud.enjin.com\/users\/5245755\/avatar\/medium.1400093837.png","user_online":false,"user_votes":"77","user_posts":"703","url":"https:\/\/www.enjin.com\/ajax.php?s=redirect&cmd=forum-post&mobile=1&preset=12571633&id=44826621"},{"post_id":"44826642","post_time":"1374073512","post_content":"xD","post_content_html":"xD","post_content_clean":"xD","post_user_id":"5264359","show_signature":"1","last_edit_time":"0","post_votes":"0","post_unhidden":"0","post_admin_hidden":"0","post_locked":"0","last_edit_user":"0","votes":null,"post_username":"bertus112","avatar":"https:\/\/assets-cloud.enjin.com\/users\/5264359\/avatar\/medium.1400094074.png","user_online":false,"user_votes":"894","user_posts":"1926","url":"https:\/\/www.enjin.com\/ajax.php?s=redirect&cmd=forum-post&mobile=1&preset=12571633&id=44826642"},{"post_id":"44826987","post_time":"1374073841","post_content":"lawl","post_content_html":"lawl","post_content_clean":"lawl","post_user_id":"5245755","show_signature":"1","last_edit_time":"0","post_votes":"0","post_unhidden":"0","post_admin_hidden":"0","post_locked":"0","last_edit_user":"0","votes":null,"post_username":"TheMedieval","avatar":"https:\/\/assets-cloud.enjin.com\/users\/5245755\/avatar\/medium.1400093837.png","user_online":false,"user_votes":"77","user_posts":"703","url":"https:\/\/www.enjin.com\/ajax.php?s=redirect&cmd=forum-post&mobile=1&preset=12571633&id=44826987"}],"total_items":"30","pages":3,"voted":false,"new_post_id":"44824222","thread_labels":[],"top_posters":{"result":[{"post_user_id":"5264359","posts":"14","username":"bertus112","avatar":"https:\/\/assets-cloud.enjin.com\/users\/5264359\/avatar\/medium.1400094074.png"},{"post_user_id":"5245755","posts":"11","username":"TheMedieval","avatar":"https:\/\/assets-cloud.enjin.com\/users\/5245755\/avatar\/medium.1400093837.png"},{"post_user_id":"5514011","posts":"2","username":"ArmandCool","avatar":"https:\/\/assets-cloud.enjin.com\/users\/5514011\/avatar\/medium.1408808960.jpeg"},{"post_user_id":"5277236","posts":"2","username":"[Hi :3]TrickDoor","avatar":"https:\/\/assets-cloud.enjin.com\/users\/5277236\/avatar\/medium.1400100439.png"},{"post_user_id":"5440874","posts":"1","username":"MooseTheEngineer","avatar":"https:\/\/assets-cloud.enjin.com\/users\/5440874\/avatar\/medium.1495487251.jpeg"}],"num_users":"5"},"moderation_access":false,"poll_post":null,"post_access":true,"new_thread_access":true},"id":"1234567","jsonrpc":"2.0"}
{"result":{"thread":{"preset_id":"12571633","forum_id":"2825348","thread_id":"7883063","thread_subject":"Head pyramid lawl","thread_replies":"29","thread_views":"5852","thread_type":"normal","thread_status":"locked","thread_user_id":"5245755","thread_username":"13632019651286777826","thread_avatar":"https:\/\/assets-cloud.enjin.com\/users\/5245755\/avatar\/medium.1400094074.png","thread_lastpost_user_id":"5245755","thread_lastpost_username":"13632019651286777826","thread_lastpost_time":"1374075371","thread_moved_id":"0","thread_post_time":"1374069349","url":"https:\/\/www.enjin.com\/ajax.php?s=redirect&cmd=forum-thread&mobile=1&preset=12571633&id=7883063","post_count":"1","category_id":"1023523","forum_name":"Fan Art","forum_description":"Post all of your art and videos in here!","disable_voting":"1","show_signature":"1","url_cms":"https:\/\/www.craftsurvivalgames.com\/forum\/m\/12571633\/viewthread\/7883063-head-pyramid-lawl"},"posts":[{"post_id":"44827074","post_time":"1374073920","post_content":"this is just turning into spam xD","post_content_html":"this is just turning into spam xD","post_content_clean":"this is just turning into spam xD","post_user_id":"5264359","show_signature":"1","last_edit_time":"0","post_votes":"0","post_unhidden":"0","post_admin_hidden":"0","post_locked":"0","last_edit_user":"0","votes":null,"post_username":"bertus112","avatar":"https:\/\/assets-cloud.enjin.com\/users\/5264359\/avatar\/medium.1400094074.png","user_online":false,"user_votes":"894","user_posts":"1926","url":"https:\/\/www.enjin.com\/ajax.php?s=redirect&cmd=forum-post&mobile=1&preset=12571633&id=44827074"},{"post_id":"44827844","post_time":"1374074606","post_content":"Lol buttons :3","post_content_html":"Lol buttons :3","post_content_clean":"Lol buttons :3","post_user_id":"5277236","show_signature":"1","last_edit_time":"0","post_votes":"0","post_unhidden":"0","post_admin_hidden":"0","post_locked":"0","last_edit_user":"0","votes":null,"post_username":"[Hi :3]TrickDoor","avatar":"https:\/\/assets-cloud.enjin.com\/users\/5277236\/avatar\/medium.1400100439.png","user_online":false,"user_votes":"389","user_posts":"2836","url":"https:\/\/www.enjin.com\/ajax.php?s=redirect&cmd=forum-post&mobile=1&preset=12571633&id=44827844"},{"post_id":"44828114","post_time":"1374074853","post_content":"xD","post_content_html":"xD","post_content_clean":"xD","post_user_id":"5264359","show_signature":"1","last_edit_time":"0","post_votes":"0","post_unhidden":"0","post_admin_hidden":"0","post_locked":"0","last_edit_user":"0","votes":null,"post_username":"bertus112","avatar":"https:\/\/assets-cloud.enjin.com\/users\/5264359\/avatar\/medium.1400094074.png","user_online":false,"user_votes":"894","user_posts":"1926","url":"https:\/\/www.enjin.com\/ajax.php?s=redirect&cmd=forum-post&mobile=1&preset=12571633&id=44828114"},{"post_id":"44828159","post_time":"1374074893","post_content":"Spam, spam is a company tht make processed meats :3","post_content_html":"Spam, spam is a company tht make processed meats :3","post_content_clean":"Spam, spam is a company tht make processed meats :3","post_user_id":"5245755","show_signature":"1","last_edit_time":"0","post_votes":"0","post_unhidden":"0","post_admin_hidden":"0","post_locked":"0","last_edit_user":"0","votes":null,"post_username":"TheMedieval","avatar":"https:\/\/assets-cloud.enjin.com\/users\/5245755\/avatar\/medium.1400093837.png","user_online":false,"user_votes":"77","user_posts":"703","url":"https:\/\/www.enjin.com\/ajax.php?s=redirect&cmd=forum-post&mobile=1&preset=12571633&id=44828159"},{"post_id":"44828191","post_time":"1374074929","post_content":"lol....","post_content_html":"lol....","post_content_clean":"lol....","post_user_id":"5264359","show_signature":"1","last_edit_time":"0","post_votes":"0","post_unhidden":"0","post_admin_hidden":"0","post_locked":"0","last_edit_user":"0","votes":null,"post_username":"bertus112","avatar":"https:\/\/assets-cloud.enjin.com\/users\/5264359\/avatar\/medium.1400094074.png","user_online":false,"user_votes":"894","user_posts":"1926","url":"https:\/\/www.enjin.com\/ajax.php?s=redirect&cmd=forum-post&mobile=1&preset=12571633&id=44828191"},{"post_id":"44828214","post_time":"1374074954","post_content":"they have catchy commercials","post_content_html":"they have catchy commercials","post_content_clean":"they have catchy commercials","post_user_id":"5245755","show_signature":"1","last_edit_time":"0","post_votes":"0","post_unhidden":"0","post_admin_hidden":"0","post_locked":"0","last_edit_user":"0","votes":null,"post_username":"TheMedieval","avatar":"https:\/\/assets-cloud.enjin.com\/users\/5245755\/avatar\/medium.1400093837.png","user_online":false,"user_votes":"77","user_posts":"703","url":"https:\/\/www.enjin.com\/ajax.php?s=redirect&cmd=forum-post&mobile=1&preset=12571633&id=44828214"},{"post_id":"44828287","post_time":"1374075013","post_content":"How do you know that? xD","post_content_html":"How do you know that? xD","post_content_clean":"How do you know that? xD","post_user_id":"5264359","show_signature":"1","last_edit_time":"0","post_votes":"0","post_unhidden":"0","post_admin_hidden":"0","post_locked":"0","last_edit_user":"0","votes":null,"post_username":"bertus112","avatar":"https:\/\/assets-cloud.enjin.com\/users\/5264359\/avatar\/medium.1400094074.png","user_online":false,"user_votes":"894","user_posts":"1926","url":"https:\/\/www.enjin.com\/ajax.php?s=redirect&cmd=forum-post&mobile=1&preset=12571633&id=44828287"},{"post_id":"44828445","post_time":"1374075184","post_content":"Well, i went to a skate park (skateboard) all of the magnetic stuff was spam stickers\/magnets","post_content_html":"Well, i went to a skate park (skateboard) all of the magnetic stuff was spam stickers\/magnets","post_content_clean":"Well, i went to a skate park (skateboard) all of the magnetic stuff was spam stickers\/magnets","post_user_id":"5245755","show_signature":"1","last_edit_time":"0","post_votes":"0","post_unhidden":"0","post_admin_hidden":"0","post_locked":"0","last_edit_user":"0","votes":null,"post_username":"TheMedieval","avatar":"https:\/\/assets-cloud.enjin.com\/users\/5245755\/avatar\/medium.1400093837.png","user_online":false,"user_votes":"77","user_posts":"703","url":"https:\/\/www.enjin.com\/ajax.php?s=redirect&cmd=forum-post&mobile=1&preset=12571633&id=44828445"},{"post_id":"44828475","post_time":"1374075205","post_content":"xD","post_content_html":"xD","post_content_clean":"xD","post_user_id":"5264359","show_signature":"1","last_edit_time":"0","post_votes":"0","post_unhidden":"0","post_admin_hidden":"0","post_locked":"0","last_edit_user":"0","votes":null,"post_username":"bertus112","avatar":"https:\/\/assets-cloud.enjin.com\/users\/5264359\/avatar\/medium.1400094074.png","user_online":false,"user_votes":"894","user_posts":"1926","url":"https:\/\/www.enjin.com\/ajax.php?s=redirect&cmd=forum-post&mobile=1&preset=12571633&id=44828475"},{"post_id":"44828664","post_time":"1374075371","post_content":"its was funnah xD","post_content_html":"its was funnah xD","post_content_clean":"its was funnah xD","post_user_id":"5245755","show_signature":"1","last_edit_time":"0","post_votes":"0","post_unhidden":"0","post_admin_hidden":"0","post_locked":"0","last_edit_user":"0","votes":null,"post_username":"TheMedieval","avatar":"https:\/\/assets-cloud.enjin.com\/users\/5245755\/avatar\/medium.1400093837.png","user_online":false,"user_votes":"77","user_posts":"703","url":"https:\/\/www.enjin.com\/ajax.php?s=redirect&cmd=forum-post&mobile=1&preset=12571633&id=44828664"}],"total_items":"30","pages":3,"voted":false,"new_post_id":"44827074","thread_labels":[],"top_posters":{"result":[{"post_user_id":"5264359","posts":"14","username":"bertus112","avatar":"https:\/\/assets-cloud.enjin.com\/users\/5264359\/avatar\/medium.1400094074.png"},{"post_user_id":"5245755","posts":"11","username":"TheMedieval","avatar":"https:\/\/assets-cloud.enjin.com\/users\/5245755\/avatar\/medium.1400093837.png"},{"post_user_id":"5514011","posts":"2","username":"ArmandCool","avatar":"https:\/\/assets-cloud.enjin.com\/users\/5514011\/avatar\/medium.1408808960.jpeg"},{"post_user_id":"5277236","posts":"2","username":"[Hi :3]TrickDoor","avatar":"https:\/\/assets-cloud.enjin.com\/users\/5277236\/avatar\/medium.1400100439.png"},{"post_user_id":"5440874","posts":"1","username":"MooseTheEngineer","avatar":"https:\/\/assets-cloud.enjin.com\/users\/5440874\/avatar\/medium.1495487251.jpeg"}],"num_users":"5"},"moderation_access":false,"poll_post":null,"post_access":true,"new_thread_access":true},"id":"1234567","jsonrpc":"2.0"}
