{"result":{"thread":{"preset_id":"12571633","forum_id":"2419080","thread_id":"7887721","thread_subject":"Armand abusing","thread_replies":"47","thread_views":"6412","thread_type":"normal","thread_status":"locked","thread_user_id":"5841010","thread_username":"13676253761839040594","thread_avatar":"https:\/\/assets-cloud.enjin.com\/users\/5841010\/avatar\/medium.1408808960.jpeg","thread_lastpost_user_id":"6277869","thread_lastpost_username":"1370974074431723998","thread_lastpost_time":"1374144088","thread_moved_id":"0","thread_post_time":"1374090697","url":"https:\/\/www.enjin.com\/ajax.php?s=redirect&cmd=forum-thread&mobile=1&preset=12571633&id=7887721","post_count":"1","category_id":"1906989","forum_name":"Report a Player","forum_description":"Found a player breaking rules? Post them here with evidence!","disable_voting":"0","show_signature":"1","url_cms":"https:\/\/www.craftsurvivalgames.com\/forum\/m\/12571633\/viewthread\/7887721-armand-abusing"},"posts":[{"post_id":"44857636","post_time":"1374090697","post_content":"1. I didnt say I can spam and u can. I said we can say whatever in faction chat.\r\n2. I tped to u and I got glitched in a block then I did spawn and tped u to me to see if I lagged out.\r\n3. The spamming was only to have some fun.\r\n4. You know I was kidding when I said I'll ban you.\r\n5. You kicked me for spamming in the faction chat, which is abuse too, because u're practically a part of the staff too.\r\n\r\nAlso 6. If you dont want to have fun in the faction chat, you can always leave the faction. That faction was made just so we can talk much easier and free.","post_content_html":"1. I didnt say I can spam and u can. I said we can say whatever in faction chat.<br \/> <br \/> 2. I tped to u and I got glitched in a block then I did spawn and tped u to me to see if I lagged out.<br \/> <br \/> 3. The spamming was only to have some fun.<br \/> <br \/> 4. You know I was kidding when I said I'll ban you.<br \/> <br \/> 5. You kicked me for spamming in the faction chat, which is abuse too, because u're practically a part of the staff too.<br \/> <br \/> Also 6. If you dont want to have fun in the faction chat, you can always leave the faction. That faction was made just so we can talk much easier and free.","post_content_clean":"1. I didnt say I can spam and u can. I said we can say whatever in faction chat.\r 2. I tped to u and I got glitched in a block then I did spawn and tped u to me to see if I lagged out.\r 3. The spamming was only to have some fun.\r 4. You know I was kidding when I said I'll ban you.\r 5. You kicked me for spamming in the faction chat, which is abuse too, because u're practically a part of the staff too.\r \r Also 6. If you dont want to have fun in the faction chat, you can always leave the faction. That faction was made just so we can talk much easier and free.","post_user_id":"5514011","show_signature":"1","last_edit_time":"1374090865","post_votes":"0","post_unhidden":"0","post_admin_hidden":"0","post_locked":"0","last_edit_user":"0","votes":null,"post_username":"ArmandCool","avatar":"https:\/\/assets-cloud.enjin.com\/users\/5514011\/avatar\/medium.1408808960.jpeg","user_online":false,"user_votes":"376","user_posts":"823","url":"https:\/\/www.enjin.com\/ajax.php?s=redirect&cmd=forum-post&mobile=1&preset=12571633&id=44857636"},{"post_id":"44857934","post_time":"1374090949","post_content":"[color=#6e23dd][b]I bet Armand was just kidding about all that! He is too awesome for being mean.[\/b][\/color]","post_content_html":"<b>I bet Armand was just kidding about all that! He is too awesome for being mean.<\/b>","post_content_clean":"I bet Armand was just kidding about all that! He is too awesome for being mean.","post_user_id":"4331303","show_signature":"1","last_edit_time":"0","post_votes":"0","post_unhidden":"0","post_admin_hidden":"0","post_locked":"0","last_edit_user":"0","votes":null,"post_username":"Boom \u30c4","avatar":"https:\/\/assets-cloud.enjin.com\/users\/4331303\/avatar\/medium.1400080585.png","user_online":false,"user_votes":"122","user_posts":"871","url":"https:\/\/www.enjin.com\/ajax.php?s=redirect&cmd=forum-post&mobile=1&preset=12571633&id=44857934"},{"post_id":"44857938","post_time":"1374090954","post_content":"Yes but I was trying to read the chat and I couldn't cause you were spamming.","post_content_html":"Yes but I was trying to read the chat and I couldn't cause you were spamming.","post_content_clean":"Yes but I was trying to read the chat and I couldn't cause you were spamming.","post_user_id":"5841010","show_signature":"1","last_edit_time":"0","post_votes":"0","post_unhidden":"0","post_admin_hidden":"0","post_locked":"0","last_edit_user":"0","votes":null,"post_username":"JAHOWSKII","avatar":"https:\/\/assets-cloud.enjin.com\/users\/5841010\/avatar\/medium.1400100075.png","user_online":false,"user_votes":"332","user_posts":"248","url":"https:\/\/www.enjin.com\/ajax.php?s=redirect&cmd=forum-post&mobile=1&preset=12571633&id=44857938"},{"post_id":"44858031","post_time":"1374091024","post_content":"Just please try not to spam again because if someone curses or says something their not supposed to I wouldnt have been able to see it. Thanks.","post_content_html":"Just please try not to spam again because if someone curses or says something their not supposed to I wouldnt have been able to see it. Thanks.","post_content_clean":"Just please try not to spam again because if someone curses or says something their not supposed to I wouldnt have been able to see it. Thanks.","post_user_id":"5841010","show_signature":"1","last_edit_time":"0","post_votes":"2","post_unhidden":"0","post_admin_hidden":"0","post_locked":"0","last_edit_user":"0","votes":null,"post_username":"JAHOWSKII","avatar":"https:\/\/assets-cloud.enjin.com\/users\/5841010\/avatar\/medium.1400100075.png","user_online":false,"user_votes":"332","user_posts":"248","url":"https:\/\/www.enjin.com\/ajax.php?s=redirect&cmd=forum-post&mobile=1&preset=12571633&id=44858031"},{"post_id":"44858076","post_time":"1374091060","post_content":"I don't think spamming is allowed any where, even if it is in the faction chat. I'm not a MOD. So, I don't know the specific rules. Shicking has to decide if this is wrong.","post_content_html":"I don't think spamming is allowed any where, even if it is in the faction chat. I'm not a MOD. So, I don't know the specific rules. Shicking has to decide if this is wrong.","post_content_clean":"I don't think spamming is allowed any where, even if it is in the faction chat. I'm not a MOD. So, I don't know the specific rules. Shicking has to decide if this is wrong.","post_user_id":"3247543","show_signature":"1","last_edit_time":"0","post_votes":"0","post_unhidden":"0","post_admin_hidden":"0","post_locked":"0","last_edit_user":"0","votes":null,"post_username":"FriendlyBum","avatar":"https:\/\/assets-cloud.enjin.com\/users\/3247543\/avatar\/medium.1400072406.png","user_online":false,"user_votes":"555","user_posts":"2153","url":"https:\/\/www.enjin.com\/ajax.php?s=redirect&cmd=forum-post&mobile=1&preset=12571633&id=44858076"},{"post_id":"44858146","post_time":"1374091114","post_content":"Speechless... I mean... wow... I was making sure no one didnt say anything bad before I used the faction chat.\r\n\r\nAs I said, you can leave the fac if you want or go to another server while I'm on factions. Don't talk to me like that please.\r\nJust because you're older doesn't mean you're better than me and you have the rights to talk like that.","post_content_html":"Speechless... I mean... wow... I was making sure no one didnt say anything bad before I used the faction chat.<br \/> <br \/> As I said, you can leave the fac if you want or go to another server while I'm on factions. Don't talk to me like that please.<br \/> <br \/> Just because you're older doesn't mean you're better than me and you have the rights to talk like that.","post_content_clean":"Speechless... I mean... wow... I was making sure no one didnt say anything bad before I used the faction chat.\r \r As I said, you can leave the fac if you want or go to another server while I'm on factions. Don't talk to me like that please.\r Just because you're older doesn't mean you're better than me and you have the rights to talk like that.","post_user_id":"5514011","show_signature":"1","last_edit_time":"1374091225","post_votes":"1","post_unhidden":"0","post_admin_hidden":"0","post_locked":"0","last_edit_user":"0","votes":null,"post_username":"ArmandCool","avatar":"https:\/\/assets-cloud.enjin.com\/users\/5514011\/avatar\/medium.1408808960.jpeg","user_online":false,"user_votes":"376","user_posts":"823","url":"https:\/\/www.enjin.com\/ajax.php?s=redirect&cmd=forum-post&mobile=1&preset=12571633&id=44858146"},{"post_id":"44858231","post_time":"1374091172","post_content":"Well, maybe armand was kidding but mods still aren't supposed to spam I think.","post_content_html":"Well, maybe armand was kidding but mods still aren't supposed to spam I think.","post_content_clean":"Well, maybe armand was kidding but mods still aren't supposed to spam I think.","post_user_id":"5264359","show_signature":"1","last_edit_time":"0","post_votes":"0","post_unhidden":"0","post_admin_hidden":"0","post_locked":"0","last_edit_user":"0","votes":null,"post_username":"bertus112","avatar":"https:\/\/assets-cloud.enjin.com\/users\/5264359\/avatar\/medium.1400094074.png","user_online":false,"user_votes":"894","user_posts":"1926","url":"https:\/\/www.enjin.com\/ajax.php?s=redirect&cmd=forum-post&mobile=1&preset=12571633&id=44858231"},{"post_id":"44858329","post_time":"1374091251","post_content":"It was the staff faction chat.","post_content_html":"It was the staff faction chat.","post_content_clean":"It was the staff faction chat.","post_user_id":"5514011","show_signature":"1","last_edit_time":"0","post_votes":"0","post_unhidden":"0","post_admin_hidden":"0","post_locked":"0","last_edit_user":"0","votes":null,"post_username":"ArmandCool","avatar":"https:\/\/assets-cloud.enjin.com\/users\/5514011\/avatar\/medium.1408808960.jpeg","user_online":false,"user_votes":"376","user_posts":"823","url":"https:\/\/www.enjin.com\/ajax.php?s=redirect&cmd=forum-post&mobile=1&preset=12571633&id=44858329"},{"post_id":"44858429","post_time":"1374091332","post_content":"1. Never said I was better than you.\r\n2. I don't want to argue.\r\n3. I just dont like spamming.\r\n4. And I am not talking to you in an agressive way.","post_content_html":"1. Never said I was better than you.<br \/> <br \/> 2. I don't want to argue.<br \/> <br \/> 3. I just dont like spamming.<br \/> <br \/> 4. And I am not talking to you in an agressive way.","post_content_clean":"1. Never said I was better than you. \r 2. I don't want to argue.\r 3. I just dont like spamming.\r 4. And I am not talking to you in an agressive way.","post_user_id":"5841010","show_signature":"1","last_edit_time":"0","post_votes":"1","post_unhidden":"0","post_admin_hidden":"0","post_locked":"0","last_edit_user":"0","votes":null,"post_username":"JAHOWSKII","avatar":"https:\/\/assets-cloud.enjin.com\/users\/5841010\/avatar\/medium.1400100075.png","user_online":false,"user_votes":"332","user_posts":"248","url":"https:\/\/www.enjin.com\/ajax.php?s=redirect&cmd=forum-post&mobile=1&preset=12571633&id=44858429"},{"post_id":"44858851","post_time":"1374091628","post_content":"1. I dont want to argue. If you didnt want, you should have not make this thread and talk with me in the faction chat. Much easier.\r\n2. I didnt say you sound aggresive. You sound annoying.","post_content_html":"1. I dont want to argue. If you didnt want, you should have not make this thread and talk with me in the faction chat. Much easier.<br \/> <br \/> 2. I didnt say you sound aggresive. You sound annoying.","post_content_clean":"1. I dont want to argue. If you didnt want, you should have not make this thread and talk with me in the faction chat. Much easier.\r 2. I didnt say you sound aggresive. You sound annoying.","post_user_id":"5514011","show_signature":"1","last_edit_time":"0","post_votes":"0","post_unhidden":"0","post_admin_hidden":"0","post_locked":"0","last_edit_user":"0","votes":null,"post_username":"ArmandCool","avatar":"https:\/\/assets-cloud.enjin.com\/users\/5514011\/avatar\/medium.1408808960.jpeg","user_online":false,"user_votes":"376","user_posts":"823","url":"https:\/\/www.enjin.com\/ajax.php?s=redirect&cmd=forum-post&mobile=1&preset=12571633&id=44858851"}],"total_items":"48","pages":5,"voted":false,"new_post_id":false,"thread_labels":[],"top_posters":{"result":[{"post_user_id":"5514011","posts":"8","username":"ArmandCool","avatar":"https:\/\/assets-cloud.enjin.com\/users\/5514011\/avatar\/medium.1408808960.jpeg"},{"post_user_id":"5841010","posts":"7","username":"JAHOWSKII","avatar":"https:\/\/assets-cloud.enjin.com\/users\/5841010\/avatar\/medium.1400100075.png"},{"post_user_id":"3247543","posts":"6","username":"FriendlyBum","avatar":"https:\/\/assets-cloud.enjin.com\/users\/3247543\/avatar\/medium.1400072406.png"},{"post_user_id":"6277869","posts":"6","username":"sheeploot","avatar":"https:\/\/assets-cloud.enjin.com\/users\/6277869\/avatar\/medium.1400110584.png"},{"post_user_id":"5264359","posts":"3","username":"bertus112","avatar":"https:\/\/assets-cloud.enjin.com\/users\/5264359\/avatar\/medium.1400094074.png"},{"post_user_id":"6322814","posts":"3","username":"ProxBuilds","avatar":"https:\/\/assets-cloud.enjin.com\/users\/6322814\/avatar\/medium.1400110062.png"},{"post_user_id":"4185955","posts":"2","username":"Chronicler","avatar":"https:\/\/assets-cloud.enjin.com\/users\/4185955\/avatar\/medium.1565809392.png"},{"post_user_id":"6240898","posts":"2","username":"spot","avatar":"https:\/\/assets-cloud.enjin.com\/users\/6240898\/avatar\/medium.1400106374.png"},{"post_user_id":"4331303","posts":"2","username":"Boom \u30c4","avatar":"https:\/\/assets-cloud.enjin.com\/users\/4331303\/avatar\/medium.1400080585.png"},{"post_user_id":"5277236","posts":"1","username":"[Hi :3]TrickDoor","avatar":"https:\/\/assets-cloud.enjin.com\/users\/5277236\/avatar\/medium.1400100439.png"},{"post_user_id":"5763450","posts":"1","username":"Last_of_Dead","avatar":"https:\/\/assets-cloud.enjin.com\/users\/5763450\/avatar\/medium.1400104205.png"},{"post_user_id":"5440874","posts":"1","username":"MooseTheEngineer","avatar":"https:\/\/assets-cloud.enjin.com\/users\/5440874\/avatar\/medium.1495487251.jpeg"}],"num_users":"18"},"moderation_access":false,"poll_post":null,"post_access":true,"new_thread_access":true},"id":"1234567","jsonrpc":"2.0"}
{"result":{"thread":{"preset_id":"12571633","forum_id":"2419080","thread_id":"7887721","thread_subject":"Armand abusing","thread_replies":"47","thread_views":"6412","thread_type":"normal","thread_status":"locked","thread_user_id":"5841010","thread_username":"13676253761839040594","thread_avatar":"https:\/\/assets-cloud.enjin.com\/users\/5841010\/avatar\/medium.1400100075.png","thread_lastpost_user_id":"6277869","thread_lastpost_username":"1370974074431723998","thread_lastpost_time":"1374144088","thread_moved_id":"0","thread_post_time":"1374090697","url":"https:\/\/www.enjin.com\/ajax.php?s=redirect&cmd=forum-thread&mobile=1&preset=12571633&id=7887721","post_count":"1","category_id":"1906989","forum_name":"Report a Player","forum_description":"Found a player breaking rules? Post them here with evidence!","disable_voting":"0","show_signature":"1","url_cms":"https:\/\/www.craftsurvivalgames.com\/forum\/m\/12571633\/viewthread\/7887721-armand-abusing"},"posts":[{"post_id":"44858975","post_time":"1374091724","post_content":"I am just trying to do my job... And I am just stating facts and what I think and if you dont like it dont read the post.","post_content_html":"I am just trying to do my job... And I am just stating facts and what I think and if you dont like it dont read the post.","post_content_clean":"I am just trying to do my job... And I am just stating facts and what I think and if you dont like it dont read the post.","post_user_id":"5841010","show_signature":"1","last_edit_time":"0","post_votes":"1","post_unhidden":"0","post_admin_hidden":"0","post_locked":"0","last_edit_user":"0","votes":null,"post_username":"JAHOWSKII","avatar":"https:\/\/assets-cloud.enjin.com\/users\/5841010\/avatar\/medium.1400100075.png","user_online":false,"user_votes":"332","user_posts":"248","url":"https:\/\/www.enjin.com\/ajax.php?s=redirect&cmd=forum-post&mobile=1&preset=12571633&id=44858975"},{"post_id":"44859090","post_time":"1374091821","post_content":"Armand, he thinks it's not right to spam even if you are in \/f c.","post_content_html":"Armand, he thinks it's not right to spam even if you are in \/f c.","post_content_clean":"Armand, he thinks it's not right to spam even if you are in \/f c.","post_user_id":"3247543","show_signature":"1","last_edit_time":"0","post_votes":"0","post_unhidden":"0","post_admin_hidden":"0","post_locked":"0","last_edit_user":"0","votes":null,"post_username":"FriendlyBum","avatar":"https:\/\/assets-cloud.enjin.com\/users\/3247543\/avatar\/medium.1400072406.png","user_online":false,"user_votes":"555","user_posts":"2153","url":"https:\/\/www.enjin.com\/ajax.php?s=redirect&cmd=forum-post&mobile=1&preset=12571633&id=44859090"},{"post_id":"44859202","post_time":"1374091902","post_content":"Well, the title is Armand Abusing. You know abusing is bad so you didnt make this thread for the spam, because you could make it Armand Spamming. You're now friendly in-game because this whole thread didnt work as you planned =)","post_content_html":"Well, the title is Armand Abusing. You know abusing is bad so you didnt make this thread for the spam, because you could make it Armand Spamming. You're now friendly in-game because this whole thread didnt work as you planned =)","post_content_clean":"Well, the title is Armand Abusing. You know abusing is bad so you didnt make this thread for the spam, because you could make it Armand Spamming. You're now friendly in-game because this whole thread didnt work as you planned =)","post_user_id":"5514011","show_signature":"1","last_edit_time":"1374091949","post_votes":"0","post_unhidden":"0","post_admin_hidden":"0","post_locked":"0","last_edit_user":"0","votes":null,"post_username":"ArmandCool","avatar":"https:\/\/assets-cloud.enjin.com\/users\/5514011\/avatar\/medium.1408808960.jpeg","user_online":false,"user_votes":"376","user_posts":"823","url":"https:\/\/www.enjin.com\/ajax.php?s=redirect&cmd=forum-post&mobile=1&preset=12571633&id=44859202"},{"post_id":"44859222","post_time":"1374091913","post_content":"Deleted the post cause all it's going to lead to is abunch of arguing and I will talk to shicking about what happened in game with you.","post_content_html":"Deleted the post cause all it's going to lead to is abunch of arguing and I will talk to shicking about what happened in game with you.","post_content_clean":"Deleted the post cause all it's going to lead to is abunch of arguing and I will talk to shicking about what happened in game with you.","post_user_id":"5841010","show_signature":"1","last_edit_time":"0","post_votes":"1","post_unhidden":"0","post_admin_hidden":"0","post_locked":"0","last_edit_user":"0","votes":null,"post_username":"JAHOWSKII","avatar":"https:\/\/assets-cloud.enjin.com\/users\/5841010\/avatar\/medium.1400100075.png","user_online":false,"user_votes":"332","user_posts":"248","url":"https:\/\/www.enjin.com\/ajax.php?s=redirect&cmd=forum-post&mobile=1&preset=12571633&id=44859222"},{"post_id":"44859349","post_time":"1374092001","post_content":"See? You dont want to argue. You will talk with shicking so I will get demoded, you wont talk to me so we can solve the problem. You dont care about the problem, you just want me banned.","post_content_html":"See? You dont want to argue. You will talk with shicking so I will get demoded, you wont talk to me so we can solve the problem. You dont care about the problem, you just want me banned.","post_content_clean":"See? You dont want to argue. You will talk with shicking so I will get demoded, you wont talk to me so we can solve the problem. You dont care about the problem, you just want me banned.","post_user_id":"5514011","show_signature":"1","last_edit_time":"1374092052","post_votes":"0","post_unhidden":"0","post_admin_hidden":"0","post_locked":"0","last_edit_user":"0","votes":null,"post_username":"ArmandCool","avatar":"https:\/\/assets-cloud.enjin.com\/users\/5514011\/avatar\/medium.1408808960.jpeg","user_online":false,"user_votes":"376","user_posts":"823","url":"https:\/\/www.enjin.com\/ajax.php?s=redirect&cmd=forum-post&mobile=1&preset=12571633&id=44859349"},{"post_id":"44859571","post_time":"1374092180","post_content":"Shicking please lock this thread. I do not want to see this go down badly.","post_content_html":"Shicking please lock this thread. I do not want to see this go down badly.","post_content_clean":"Shicking please lock this thread. I do not want to see this go down badly.","post_user_id":"5440874","show_signature":"1","last_edit_time":"0","post_votes":"0","post_unhidden":"0","post_admin_hidden":"0","post_locked":"0","last_edit_user":"0","votes":null,"post_username":"MooseTheEngineer","avatar":"https:\/\/assets-cloud.enjin.com\/users\/5440874\/avatar\/medium.1495487251.jpeg","user_online":false,"user_votes":"0","user_posts":"2843","url":"https:\/\/www.enjin.com\/ajax.php?s=redirect&cmd=forum-post&mobile=1&preset=12571633&id=44859571"},{"post_id":"44859575","post_time":"1374092182","post_content":"[quote user_id=\"5514011\" avatar=\"https:\/\/cravatar.eu\/helmavatar\/ArmandCool\/74.png\" name=\"ArmandCool\"]It was the staff faction chat.[\/quote]\r\nI agree on that, normal players wouldn't be annoyed by this.","post_content_html":" <div class=\"bbcode_quote\"> <div class=\"bbcode_quote_head\">@5514011 wrote:<\/div> <div class=\"bbcode_quote_body\">It was the staff faction chat.<\/div> <\/div> <br \/> I agree on that, normal players wouldn't be annoyed by this.","post_content_clean":"It was the staff faction chat.\r I agree on that, normal players wouldn't be annoyed by this.","post_user_id":"5264359","show_signature":"1","last_edit_time":"0","post_votes":"0","post_unhidden":"0","post_admin_hidden":"0","post_locked":"0","last_edit_user":"0","votes":null,"post_username":"bertus112","avatar":"https:\/\/assets-cloud.enjin.com\/users\/5264359\/avatar\/medium.1400094074.png","user_online":false,"user_votes":"894","user_posts":"1926","url":"https:\/\/www.enjin.com\/ajax.php?s=redirect&cmd=forum-post&mobile=1&preset=12571633&id=44859575"},{"post_id":"44859598","post_time":"1374092202","post_content":"This is just an idea but recently there have been tons of problems involving mods.  I think it would be good if shicking had a talk with all of them at the same time so that they can get in touch with the rules as shicking wants them.","post_content_html":"This is just an idea but recently there have been tons of problems involving mods.  I think it would be good if shicking had a talk with all of them at the same time so that they can get in touch with the rules as shicking wants them.","post_content_clean":"This is just an idea but recently there have been tons of problems involving mods.  I think it would be good if shicking had a talk with all of them at the same time so that they can get in touch with the rules as shicking wants them.","post_user_id":"6322814","show_signature":"1","last_edit_time":"0","post_votes":"1","post_unhidden":"0","post_admin_hidden":"0","post_locked":"0","last_edit_user":"0","votes":null,"post_username":"ProxBuilds","avatar":"https:\/\/assets-cloud.enjin.com\/users\/6322814\/avatar\/medium.1400110062.png","user_online":false,"user_votes":"37","user_posts":"316","url":"https:\/\/www.enjin.com\/ajax.php?s=redirect&cmd=forum-post&mobile=1&preset=12571633&id=44859598"},{"post_id":"44859676","post_time":"1374092247","post_content":"That would definately be a good idea!","post_content_html":"That would definately be a good idea!","post_content_clean":"That would definately be a good idea!","post_user_id":"5264359","show_signature":"1","last_edit_time":"0","post_votes":"0","post_unhidden":"0","post_admin_hidden":"0","post_locked":"0","last_edit_user":"0","votes":null,"post_username":"bertus112","avatar":"https:\/\/assets-cloud.enjin.com\/users\/5264359\/avatar\/medium.1400094074.png","user_online":false,"user_votes":"894","user_posts":"1926","url":"https:\/\/www.enjin.com\/ajax.php?s=redirect&cmd=forum-post&mobile=1&preset=12571633&id=44859676"},{"post_id":"44859994","post_time":"1374092455","post_content":"what i said about the meeting is purely based off of facts not about what i think of either one of the mods.","post_content_html":"what i said about the meeting is purely based off of facts not about what i think of either one of the mods.","post_content_clean":"what i said about the meeting is purely based off of facts not about what i think of either one of the mods.","post_user_id":"6322814","show_signature":"1","last_edit_time":"0","post_votes":"0","post_unhidden":"0","post_admin_hidden":"0","post_locked":"0","last_edit_user":"0","votes":null,"post_username":"ProxBuilds","avatar":"https:\/\/assets-cloud.enjin.com\/users\/6322814\/avatar\/medium.1400110062.png","user_online":false,"user_votes":"37","user_posts":"316","url":"https:\/\/www.enjin.com\/ajax.php?s=redirect&cmd=forum-post&mobile=1&preset=12571633&id=44859994"}],"total_items":"48","pages":5,"voted":false,"new_post_id":"44858975","thread_labels":[],"top_posters":{"result":[{"post_user_id":"5514011","posts":"8","username":"ArmandCool","avatar":"https:\/\/assets-cloud.enjin.com\/users\/5514011\/avatar\/medium.1408808960.jpeg"},{"post_user_id":"5841010","posts":"7","username":"JAHOWSKII","avatar":"https:\/\/assets-cloud.enjin.com\/users\/5841010\/avatar\/medium.1400100075.png"},{"post_user_id":"6277869","posts":"6","username":"sheeploot","avatar":"https:\/\/assets-cloud.enjin.com\/users\/6277869\/avatar\/medium.1400110584.png"},{"post_user_id":"3247543","posts":"6","username":"FriendlyBum","avatar":"https:\/\/assets-cloud.enjin.com\/users\/3247543\/avatar\/medium.1400072406.png"},{"post_user_id":"6322814","posts":"3","username":"ProxBuilds","avatar":"https:\/\/assets-cloud.enjin.com\/users\/6322814\/avatar\/medium.1400110062.png"},{"post_user_id":"5264359","posts":"3","username":"bertus112","avatar":"https:\/\/assets-cloud.enjin.com\/users\/5264359\/avatar\/medium.1400094074.png"},{"post_user_id":"4331303","posts":"2","username":"Boom \u30c4","avatar":"https:\/\/assets-cloud.enjin.com\/users\/4331303\/avatar\/medium.1400080585.png"},{"post_user_id":"4185955","posts":"2","username":"Chronicler","avatar":"https:\/\/assets-cloud.enjin.com\/users\/4185955\/avatar\/medium.1565809392.png"},{"post_user_id":"6240898","posts":"2","username":"spot","avatar":"https:\/\/assets-cloud.enjin.com\/users\/6240898\/avatar\/medium.1400106374.png"},{"post_user_id":"5440874","posts":"1","username":"MooseTheEngineer","avatar":"https:\/\/assets-cloud.enjin.com\/users\/5440874\/avatar\/medium.1495487251.jpeg"},{"post_user_id":"5870061","posts":"1","username":"Kids5829 2nd","avatar":"https:\/\/resources.enjin.com\/1465083537\/profile\/images\/avatar\/medium.png"},{"post_user_id":"2423867","posts":"1","username":"PandaPlaysAll","avatar":"https:\/\/assets-cloud.enjin.com\/users\/2423867\/avatar\/medium.1401883342.png"}],"num_users":"18"},"moderation_access":false,"poll_post":null,"post_access":true,"new_thread_access":true},"id":"1234567","jsonrpc":"2.0"}
{"result":{"thread":{"preset_id":"12571633","forum_id":"2419080","thread_id":"7887721","thread_subject":"Armand abusing","thread_replies":"47","thread_views":"6412","thread_type":"normal","thread_status":"locked","thread_user_id":"5841010","thread_username":"13676253761839040594","thread_avatar":"https:\/\/assets-cloud.enjin.com\/users\/5841010\/avatar\/medium.1468103027.jpeg","thread_lastpost_user_id":"6277869","thread_lastpost_username":"1370974074431723998","thread_lastpost_time":"1374144088","thread_moved_id":"0","thread_post_time":"1374090697","url":"https:\/\/www.enjin.com\/ajax.php?s=redirect&cmd=forum-thread&mobile=1&preset=12571633&id=7887721","post_count":"1","category_id":"1906989","forum_name":"Report a Player","forum_description":"Found a player breaking rules? Post them here with evidence!","disable_voting":"0","show_signature":"1","url_cms":"https:\/\/www.craftsurvivalgames.com\/forum\/m\/12571633\/viewthread\/7887721-armand-abusing"},"posts":[{"post_id":"44860196","post_time":"1374092596","post_content":"Oh god shut up this Little thing srsly...","post_content_html":"Oh god shut up this Little thing srsly...","post_content_clean":"Oh god shut up this Little thing srsly...","post_user_id":"3831403","show_signature":"1","last_edit_time":"0","post_votes":"2","post_unhidden":"0","post_admin_hidden":"0","post_locked":"0","last_edit_user":"0","votes":null,"post_username":"CAMILLA HANSEN","avatar":"https:\/\/assets-cloud.enjin.com\/users\/3831403\/avatar\/medium.1468103027.jpeg","user_online":false,"user_votes":null,"user_posts":0,"url":"https:\/\/www.enjin.com\/ajax.php?s=redirect&cmd=forum-post&mobile=1&preset=12571633&id=44860196"},{"post_id":"44860548","post_time":"1374092851","post_content":"[quote user_id=\"5440874\" avatar=\"https:\/\/cravatar.eu\/helmavatar\/MooseTheEngineer\/74.png\" name=\"MooseTheEngineer\"]Shicking please lock this thread. I do not want to see this go down badly.[\/quote]\r\n\r\nYes, I agree.","post_content_html":" <div class=\"bbcode_quote\"> <div class=\"bbcode_quote_head\">@5440874 wrote:<\/div> <div class=\"bbcode_quote_body\">Shicking please lock this thread. I do not want to see this go down badly.<\/div> <\/div> <br \/> Yes, I agree.","post_content_clean":"Shicking please lock this thread. I do not want to see this go down badly.\r \r Yes, I agree.","post_user_id":"3247543","show_signature":"1","last_edit_time":"0","post_votes":"0","post_unhidden":"0","post_admin_hidden":"0","post_locked":"0","last_edit_user":"0","votes":null,"post_username":"FriendlyBum","avatar":"https:\/\/assets-cloud.enjin.com\/users\/3247543\/avatar\/medium.1400072406.png","user_online":false,"user_votes":"555","user_posts":"2153","url":"https:\/\/www.enjin.com\/ajax.php?s=redirect&cmd=forum-post&mobile=1&preset=12571633&id=44860548"},{"post_id":"44861459","post_time":"1374093513","post_content":"[color=#6e23dd][b]1. Jahowski, don't go right after shicking on this, talk to Armand so you guys can settle it.\r\n2. Yes, you should really lock this thread.[\/b][\/color]","post_content_html":"<b>1. Jahowski, don't go right after shicking on this, talk to Armand so you guys can settle it.<br \/> <br \/> 2. Yes, you should really lock this thread.<\/b>","post_content_clean":"1. Jahowski, don't go right after shicking on this, talk to Armand so you guys can settle it. \r 2. Yes, you should really lock this thread.","post_user_id":"4331303","show_signature":"1","last_edit_time":"0","post_votes":"1","post_unhidden":"0","post_admin_hidden":"0","post_locked":"0","last_edit_user":"0","votes":null,"post_username":"Boom \u30c4","avatar":"https:\/\/assets-cloud.enjin.com\/users\/4331303\/avatar\/medium.1400080585.png","user_online":false,"user_votes":"122","user_posts":"871","url":"https:\/\/www.enjin.com\/ajax.php?s=redirect&cmd=forum-post&mobile=1&preset=12571633&id=44861459"},{"post_id":"44861726","post_time":"1374093720","post_content":"Good work on 200 posts boom! :D","post_content_html":"Good work on 200 posts boom! <object class=\"emojione\" data=\"https:\/\/resources.enjin.com\/1489581540\/themes\/core\/images\/emojione\/svg\/1f600.svg?0\" type=\"image\/svg+xml\" standby=\":d\">:d<\/object>","post_content_clean":"Good work on 200 posts boom! :D","post_user_id":"3247543","show_signature":"1","last_edit_time":"0","post_votes":"0","post_unhidden":"0","post_admin_hidden":"0","post_locked":"0","last_edit_user":"0","votes":null,"post_username":"FriendlyBum","avatar":"https:\/\/assets-cloud.enjin.com\/users\/3247543\/avatar\/medium.1400072406.png","user_online":false,"user_votes":"555","user_posts":"2153","url":"https:\/\/www.enjin.com\/ajax.php?s=redirect&cmd=forum-post&mobile=1&preset=12571633&id=44861726"},{"post_id":"44862228","post_time":"1374094064","post_content":"I agree with prox I think there should be a meeting with all the mods and owner.","post_content_html":"I agree with prox I think there should be a meeting with all the mods and owner.","post_content_clean":"I agree with prox I think there should be a meeting with all the mods and owner.","post_user_id":"5841010","show_signature":"1","last_edit_time":"0","post_votes":"0","post_unhidden":"0","post_admin_hidden":"0","post_locked":"0","last_edit_user":"0","votes":null,"post_username":"JAHOWSKII","avatar":"https:\/\/assets-cloud.enjin.com\/users\/5841010\/avatar\/medium.1400100075.png","user_online":false,"user_votes":"332","user_posts":"248","url":"https:\/\/www.enjin.com\/ajax.php?s=redirect&cmd=forum-post&mobile=1&preset=12571633&id=44862228"},{"post_id":"44864760","post_time":"1374095870","post_content":"like on skype or something","post_content_html":"like on skype or something","post_content_clean":"like on skype or something","post_user_id":"6271533","show_signature":"1","last_edit_time":"0","post_votes":"0","post_unhidden":"0","post_admin_hidden":"0","post_locked":"0","last_edit_user":"0","votes":null,"post_username":"TheBuilder52","avatar":"https:\/\/resources.enjin.com\/1465083537\/profile\/images\/avatar\/medium.png","user_online":false,"user_votes":"40","user_posts":"273","url":"https:\/\/www.enjin.com\/ajax.php?s=redirect&cmd=forum-post&mobile=1&preset=12571633&id=44864760"},{"post_id":"44864761","post_time":"1374095870","post_content":"Who made this thread?","post_content_html":"Who made this thread?","post_content_clean":"Who made this thread?","post_user_id":"6277869","show_signature":"1","last_edit_time":"0","post_votes":"0","post_unhidden":"0","post_admin_hidden":"0","post_locked":"0","last_edit_user":"0","votes":null,"post_username":"sheeploot","avatar":"https:\/\/assets-cloud.enjin.com\/users\/6277869\/avatar\/medium.1400110584.png","user_online":false,"user_votes":"0","user_posts":"927","url":"https:\/\/www.enjin.com\/ajax.php?s=redirect&cmd=forum-post&mobile=1&preset=12571633&id=44864761"},{"post_id":"44864970","post_time":"1374096006","post_content":"Jahowskii made it","post_content_html":"Jahowskii made it","post_content_clean":"Jahowskii made it","post_user_id":"5306264","show_signature":"1","last_edit_time":"0","post_votes":"0","post_unhidden":"0","post_admin_hidden":"0","post_locked":"0","last_edit_user":"0","votes":null,"post_username":"arnold schwarzenegger","avatar":"https:\/\/assets-cloud.enjin.com\/users\/5306264\/avatar\/medium.1428692787.jpeg","user_online":false,"user_votes":"21","user_posts":"173","url":"https:\/\/www.enjin.com\/ajax.php?s=redirect&cmd=forum-post&mobile=1&preset=12571633&id=44864970"},{"post_id":"44865304","post_time":"1374096221","post_content":"I don't think it is ethical to report another Mod if someone is a Mod. They both are responsible enough to talk about it in game and dealing with the situation. Not making a pity thread and starting an argument. I know that it was not intended to go badly like this but it did. Lock this thread please.","post_content_html":"I don't think it is ethical to report another Mod if someone is a Mod. They both are responsible enough to talk about it in game and dealing with the situation. Not making a pity thread and starting an argument. I know that it was not intended to go badly like this but it did. Lock this thread please.","post_content_clean":"I don't think it is ethical to report another Mod if someone is a Mod. They both are responsible enough to talk about it in game and dealing with the situation. Not making a pity thread and starting an argument. I know that it was not intended to go badly like this but it did. Lock this thread please.","post_user_id":"6277869","show_signature":"1","last_edit_time":"0","post_votes":"0","post_unhidden":"0","post_admin_hidden":"0","post_locked":"0","last_edit_user":"0","votes":null,"post_username":"sheeploot","avatar":"https:\/\/assets-cloud.enjin.com\/users\/6277869\/avatar\/medium.1400110584.png","user_online":false,"user_votes":"0","user_posts":"927","url":"https:\/\/www.enjin.com\/ajax.php?s=redirect&cmd=forum-post&mobile=1&preset=12571633&id=44865304"},{"post_id":"44865402","post_time":"1374096290","post_content":"Thats exactly why I deleted the post and the screenshots.","post_content_html":"Thats exactly why I deleted the post and the screenshots.","post_content_clean":"Thats exactly why I deleted the post and the screenshots.","post_user_id":"5841010","show_signature":"1","last_edit_time":"0","post_votes":"0","post_unhidden":"0","post_admin_hidden":"0","post_locked":"0","last_edit_user":"0","votes":null,"post_username":"JAHOWSKII","avatar":"https:\/\/assets-cloud.enjin.com\/users\/5841010\/avatar\/medium.1400100075.png","user_online":false,"user_votes":"332","user_posts":"248","url":"https:\/\/www.enjin.com\/ajax.php?s=redirect&cmd=forum-post&mobile=1&preset=12571633&id=44865402"}],"total_items":"48","pages":5,"voted":false,"new_post_id":"44860196","thread_labels":[],"top_posters":{"result":[{"post_user_id":"5514011","posts":"8","username":"ArmandCool","avatar":"https:\/\/assets-cloud.enjin.com\/users\/5514011\/avatar\/medium.1408808960.jpeg"},{"post_user_id":"5841010","posts":"7","username":"JAHOWSKII","avatar":"https:\/\/assets-cloud.enjin.com\/users\/5841010\/avatar\/medium.1400100075.png"},{"post_user_id":"3247543","posts":"6","username":"FriendlyBum","avatar":"https:\/\/assets-cloud.enjin.com\/users\/3247543\/avatar\/medium.1400072406.png"},{"post_user_id":"6277869","posts":"6","username":"sheeploot","avatar":"https:\/\/assets-cloud.enjin.com\/users\/6277869\/avatar\/medium.1400110584.png"},{"post_user_id":"5264359","posts":"3","username":"bertus112","avatar":"https:\/\/assets-cloud.enjin.com\/users\/5264359\/avatar\/medium.1400094074.png"},{"post_user_id":"6322814","posts":"3","username":"ProxBuilds","avatar":"https:\/\/assets-cloud.enjin.com\/users\/6322814\/avatar\/medium.1400110062.png"},{"post_user_id":"4331303","posts":"2","username":"Boom \u30c4","avatar":"https:\/\/assets-cloud.enjin.com\/users\/4331303\/avatar\/medium.1400080585.png"},{"post_user_id":"4185955","posts":"2","username":"Chronicler","avatar":"https:\/\/assets-cloud.enjin.com\/users\/4185955\/avatar\/medium.1565809392.png"},{"post_user_id":"6240898","posts":"2","username":"spot","avatar":"https:\/\/assets-cloud.enjin.com\/users\/6240898\/avatar\/medium.1400106374.png"},{"post_user_id":"5306264","posts":"1","username":"arnold schwarzenegger","avatar":"https:\/\/assets-cloud.enjin.com\/users\/5306264\/avatar\/medium.1428692787.jpeg"},{"post_user_id":"5375337","posts":"1","username":"Scarlet Witch","avatar":"https:\/\/assets-cloud.enjin.com\/users\/5375337\/avatar\/medium.1437162398.jpeg"},{"post_user_id":"5277236","posts":"1","username":"[Hi :3]TrickDoor","avatar":"https:\/\/assets-cloud.enjin.com\/users\/5277236\/avatar\/medium.1400100439.png"}],"num_users":"18"},"moderation_access":false,"poll_post":null,"post_access":true,"new_thread_access":true},"id":"1234567","jsonrpc":"2.0"}
{"result":{"thread":{"preset_id":"12571633","forum_id":"2419080","thread_id":"7887721","thread_subject":"Armand abusing","thread_replies":"47","thread_views":"6412","thread_type":"normal","thread_status":"locked","thread_user_id":"5841010","thread_username":"13676253761839040594","thread_avatar":"https:\/\/assets-cloud.enjin.com\/users\/5841010\/avatar\/medium.1400072406.png","thread_lastpost_user_id":"6277869","thread_lastpost_username":"1370974074431723998","thread_lastpost_time":"1374144088","thread_moved_id":"0","thread_post_time":"1374090697","url":"https:\/\/www.enjin.com\/ajax.php?s=redirect&cmd=forum-thread&mobile=1&preset=12571633&id=7887721","post_count":"1","category_id":"1906989","forum_name":"Report a Player","forum_description":"Found a player breaking rules? Post them here with evidence!","disable_voting":"0","show_signature":"1","url_cms":"https:\/\/www.craftsurvivalgames.com\/forum\/m\/12571633\/viewthread\/7887721-armand-abusing"},"posts":[{"post_id":"44865535","post_time":"1374096402","post_content":"Welcome back Sheeploot. And this thread really needs to be locked.","post_content_html":"Welcome back Sheeploot. And this thread really needs to be locked.","post_content_clean":"Welcome back Sheeploot. And this thread really needs to be locked.","post_user_id":"3247543","show_signature":"1","last_edit_time":"0","post_votes":"0","post_unhidden":"0","post_admin_hidden":"0","post_locked":"0","last_edit_user":"0","votes":null,"post_username":"FriendlyBum","avatar":"https:\/\/assets-cloud.enjin.com\/users\/3247543\/avatar\/medium.1400072406.png","user_online":false,"user_votes":"555","user_posts":"2153","url":"https:\/\/www.enjin.com\/ajax.php?s=redirect&cmd=forum-post&mobile=1&preset=12571633&id=44865535"},{"post_id":"44865545","post_time":"1374096410","post_content":"Great job. :-)","post_content_html":"Great job. <object class=\"emojione\" data=\"https:\/\/resources.enjin.com\/1489581540\/themes\/core\/images\/emojione\/svg\/1f642.svg?0\" type=\"image\/svg+xml\" standby=\":-)\">:-)<\/object>","post_content_clean":"Great job. :-)","post_user_id":"6277869","show_signature":"1","last_edit_time":"0","post_votes":"0","post_unhidden":"0","post_admin_hidden":"0","post_locked":"0","last_edit_user":"0","votes":null,"post_username":"sheeploot","avatar":"https:\/\/assets-cloud.enjin.com\/users\/6277869\/avatar\/medium.1400110584.png","user_online":false,"user_votes":"0","user_posts":"927","url":"https:\/\/www.enjin.com\/ajax.php?s=redirect&cmd=forum-post&mobile=1&preset=12571633&id=44865545"},{"post_id":"44865576","post_time":"1374096429","post_content":"Thanks Laz.","post_content_html":"Thanks Laz.","post_content_clean":"Thanks Laz.","post_user_id":"6277869","show_signature":"1","last_edit_time":"0","post_votes":"0","post_unhidden":"0","post_admin_hidden":"0","post_locked":"0","last_edit_user":"0","votes":null,"post_username":"sheeploot","avatar":"https:\/\/assets-cloud.enjin.com\/users\/6277869\/avatar\/medium.1400110584.png","user_online":false,"user_votes":"0","user_posts":"927","url":"https:\/\/www.enjin.com\/ajax.php?s=redirect&cmd=forum-post&mobile=1&preset=12571633&id=44865576"},{"post_id":"44865608","post_time":"1374096458","post_content":"I already said that and yeah, please lock this.","post_content_html":"I already said that and yeah, please lock this.","post_content_clean":"I already said that and yeah, please lock this.","post_user_id":"5514011","show_signature":"1","last_edit_time":"0","post_votes":"0","post_unhidden":"0","post_admin_hidden":"0","post_locked":"0","last_edit_user":"0","votes":null,"post_username":"ArmandCool","avatar":"https:\/\/assets-cloud.enjin.com\/users\/5514011\/avatar\/medium.1408808960.jpeg","user_online":false,"user_votes":"376","user_posts":"823","url":"https:\/\/www.enjin.com\/ajax.php?s=redirect&cmd=forum-post&mobile=1&preset=12571633&id=44865608"},{"post_id":"44865953","post_time":"1374096721","post_content":"You are welcome Sheep!","post_content_html":"You are welcome Sheep!","post_content_clean":"You are welcome Sheep!","post_user_id":"3247543","show_signature":"1","last_edit_time":"0","post_votes":"0","post_unhidden":"0","post_admin_hidden":"0","post_locked":"0","last_edit_user":"0","votes":null,"post_username":"FriendlyBum","avatar":"https:\/\/assets-cloud.enjin.com\/users\/3247543\/avatar\/medium.1400072406.png","user_online":false,"user_votes":"555","user_posts":"2153","url":"https:\/\/www.enjin.com\/ajax.php?s=redirect&cmd=forum-post&mobile=1&preset=12571633&id=44865953"},{"post_id":"44866327","post_time":"1374097016","post_content":"[color=#239edd]Ok, the arguing is over. I understand what happened now. I know that Armand was spamming, and even if it was faction chat there is no spamming allowed. Mod or Not. Jahow, even though there is no spamming allowed im not really sure if it was right for u to kick someone with power over you. But then again armand there was no reason to threaten to ban him. I am not taking sides here but ever since the new trial mods have been picked there have been continuos arguments and fights all over forums. One of them even including me. I like Prox's idea of a meeting with shicking and all the mods. Maybe because we all have different time zones Shicking can make a private thread on forums only accessible by mods this way we can all talk openly and state our opinions on the current issues. This fight about armand spamming is over, just i think armand shouldn't do it again and that is that. I cant lock the thread but if i could then this would be locked.  [\/color]","post_content_html":"Ok, the arguing is over. I understand what happened now. I know that Armand was spamming, and even if it was faction chat there is no spamming allowed. Mod or Not. Jahow, even though there is no spamming allowed im not really sure if it was right for u to kick someone with power over you. But then again armand there was no reason to threaten to ban him. I am not taking sides here but ever since the new trial mods have been picked there have been continuos arguments and fights all over forums. One of them even including me. I like Prox's idea of a meeting with shicking and all the mods. Maybe because we all have different time zones Shicking can make a private thread on forums only accessible by mods this way we can all talk openly and state our opinions on the current issues. This fight about armand spamming is over, just i think armand shouldn't do it again and that is that. I cant lock the thread but if i could then this would be locked.  ","post_content_clean":"Ok, the arguing is over. I understand what happened now. I know that Armand was spamming, and even if it was faction chat there is no spamming allowed. Mod or Not. Jahow, even though there is no spamming allowed im not really sure if it was right for u to kick someone with power over you. But then again armand there was no reason to threaten to ban him. I am not taking sides here but ever since the new trial mods have been picked there have been continuos arguments and fights all over forums. One of them even including me. I like Prox's idea of a meeting with shicking and all the mods. Maybe because we all have different time zones Shicking can make a private thread on forums only accessible by mods this way we can all talk openly and state our opinions on the current issues. This fight about armand spamming is over, just i think armand shouldn't do it again and that is that. I cant lock the thread but if i could then this would be locked.  ","post_user_id":"5375337","show_signature":"1","last_edit_time":"0","post_votes":"1","post_unhidden":"0","post_admin_hidden":"0","post_locked":"0","last_edit_user":"0","votes":null,"post_username":"Scarlet Witch","avatar":"https:\/\/assets-cloud.enjin.com\/users\/5375337\/avatar\/medium.1437162398.jpeg","user_online":false,"user_votes":"741","user_posts":"1506","url":"https:\/\/www.enjin.com\/ajax.php?s=redirect&cmd=forum-post&mobile=1&preset=12571633&id=44866327"},{"post_id":"44866955","post_time":"1374097504","post_content":"We already knew this was over, there was no need to waste time on that paragraph you just typed. Thanks.","post_content_html":"We already knew this was over, there was no need to waste time on that paragraph you just typed. Thanks.","post_content_clean":"We already knew this was over, there was no need to waste time on that paragraph you just typed. Thanks.","post_user_id":"6277869","show_signature":"1","last_edit_time":"0","post_votes":"0","post_unhidden":"0","post_admin_hidden":"0","post_locked":"0","last_edit_user":"0","votes":null,"post_username":"sheeploot","avatar":"https:\/\/assets-cloud.enjin.com\/users\/6277869\/avatar\/medium.1400110584.png","user_online":false,"user_votes":"0","user_posts":"927","url":"https:\/\/www.enjin.com\/ajax.php?s=redirect&cmd=forum-post&mobile=1&preset=12571633&id=44866955"},{"post_id":"44875087","post_time":"1374104430","post_content":"Lol why is this so long pages","post_content_html":"Lol why is this so long pages","post_content_clean":"Lol why is this so long pages","post_user_id":"5277236","show_signature":"1","last_edit_time":"0","post_votes":"0","post_unhidden":"0","post_admin_hidden":"0","post_locked":"0","last_edit_user":"0","votes":null,"post_username":"[Hi :3]TrickDoor","avatar":"https:\/\/assets-cloud.enjin.com\/users\/5277236\/avatar\/medium.1400100439.png","user_online":false,"user_votes":"389","user_posts":"2836","url":"https:\/\/www.enjin.com\/ajax.php?s=redirect&cmd=forum-post&mobile=1&preset=12571633&id=44875087"},{"post_id":"44875523","post_time":"1374104854","post_content":"Wait... but Armand was spamming on public chat too, remember when I said kidding: Armand strike 1. so I said  strike 7 and them Armand stop spamming and so I said: lol armand need to get temp-banned.","post_content_html":"Wait... but Armand was spamming on public chat too, remember when I said kidding: Armand strike 1. so I said  strike 7 and them Armand stop spamming and so I said: lol armand need to get temp-banned.","post_content_clean":"Wait... but Armand was spamming on public chat too, remember when I said kidding: Armand strike 1. so I said  strike 7 and them Armand stop spamming and so I said: lol armand need to get temp-banned.","post_user_id":"5763450","show_signature":"1","last_edit_time":"0","post_votes":"0","post_unhidden":"0","post_admin_hidden":"0","post_locked":"0","last_edit_user":"0","votes":null,"post_username":"Last_of_Dead","avatar":"https:\/\/assets-cloud.enjin.com\/users\/5763450\/avatar\/medium.1400104205.png","user_online":false,"user_votes":"346","user_posts":"1259","url":"https:\/\/www.enjin.com\/ajax.php?s=redirect&cmd=forum-post&mobile=1&preset=12571633&id=44875523"},{"post_id":"44877656","post_time":"1374106853","post_content":"[quote user_id=\"5264359\" avatar=\"https:\/\/cravatar.eu\/helmavatar\/bertus112\/74.png\" name=\"bertus112\"][quote user_id=\"5514011\" avatar=\"https:\/\/cravatar.eu\/helmavatar\/ArmandCool\/74.png\" name=\"ArmandCool\"]It was the staff faction chat.[\/quote]\r\nI agree on that, normal players wouldn't be annoyed by this.[\/quote]\r\n[color=#7a7a7a]A good point, but it was wrong for Armand to (albeit, unintentionally) make it harder for Jahowskii to monitor the chat. However, I will point out, Jahowskii, that you can scroll up the chat to see previous comments that are out of the current chat.[\/color]","post_content_html":" <div class=\"bbcode_quote\"> <div class=\"bbcode_quote_head\">@5264359 wrote:<\/div> <div class=\"bbcode_quote_body\"> <div class=\"bbcode_quote\"> <div class=\"bbcode_quote_head\">@5514011 wrote:<\/div> <div class=\"bbcode_quote_body\">It was the staff faction chat.<\/div> <\/div> <br \/> I agree on that, normal players wouldn't be annoyed by this.<\/div> <\/div> <br \/> A good point, but it was wrong for Armand to (albeit, unintentionally) make it harder for Jahowskii to monitor the chat. However, I will point out, Jahowskii, that you can scroll up the chat to see previous comments that are out of the current chat.","post_content_clean":"It was the staff faction chat.\r I agree on that, normal players wouldn't be annoyed by this.\r A good point, but it was wrong for Armand to (albeit, unintentionally) make it harder for Jahowskii to monitor the chat. However, I will point out, Jahowskii, that you can scroll up the chat to see previous comments that are out of the current chat.","post_user_id":"4185955","show_signature":"1","last_edit_time":"0","post_votes":"0","post_unhidden":"0","post_admin_hidden":"0","post_locked":"0","last_edit_user":"0","votes":null,"post_username":"Chronicler","avatar":"https:\/\/assets-cloud.enjin.com\/users\/4185955\/avatar\/medium.1565809392.png","user_online":false,"user_votes":"779","user_posts":"2045","url":"https:\/\/www.enjin.com\/ajax.php?s=redirect&cmd=forum-post&mobile=1&preset=12571633&id=44877656"}],"total_items":"48","pages":5,"voted":false,"new_post_id":"44865535","thread_labels":[],"top_posters":{"result":[{"post_user_id":"5514011","posts":"8","username":"ArmandCool","avatar":"https:\/\/assets-cloud.enjin.com\/users\/5514011\/avatar\/medium.1408808960.jpeg"},{"post_user_id":"5841010","posts":"7","username":"JAHOWSKII","avatar":"https:\/\/assets-cloud.enjin.com\/users\/5841010\/avatar\/medium.1400100075.png"},{"post_user_id":"6277869","posts":"6","username":"sheeploot","avatar":"https:\/\/assets-cloud.enjin.com\/users\/6277869\/avatar\/medium.1400110584.png"},{"post_user_id":"3247543","posts":"6","username":"FriendlyBum","avatar":"https:\/\/assets-cloud.enjin.com\/users\/3247543\/avatar\/medium.1400072406.png"},{"post_user_id":"5264359","posts":"3","username":"bertus112","avatar":"https:\/\/assets-cloud.enjin.com\/users\/5264359\/avatar\/medium.1400094074.png"},{"post_user_id":"6322814","posts":"3","username":"ProxBuilds","avatar":"https:\/\/assets-cloud.enjin.com\/users\/6322814\/avatar\/medium.1400110062.png"},{"post_user_id":"4331303","posts":"2","username":"Boom \u30c4","avatar":"https:\/\/assets-cloud.enjin.com\/users\/4331303\/avatar\/medium.1400080585.png"},{"post_user_id":"4185955","posts":"2","username":"Chronicler","avatar":"https:\/\/assets-cloud.enjin.com\/users\/4185955\/avatar\/medium.1565809392.png"},{"post_user_id":"6240898","posts":"2","username":"spot","avatar":"https:\/\/assets-cloud.enjin.com\/users\/6240898\/avatar\/medium.1400106374.png"},{"post_user_id":"6271533","posts":"1","username":"TheBuilder52","avatar":"https:\/\/resources.enjin.com\/1465083537\/profile\/images\/avatar\/medium.png"},{"post_user_id":"5306264","posts":"1","username":"arnold schwarzenegger","avatar":"https:\/\/assets-cloud.enjin.com\/users\/5306264\/avatar\/medium.1428692787.jpeg"},{"post_user_id":"5375337","posts":"1","username":"Scarlet Witch","avatar":"https:\/\/assets-cloud.enjin.com\/users\/5375337\/avatar\/medium.1437162398.jpeg"}],"num_users":"18"},"moderation_access":false,"poll_post":null,"post_access":true,"new_thread_access":true},"id":"1234567","jsonrpc":"2.0"}
{"result":{"thread":{"preset_id":"12571633","forum_id":"2419080","thread_id":"7887721","thread_subject":"Armand abusing","thread_replies":"47","thread_views":"6412","thread_type":"normal","thread_status":"locked","thread_user_id":"5841010","thread_username":"13676253761839040594","thread_avatar":"https:\/\/assets-cloud.enjin.com\/users\/5841010\/avatar\/medium.1400110062.png","thread_lastpost_user_id":"6277869","thread_lastpost_username":"1370974074431723998","thread_lastpost_time":"1374144088","thread_moved_id":"0","thread_post_time":"1374090697","url":"https:\/\/www.enjin.com\/ajax.php?s=redirect&cmd=forum-thread&mobile=1&preset=12571633&id=7887721","post_count":"1","category_id":"1906989","forum_name":"Report a Player","forum_description":"Found a player breaking rules? Post them here with evidence!","disable_voting":"0","show_signature":"1","url_cms":"https:\/\/www.craftsurvivalgames.com\/forum\/m\/12571633\/viewthread\/7887721-armand-abusing"},"posts":[{"post_id":"44882224","post_time":"1374111481","post_content":"thx for agreeing with my idea creeperkiller","post_content_html":"thx for agreeing with my idea creeperkiller","post_content_clean":"thx for agreeing with my idea creeperkiller","post_user_id":"6322814","show_signature":"1","last_edit_time":"0","post_votes":"0","post_unhidden":"0","post_admin_hidden":"0","post_locked":"0","last_edit_user":"0","votes":null,"post_username":"ProxBuilds","avatar":"https:\/\/assets-cloud.enjin.com\/users\/6322814\/avatar\/medium.1400110062.png","user_online":false,"user_votes":"37","user_posts":"316","url":"https:\/\/www.enjin.com\/ajax.php?s=redirect&cmd=forum-post&mobile=1&preset=12571633&id=44882224"},{"post_id":"44897737","post_time":"1374130258","post_content":"Creeper we all would close it if we could. You just said everyone's opinion in one post.","post_content_html":"Creeper we all would close it if we could. You just said everyone's opinion in one post.","post_content_clean":"Creeper we all would close it if we could. You just said everyone's opinion in one post.","post_user_id":"5514011","show_signature":"1","last_edit_time":"0","post_votes":"1","post_unhidden":"0","post_admin_hidden":"0","post_locked":"0","last_edit_user":"0","votes":null,"post_username":"ArmandCool","avatar":"https:\/\/assets-cloud.enjin.com\/users\/5514011\/avatar\/medium.1408808960.jpeg","user_online":false,"user_votes":"376","user_posts":"823","url":"https:\/\/www.enjin.com\/ajax.php?s=redirect&cmd=forum-post&mobile=1&preset=12571633&id=44897737"},{"post_id":"44897963","post_time":"1374130591","post_content":"this is one interesting thread but I say I am on armand's side","post_content_html":"this is one interesting thread but I say I am on armand's side","post_content_clean":"this is one interesting thread but I say I am on armand's side","post_user_id":"6240898","show_signature":"1","last_edit_time":"0","post_votes":"1","post_unhidden":"0","post_admin_hidden":"0","post_locked":"0","last_edit_user":"0","votes":null,"post_username":"spot","avatar":"https:\/\/assets-cloud.enjin.com\/users\/6240898\/avatar\/medium.1400106374.png","user_online":false,"user_votes":"258","user_posts":"2284","url":"https:\/\/www.enjin.com\/ajax.php?s=redirect&cmd=forum-post&mobile=1&preset=12571633&id=44897963"},{"post_id":"44898055","post_time":"1374130728","post_content":"but at the same time the thread should be locked","post_content_html":"but at the same time the thread should be locked","post_content_clean":"but at the same time the thread should be locked","post_user_id":"6240898","show_signature":"1","last_edit_time":"0","post_votes":"0","post_unhidden":"0","post_admin_hidden":"0","post_locked":"0","last_edit_user":"0","votes":null,"post_username":"spot","avatar":"https:\/\/assets-cloud.enjin.com\/users\/6240898\/avatar\/medium.1400106374.png","user_online":false,"user_votes":"258","user_posts":"2284","url":"https:\/\/www.enjin.com\/ajax.php?s=redirect&cmd=forum-post&mobile=1&preset=12571633&id=44898055"},{"post_id":"44898309","post_time":"1374131082","post_content":"I support ARMAND!!!","post_content_html":"I support ARMAND!!!","post_content_clean":"I support ARMAND!!!","post_user_id":"5870061","show_signature":"1","last_edit_time":"0","post_votes":"0","post_unhidden":"0","post_admin_hidden":"0","post_locked":"0","last_edit_user":"0","votes":null,"post_username":"Kids5829 2nd","avatar":"https:\/\/resources.enjin.com\/1465083537\/profile\/images\/avatar\/medium.png","user_online":false,"user_votes":"35","user_posts":"220","url":"https:\/\/www.enjin.com\/ajax.php?s=redirect&cmd=forum-post&mobile=1&preset=12571633&id=44898309"},{"post_id":"44898423","post_time":"1374131243","post_content":"Who doesnt xD","post_content_html":"Who doesnt xD","post_content_clean":"Who doesnt xD","post_user_id":"2423867","show_signature":"1","last_edit_time":"0","post_votes":"0","post_unhidden":"0","post_admin_hidden":"0","post_locked":"0","last_edit_user":"0","votes":null,"post_username":"PandaPlaysAll","avatar":"https:\/\/assets-cloud.enjin.com\/users\/2423867\/avatar\/medium.1401883342.png","user_online":false,"user_votes":"347","user_posts":"2975","url":"https:\/\/www.enjin.com\/ajax.php?s=redirect&cmd=forum-post&mobile=1&preset=12571633&id=44898423"},{"post_id":"44906104","post_time":"1374143814","post_content":"[color=#7a7a7a]You know what, this all needs to stop. What I mean by that is that all mods and trial-mods must work as a team, and cease the nonsense.[\/color]","post_content_html":"You know what, this all needs to stop. What I mean by that is that all mods and trial-mods must work as a team, and cease the nonsense.","post_content_clean":"You know what, this all needs to stop. What I mean by that is that all mods and trial-mods must work as a team, and cease the nonsense.","post_user_id":"4185955","show_signature":"1","last_edit_time":"0","post_votes":"0","post_unhidden":"0","post_admin_hidden":"0","post_locked":"0","last_edit_user":"0","votes":null,"post_username":"Chronicler","avatar":"https:\/\/assets-cloud.enjin.com\/users\/4185955\/avatar\/medium.1565809392.png","user_online":false,"user_votes":"779","user_posts":"2045","url":"https:\/\/www.enjin.com\/ajax.php?s=redirect&cmd=forum-post&mobile=1&preset=12571633&id=44906104"},{"post_id":"44906293","post_time":"1374144088","post_content":"Team work makes the dream work.","post_content_html":"Team work makes the dream work.","post_content_clean":"Team work makes the dream work.","post_user_id":"6277869","show_signature":"1","last_edit_time":"0","post_votes":"0","post_unhidden":"0","post_admin_hidden":"0","post_locked":"0","last_edit_user":"0","votes":null,"post_username":"sheeploot","avatar":"https:\/\/assets-cloud.enjin.com\/users\/6277869\/avatar\/medium.1400110584.png","user_online":false,"user_votes":"0","user_posts":"927","url":"https:\/\/www.enjin.com\/ajax.php?s=redirect&cmd=forum-post&mobile=1&preset=12571633&id=44906293"}],"total_items":"48","pages":5,"voted":false,"new_post_id":"44882224","thread_labels":[],"top_posters":{"result":[{"post_user_id":"5514011","posts":"8","username":"ArmandCool","avatar":"https:\/\/assets-cloud.enjin.com\/users\/5514011\/avatar\/medium.1408808960.jpeg"},{"post_user_id":"5841010","posts":"7","username":"JAHOWSKII","avatar":"https:\/\/assets-cloud.enjin.com\/users\/5841010\/avatar\/medium.1400100075.png"},{"post_user_id":"6277869","posts":"6","username":"sheeploot","avatar":"https:\/\/assets-cloud.enjin.com\/users\/6277869\/avatar\/medium.1400110584.png"},{"post_user_id":"3247543","posts":"6","username":"FriendlyBum","avatar":"https:\/\/assets-cloud.enjin.com\/users\/3247543\/avatar\/medium.1400072406.png"},{"post_user_id":"5264359","posts":"3","username":"bertus112","avatar":"https:\/\/assets-cloud.enjin.com\/users\/5264359\/avatar\/medium.1400094074.png"},{"post_user_id":"6322814","posts":"3","username":"ProxBuilds","avatar":"https:\/\/assets-cloud.enjin.com\/users\/6322814\/avatar\/medium.1400110062.png"},{"post_user_id":"6240898","posts":"2","username":"spot","avatar":"https:\/\/assets-cloud.enjin.com\/users\/6240898\/avatar\/medium.1400106374.png"},{"post_user_id":"4331303","posts":"2","username":"Boom \u30c4","avatar":"https:\/\/assets-cloud.enjin.com\/users\/4331303\/avatar\/medium.1400080585.png"},{"post_user_id":"4185955","posts":"2","username":"Chronicler","avatar":"https:\/\/assets-cloud.enjin.com\/users\/4185955\/avatar\/medium.1565809392.png"},{"post_user_id":"5440874","posts":"1","username":"MooseTheEngineer","avatar":"https:\/\/assets-cloud.enjin.com\/users\/5440874\/avatar\/medium.1495487251.jpeg"},{"post_user_id":"5870061","posts":"1","username":"Kids5829 2nd","avatar":"https:\/\/resources.enjin.com\/1465083537\/profile\/images\/avatar\/medium.png"},{"post_user_id":"2423867","posts":"1","username":"PandaPlaysAll","avatar":"https:\/\/assets-cloud.enjin.com\/users\/2423867\/avatar\/medium.1401883342.png"}],"num_users":"18"},"moderation_access":false,"poll_post":null,"post_access":true,"new_thread_access":true},"id":"1234567","jsonrpc":"2.0"}
