{"result":{"thread":{"preset_id":"12571633","forum_id":"2419048","thread_id":"8361883","thread_subject":"Look who I found in SKYwars! ;)","thread_replies":"24","thread_views":"948","thread_type":"normal","thread_status":"locked","thread_user_id":"6567858","thread_username":"13730862511499622715","thread_avatar":"https:\/\/assets-cloud.enjin.com\/users\/6567858\/avatar\/medium.1496942453.jpeg","thread_lastpost_user_id":"6031799","thread_lastpost_username":"13690787692025098870","thread_lastpost_time":"1377272661","thread_moved_id":"0","thread_post_time":"1376859722","url":"https:\/\/www.enjin.com\/ajax.php?s=redirect&cmd=forum-thread&mobile=1&preset=12571633&id=8361883","post_count":"1","category_id":"1907006","forum_name":"General Discussion","forum_description":"Discussion about general topics.","disable_voting":"0","show_signature":"1","url_cms":"https:\/\/www.craftsurvivalgames.com\/forum\/m\/12571633\/viewthread\/8361883-look-who-i-found-in-skywars"},"posts":[{"post_id":"47591843","post_time":"1376859722","post_content":"a.","post_content_html":"a.","post_content_clean":"a.","post_user_id":"6567858","show_signature":"1","last_edit_time":"0","post_votes":"0","post_unhidden":"0","post_admin_hidden":"0","post_locked":"0","last_edit_user":"0","votes":null,"post_username":"BlueCharmander12","avatar":"https:\/\/assets-cloud.enjin.com\/users\/6567858\/avatar\/medium.1496942453.jpeg","user_online":false,"user_votes":"91","user_posts":"1281","url":"https:\/\/www.enjin.com\/ajax.php?s=redirect&cmd=forum-post&mobile=1&preset=12571633&id=47591843"},{"post_id":"47591856","post_time":"1376859737","post_content":"I know it was a fake xD","post_content_html":"I know it was a fake xD","post_content_clean":"I know it was a fake xD","post_user_id":"6567858","show_signature":"1","last_edit_time":"0","post_votes":"0","post_unhidden":"0","post_admin_hidden":"0","post_locked":"0","last_edit_user":"0","votes":null,"post_username":"BlueCharmander12","avatar":"https:\/\/assets-cloud.enjin.com\/users\/6567858\/avatar\/medium.1496942453.jpeg","user_online":false,"user_votes":"91","user_posts":"1281","url":"https:\/\/www.enjin.com\/ajax.php?s=redirect&cmd=forum-post&mobile=1&preset=12571633&id=47591856"},{"post_id":"47592755","post_time":"1376860456","post_content":"How is it a fake?","post_content_html":"How is it a fake?","post_content_clean":"How is it a fake?","post_user_id":"6477959","show_signature":"1","last_edit_time":"0","post_votes":"0","post_unhidden":"0","post_admin_hidden":"0","post_locked":"0","last_edit_user":"0","votes":null,"post_username":"Fireball71101","avatar":"https:\/\/assets-cloud.enjin.com\/users\/6477959\/avatar\/medium.1424450521.jpeg","user_online":false,"user_votes":"19","user_posts":"702","url":"https:\/\/www.enjin.com\/ajax.php?s=redirect&cmd=forum-post&mobile=1&preset=12571633&id=47592755"},{"post_id":"47592837","post_time":"1376860502","post_content":"fake","post_content_html":"fake","post_content_clean":"fake","post_user_id":"6240898","show_signature":"1","last_edit_time":"0","post_votes":"0","post_unhidden":"0","post_admin_hidden":"0","post_locked":"0","last_edit_user":"0","votes":null,"post_username":"spot","avatar":"https:\/\/assets-cloud.enjin.com\/users\/6240898\/avatar\/medium.1400106374.png","user_online":false,"user_votes":"258","user_posts":"2284","url":"https:\/\/www.enjin.com\/ajax.php?s=redirect&cmd=forum-post&mobile=1&preset=12571633&id=47592837"},{"post_id":"47592871","post_time":"1376860529","post_content":"yeah \/nick","post_content_html":"yeah \/nick","post_content_clean":"yeah \/nick","post_user_id":"6240898","show_signature":"1","last_edit_time":"0","post_votes":"0","post_unhidden":"0","post_admin_hidden":"0","post_locked":"0","last_edit_user":"0","votes":null,"post_username":"spot","avatar":"https:\/\/assets-cloud.enjin.com\/users\/6240898\/avatar\/medium.1400106374.png","user_online":false,"user_votes":"258","user_posts":"2284","url":"https:\/\/www.enjin.com\/ajax.php?s=redirect&cmd=forum-post&mobile=1&preset=12571633&id=47592871"},{"post_id":"47593037","post_time":"1376860674","post_content":"But he really plays on the server :\/","post_content_html":"But he really plays on the server :\/","post_content_clean":"But he really plays on the server :\/","post_user_id":"5763450","show_signature":"1","last_edit_time":"0","post_votes":"0","post_unhidden":"0","post_admin_hidden":"0","post_locked":"0","last_edit_user":"0","votes":null,"post_username":"Last_of_Dead","avatar":"https:\/\/assets-cloud.enjin.com\/users\/5763450\/avatar\/medium.1400104205.png","user_online":false,"user_votes":"346","user_posts":"1259","url":"https:\/\/www.enjin.com\/ajax.php?s=redirect&cmd=forum-post&mobile=1&preset=12571633&id=47593037"},{"post_id":"47593050","post_time":"1376860680","post_content":"but \/nick only changes your name when u talknot ur nametag i think","post_content_html":"but \/nick only changes your name when u talknot ur nametag i think","post_content_clean":"but \/nick only changes your name when u talknot ur nametag i think","post_user_id":"6477959","show_signature":"1","last_edit_time":"0","post_votes":"0","post_unhidden":"0","post_admin_hidden":"0","post_locked":"0","last_edit_user":"0","votes":null,"post_username":"Fireball71101","avatar":"https:\/\/assets-cloud.enjin.com\/users\/6477959\/avatar\/medium.1424450521.jpeg","user_online":false,"user_votes":"19","user_posts":"702","url":"https:\/\/www.enjin.com\/ajax.php?s=redirect&cmd=forum-post&mobile=1&preset=12571633&id=47593050"},{"post_id":"47594197","post_time":"1376861587","post_content":"yes tht could be real","post_content_html":"yes tht could be real","post_content_clean":"yes tht could be real","post_user_id":"5245755","show_signature":"1","last_edit_time":"0","post_votes":"0","post_unhidden":"0","post_admin_hidden":"0","post_locked":"0","last_edit_user":"0","votes":null,"post_username":"TheMedieval","avatar":"https:\/\/assets-cloud.enjin.com\/users\/5245755\/avatar\/medium.1400093837.png","user_online":false,"user_votes":"77","user_posts":"703","url":"https:\/\/www.enjin.com\/ajax.php?s=redirect&cmd=forum-post&mobile=1&preset=12571633&id=47594197"},{"post_id":"47594268","post_time":"1376861648","post_content":"ok to check if its real. You do \/realname or \/msg skythekidrs .!\r\nHope that helps next time this happens","post_content_html":"ok to check if its real. You do \/realname or \/msg skythekidrs .!<br \/> <br \/> Hope that helps next time this happens","post_content_clean":"ok to check if its real. You do \/realname or \/msg skythekidrs .!\r Hope that helps next time this happens","post_user_id":"2423867","show_signature":"1","last_edit_time":"0","post_votes":"0","post_unhidden":"0","post_admin_hidden":"0","post_locked":"0","last_edit_user":"0","votes":null,"post_username":"PandaPlaysAll","avatar":"https:\/\/assets-cloud.enjin.com\/users\/2423867\/avatar\/medium.1401883342.png","user_online":false,"user_votes":"347","user_posts":"2975","url":"https:\/\/www.enjin.com\/ajax.php?s=redirect&cmd=forum-post&mobile=1&preset=12571633&id=47594268"},{"post_id":"47594329","post_time":"1376861692","post_content":"can iz eat him?","post_content_html":"can iz eat him?","post_content_clean":"can iz eat him?","post_user_id":"5245755","show_signature":"1","last_edit_time":"0","post_votes":"0","post_unhidden":"0","post_admin_hidden":"0","post_locked":"0","last_edit_user":"0","votes":null,"post_username":"TheMedieval","avatar":"https:\/\/assets-cloud.enjin.com\/users\/5245755\/avatar\/medium.1400093837.png","user_online":false,"user_votes":"77","user_posts":"703","url":"https:\/\/www.enjin.com\/ajax.php?s=redirect&cmd=forum-post&mobile=1&preset=12571633&id=47594329"}],"total_items":"25","pages":3,"voted":false,"new_post_id":false,"thread_labels":[],"top_posters":{"result":[{"post_user_id":"6567858","posts":"5","username":"BlueCharmander12","avatar":"https:\/\/assets-cloud.enjin.com\/users\/6567858\/avatar\/medium.1496942453.jpeg"},{"post_user_id":"5931945","posts":"2","username":"&uArr;&mdash;=\u2630[=Flamy=]\u2630=&mdash;&uArr;","avatar":"https:\/\/assets-cloud.enjin.com\/users\/5931945\/avatar\/medium.1400104636.png"},{"post_user_id":"6477959","posts":"2","username":"Fireball71101","avatar":"https:\/\/assets-cloud.enjin.com\/users\/6477959\/avatar\/medium.1424450521.jpeg"},{"post_user_id":"6240898","posts":"2","username":"spot","avatar":"https:\/\/assets-cloud.enjin.com\/users\/6240898\/avatar\/medium.1400106374.png"},{"post_user_id":"6472812","posts":"2","username":"ipader_119","avatar":"https:\/\/resources.enjin.com\/1465083537\/profile\/images\/avatar\/medium.png"},{"post_user_id":"5245755","posts":"2","username":"TheMedieval","avatar":"https:\/\/assets-cloud.enjin.com\/users\/5245755\/avatar\/medium.1400093837.png"},{"post_user_id":"5576473","posts":"2","username":"angry_bird_2000","avatar":"https:\/\/resources.enjin.com\/1465083537\/profile\/images\/avatar\/medium.png"},{"post_user_id":"6277869","posts":"1","username":"sheeploot","avatar":"https:\/\/assets-cloud.enjin.com\/users\/6277869\/avatar\/medium.1400110584.png"},{"post_user_id":"5440874","posts":"1","username":"MooseTheEngineer","avatar":"https:\/\/assets-cloud.enjin.com\/users\/5440874\/avatar\/medium.1495487251.jpeg"},{"post_user_id":"5763450","posts":"1","username":"Last_of_Dead","avatar":"https:\/\/assets-cloud.enjin.com\/users\/5763450\/avatar\/medium.1400104205.png"},{"post_user_id":"6031799","posts":"1","username":"Milxie","avatar":"https:\/\/assets-cloud.enjin.com\/users\/6031799\/avatar\/medium.1593335694.png"},{"post_user_id":"2423867","posts":"1","username":"PandaPlaysAll","avatar":"https:\/\/assets-cloud.enjin.com\/users\/2423867\/avatar\/medium.1401883342.png"}],"num_users":"15"},"moderation_access":false,"poll_post":null,"post_access":true,"new_thread_access":true},"id":"1234567","jsonrpc":"2.0"}
{"result":{"thread":{"preset_id":"12571633","forum_id":"2419048","thread_id":"8361883","thread_subject":"Look who I found in SKYwars! ;)","thread_replies":"24","thread_views":"948","thread_type":"normal","thread_status":"locked","thread_user_id":"6567858","thread_username":"13730862511499622715","thread_avatar":"https:\/\/assets-cloud.enjin.com\/users\/6567858\/avatar\/medium.1400100439.png","thread_lastpost_user_id":"6031799","thread_lastpost_username":"13690787692025098870","thread_lastpost_time":"1377272661","thread_moved_id":"0","thread_post_time":"1376859722","url":"https:\/\/www.enjin.com\/ajax.php?s=redirect&cmd=forum-thread&mobile=1&preset=12571633&id=8361883","post_count":"1","category_id":"1907006","forum_name":"General Discussion","forum_description":"Discussion about general topics.","disable_voting":"0","show_signature":"1","url_cms":"https:\/\/www.craftsurvivalgames.com\/forum\/m\/12571633\/viewthread\/8361883-look-who-i-found-in-skywars"},"posts":[{"post_id":"47595083","post_time":"1376862260","post_content":"can i burn him to death he piss me off","post_content_html":"can i burn him to death he piss me off","post_content_clean":"can i burn him to death he piss me off","post_user_id":"5277236","show_signature":"1","last_edit_time":"0","post_votes":"0","post_unhidden":"0","post_admin_hidden":"0","post_locked":"0","last_edit_user":"0","votes":null,"post_username":"[Hi :3]TrickDoor","avatar":"https:\/\/assets-cloud.enjin.com\/users\/5277236\/avatar\/medium.1400100439.png","user_online":false,"user_votes":"389","user_posts":"2836","url":"https:\/\/www.enjin.com\/ajax.php?s=redirect&cmd=forum-post&mobile=1&preset=12571633&id=47595083"},{"post_id":"47596286","post_time":"1376863135","post_content":"He was racist in benjas vid.","post_content_html":"He was racist in benjas vid.","post_content_clean":"He was racist in benjas vid.","post_user_id":"5795398","show_signature":"1","last_edit_time":"0","post_votes":"1","post_unhidden":"0","post_admin_hidden":"0","post_locked":"0","last_edit_user":"0","votes":null,"post_username":"XwillowtreeX","avatar":"https:\/\/assets-cloud.enjin.com\/users\/5795398\/avatar\/medium.1400106056.png","user_online":false,"user_votes":"125","user_posts":"653","url":"https:\/\/www.enjin.com\/ajax.php?s=redirect&cmd=forum-post&mobile=1&preset=12571633&id=47596286"},{"post_id":"47598238","post_time":"1376864712","post_content":"In bacca we trust!! In Benja we must!!","post_content_html":"In bacca we trust!! In Benja we must!!","post_content_clean":"In bacca we trust!! In Benja we must!!","post_user_id":"5512162","show_signature":"0","last_edit_time":"0","post_votes":"0","post_unhidden":"0","post_admin_hidden":"0","post_locked":"0","last_edit_user":"0","votes":null,"post_username":"3daj11","avatar":"https:\/\/resources.enjin.com\/1465083537\/profile\/images\/avatar\/medium.png","user_online":false,"user_votes":"37","user_posts":"327","url":"https:\/\/www.enjin.com\/ajax.php?s=redirect&cmd=forum-post&mobile=1&preset=12571633&id=47598238"},{"post_id":"47706623","post_time":"1376964447","post_content":"In Benja we trust, for Bacca we must, our swords we will thrust, our axes wont rust (I don't know the rest : P)","post_content_html":"In Benja we trust, for Bacca we must, our swords we will thrust, our axes wont rust (I don't know the rest : P)","post_content_clean":"In Benja we trust, for Bacca we must, our swords we will thrust, our axes wont rust (I don't know the rest : P)","post_user_id":"5576473","show_signature":"1","last_edit_time":"0","post_votes":"0","post_unhidden":"0","post_admin_hidden":"0","post_locked":"0","last_edit_user":"0","votes":null,"post_username":"angry_bird_2000","avatar":"https:\/\/resources.enjin.com\/1465083537\/profile\/images\/avatar\/medium.png","user_online":false,"user_votes":"115","user_posts":"476","url":"https:\/\/www.enjin.com\/ajax.php?s=redirect&cmd=forum-post&mobile=1&preset=12571633&id=47706623"},{"post_id":"47707027","post_time":"1376964782","post_content":"Why do so many of you deny him? The only variable if he was fake would be that someone was disguised as him.","post_content_html":"Why do so many of you deny him? The only variable if he was fake would be that someone was disguised as him.","post_content_clean":"Why do so many of you deny him? The only variable if he was fake would be that someone was disguised as him.","post_user_id":"6277869","show_signature":"1","last_edit_time":"0","post_votes":"0","post_unhidden":"0","post_admin_hidden":"0","post_locked":"0","last_edit_user":"0","votes":null,"post_username":"sheeploot","avatar":"https:\/\/assets-cloud.enjin.com\/users\/6277869\/avatar\/medium.1400110584.png","user_online":false,"user_votes":"0","user_posts":"927","url":"https:\/\/www.enjin.com\/ajax.php?s=redirect&cmd=forum-post&mobile=1&preset=12571633&id=47707027"},{"post_id":"47707124","post_time":"1376964861","post_content":"Yep. I think he was the real sky, since many youtubers have played on PSG in the past (Bajan, Huskeymudkipz, Kermit, SSundee, etc.).","post_content_html":"Yep. I think he was the real sky, since many youtubers have played on PSG in the past (Bajan, Huskeymudkipz, Kermit, SSundee, etc.).","post_content_clean":"Yep. I think he was the real sky, since many youtubers have played on PSG in the past (Bajan, Huskeymudkipz, Kermit, SSundee, etc.).","post_user_id":"5576473","show_signature":"1","last_edit_time":"1376964883","post_votes":"0","post_unhidden":"0","post_admin_hidden":"0","post_locked":"0","last_edit_user":"0","votes":null,"post_username":"angry_bird_2000","avatar":"https:\/\/resources.enjin.com\/1465083537\/profile\/images\/avatar\/medium.png","user_online":false,"user_votes":"115","user_posts":"476","url":"https:\/\/www.enjin.com\/ajax.php?s=redirect&cmd=forum-post&mobile=1&preset=12571633&id=47707124"},{"post_id":"47825819","post_time":"1377053544","post_content":"It wasn't him. Jahowskii messaged me saying it was him.","post_content_html":"It wasn't him. Jahowskii messaged me saying it was him.","post_content_clean":"It wasn't him. Jahowskii messaged me saying it was him.","post_user_id":"6567858","show_signature":"1","last_edit_time":"0","post_votes":"0","post_unhidden":"0","post_admin_hidden":"0","post_locked":"0","last_edit_user":"0","votes":null,"post_username":"BlueCharmander12","avatar":"https:\/\/assets-cloud.enjin.com\/users\/6567858\/avatar\/medium.1496942453.jpeg","user_online":false,"user_votes":"91","user_posts":"1281","url":"https:\/\/www.enjin.com\/ajax.php?s=redirect&cmd=forum-post&mobile=1&preset=12571633&id=47825819"},{"post_id":"47825973","post_time":"1377053662","post_content":":\/ is it real or is it not?","post_content_html":":\/ is it real or is it not?","post_content_clean":":\/ is it real or is it not?","post_user_id":"5931945","show_signature":"1","last_edit_time":"0","post_votes":"0","post_unhidden":"0","post_admin_hidden":"0","post_locked":"0","last_edit_user":"0","votes":null,"post_username":"&uArr;&mdash;=\u2630[=Flamy=]\u2630=&mdash;&uArr;","avatar":"https:\/\/assets-cloud.enjin.com\/users\/5931945\/avatar\/medium.1400104636.png","user_online":false,"user_votes":"24","user_posts":"394","url":"https:\/\/www.enjin.com\/ajax.php?s=redirect&cmd=forum-post&mobile=1&preset=12571633&id=47825973"},{"post_id":"47826013","post_time":"1377053695","post_content":"I just said it wasn't. It was a joke  :)","post_content_html":"I just said it wasn't. It was a joke  <object class=\"emojione\" data=\"https:\/\/resources.enjin.com\/1489581540\/themes\/core\/images\/emojione\/svg\/1f642.svg?0\" type=\"image\/svg+xml\" standby=\":)\">:)<\/object>","post_content_clean":"I just said it wasn't. It was a joke  :)","post_user_id":"6567858","show_signature":"1","last_edit_time":"0","post_votes":"0","post_unhidden":"0","post_admin_hidden":"0","post_locked":"0","last_edit_user":"0","votes":null,"post_username":"BlueCharmander12","avatar":"https:\/\/assets-cloud.enjin.com\/users\/6567858\/avatar\/medium.1496942453.jpeg","user_online":false,"user_votes":"91","user_posts":"1281","url":"https:\/\/www.enjin.com\/ajax.php?s=redirect&cmd=forum-post&mobile=1&preset=12571633&id=47826013"},{"post_id":"47826663","post_time":"1377054199","post_content":"oh my bad :D","post_content_html":"oh my bad <object class=\"emojione\" data=\"https:\/\/resources.enjin.com\/1489581540\/themes\/core\/images\/emojione\/svg\/1f600.svg?0\" type=\"image\/svg+xml\" standby=\":d\">:d<\/object>","post_content_clean":"oh my bad :D","post_user_id":"5931945","show_signature":"1","last_edit_time":"0","post_votes":"0","post_unhidden":"0","post_admin_hidden":"0","post_locked":"0","last_edit_user":"0","votes":null,"post_username":"&uArr;&mdash;=\u2630[=Flamy=]\u2630=&mdash;&uArr;","avatar":"https:\/\/assets-cloud.enjin.com\/users\/5931945\/avatar\/medium.1400104636.png","user_online":false,"user_votes":"24","user_posts":"394","url":"https:\/\/www.enjin.com\/ajax.php?s=redirect&cmd=forum-post&mobile=1&preset=12571633&id=47826663"}],"total_items":"25","pages":3,"voted":false,"new_post_id":"47595083","thread_labels":[],"top_posters":{"result":[{"post_user_id":"6567858","posts":"5","username":"BlueCharmander12","avatar":"https:\/\/assets-cloud.enjin.com\/users\/6567858\/avatar\/medium.1496942453.jpeg"},{"post_user_id":"6477959","posts":"2","username":"Fireball71101","avatar":"https:\/\/assets-cloud.enjin.com\/users\/6477959\/avatar\/medium.1424450521.jpeg"},{"post_user_id":"6240898","posts":"2","username":"spot","avatar":"https:\/\/assets-cloud.enjin.com\/users\/6240898\/avatar\/medium.1400106374.png"},{"post_user_id":"6472812","posts":"2","username":"ipader_119","avatar":"https:\/\/resources.enjin.com\/1465083537\/profile\/images\/avatar\/medium.png"},{"post_user_id":"5245755","posts":"2","username":"TheMedieval","avatar":"https:\/\/assets-cloud.enjin.com\/users\/5245755\/avatar\/medium.1400093837.png"},{"post_user_id":"5576473","posts":"2","username":"angry_bird_2000","avatar":"https:\/\/resources.enjin.com\/1465083537\/profile\/images\/avatar\/medium.png"},{"post_user_id":"5931945","posts":"2","username":"&uArr;&mdash;=\u2630[=Flamy=]\u2630=&mdash;&uArr;","avatar":"https:\/\/assets-cloud.enjin.com\/users\/5931945\/avatar\/medium.1400104636.png"},{"post_user_id":"5440874","posts":"1","username":"MooseTheEngineer","avatar":"https:\/\/assets-cloud.enjin.com\/users\/5440874\/avatar\/medium.1495487251.jpeg"},{"post_user_id":"5763450","posts":"1","username":"Last_of_Dead","avatar":"https:\/\/assets-cloud.enjin.com\/users\/5763450\/avatar\/medium.1400104205.png"},{"post_user_id":"6031799","posts":"1","username":"Milxie","avatar":"https:\/\/assets-cloud.enjin.com\/users\/6031799\/avatar\/medium.1593335694.png"},{"post_user_id":"2423867","posts":"1","username":"PandaPlaysAll","avatar":"https:\/\/assets-cloud.enjin.com\/users\/2423867\/avatar\/medium.1401883342.png"},{"post_user_id":"5277236","posts":"1","username":"[Hi :3]TrickDoor","avatar":"https:\/\/assets-cloud.enjin.com\/users\/5277236\/avatar\/medium.1400100439.png"}],"num_users":"15"},"moderation_access":false,"poll_post":null,"post_access":true,"new_thread_access":true},"id":"1234567","jsonrpc":"2.0"}
{"result":{"thread":{"preset_id":"12571633","forum_id":"2419048","thread_id":"8361883","thread_subject":"Look who I found in SKYwars! ;)","thread_replies":"24","thread_views":"948","thread_type":"normal","thread_status":"locked","thread_user_id":"6567858","thread_username":"13730862511499622715","thread_avatar":"https:\/\/assets-cloud.enjin.com\/users\/6567858\/avatar\/medium.1495487251.jpeg","thread_lastpost_user_id":"6031799","thread_lastpost_username":"13690787692025098870","thread_lastpost_time":"1377272661","thread_moved_id":"0","thread_post_time":"1376859722","url":"https:\/\/www.enjin.com\/ajax.php?s=redirect&cmd=forum-thread&mobile=1&preset=12571633&id=8361883","post_count":"1","category_id":"1907006","forum_name":"General Discussion","forum_description":"Discussion about general topics.","disable_voting":"0","show_signature":"1","url_cms":"https:\/\/www.craftsurvivalgames.com\/forum\/m\/12571633\/viewthread\/8361883-look-who-i-found-in-skywars"},"posts":[{"post_id":"47827458","post_time":"1377054910","post_content":"Tell me if you see any other &quot;youtubers&quot;.","post_content_html":"Tell me if you see any other &quot;youtubers&quot;.","post_content_clean":"Tell me if you see any other \"youtubers\".","post_user_id":"5440874","show_signature":"1","last_edit_time":"0","post_votes":"0","post_unhidden":"0","post_admin_hidden":"0","post_locked":"0","last_edit_user":"0","votes":null,"post_username":"MooseTheEngineer","avatar":"https:\/\/assets-cloud.enjin.com\/users\/5440874\/avatar\/medium.1495487251.jpeg","user_online":false,"user_votes":"0","user_posts":"2843","url":"https:\/\/www.enjin.com\/ajax.php?s=redirect&cmd=forum-post&mobile=1&preset=12571633&id=47827458"},{"post_id":"47921004","post_time":"1377140986","post_content":"Lol ok moose. Sky was jahow though c:","post_content_html":"Lol ok moose. Sky was jahow though c:","post_content_clean":"Lol ok moose. Sky was jahow though c:","post_user_id":"6567858","show_signature":"1","last_edit_time":"0","post_votes":"0","post_unhidden":"0","post_admin_hidden":"0","post_locked":"0","last_edit_user":"0","votes":null,"post_username":"BlueCharmander12","avatar":"https:\/\/assets-cloud.enjin.com\/users\/6567858\/avatar\/medium.1496942453.jpeg","user_online":false,"user_votes":"91","user_posts":"1281","url":"https:\/\/www.enjin.com\/ajax.php?s=redirect&cmd=forum-post&mobile=1&preset=12571633&id=47921004"},{"post_id":"48045269","post_time":"1377267891","post_content":"Ik I have the same plugin.A mod did \/d player SkythekidRS then walked around hoping people would believe it.","post_content_html":"Ik I have the same plugin.A mod did \/d player SkythekidRS then walked around hoping people would believe it.","post_content_clean":"Ik I have the same plugin.A mod did \/d player SkythekidRS then walked around hoping people would believe it.","post_user_id":"6472812","show_signature":"1","last_edit_time":"0","post_votes":"0","post_unhidden":"0","post_admin_hidden":"0","post_locked":"0","last_edit_user":"0","votes":null,"post_username":"ipader_119","avatar":"https:\/\/resources.enjin.com\/1465083537\/profile\/images\/avatar\/medium.png","user_online":false,"user_votes":"16","user_posts":"249","url":"https:\/\/www.enjin.com\/ajax.php?s=redirect&cmd=forum-post&mobile=1&preset=12571633&id=48045269"},{"post_id":"48047394","post_time":"1377269748","post_content":"[color=#239edd][size=6]Fake[\/size][\/color]  :lol:","post_content_html":"<span style=\"font-size:2.0em\">Fake<\/span>  <object class=\"emojione\" data=\"https:\/\/resources.enjin.com\/1489581540\/themes\/core\/images\/emojione\/svg\/1f606.svg?0\" type=\"image\/svg+xml\" standby=\":lol:\">:lol:<\/object>","post_content_clean":"Fake  :lol:","post_user_id":"6472812","show_signature":"1","last_edit_time":"0","post_votes":"0","post_unhidden":"0","post_admin_hidden":"0","post_locked":"0","last_edit_user":"0","votes":null,"post_username":"ipader_119","avatar":"https:\/\/resources.enjin.com\/1465083537\/profile\/images\/avatar\/medium.png","user_online":false,"user_votes":"16","user_posts":"249","url":"https:\/\/www.enjin.com\/ajax.php?s=redirect&cmd=forum-post&mobile=1&preset=12571633&id=48047394"},{"post_id":"48050815","post_time":"1377272661","post_content":"theres \/d p","post_content_html":"theres \/d p","post_content_clean":"theres \/d p","post_user_id":"6031799","show_signature":"1","last_edit_time":"0","post_votes":"0","post_unhidden":"0","post_admin_hidden":"0","post_locked":"0","last_edit_user":"0","votes":null,"post_username":"Milxie","avatar":"https:\/\/assets-cloud.enjin.com\/users\/6031799\/avatar\/medium.1593335694.png","user_online":false,"user_votes":"1","user_posts":"35","url":"https:\/\/www.enjin.com\/ajax.php?s=redirect&cmd=forum-post&mobile=1&preset=12571633&id=48050815"}],"total_items":"25","pages":3,"voted":false,"new_post_id":"47827458","thread_labels":[],"top_posters":{"result":[{"post_user_id":"6567858","posts":"5","username":"BlueCharmander12","avatar":"https:\/\/assets-cloud.enjin.com\/users\/6567858\/avatar\/medium.1496942453.jpeg"},{"post_user_id":"5576473","posts":"2","username":"angry_bird_2000","avatar":"https:\/\/resources.enjin.com\/1465083537\/profile\/images\/avatar\/medium.png"},{"post_user_id":"5931945","posts":"2","username":"&uArr;&mdash;=\u2630[=Flamy=]\u2630=&mdash;&uArr;","avatar":"https:\/\/assets-cloud.enjin.com\/users\/5931945\/avatar\/medium.1400104636.png"},{"post_user_id":"6477959","posts":"2","username":"Fireball71101","avatar":"https:\/\/assets-cloud.enjin.com\/users\/6477959\/avatar\/medium.1424450521.jpeg"},{"post_user_id":"6240898","posts":"2","username":"spot","avatar":"https:\/\/assets-cloud.enjin.com\/users\/6240898\/avatar\/medium.1400106374.png"},{"post_user_id":"6472812","posts":"2","username":"ipader_119","avatar":"https:\/\/resources.enjin.com\/1465083537\/profile\/images\/avatar\/medium.png"},{"post_user_id":"5245755","posts":"2","username":"TheMedieval","avatar":"https:\/\/assets-cloud.enjin.com\/users\/5245755\/avatar\/medium.1400093837.png"},{"post_user_id":"5277236","posts":"1","username":"[Hi :3]TrickDoor","avatar":"https:\/\/assets-cloud.enjin.com\/users\/5277236\/avatar\/medium.1400100439.png"},{"post_user_id":"5795398","posts":"1","username":"XwillowtreeX","avatar":"https:\/\/assets-cloud.enjin.com\/users\/5795398\/avatar\/medium.1400106056.png"},{"post_user_id":"5512162","posts":"1","username":"3daj11","avatar":"https:\/\/resources.enjin.com\/1465083537\/profile\/images\/avatar\/medium.png"},{"post_user_id":"6277869","posts":"1","username":"sheeploot","avatar":"https:\/\/assets-cloud.enjin.com\/users\/6277869\/avatar\/medium.1400110584.png"},{"post_user_id":"5440874","posts":"1","username":"MooseTheEngineer","avatar":"https:\/\/assets-cloud.enjin.com\/users\/5440874\/avatar\/medium.1495487251.jpeg"}],"num_users":"15"},"moderation_access":false,"poll_post":null,"post_access":true,"new_thread_access":true},"id":"1234567","jsonrpc":"2.0"}
