{"result":{"thread":{"preset_id":"12571633","forum_id":"2419048","thread_id":"8683442","thread_subject":"Who Am I GaMe! ","thread_replies":"20","thread_views":"542","thread_type":"normal","thread_status":"locked","thread_user_id":"5496936","thread_username":"13650081201605300541","thread_avatar":"https:\/\/assets-cloud.enjin.com\/users\/5496936\/avatar\/medium.1406468426.jpeg","thread_lastpost_user_id":"5496936","thread_lastpost_username":"13650081201605300541","thread_lastpost_time":"1378850719","thread_moved_id":"0","thread_post_time":"1378755392","url":"https:\/\/www.enjin.com\/ajax.php?s=redirect&cmd=forum-thread&mobile=1&preset=12571633&id=8683442","post_count":"1","category_id":"1907006","forum_name":"General Discussion","forum_description":"Discussion about general topics.","disable_voting":"0","show_signature":"1","url_cms":"https:\/\/www.craftsurvivalgames.com\/forum\/m\/12571633\/viewthread\/8683442-who-am-i-game"},"posts":[{"post_id":"49425793","post_time":"1378755392","post_content":"So I Have Finally Decided To Make A Game Series. This Is How It Will Go:\r\nI Will Give You Clues About My Appearance And My Behavior And You Have To Guess What [color=#6e23dd]Object Animal Or Species [\/color] I Am!\r\nOf Course The Prize For The Winner Will Be Money Or An Object In Factions\r\n\r\n[color=#761413][size=5]PRIZES![\/size][\/color]\r\n- 2 God Apples\r\n- 5,000$\r\n- 5 Diamonds\r\n- 64 Obsidian\r\n- Random Enchant And Repair For Any Tool\/Object\r\n\r\nWhen You Win A Round List What You Want And Every time You Make A Guess Keep A List Of Your Winnings So When We Meet In Game I Can Look At Your Prizes And Give You It. You Can Pick ONLY 1 Prize Every time You Win\r\n\r\n[color=#3b1376]Who Am I?[\/color]\r\nI Live In The Plains\r\nAnd Am White &amp; Black\r\nI Travel And Far To Find Good Plants\r\nWith Other Creatures\r\n","post_content_html":"So I Have Finally Decided To Make A Game Series. This Is How It Will Go:<br \/> <br \/> I Will Give You Clues About My Appearance And My Behavior And You Have To Guess What Object Animal Or Species  I Am!<br \/> <br \/> Of Course The Prize For The Winner Will Be Money Or An Object In Factions<br \/> <br \/> <span style=\"font-size:1.5em\">PRIZES!<\/span><br \/> <br \/> - 2 God Apples<br \/> <br \/> - 5,000$<br \/> <br \/> - 5 Diamonds<br \/> <br \/> - 64 Obsidian<br \/> <br \/> - Random Enchant And Repair For Any Tool\/Object<br \/> <br \/> When You Win A Round List What You Want And Every time You Make A Guess Keep A List Of Your Winnings So When We Meet In Game I Can Look At Your Prizes And Give You It. You Can Pick ONLY 1 Prize Every time You Win<br \/> <br \/> Who Am I?<br \/> <br \/> I Live In The Plains<br \/> <br \/> And Am White &amp; Black<br \/> <br \/> I Travel And Far To Find Good Plants<br \/> <br \/> With Other Creatures<br \/> <br \/> ","post_content_clean":"So I Have Finally Decided To Make A Game Series. This Is How It Will Go:\r I Will Give You Clues About My Appearance And My Behavior And You Have To Guess What Object Animal Or Species  I Am!\r Of Course The Prize For The Winner Will Be Money Or An Object In Factions\r \r PRIZES!\r - 2 God Apples\r - 5,000$\r - 5 Diamonds\r - 64 Obsidian\r - Random Enchant And Repair For Any Tool\/Object\r \r When You Win A Round List What You Want And Every time You Make A Guess Keep A List Of Your Winnings So When We Meet In Game I Can Look At Your Prizes And Give You It. You Can Pick ONLY 1 Prize Every time You Win\r \r Who Am I?\r I Live In The Plains\r And Am White & Black\r I Travel And Far To Find Good Plants\r With Other Creatures\r ","post_user_id":"5496936","show_signature":"1","last_edit_time":"1378759599","post_votes":"0","post_unhidden":"0","post_admin_hidden":"0","post_locked":"0","last_edit_user":"0","votes":null,"post_username":"Dwarfs_Digging","avatar":"https:\/\/assets-cloud.enjin.com\/users\/5496936\/avatar\/medium.1406468426.jpeg","user_online":false,"user_votes":"158","user_posts":"1398","url":"https:\/\/www.enjin.com\/ajax.php?s=redirect&cmd=forum-post&mobile=1&preset=12571633&id=49425793"},{"post_id":"49426078","post_time":"1378755646","post_content":"zebra or a cow","post_content_html":"zebra or a cow","post_content_clean":"zebra or a cow","post_user_id":"6422420","show_signature":"1","last_edit_time":"1378755714","post_votes":"0","post_unhidden":"0","post_admin_hidden":"0","post_locked":"0","last_edit_user":"0","votes":null,"post_username":"zombiehunter8647","avatar":"https:\/\/resources.enjin.com\/1465083537\/profile\/images\/avatar\/medium.png","user_online":false,"user_votes":"16","user_posts":"117","url":"https:\/\/www.enjin.com\/ajax.php?s=redirect&cmd=forum-post&mobile=1&preset=12571633&id=49426078"},{"post_id":"49426336","post_time":"1378755880","post_content":"Zombie Win! List Your Prize","post_content_html":"Zombie Win! List Your Prize","post_content_clean":"Zombie Win! List Your Prize","post_user_id":"5496936","show_signature":"1","last_edit_time":"0","post_votes":"0","post_unhidden":"0","post_admin_hidden":"0","post_locked":"0","last_edit_user":"0","votes":null,"post_username":"Dwarfs_Digging","avatar":"https:\/\/assets-cloud.enjin.com\/users\/5496936\/avatar\/medium.1406468426.jpeg","user_online":false,"user_votes":"158","user_posts":"1398","url":"https:\/\/www.enjin.com\/ajax.php?s=redirect&cmd=forum-post&mobile=1&preset=12571633&id=49426336"},{"post_id":"49427568","post_time":"1378756877","post_content":"Down In The Blue\r\nSo Big But Depends On The Small.\r\n\r\n\r\n\r\n\r\n\r\nAlso Sometimes I Will List Things That Are Hints Like For A Bird I Might Say:\r\n\r\nA Living AirPlane\r\nA Fleshy Airplane Soaring The SKies","post_content_html":"Down In The Blue<br \/> <br \/> So Big But Depends On The Small.<br \/> <br \/> Also Sometimes I Will List Things That Are Hints Like For A Bird I Might Say:<br \/> <br \/> A Living AirPlane<br \/> <br \/> A Fleshy Airplane Soaring The SKies","post_content_clean":"Down In The Blue\r So Big But Depends On The Small.\r \r \r \r \r \r Also Sometimes I Will List Things That Are Hints Like For A Bird I Might Say:\r \r A Living AirPlane\r A Fleshy Airplane Soaring The SKies","post_user_id":"5496936","show_signature":"1","last_edit_time":"0","post_votes":"0","post_unhidden":"0","post_admin_hidden":"0","post_locked":"0","last_edit_user":"0","votes":null,"post_username":"Dwarfs_Digging","avatar":"https:\/\/assets-cloud.enjin.com\/users\/5496936\/avatar\/medium.1406468426.jpeg","user_online":false,"user_votes":"158","user_posts":"1398","url":"https:\/\/www.enjin.com\/ajax.php?s=redirect&cmd=forum-post&mobile=1&preset=12571633&id=49427568"},{"post_id":"49427696","post_time":"1378756985","post_content":"WHALE!!! ;3","post_content_html":"WHALE!!! ;3","post_content_clean":"WHALE!!! ;3","post_user_id":"5375337","show_signature":"1","last_edit_time":"0","post_votes":"0","post_unhidden":"0","post_admin_hidden":"0","post_locked":"0","last_edit_user":"0","votes":null,"post_username":"Scarlet Witch","avatar":"https:\/\/assets-cloud.enjin.com\/users\/5375337\/avatar\/medium.1437162398.jpeg","user_online":false,"user_votes":"741","user_posts":"1506","url":"https:\/\/www.enjin.com\/ajax.php?s=redirect&cmd=forum-post&mobile=1&preset=12571633&id=49427696"},{"post_id":"49427752","post_time":"1378757050","post_content":"Close More Specifics","post_content_html":"Close More Specifics","post_content_clean":"Close More Specifics","post_user_id":"5496936","show_signature":"1","last_edit_time":"0","post_votes":"0","post_unhidden":"0","post_admin_hidden":"0","post_locked":"0","last_edit_user":"0","votes":null,"post_username":"Dwarfs_Digging","avatar":"https:\/\/assets-cloud.enjin.com\/users\/5496936\/avatar\/medium.1406468426.jpeg","user_online":false,"user_votes":"158","user_posts":"1398","url":"https:\/\/www.enjin.com\/ajax.php?s=redirect&cmd=forum-post&mobile=1&preset=12571633&id=49427752"},{"post_id":"49427765","post_time":"1378757057","post_content":"Whale!!!","post_content_html":"Whale!!!","post_content_clean":"Whale!!!","post_user_id":"4331303","show_signature":"1","last_edit_time":"0","post_votes":"0","post_unhidden":"0","post_admin_hidden":"0","post_locked":"0","last_edit_user":"0","votes":null,"post_username":"Boom \u30c4","avatar":"https:\/\/assets-cloud.enjin.com\/users\/4331303\/avatar\/medium.1400080585.png","user_online":false,"user_votes":"122","user_posts":"871","url":"https:\/\/www.enjin.com\/ajax.php?s=redirect&cmd=forum-post&mobile=1&preset=12571633&id=49427765"},{"post_id":"49427883","post_time":"1378757149","post_content":"BLUE WHALE\r\nKILLER WHALE\r\nBALUGA WHALE\r\n\r\nthatz all the whales i got xD","post_content_html":"BLUE WHALE<br \/> <br \/> KILLER WHALE<br \/> <br \/> BALUGA WHALE<br \/> <br \/> thatz all the whales i got xD","post_content_clean":"BLUE WHALE\r KILLER WHALE\r BALUGA WHALE\r \r thatz all the whales i got xD","post_user_id":"5375337","show_signature":"1","last_edit_time":"0","post_votes":"0","post_unhidden":"0","post_admin_hidden":"0","post_locked":"0","last_edit_user":"0","votes":null,"post_username":"Scarlet Witch","avatar":"https:\/\/assets-cloud.enjin.com\/users\/5375337\/avatar\/medium.1437162398.jpeg","user_online":false,"user_votes":"741","user_posts":"1506","url":"https:\/\/www.enjin.com\/ajax.php?s=redirect&cmd=forum-post&mobile=1&preset=12571633&id=49427883"},{"post_id":"49430873","post_time":"1378759418","post_content":"Creeper Wins! [Blue Whale]\r\n\r\n\r\nIn the Darkness I Fly\r\nAlways Drinking I Do\r\nThe Moon Shines On My Next Victim","post_content_html":"Creeper Wins! <br \/> <br \/> In the Darkness I Fly<br \/> <br \/> Always Drinking I Do<br \/> <br \/> The Moon Shines On My Next Victim","post_content_clean":"Creeper Wins! \r \r \r In the Darkness I Fly\r Always Drinking I Do\r The Moon Shines On My Next Victim","post_user_id":"5496936","show_signature":"1","last_edit_time":"0","post_votes":"0","post_unhidden":"0","post_admin_hidden":"0","post_locked":"0","last_edit_user":"0","votes":null,"post_username":"Dwarfs_Digging","avatar":"https:\/\/assets-cloud.enjin.com\/users\/5496936\/avatar\/medium.1406468426.jpeg","user_online":false,"user_votes":"158","user_posts":"1398","url":"https:\/\/www.enjin.com\/ajax.php?s=redirect&cmd=forum-post&mobile=1&preset=12571633&id=49430873"},{"post_id":"49431771","post_time":"1378760058","post_content":"Bat?","post_content_html":"Bat?","post_content_clean":"Bat?","post_user_id":"5375337","show_signature":"1","last_edit_time":"0","post_votes":"0","post_unhidden":"0","post_admin_hidden":"0","post_locked":"0","last_edit_user":"0","votes":null,"post_username":"Scarlet Witch","avatar":"https:\/\/assets-cloud.enjin.com\/users\/5375337\/avatar\/medium.1437162398.jpeg","user_online":false,"user_votes":"741","user_posts":"1506","url":"https:\/\/www.enjin.com\/ajax.php?s=redirect&cmd=forum-post&mobile=1&preset=12571633&id=49431771"}],"total_items":"21","pages":3,"voted":false,"new_post_id":false,"thread_labels":[],"top_posters":{"result":[{"post_user_id":"5496936","posts":"10","username":"Dwarfs_Digging","avatar":"https:\/\/assets-cloud.enjin.com\/users\/5496936\/avatar\/medium.1406468426.jpeg"},{"post_user_id":"5375337","posts":"4","username":"Scarlet Witch","avatar":"https:\/\/assets-cloud.enjin.com\/users\/5375337\/avatar\/medium.1437162398.jpeg"},{"post_user_id":"6467011","posts":"2","username":"kenspin3","avatar":"https:\/\/resources.enjin.com\/1465083537\/profile\/images\/avatar\/medium.png"},{"post_user_id":"5676298","posts":"1","username":"1xminecraftx1","avatar":"https:\/\/assets-cloud.enjin.com\/users\/5676298\/avatar\/medium.1400220128.png"},{"post_user_id":"6422420","posts":"1","username":"zombiehunter8647","avatar":"https:\/\/resources.enjin.com\/1465083537\/profile\/images\/avatar\/medium.png"},{"post_user_id":"4331303","posts":"1","username":"Boom \u30c4","avatar":"https:\/\/assets-cloud.enjin.com\/users\/4331303\/avatar\/medium.1400080585.png"},{"post_user_id":"5380209","posts":"1","username":"AbbyG02","avatar":"https:\/\/assets-cloud.enjin.com\/users\/5380209\/avatar\/medium.1491350986.png"},{"post_user_id":"5440874","posts":"1","username":"MooseTheEngineer","avatar":"https:\/\/assets-cloud.enjin.com\/users\/5440874\/avatar\/medium.1495487251.jpeg"}],"num_users":"8"},"moderation_access":false,"poll_post":null,"post_access":true,"new_thread_access":true},"id":"1234567","jsonrpc":"2.0"}
{"result":{"thread":{"preset_id":"12571633","forum_id":"2419048","thread_id":"8683442","thread_subject":"Who Am I GaMe! ","thread_replies":"20","thread_views":"542","thread_type":"normal","thread_status":"locked","thread_user_id":"5496936","thread_username":"13650081201605300541","thread_avatar":"https:\/\/assets-cloud.enjin.com\/users\/5496936\/avatar\/medium.1406468426.jpeg","thread_lastpost_user_id":"5496936","thread_lastpost_username":"13650081201605300541","thread_lastpost_time":"1378850719","thread_moved_id":"0","thread_post_time":"1378755392","url":"https:\/\/www.enjin.com\/ajax.php?s=redirect&cmd=forum-thread&mobile=1&preset=12571633&id=8683442","post_count":"1","category_id":"1907006","forum_name":"General Discussion","forum_description":"Discussion about general topics.","disable_voting":"0","show_signature":"1","url_cms":"https:\/\/www.craftsurvivalgames.com\/forum\/m\/12571633\/viewthread\/8683442-who-am-i-game"},"posts":[{"post_id":"49431962","post_time":"1378760196","post_content":"Creeper Wins!\r\n\r\nPlaySg Player Time!\r\n\r\nHe Picks Up Blocks\r\nHe Moves Around Never Wants To be Seen\r\nLook Out the window","post_content_html":"Creeper Wins!<br \/> <br \/> PlaySg Player Time!<br \/> <br \/> He Picks Up Blocks<br \/> <br \/> He Moves Around Never Wants To be Seen<br \/> <br \/> Look Out the window","post_content_clean":"Creeper Wins!\r \r PlaySg Player Time!\r \r He Picks Up Blocks\r He Moves Around Never Wants To be Seen\r Look Out the window","post_user_id":"5496936","show_signature":"1","last_edit_time":"0","post_votes":"0","post_unhidden":"0","post_admin_hidden":"0","post_locked":"0","last_edit_user":"0","votes":null,"post_username":"Dwarfs_Digging","avatar":"https:\/\/assets-cloud.enjin.com\/users\/5496936\/avatar\/medium.1406468426.jpeg","user_online":false,"user_votes":"158","user_posts":"1398","url":"https:\/\/www.enjin.com\/ajax.php?s=redirect&cmd=forum-post&mobile=1&preset=12571633&id=49431962"},{"post_id":"49433032","post_time":"1378760988","post_content":"Enderman","post_content_html":"Enderman","post_content_clean":"Enderman","post_user_id":"5380209","show_signature":"1","last_edit_time":"0","post_votes":"0","post_unhidden":"0","post_admin_hidden":"0","post_locked":"0","last_edit_user":"0","votes":null,"post_username":"AbbyG02","avatar":"https:\/\/assets-cloud.enjin.com\/users\/5380209\/avatar\/medium.1491350986.png","user_online":false,"user_votes":"13","user_posts":"80","url":"https:\/\/www.enjin.com\/ajax.php?s=redirect&cmd=forum-post&mobile=1&preset=12571633&id=49433032"},{"post_id":"49433918","post_time":"1378761622","post_content":"OYUS!!","post_content_html":"OYUS!!","post_content_clean":"OYUS!!","post_user_id":"5375337","show_signature":"1","last_edit_time":"0","post_votes":"0","post_unhidden":"0","post_admin_hidden":"0","post_locked":"0","last_edit_user":"0","votes":null,"post_username":"Scarlet Witch","avatar":"https:\/\/assets-cloud.enjin.com\/users\/5375337\/avatar\/medium.1437162398.jpeg","user_online":false,"user_votes":"741","user_posts":"1506","url":"https:\/\/www.enjin.com\/ajax.php?s=redirect&cmd=forum-post&mobile=1&preset=12571633&id=49433918"},{"post_id":"49434977","post_time":"1378762356","post_content":"A PLAYER From Playsg","post_content_html":"A PLAYER From Playsg","post_content_clean":"A PLAYER From Playsg","post_user_id":"5496936","show_signature":"1","last_edit_time":"0","post_votes":"0","post_unhidden":"0","post_admin_hidden":"0","post_locked":"0","last_edit_user":"0","votes":null,"post_username":"Dwarfs_Digging","avatar":"https:\/\/assets-cloud.enjin.com\/users\/5496936\/avatar\/medium.1406468426.jpeg","user_online":false,"user_votes":"158","user_posts":"1398","url":"https:\/\/www.enjin.com\/ajax.php?s=redirect&cmd=forum-post&mobile=1&preset=12571633&id=49434977"},{"post_id":"49435010","post_time":"1378762373","post_content":"Abby Is Close Though","post_content_html":"Abby Is Close Though","post_content_clean":"Abby Is Close Though","post_user_id":"5496936","show_signature":"1","last_edit_time":"0","post_votes":"0","post_unhidden":"0","post_admin_hidden":"0","post_locked":"0","last_edit_user":"0","votes":null,"post_username":"Dwarfs_Digging","avatar":"https:\/\/assets-cloud.enjin.com\/users\/5496936\/avatar\/medium.1406468426.jpeg","user_online":false,"user_votes":"158","user_posts":"1398","url":"https:\/\/www.enjin.com\/ajax.php?s=redirect&cmd=forum-post&mobile=1&preset=12571633&id=49435010"},{"post_id":"49436759","post_time":"1378763550","post_content":"ArmandCool","post_content_html":"ArmandCool","post_content_clean":"ArmandCool","post_user_id":"6467011","show_signature":"1","last_edit_time":"1378764540","post_votes":"0","post_unhidden":"0","post_admin_hidden":"0","post_locked":"0","last_edit_user":"0","votes":null,"post_username":"kenspin3","avatar":"https:\/\/resources.enjin.com\/1465083537\/profile\/images\/avatar\/medium.png","user_online":false,"user_votes":"12","user_posts":"84","url":"https:\/\/www.enjin.com\/ajax.php?s=redirect&cmd=forum-post&mobile=1&preset=12571633&id=49436759"},{"post_id":"49438818","post_time":"1378765012","post_content":"yaya!","post_content_html":"yaya!","post_content_clean":"yaya!","post_user_id":"6467011","show_signature":"1","last_edit_time":"0","post_votes":"0","post_unhidden":"0","post_admin_hidden":"0","post_locked":"0","last_edit_user":"0","votes":null,"post_username":"kenspin3","avatar":"https:\/\/resources.enjin.com\/1465083537\/profile\/images\/avatar\/medium.png","user_online":false,"user_votes":"12","user_posts":"84","url":"https:\/\/www.enjin.com\/ajax.php?s=redirect&cmd=forum-post&mobile=1&preset=12571633&id=49438818"},{"post_id":"49474677","post_time":"1378807609","post_content":"Object\r\n\r\nBlack As Night I Will Always Be Til My Mother Smothers Me Than Bright As Ice I Will Be for the next eternity","post_content_html":"Object<br \/> <br \/> Black As Night I Will Always Be Til My Mother Smothers Me Than Bright As Ice I Will Be for the next eternity","post_content_clean":"Object\r \r Black As Night I Will Always Be Til My Mother Smothers Me Than Bright As Ice I Will Be for the next eternity","post_user_id":"5496936","show_signature":"1","last_edit_time":"0","post_votes":"0","post_unhidden":"0","post_admin_hidden":"0","post_locked":"0","last_edit_user":"0","votes":null,"post_username":"Dwarfs_Digging","avatar":"https:\/\/assets-cloud.enjin.com\/users\/5496936\/avatar\/medium.1406468426.jpeg","user_online":false,"user_votes":"158","user_posts":"1398","url":"https:\/\/www.enjin.com\/ajax.php?s=redirect&cmd=forum-post&mobile=1&preset=12571633&id=49474677"},{"post_id":"49478925","post_time":"1378813812","post_content":"Love?","post_content_html":"Love?","post_content_clean":"Love?","post_user_id":"5440874","show_signature":"1","last_edit_time":"0","post_votes":"0","post_unhidden":"0","post_admin_hidden":"0","post_locked":"0","last_edit_user":"0","votes":null,"post_username":"MooseTheEngineer","avatar":"https:\/\/assets-cloud.enjin.com\/users\/5440874\/avatar\/medium.1495487251.jpeg","user_online":false,"user_votes":"0","user_posts":"2843","url":"https:\/\/www.enjin.com\/ajax.php?s=redirect&cmd=forum-post&mobile=1&preset=12571633&id=49478925"},{"post_id":"49484178","post_time":"1378820369","post_content":"SPIDER!!!","post_content_html":"SPIDER!!!","post_content_clean":"SPIDER!!!","post_user_id":"5676298","show_signature":"1","last_edit_time":"0","post_votes":"0","post_unhidden":"0","post_admin_hidden":"0","post_locked":"0","last_edit_user":"0","votes":null,"post_username":"1xminecraftx1","avatar":"https:\/\/assets-cloud.enjin.com\/users\/5676298\/avatar\/medium.1400220128.png","user_online":false,"user_votes":"30","user_posts":"198","url":"https:\/\/www.enjin.com\/ajax.php?s=redirect&cmd=forum-post&mobile=1&preset=12571633&id=49484178"}],"total_items":"21","pages":3,"voted":false,"new_post_id":"49431962","thread_labels":[],"top_posters":{"result":[{"post_user_id":"5496936","posts":"10","username":"Dwarfs_Digging","avatar":"https:\/\/assets-cloud.enjin.com\/users\/5496936\/avatar\/medium.1406468426.jpeg"},{"post_user_id":"5375337","posts":"4","username":"Scarlet Witch","avatar":"https:\/\/assets-cloud.enjin.com\/users\/5375337\/avatar\/medium.1437162398.jpeg"},{"post_user_id":"6467011","posts":"2","username":"kenspin3","avatar":"https:\/\/resources.enjin.com\/1465083537\/profile\/images\/avatar\/medium.png"},{"post_user_id":"6422420","posts":"1","username":"zombiehunter8647","avatar":"https:\/\/resources.enjin.com\/1465083537\/profile\/images\/avatar\/medium.png"},{"post_user_id":"4331303","posts":"1","username":"Boom \u30c4","avatar":"https:\/\/assets-cloud.enjin.com\/users\/4331303\/avatar\/medium.1400080585.png"},{"post_user_id":"5380209","posts":"1","username":"AbbyG02","avatar":"https:\/\/assets-cloud.enjin.com\/users\/5380209\/avatar\/medium.1491350986.png"},{"post_user_id":"5440874","posts":"1","username":"MooseTheEngineer","avatar":"https:\/\/assets-cloud.enjin.com\/users\/5440874\/avatar\/medium.1495487251.jpeg"},{"post_user_id":"5676298","posts":"1","username":"1xminecraftx1","avatar":"https:\/\/assets-cloud.enjin.com\/users\/5676298\/avatar\/medium.1400220128.png"}],"num_users":"8"},"moderation_access":false,"poll_post":null,"post_access":true,"new_thread_access":true},"id":"1234567","jsonrpc":"2.0"}
{"result":{"thread":{"preset_id":"12571633","forum_id":"2419048","thread_id":"8683442","thread_subject":"Who Am I GaMe! ","thread_replies":"20","thread_views":"542","thread_type":"normal","thread_status":"locked","thread_user_id":"5496936","thread_username":"13650081201605300541","thread_avatar":"https:\/\/assets-cloud.enjin.com\/users\/5496936\/avatar\/medium.1406468426.jpeg","thread_lastpost_user_id":"5496936","thread_lastpost_username":"13650081201605300541","thread_lastpost_time":"1378850719","thread_moved_id":"0","thread_post_time":"1378755392","url":"https:\/\/www.enjin.com\/ajax.php?s=redirect&cmd=forum-thread&mobile=1&preset=12571633&id=8683442","post_count":"1","category_id":"1907006","forum_name":"General Discussion","forum_description":"Discussion about general topics.","disable_voting":"0","show_signature":"1","url_cms":"https:\/\/www.craftsurvivalgames.com\/forum\/m\/12571633\/viewthread\/8683442-who-am-i-game"},"posts":[{"post_id":"49516386","post_time":"1378850719","post_content":"Nope Its An OBJECT thats Valuable. THINK SCIENCE","post_content_html":"Nope Its An OBJECT thats Valuable. THINK SCIENCE","post_content_clean":"Nope Its An OBJECT thats Valuable. THINK SCIENCE","post_user_id":"5496936","show_signature":"1","last_edit_time":"0","post_votes":"0","post_unhidden":"0","post_admin_hidden":"0","post_locked":"0","last_edit_user":"0","votes":null,"post_username":"Dwarfs_Digging","avatar":"https:\/\/assets-cloud.enjin.com\/users\/5496936\/avatar\/medium.1406468426.jpeg","user_online":false,"user_votes":"158","user_posts":"1398","url":"https:\/\/www.enjin.com\/ajax.php?s=redirect&cmd=forum-post&mobile=1&preset=12571633&id=49516386"}],"total_items":"21","pages":3,"voted":false,"new_post_id":"49516386","thread_labels":[],"top_posters":{"result":[{"post_user_id":"5496936","posts":"10","username":"Dwarfs_Digging","avatar":"https:\/\/assets-cloud.enjin.com\/users\/5496936\/avatar\/medium.1406468426.jpeg"},{"post_user_id":"5375337","posts":"4","username":"Scarlet Witch","avatar":"https:\/\/assets-cloud.enjin.com\/users\/5375337\/avatar\/medium.1437162398.jpeg"},{"post_user_id":"6467011","posts":"2","username":"kenspin3","avatar":"https:\/\/resources.enjin.com\/1465083537\/profile\/images\/avatar\/medium.png"},{"post_user_id":"5380209","posts":"1","username":"AbbyG02","avatar":"https:\/\/assets-cloud.enjin.com\/users\/5380209\/avatar\/medium.1491350986.png"},{"post_user_id":"5440874","posts":"1","username":"MooseTheEngineer","avatar":"https:\/\/assets-cloud.enjin.com\/users\/5440874\/avatar\/medium.1495487251.jpeg"},{"post_user_id":"5676298","posts":"1","username":"1xminecraftx1","avatar":"https:\/\/assets-cloud.enjin.com\/users\/5676298\/avatar\/medium.1400220128.png"},{"post_user_id":"6422420","posts":"1","username":"zombiehunter8647","avatar":"https:\/\/resources.enjin.com\/1465083537\/profile\/images\/avatar\/medium.png"},{"post_user_id":"4331303","posts":"1","username":"Boom \u30c4","avatar":"https:\/\/assets-cloud.enjin.com\/users\/4331303\/avatar\/medium.1400080585.png"}],"num_users":"8"},"moderation_access":false,"poll_post":null,"post_access":true,"new_thread_access":true},"id":"1234567","jsonrpc":"2.0"}
