{"result":{"thread":{"preset_id":"12571633","forum_id":"2419050","thread_id":"8724437","thread_subject":"Unbanned I hope","thread_replies":"26","thread_views":"2317","thread_type":"normal","thread_status":"locked","thread_user_id":"7256144","thread_username":"1378483354575123327","thread_avatar":"https:\/\/assets-cloud.enjin.com\/users\/7256144\/avatar\/medium.1400116651.png","thread_lastpost_user_id":"7256144","thread_lastpost_username":"1378483354575123327","thread_lastpost_time":"1379027185","thread_moved_id":"0","thread_post_time":"1379025686","url":"https:\/\/www.enjin.com\/ajax.php?s=redirect&cmd=forum-thread&mobile=1&preset=12571633&id=8724437","post_count":"1","category_id":"1023515","forum_name":"News & Announcements","forum_description":"Official news and announcements.","disable_voting":"0","show_signature":"1","url_cms":"https:\/\/www.craftsurvivalgames.com\/forum\/m\/12571633\/viewthread\/8724437-unbanned-i-hope"},"posts":[{"post_id":"49667010","post_time":"1379025686","post_content":"How long does it take to get the unban through?","post_content_html":"How long does it take to get the unban through?","post_content_clean":"How long does it take to get the unban through?","post_user_id":"7256144","show_signature":"1","last_edit_time":"0","post_votes":"0","post_unhidden":"0","post_admin_hidden":"0","post_locked":"0","last_edit_user":"0","votes":null,"post_username":"Winston999","avatar":"https:\/\/assets-cloud.enjin.com\/users\/7256144\/avatar\/medium.1400116651.png","user_online":false,"user_votes":"16","user_posts":"483","url":"https:\/\/www.enjin.com\/ajax.php?s=redirect&cmd=forum-post&mobile=1&preset=12571633&id=49667010"},{"post_id":"49667110","post_time":"1379025772","post_content":"Unbanned you hope? I hope not!","post_content_html":"Unbanned you hope? I hope not!","post_content_clean":"Unbanned you hope? I hope not!","post_user_id":"5576473","show_signature":"1","last_edit_time":"0","post_votes":"0","post_unhidden":"0","post_admin_hidden":"0","post_locked":"0","last_edit_user":"0","votes":null,"post_username":"angry_bird_2000","avatar":"https:\/\/resources.enjin.com\/1465083537\/profile\/images\/avatar\/medium.png","user_online":false,"user_votes":"115","user_posts":"476","url":"https:\/\/www.enjin.com\/ajax.php?s=redirect&cmd=forum-post&mobile=1&preset=12571633&id=49667110"},{"post_id":"49667139","post_time":"1379025793","post_content":"stfu seriously shut up","post_content_html":"stfu seriously shut up","post_content_clean":"stfu seriously shut up","post_user_id":"7256144","show_signature":"1","last_edit_time":"0","post_votes":"0","post_unhidden":"0","post_admin_hidden":"0","post_locked":"0","last_edit_user":"0","votes":null,"post_username":"Winston999","avatar":"https:\/\/assets-cloud.enjin.com\/users\/7256144\/avatar\/medium.1400116651.png","user_online":false,"user_votes":"16","user_posts":"483","url":"https:\/\/www.enjin.com\/ajax.php?s=redirect&cmd=forum-post&mobile=1&preset=12571633&id=49667139"},{"post_id":"49667168","post_time":"1379025819","post_content":"And u say im annoying","post_content_html":"And u say im annoying","post_content_clean":"And u say im annoying","post_user_id":"7256144","show_signature":"1","last_edit_time":"0","post_votes":"0","post_unhidden":"0","post_admin_hidden":"0","post_locked":"0","last_edit_user":"0","votes":null,"post_username":"Winston999","avatar":"https:\/\/assets-cloud.enjin.com\/users\/7256144\/avatar\/medium.1400116651.png","user_online":false,"user_votes":"16","user_posts":"483","url":"https:\/\/www.enjin.com\/ajax.php?s=redirect&cmd=forum-post&mobile=1&preset=12571633&id=49667168"},{"post_id":"49667198","post_time":"1379025842","post_content":"[b][color=#6e23dd]Listen up Winston. I am sick and tired of your stupid threads. Stop Spamming the forums and actually wait patiently. Also, you don't have to announce everything that happens. Oh, and PS, every purchase takes 5-10 minutes. Sorry for rudeness, I am just very annoyed.[\/color][\/b]","post_content_html":"<b>Listen up Winston. I am sick and tired of your stupid threads. Stop Spamming the forums and actually wait patiently. Also, you don't have to announce everything that happens. Oh, and PS, every purchase takes 5-10 minutes. Sorry for rudeness, I am just very annoyed.<\/b>","post_content_clean":"Listen up Winston. I am sick and tired of your stupid threads. Stop Spamming the forums and actually wait patiently. Also, you don't have to announce everything that happens. Oh, and PS, every purchase takes 5-10 minutes. Sorry for rudeness, I am just very annoyed.","post_user_id":"4331303","show_signature":"1","last_edit_time":"0","post_votes":"0","post_unhidden":"0","post_admin_hidden":"0","post_locked":"0","last_edit_user":"0","votes":null,"post_username":"Boom \u30c4","avatar":"https:\/\/assets-cloud.enjin.com\/users\/4331303\/avatar\/medium.1400080585.png","user_online":false,"user_votes":"122","user_posts":"871","url":"https:\/\/www.enjin.com\/ajax.php?s=redirect&cmd=forum-post&mobile=1&preset=12571633&id=49667198"},{"post_id":"49667231","post_time":"1379025872","post_content":"HELP! I keep geting end of stream and it wont go through.... D:","post_content_html":"HELP! I keep geting end of stream and it wont go through.... D:","post_content_clean":"HELP! I keep geting end of stream and it wont go through.... D:","post_user_id":"7256144","show_signature":"1","last_edit_time":"0","post_votes":"0","post_unhidden":"0","post_admin_hidden":"0","post_locked":"0","last_edit_user":"0","votes":null,"post_username":"Winston999","avatar":"https:\/\/assets-cloud.enjin.com\/users\/7256144\/avatar\/medium.1400116651.png","user_online":false,"user_votes":"16","user_posts":"483","url":"https:\/\/www.enjin.com\/ajax.php?s=redirect&cmd=forum-post&mobile=1&preset=12571633&id=49667231"},{"post_id":"49667324","post_time":"1379025948","post_content":"Sorry boom ill stop when i gte unbaned","post_content_html":"Sorry boom ill stop when i gte unbaned","post_content_clean":"Sorry boom ill stop when i gte unbaned","post_user_id":"7256144","show_signature":"1","last_edit_time":"0","post_votes":"0","post_unhidden":"0","post_admin_hidden":"0","post_locked":"0","last_edit_user":"0","votes":null,"post_username":"Winston999","avatar":"https:\/\/assets-cloud.enjin.com\/users\/7256144\/avatar\/medium.1400116651.png","user_online":false,"user_votes":"16","user_posts":"483","url":"https:\/\/www.enjin.com\/ajax.php?s=redirect&cmd=forum-post&mobile=1&preset=12571633&id=49667324"},{"post_id":"49667329","post_time":"1379025954","post_content":"YES! HOPEFULLY HE CANT GET BACK ON! xD","post_content_html":"YES! HOPEFULLY HE CANT GET BACK ON! xD","post_content_clean":"YES! HOPEFULLY HE CANT GET BACK ON! xD","post_user_id":"5576473","show_signature":"1","last_edit_time":"0","post_votes":"0","post_unhidden":"0","post_admin_hidden":"0","post_locked":"0","last_edit_user":"0","votes":null,"post_username":"angry_bird_2000","avatar":"https:\/\/resources.enjin.com\/1465083537\/profile\/images\/avatar\/medium.png","user_online":false,"user_votes":"115","user_posts":"476","url":"https:\/\/www.enjin.com\/ajax.php?s=redirect&cmd=forum-post&mobile=1&preset=12571633&id=49667329"},{"post_id":"49667359","post_time":"1379025981","post_content":"Oh, I mean I cant wait until ur unbanned!","post_content_html":"Oh, I mean I cant wait until ur unbanned!","post_content_clean":"Oh, I mean I cant wait until ur unbanned!","post_user_id":"5576473","show_signature":"1","last_edit_time":"0","post_votes":"0","post_unhidden":"0","post_admin_hidden":"0","post_locked":"0","last_edit_user":"0","votes":null,"post_username":"angry_bird_2000","avatar":"https:\/\/resources.enjin.com\/1465083537\/profile\/images\/avatar\/medium.png","user_online":false,"user_votes":"115","user_posts":"476","url":"https:\/\/www.enjin.com\/ajax.php?s=redirect&cmd=forum-post&mobile=1&preset=12571633&id=49667359"},{"post_id":"49667367","post_time":"1379025986","post_content":"omg can u jus like piss off I don care if u dont like me but this is over the top just stop omfg","post_content_html":"omg can u jus like piss off I don care if u dont like me but this is over the top just stop omfg","post_content_clean":"omg can u jus like piss off I don care if u dont like me but this is over the top just stop omfg","post_user_id":"7256144","show_signature":"1","last_edit_time":"0","post_votes":"0","post_unhidden":"0","post_admin_hidden":"0","post_locked":"0","last_edit_user":"0","votes":null,"post_username":"Winston999","avatar":"https:\/\/assets-cloud.enjin.com\/users\/7256144\/avatar\/medium.1400116651.png","user_online":false,"user_votes":"16","user_posts":"483","url":"https:\/\/www.enjin.com\/ajax.php?s=redirect&cmd=forum-post&mobile=1&preset=12571633&id=49667367"}],"total_items":"27","pages":3,"voted":false,"new_post_id":false,"thread_labels":[],"top_posters":{"result":[{"post_user_id":"7256144","posts":"14","username":"Winston999","avatar":"https:\/\/assets-cloud.enjin.com\/users\/7256144\/avatar\/medium.1400116651.png"},{"post_user_id":"5576473","posts":"8","username":"angry_bird_2000","avatar":"https:\/\/resources.enjin.com\/1465083537\/profile\/images\/avatar\/medium.png"},{"post_user_id":"4331303","posts":"4","username":"Boom \u30c4","avatar":"https:\/\/assets-cloud.enjin.com\/users\/4331303\/avatar\/medium.1400080585.png"},{"post_user_id":"4185955","posts":"1","username":"Chronicler","avatar":"https:\/\/assets-cloud.enjin.com\/users\/4185955\/avatar\/medium.1565809392.png"}],"num_users":"4"},"moderation_access":false,"poll_post":null,"post_access":true,"new_thread_access":true},"id":"1234567","jsonrpc":"2.0"}
{"result":{"thread":{"preset_id":"12571633","forum_id":"2419050","thread_id":"8724437","thread_subject":"Unbanned I hope","thread_replies":"26","thread_views":"2317","thread_type":"normal","thread_status":"locked","thread_user_id":"7256144","thread_username":"1378483354575123327","thread_avatar":"https:\/\/assets-cloud.enjin.com\/users\/7256144\/avatar\/medium.1400116651.png","thread_lastpost_user_id":"7256144","thread_lastpost_username":"1378483354575123327","thread_lastpost_time":"1379027185","thread_moved_id":"0","thread_post_time":"1379025686","url":"https:\/\/www.enjin.com\/ajax.php?s=redirect&cmd=forum-thread&mobile=1&preset=12571633&id=8724437","post_count":"1","category_id":"1023515","forum_name":"News & Announcements","forum_description":"Official news and announcements.","disable_voting":"0","show_signature":"1","url_cms":"https:\/\/www.craftsurvivalgames.com\/forum\/m\/12571633\/viewthread\/8724437-unbanned-i-hope"},"posts":[{"post_id":"49667441","post_time":"1379026049","post_content":"and people r saying im spamming look at this guy","post_content_html":"and people r saying im spamming look at this guy","post_content_clean":"and people r saying im spamming look at this guy","post_user_id":"7256144","show_signature":"1","last_edit_time":"0","post_votes":"0","post_unhidden":"0","post_admin_hidden":"0","post_locked":"0","last_edit_user":"0","votes":null,"post_username":"Winston999","avatar":"https:\/\/assets-cloud.enjin.com\/users\/7256144\/avatar\/medium.1400116651.png","user_online":false,"user_votes":"16","user_posts":"483","url":"https:\/\/www.enjin.com\/ajax.php?s=redirect&cmd=forum-post&mobile=1&preset=12571633&id=49667441"},{"post_id":"49667472","post_time":"1379026076","post_content":"I will stop when u stop treating my friends like crap, which wont happen cuz its just in ur natural aggressive nature Lol","post_content_html":"I will stop when u stop treating my friends like crap, which wont happen cuz its just in ur natural aggressive nature Lol","post_content_clean":"I will stop when u stop treating my friends like crap, which wont happen cuz its just in ur natural aggressive nature Lol","post_user_id":"5576473","show_signature":"1","last_edit_time":"0","post_votes":"0","post_unhidden":"0","post_admin_hidden":"0","post_locked":"0","last_edit_user":"0","votes":null,"post_username":"angry_bird_2000","avatar":"https:\/\/resources.enjin.com\/1465083537\/profile\/images\/avatar\/medium.png","user_online":false,"user_votes":"115","user_posts":"476","url":"https:\/\/www.enjin.com\/ajax.php?s=redirect&cmd=forum-post&mobile=1&preset=12571633&id=49667472"},{"post_id":"49667488","post_time":"1379026092","post_content":"[quote user_id=\"7256144\" avatar=\"https:\/\/assets-cloud.enjin.com\/users\/7256144\/avatar\/medium.1400116651.png\" name=\"Winston999\"]Sorry boom ill stop when i gte unbaned[\/quote]\r\n[b][color=#6e23dd]Thank you Winston. Wait for the payment to process, when it does, close minecraft, then re-open it. That should stop end of stream. The reason for end of stream is if you re-log to quickly. Anyways, when you get back on, I hope to see a change. See you there![\/color][\/b]","post_content_html":" <div class=\"bbcode_quote\"> <div class=\"bbcode_quote_head\">@7256144 wrote:<\/div> <div class=\"bbcode_quote_body\">Sorry boom ill stop when i gte unbaned<\/div> <\/div> <br \/> <b>Thank you Winston. Wait for the payment to process, when it does, close minecraft, then re-open it. That should stop end of stream. The reason for end of stream is if you re-log to quickly. Anyways, when you get back on, I hope to see a change. See you there!<\/b>","post_content_clean":"Sorry boom ill stop when i gte unbaned\r Thank you Winston. Wait for the payment to process, when it does, close minecraft, then re-open it. That should stop end of stream. The reason for end of stream is if you re-log to quickly. Anyways, when you get back on, I hope to see a change. See you there!","post_user_id":"4331303","show_signature":"1","last_edit_time":"0","post_votes":"0","post_unhidden":"0","post_admin_hidden":"0","post_locked":"0","last_edit_user":"0","votes":null,"post_username":"Boom \u30c4","avatar":"https:\/\/assets-cloud.enjin.com\/users\/4331303\/avatar\/medium.1400080585.png","user_online":false,"user_votes":"122","user_posts":"871","url":"https:\/\/www.enjin.com\/ajax.php?s=redirect&cmd=forum-post&mobile=1&preset=12571633&id=49667488"},{"post_id":"49667594","post_time":"1379026185","post_content":"Yeah Tried it now just have to wait for it to go through....I hope","post_content_html":"Yeah Tried it now just have to wait for it to go through....I hope","post_content_clean":"Yeah Tried it now just have to wait for it to go through....I hope","post_user_id":"7256144","show_signature":"1","last_edit_time":"0","post_votes":"0","post_unhidden":"0","post_admin_hidden":"0","post_locked":"0","last_edit_user":"0","votes":null,"post_username":"Winston999","avatar":"https:\/\/assets-cloud.enjin.com\/users\/7256144\/avatar\/medium.1400116651.png","user_online":false,"user_votes":"16","user_posts":"483","url":"https:\/\/www.enjin.com\/ajax.php?s=redirect&cmd=forum-post&mobile=1&preset=12571633&id=49667594"},{"post_id":"49667921","post_time":"1379026436","post_content":"What would happen even tho i bought it and didnt get unbanned?","post_content_html":"What would happen even tho i bought it and didnt get unbanned?","post_content_clean":"What would happen even tho i bought it and didnt get unbanned?","post_user_id":"7256144","show_signature":"1","last_edit_time":"0","post_votes":"0","post_unhidden":"0","post_admin_hidden":"0","post_locked":"0","last_edit_user":"0","votes":null,"post_username":"Winston999","avatar":"https:\/\/assets-cloud.enjin.com\/users\/7256144\/avatar\/medium.1400116651.png","user_online":false,"user_votes":"16","user_posts":"483","url":"https:\/\/www.enjin.com\/ajax.php?s=redirect&cmd=forum-post&mobile=1&preset=12571633&id=49667921"},{"post_id":"49667932","post_time":"1379026443","post_content":"[b][color=#6e23dd]:) Hope it comes through[\/color][\/b]","post_content_html":"<b><object class=\"emojione\" data=\"https:\/\/resources.enjin.com\/1489581540\/themes\/core\/images\/emojione\/svg\/1f642.svg?0\" type=\"image\/svg+xml\" standby=\":)\">:)<\/object> Hope it comes through<\/b>","post_content_clean":":) Hope it comes through","post_user_id":"4331303","show_signature":"1","last_edit_time":"0","post_votes":"0","post_unhidden":"0","post_admin_hidden":"0","post_locked":"0","last_edit_user":"0","votes":null,"post_username":"Boom \u30c4","avatar":"https:\/\/assets-cloud.enjin.com\/users\/4331303\/avatar\/medium.1400080585.png","user_online":false,"user_votes":"122","user_posts":"871","url":"https:\/\/www.enjin.com\/ajax.php?s=redirect&cmd=forum-post&mobile=1&preset=12571633&id=49667932"},{"post_id":"49667996","post_time":"1379026507","post_content":"What would happen if it didnt?","post_content_html":"What would happen if it didnt?","post_content_clean":"What would happen if it didnt?","post_user_id":"7256144","show_signature":"1","last_edit_time":"0","post_votes":"0","post_unhidden":"0","post_admin_hidden":"0","post_locked":"0","last_edit_user":"0","votes":null,"post_username":"Winston999","avatar":"https:\/\/assets-cloud.enjin.com\/users\/7256144\/avatar\/medium.1400116651.png","user_online":false,"user_votes":"16","user_posts":"483","url":"https:\/\/www.enjin.com\/ajax.php?s=redirect&cmd=forum-post&mobile=1&preset=12571633&id=49667996"},{"post_id":"49668019","post_time":"1379026533","post_content":"It would be a happy ending for almost everyone","post_content_html":"It would be a happy ending for almost everyone","post_content_clean":"It would be a happy ending for almost everyone","post_user_id":"5576473","show_signature":"1","last_edit_time":"0","post_votes":"1","post_unhidden":"0","post_admin_hidden":"0","post_locked":"0","last_edit_user":"0","votes":null,"post_username":"angry_bird_2000","avatar":"https:\/\/resources.enjin.com\/1465083537\/profile\/images\/avatar\/medium.png","user_online":false,"user_votes":"115","user_posts":"476","url":"https:\/\/www.enjin.com\/ajax.php?s=redirect&cmd=forum-post&mobile=1&preset=12571633&id=49668019"},{"post_id":"49668139","post_time":"1379026621","post_content":"[b][color=#6e23dd]Don't worry man, it will. It took me 20 mins for my diamond :P[\/color][\/b]","post_content_html":"<b>Don't worry man, it will. It took me 20 mins for my diamond <object class=\"emojione\" data=\"https:\/\/resources.enjin.com\/1489581540\/themes\/core\/images\/emojione\/svg\/1f61b.svg?0\" type=\"image\/svg+xml\" standby=\":p\">:p<\/object><\/b>","post_content_clean":"Don't worry man, it will. It took me 20 mins for my diamond :P","post_user_id":"4331303","show_signature":"1","last_edit_time":"1379026658","post_votes":"0","post_unhidden":"0","post_admin_hidden":"0","post_locked":"0","last_edit_user":"0","votes":null,"post_username":"Boom \u30c4","avatar":"https:\/\/assets-cloud.enjin.com\/users\/4331303\/avatar\/medium.1400080585.png","user_online":false,"user_votes":"122","user_posts":"871","url":"https:\/\/www.enjin.com\/ajax.php?s=redirect&cmd=forum-post&mobile=1&preset=12571633&id=49668139"},{"post_id":"49668187","post_time":"1379026676","post_content":"Be back in an hour","post_content_html":"Be back in an hour","post_content_clean":"Be back in an hour","post_user_id":"5576473","show_signature":"1","last_edit_time":"0","post_votes":"0","post_unhidden":"0","post_admin_hidden":"0","post_locked":"0","last_edit_user":"0","votes":null,"post_username":"angry_bird_2000","avatar":"https:\/\/resources.enjin.com\/1465083537\/profile\/images\/avatar\/medium.png","user_online":false,"user_votes":"115","user_posts":"476","url":"https:\/\/www.enjin.com\/ajax.php?s=redirect&cmd=forum-post&mobile=1&preset=12571633&id=49668187"}],"total_items":"27","pages":3,"voted":false,"new_post_id":"49667441","thread_labels":[],"top_posters":{"result":[{"post_user_id":"7256144","posts":"14","username":"Winston999","avatar":"https:\/\/assets-cloud.enjin.com\/users\/7256144\/avatar\/medium.1400116651.png"},{"post_user_id":"5576473","posts":"8","username":"angry_bird_2000","avatar":"https:\/\/resources.enjin.com\/1465083537\/profile\/images\/avatar\/medium.png"},{"post_user_id":"4331303","posts":"4","username":"Boom \u30c4","avatar":"https:\/\/assets-cloud.enjin.com\/users\/4331303\/avatar\/medium.1400080585.png"},{"post_user_id":"4185955","posts":"1","username":"Chronicler","avatar":"https:\/\/assets-cloud.enjin.com\/users\/4185955\/avatar\/medium.1565809392.png"}],"num_users":"4"},"moderation_access":false,"poll_post":null,"post_access":true,"new_thread_access":true},"id":"1234567","jsonrpc":"2.0"}
{"result":{"thread":{"preset_id":"12571633","forum_id":"2419050","thread_id":"8724437","thread_subject":"Unbanned I hope","thread_replies":"26","thread_views":"2317","thread_type":"normal","thread_status":"locked","thread_user_id":"7256144","thread_username":"1378483354575123327","thread_avatar":"https:\/\/assets-cloud.enjin.com\/users\/7256144\/avatar\/medium.1400116651.png","thread_lastpost_user_id":"7256144","thread_lastpost_username":"1378483354575123327","thread_lastpost_time":"1379027185","thread_moved_id":"0","thread_post_time":"1379025686","url":"https:\/\/www.enjin.com\/ajax.php?s=redirect&cmd=forum-thread&mobile=1&preset=12571633&id=8724437","post_count":"1","category_id":"1023515","forum_name":"News & Announcements","forum_description":"Official news and announcements.","disable_voting":"0","show_signature":"1","url_cms":"https:\/\/www.craftsurvivalgames.com\/forum\/m\/12571633\/viewthread\/8724437-unbanned-i-hope"},"posts":[{"post_id":"49668198","post_time":"1379026688","post_content":"Angry, Sorry to anyone to ur friends just srsly stop posting and annoying me","post_content_html":"Angry, Sorry to anyone to ur friends just srsly stop posting and annoying me","post_content_clean":"Angry, Sorry to anyone to ur friends just srsly stop posting and annoying me","post_user_id":"7256144","show_signature":"1","last_edit_time":"0","post_votes":"0","post_unhidden":"0","post_admin_hidden":"0","post_locked":"0","last_edit_user":"0","votes":null,"post_username":"Winston999","avatar":"https:\/\/assets-cloud.enjin.com\/users\/7256144\/avatar\/medium.1400116651.png","user_online":false,"user_votes":"16","user_posts":"483","url":"https:\/\/www.enjin.com\/ajax.php?s=redirect&cmd=forum-post&mobile=1&preset=12571633&id=49668198"},{"post_id":"49668232","post_time":"1379026719","post_content":"Ok. Next time, sorry wont do crap I will follow you around and punish you xD","post_content_html":"Ok. Next time, sorry wont do crap I will follow you around and punish you xD","post_content_clean":"Ok. Next time, sorry wont do crap I will follow you around and punish you xD","post_user_id":"5576473","show_signature":"1","last_edit_time":"0","post_votes":"0","post_unhidden":"0","post_admin_hidden":"0","post_locked":"0","last_edit_user":"0","votes":null,"post_username":"angry_bird_2000","avatar":"https:\/\/resources.enjin.com\/1465083537\/profile\/images\/avatar\/medium.png","user_online":false,"user_votes":"115","user_posts":"476","url":"https:\/\/www.enjin.com\/ajax.php?s=redirect&cmd=forum-post&mobile=1&preset=12571633&id=49668232"},{"post_id":"49668240","post_time":"1379026726","post_content":"I bet it wont or it will take like a day D:","post_content_html":"I bet it wont or it will take like a day D:","post_content_clean":"I bet it wont or it will take like a day D:","post_user_id":"7256144","show_signature":"1","last_edit_time":"0","post_votes":"0","post_unhidden":"0","post_admin_hidden":"0","post_locked":"0","last_edit_user":"0","votes":null,"post_username":"Winston999","avatar":"https:\/\/assets-cloud.enjin.com\/users\/7256144\/avatar\/medium.1400116651.png","user_online":false,"user_votes":"16","user_posts":"483","url":"https:\/\/www.enjin.com\/ajax.php?s=redirect&cmd=forum-post&mobile=1&preset=12571633&id=49668240"},{"post_id":"49668293","post_time":"1379026760","post_content":"Be back in an hour","post_content_html":"Be back in an hour","post_content_clean":"Be back in an hour","post_user_id":"5576473","show_signature":"1","last_edit_time":"0","post_votes":"0","post_unhidden":"0","post_admin_hidden":"0","post_locked":"0","last_edit_user":"0","votes":null,"post_username":"angry_bird_2000","avatar":"https:\/\/resources.enjin.com\/1465083537\/profile\/images\/avatar\/medium.png","user_online":false,"user_votes":"115","user_posts":"476","url":"https:\/\/www.enjin.com\/ajax.php?s=redirect&cmd=forum-post&mobile=1&preset=12571633&id=49668293"},{"post_id":"49668637","post_time":"1379027046","post_content":"[color=#7a7a7a]Winston, the world does not revolve around you. In order to have respect from others, you need to [i]earn[\/i] it. Then, maybe they'll have the same respect for you. That's a piece of advice you should take to heart.[\/color]","post_content_html":"Winston, the world does not revolve around you. In order to have respect from others, you need to <i>earn<\/i> it. Then, maybe they'll have the same respect for you. That's a piece of advice you should take to heart.","post_content_clean":"Winston, the world does not revolve around you. In order to have respect from others, you need to earn it. Then, maybe they'll have the same respect for you. That's a piece of advice you should take to heart.","post_user_id":"4185955","show_signature":"1","last_edit_time":"0","post_votes":"0","post_unhidden":"0","post_admin_hidden":"0","post_locked":"0","last_edit_user":"0","votes":null,"post_username":"Chronicler","avatar":"https:\/\/assets-cloud.enjin.com\/users\/4185955\/avatar\/medium.1565809392.png","user_online":false,"user_votes":"779","user_posts":"2045","url":"https:\/\/www.enjin.com\/ajax.php?s=redirect&cmd=forum-post&mobile=1&preset=12571633&id=49668637"},{"post_id":"49668770","post_time":"1379027166","post_content":"i212 how long does it take?","post_content_html":"i212 how long does it take?","post_content_clean":"i212 how long does it take?","post_user_id":"7256144","show_signature":"1","last_edit_time":"0","post_votes":"0","post_unhidden":"0","post_admin_hidden":"0","post_locked":"0","last_edit_user":"0","votes":null,"post_username":"Winston999","avatar":"https:\/\/assets-cloud.enjin.com\/users\/7256144\/avatar\/medium.1400116651.png","user_online":false,"user_votes":"16","user_posts":"483","url":"https:\/\/www.enjin.com\/ajax.php?s=redirect&cmd=forum-post&mobile=1&preset=12571633&id=49668770"},{"post_id":"49668794","post_time":"1379027185","post_content":"It either says End of stream or still banned","post_content_html":"It either says End of stream or still banned","post_content_clean":"It either says End of stream or still banned","post_user_id":"7256144","show_signature":"1","last_edit_time":"0","post_votes":"0","post_unhidden":"0","post_admin_hidden":"0","post_locked":"0","last_edit_user":"0","votes":null,"post_username":"Winston999","avatar":"https:\/\/assets-cloud.enjin.com\/users\/7256144\/avatar\/medium.1400116651.png","user_online":false,"user_votes":"16","user_posts":"483","url":"https:\/\/www.enjin.com\/ajax.php?s=redirect&cmd=forum-post&mobile=1&preset=12571633&id=49668794"}],"total_items":"27","pages":3,"voted":false,"new_post_id":"49668198","thread_labels":[],"top_posters":{"result":[{"post_user_id":"7256144","posts":"14","username":"Winston999","avatar":"https:\/\/assets-cloud.enjin.com\/users\/7256144\/avatar\/medium.1400116651.png"},{"post_user_id":"5576473","posts":"8","username":"angry_bird_2000","avatar":"https:\/\/resources.enjin.com\/1465083537\/profile\/images\/avatar\/medium.png"},{"post_user_id":"4331303","posts":"4","username":"Boom \u30c4","avatar":"https:\/\/assets-cloud.enjin.com\/users\/4331303\/avatar\/medium.1400080585.png"},{"post_user_id":"4185955","posts":"1","username":"Chronicler","avatar":"https:\/\/assets-cloud.enjin.com\/users\/4185955\/avatar\/medium.1565809392.png"}],"num_users":"4"},"moderation_access":false,"poll_post":null,"post_access":true,"new_thread_access":true},"id":"1234567","jsonrpc":"2.0"}
