{"result":{"thread":{"preset_id":"12571633","forum_id":"2419080","thread_id":"9024356","thread_subject":"6Gopher6 Calling me bad words","thread_replies":"51","thread_views":"6895","thread_type":"normal","thread_status":"locked","thread_user_id":"7256144","thread_username":"1378483354575123327","thread_avatar":"https:\/\/assets-cloud.enjin.com\/users\/7256144\/avatar\/medium.1400116651.png","thread_lastpost_user_id":"5375337","thread_lastpost_username":"13641455421368885873","thread_lastpost_time":"1381181807","thread_moved_id":"0","thread_post_time":"1381022042","url":"https:\/\/www.enjin.com\/ajax.php?s=redirect&cmd=forum-thread&mobile=1&preset=12571633&id=9024356","post_count":"1","category_id":"1906989","forum_name":"Report a Player","forum_description":"Found a player breaking rules? Post them here with evidence!","disable_voting":"0","show_signature":"1","url_cms":"https:\/\/www.craftsurvivalgames.com\/forum\/m\/12571633\/viewthread\/9024356-6gopher6-calling-me-bad-words"},"posts":[{"post_id":"51348018","post_time":"1381022042","post_content":"Gopher was saying some mean stuff to me tonight when I wanted 2 go for a pvp run on prison.\r\n\r\n\r\nWinston","post_content_html":"Gopher was saying some mean stuff to me tonight when I wanted 2 go for a pvp run on prison.<br \/> <br \/> Winston","post_content_clean":"Gopher was saying some mean stuff to me tonight when I wanted 2 go for a pvp run on prison.\r \r \r Winston","post_user_id":"7256144","show_signature":"1","last_edit_time":"0","post_votes":"0","post_unhidden":"0","post_admin_hidden":"0","post_locked":"0","last_edit_user":"0","votes":null,"post_username":"Winston999","avatar":"https:\/\/assets-cloud.enjin.com\/users\/7256144\/avatar\/medium.1400116651.png","user_online":false,"user_votes":"16","user_posts":"483","url":"https:\/\/www.enjin.com\/ajax.php?s=redirect&cmd=forum-post&mobile=1&preset=12571633&id=51348018"},{"post_id":"51348035","post_time":"1381022062","post_content":"and the last two spamming -_-","post_content_html":"and the last two spamming -_-","post_content_clean":"and the last two spamming -_-","post_user_id":"7256144","show_signature":"1","last_edit_time":"0","post_votes":"0","post_unhidden":"0","post_admin_hidden":"0","post_locked":"0","last_edit_user":"0","votes":null,"post_username":"Winston999","avatar":"https:\/\/assets-cloud.enjin.com\/users\/7256144\/avatar\/medium.1400116651.png","user_online":false,"user_votes":"16","user_posts":"483","url":"https:\/\/www.enjin.com\/ajax.php?s=redirect&cmd=forum-post&mobile=1&preset=12571633&id=51348035"},{"post_id":"51348496","post_time":"1381022646","post_content":"1. The Spam Will Probably Result In A Temp Mute\r\n2. Idk About the Language","post_content_html":"1. The Spam Will Probably Result In A Temp Mute<br \/> <br \/> 2. Idk About the Language","post_content_clean":"1. The Spam Will Probably Result In A Temp Mute\r 2. Idk About the Language","post_user_id":"5496936","show_signature":"1","last_edit_time":"0","post_votes":"0","post_unhidden":"0","post_admin_hidden":"0","post_locked":"0","last_edit_user":"0","votes":null,"post_username":"Dwarfs_Digging","avatar":"https:\/\/assets-cloud.enjin.com\/users\/5496936\/avatar\/medium.1406468426.jpeg","user_online":false,"user_votes":"158","user_posts":"1398","url":"https:\/\/www.enjin.com\/ajax.php?s=redirect&cmd=forum-post&mobile=1&preset=12571633&id=51348496"},{"post_id":"51348624","post_time":"1381022796","post_content":"And now he copied my nick and is impersonating meh","post_content_html":"And now he copied my nick and is impersonating meh","post_content_clean":"And now he copied my nick and is impersonating meh","post_user_id":"7256144","show_signature":"1","last_edit_time":"0","post_votes":"0","post_unhidden":"0","post_admin_hidden":"0","post_locked":"0","last_edit_user":"0","votes":null,"post_username":"Winston999","avatar":"https:\/\/assets-cloud.enjin.com\/users\/7256144\/avatar\/medium.1400116651.png","user_online":false,"user_votes":"16","user_posts":"483","url":"https:\/\/www.enjin.com\/ajax.php?s=redirect&cmd=forum-post&mobile=1&preset=12571633&id=51348624"},{"post_id":"51348897","post_time":"1381023150","post_content":"He is making chaos on the server atm halp mods please mute him","post_content_html":"He is making chaos on the server atm halp mods please mute him","post_content_clean":"He is making chaos on the server atm halp mods please mute him","post_user_id":"7256144","show_signature":"1","last_edit_time":"0","post_votes":"0","post_unhidden":"0","post_admin_hidden":"0","post_locked":"0","last_edit_user":"0","votes":null,"post_username":"Winston999","avatar":"https:\/\/assets-cloud.enjin.com\/users\/7256144\/avatar\/medium.1400116651.png","user_online":false,"user_votes":"16","user_posts":"483","url":"https:\/\/www.enjin.com\/ajax.php?s=redirect&cmd=forum-post&mobile=1&preset=12571633&id=51348897"},{"post_id":"51348920","post_time":"1381023189","post_content":"What when did this happen? I am being Framed!! I didnt even get on at all today i came on the forums like any other day and see this. What is this witch craft. I'm literaly not on right now! so i dont see how i am doing this???","post_content_html":"What when did this happen? I am being Framed!! I didnt even get on at all today i came on the forums like any other day and see this. What is this witch craft. I'm literaly not on right now! so i dont see how i am doing this???","post_content_clean":"What when did this happen? I am being Framed!! I didnt even get on at all today i came on the forums like any other day and see this. What is this witch craft. I'm literaly not on right now! so i dont see how i am doing this???","post_user_id":"4898494","show_signature":"1","last_edit_time":"0","post_votes":"0","post_unhidden":"0","post_admin_hidden":"0","post_locked":"0","last_edit_user":"0","votes":null,"post_username":"6Gopher6","avatar":"https:\/\/resources.enjin.com\/1465083537\/profile\/images\/avatar\/medium.png","user_online":false,"user_votes":"0","user_posts":"12","url":"https:\/\/www.enjin.com\/ajax.php?s=redirect&cmd=forum-post&mobile=1&preset=12571633&id=51348920"},{"post_id":"51348951","post_time":"1381023238","post_content":"just dumb...","post_content_html":"just dumb...","post_content_clean":"just dumb...","post_user_id":"7256144","show_signature":"1","last_edit_time":"0","post_votes":"0","post_unhidden":"0","post_admin_hidden":"0","post_locked":"0","last_edit_user":"0","votes":null,"post_username":"Winston999","avatar":"https:\/\/assets-cloud.enjin.com\/users\/7256144\/avatar\/medium.1400116651.png","user_online":false,"user_votes":"16","user_posts":"483","url":"https:\/\/www.enjin.com\/ajax.php?s=redirect&cmd=forum-post&mobile=1&preset=12571633&id=51348951"},{"post_id":"51348956","post_time":"1381023242","post_content":"I dont get how i am causeing chaos when im not on.....","post_content_html":"I dont get how i am causeing chaos when im not on.....","post_content_clean":"I dont get how i am causeing chaos when im not on.....","post_user_id":"4898494","show_signature":"1","last_edit_time":"0","post_votes":"0","post_unhidden":"0","post_admin_hidden":"0","post_locked":"0","last_edit_user":"0","votes":null,"post_username":"6Gopher6","avatar":"https:\/\/resources.enjin.com\/1465083537\/profile\/images\/avatar\/medium.png","user_online":false,"user_votes":"0","user_posts":"12","url":"https:\/\/www.enjin.com\/ajax.php?s=redirect&cmd=forum-post&mobile=1&preset=12571633&id=51348956"},{"post_id":"51349000","post_time":"1381023290","post_content":"My name is BrainyMelons_Gopher and never changed it to IIBlueWaffleII_Gopher","post_content_html":"My name is BrainyMelons_Gopher and never changed it to IIBlueWaffleII_Gopher","post_content_clean":"My name is BrainyMelons_Gopher and never changed it to IIBlueWaffleII_Gopher","post_user_id":"4898494","show_signature":"1","last_edit_time":"0","post_votes":"0","post_unhidden":"0","post_admin_hidden":"0","post_locked":"0","last_edit_user":"0","votes":null,"post_username":"6Gopher6","avatar":"https:\/\/resources.enjin.com\/1465083537\/profile\/images\/avatar\/medium.png","user_online":false,"user_votes":"0","user_posts":"12","url":"https:\/\/www.enjin.com\/ajax.php?s=redirect&cmd=forum-post&mobile=1&preset=12571633&id=51349000"},{"post_id":"51349006","post_time":"1381023293","post_content":"Trying not to get muted great way","post_content_html":"Trying not to get muted great way","post_content_clean":"Trying not to get muted great way","post_user_id":"7256144","show_signature":"1","last_edit_time":"0","post_votes":"0","post_unhidden":"0","post_admin_hidden":"0","post_locked":"0","last_edit_user":"0","votes":null,"post_username":"Winston999","avatar":"https:\/\/assets-cloud.enjin.com\/users\/7256144\/avatar\/medium.1400116651.png","user_online":false,"user_votes":"16","user_posts":"483","url":"https:\/\/www.enjin.com\/ajax.php?s=redirect&cmd=forum-post&mobile=1&preset=12571633&id=51349006"}],"total_items":"52","pages":6,"voted":false,"new_post_id":false,"thread_labels":[],"top_posters":{"result":[{"post_user_id":"7256144","posts":"25","username":"Winston999","avatar":"https:\/\/assets-cloud.enjin.com\/users\/7256144\/avatar\/medium.1400116651.png"},{"post_user_id":"4898494","posts":"10","username":"6Gopher6","avatar":"https:\/\/resources.enjin.com\/1465083537\/profile\/images\/avatar\/medium.png"},{"post_user_id":"5308949","posts":"10","username":"\uff2d\uff41\uff54\uff54\uff30\uff29\uff23\uff26\uff2c","avatar":"https:\/\/assets-cloud.enjin.com\/users\/5308949\/avatar\/medium.1420081334.png"},{"post_user_id":"5175307","posts":"5","username":"DragonLord","avatar":"https:\/\/assets-cloud.enjin.com\/users\/5175307\/avatar\/medium.1400094584.png"},{"post_user_id":"5375337","posts":"1","username":"Scarlet Witch","avatar":"https:\/\/assets-cloud.enjin.com\/users\/5375337\/avatar\/medium.1437162398.jpeg"},{"post_user_id":"5496936","posts":"1","username":"Dwarfs_Digging","avatar":"https:\/\/assets-cloud.enjin.com\/users\/5496936\/avatar\/medium.1406468426.jpeg"}],"num_users":"6"},"moderation_access":false,"poll_post":null,"post_access":true,"new_thread_access":true},"id":"1234567","jsonrpc":"2.0"}
{"result":{"thread":{"preset_id":"12571633","forum_id":"2419080","thread_id":"9024356","thread_subject":"6Gopher6 Calling me bad words","thread_replies":"51","thread_views":"6895","thread_type":"normal","thread_status":"locked","thread_user_id":"7256144","thread_username":"1378483354575123327","thread_avatar":"https:\/\/assets-cloud.enjin.com\/users\/7256144\/avatar\/medium.1400116651.png","thread_lastpost_user_id":"5375337","thread_lastpost_username":"13641455421368885873","thread_lastpost_time":"1381181807","thread_moved_id":"0","thread_post_time":"1381022042","url":"https:\/\/www.enjin.com\/ajax.php?s=redirect&cmd=forum-thread&mobile=1&preset=12571633&id=9024356","post_count":"1","category_id":"1906989","forum_name":"Report a Player","forum_description":"Found a player breaking rules? Post them here with evidence!","disable_voting":"0","show_signature":"1","url_cms":"https:\/\/www.craftsurvivalgames.com\/forum\/m\/12571633\/viewthread\/9024356-6gopher6-calling-me-bad-words"},"posts":[{"post_id":"51349014","post_time":"1381023309","post_content":"ur so stupid","post_content_html":"ur so stupid","post_content_clean":"ur so stupid","post_user_id":"7256144","show_signature":"1","last_edit_time":"0","post_votes":"0","post_unhidden":"0","post_admin_hidden":"0","post_locked":"0","last_edit_user":"0","votes":null,"post_username":"Winston999","avatar":"https:\/\/assets-cloud.enjin.com\/users\/7256144\/avatar\/medium.1400116651.png","user_online":false,"user_votes":"16","user_posts":"483","url":"https:\/\/www.enjin.com\/ajax.php?s=redirect&cmd=forum-post&mobile=1&preset=12571633&id=51349014"},{"post_id":"51349030","post_time":"1381023332","post_content":"So you need to stop accusing maybe you should of dont \/realname!! I dont like being accused","post_content_html":"So you need to stop accusing maybe you should of dont \/realname!! I dont like being accused","post_content_clean":"So you need to stop accusing maybe you should of dont \/realname!! I dont like being accused","post_user_id":"4898494","show_signature":"1","last_edit_time":"0","post_votes":"0","post_unhidden":"0","post_admin_hidden":"0","post_locked":"0","last_edit_user":"0","votes":null,"post_username":"6Gopher6","avatar":"https:\/\/resources.enjin.com\/1465083537\/profile\/images\/avatar\/medium.png","user_online":false,"user_votes":"0","user_posts":"12","url":"https:\/\/www.enjin.com\/ajax.php?s=redirect&cmd=forum-post&mobile=1&preset=12571633&id=51349030"},{"post_id":"51349065","post_time":"1381023389","post_content":"Just please be quiet ur getting muted and u changed ur nick stupid","post_content_html":"Just please be quiet ur getting muted and u changed ur nick stupid","post_content_clean":"Just please be quiet ur getting muted and u changed ur nick stupid","post_user_id":"7256144","show_signature":"1","last_edit_time":"0","post_votes":"0","post_unhidden":"0","post_admin_hidden":"0","post_locked":"0","last_edit_user":"0","votes":null,"post_username":"Winston999","avatar":"https:\/\/assets-cloud.enjin.com\/users\/7256144\/avatar\/medium.1400116651.png","user_online":false,"user_votes":"16","user_posts":"483","url":"https:\/\/www.enjin.com\/ajax.php?s=redirect&cmd=forum-post&mobile=1&preset=12571633&id=51349065"},{"post_id":"51349071","post_time":"1381023397","post_content":"I think you just dont like me so you want me to get banned!","post_content_html":"I think you just dont like me so you want me to get banned!","post_content_clean":"I think you just dont like me so you want me to get banned!","post_user_id":"4898494","show_signature":"1","last_edit_time":"0","post_votes":"0","post_unhidden":"0","post_admin_hidden":"0","post_locked":"0","last_edit_user":"0","votes":null,"post_username":"6Gopher6","avatar":"https:\/\/resources.enjin.com\/1465083537\/profile\/images\/avatar\/medium.png","user_online":false,"user_votes":"0","user_posts":"12","url":"https:\/\/www.enjin.com\/ajax.php?s=redirect&cmd=forum-post&mobile=1&preset=12571633&id=51349071"},{"post_id":"51349166","post_time":"1381023519","post_content":"Yeah but that was u obviously","post_content_html":"Yeah but that was u obviously","post_content_clean":"Yeah but that was u obviously","post_user_id":"7256144","show_signature":"1","last_edit_time":"0","post_votes":"0","post_unhidden":"0","post_admin_hidden":"0","post_locked":"0","last_edit_user":"0","votes":null,"post_username":"Winston999","avatar":"https:\/\/assets-cloud.enjin.com\/users\/7256144\/avatar\/medium.1400116651.png","user_online":false,"user_votes":"16","user_posts":"483","url":"https:\/\/www.enjin.com\/ajax.php?s=redirect&cmd=forum-post&mobile=1&preset=12571633&id=51349166"},{"post_id":"51349249","post_time":"1381023624","post_content":"Really I dont know what your talking about. I dont get ur logic you didnt do \/realname so you really have no proof since \/nick is a thing:P","post_content_html":"Really I dont know what your talking about. I dont get ur logic you didnt do \/realname so you really have no proof since \/nick is a thing:P","post_content_clean":"Really I dont know what your talking about. I dont get ur logic you didnt do \/realname so you really have no proof since \/nick is a thing:P","post_user_id":"4898494","show_signature":"1","last_edit_time":"0","post_votes":"0","post_unhidden":"0","post_admin_hidden":"0","post_locked":"0","last_edit_user":"0","votes":null,"post_username":"6Gopher6","avatar":"https:\/\/resources.enjin.com\/1465083537\/profile\/images\/avatar\/medium.png","user_online":false,"user_votes":"0","user_posts":"12","url":"https:\/\/www.enjin.com\/ajax.php?s=redirect&cmd=forum-post&mobile=1&preset=12571633&id=51349249"},{"post_id":"51349300","post_time":"1381023682","post_content":"It's you anyone on the server can say that stop trying to fake it","post_content_html":"It's you anyone on the server can say that stop trying to fake it","post_content_clean":"It's you anyone on the server can say that stop trying to fake it","post_user_id":"7256144","show_signature":"1","last_edit_time":"0","post_votes":"0","post_unhidden":"0","post_admin_hidden":"0","post_locked":"0","last_edit_user":"0","votes":null,"post_username":"Winston999","avatar":"https:\/\/assets-cloud.enjin.com\/users\/7256144\/avatar\/medium.1400116651.png","user_online":false,"user_votes":"16","user_posts":"483","url":"https:\/\/www.enjin.com\/ajax.php?s=redirect&cmd=forum-post&mobile=1&preset=12571633&id=51349300"},{"post_id":"51349442","post_time":"1381023861","post_content":"Gopher lol, are you just trying to deny it, how funny, im laughing, maybe you should go get a life and stop. So stop bothering everyone!","post_content_html":"Gopher lol, are you just trying to deny it, how funny, im laughing, maybe you should go get a life and stop. So stop bothering everyone!","post_content_clean":"Gopher lol, are you just trying to deny it, how funny, im laughing, maybe you should go get a life and stop. So stop bothering everyone!","post_user_id":"5308949","show_signature":"1","last_edit_time":"0","post_votes":"0","post_unhidden":"0","post_admin_hidden":"0","post_locked":"0","last_edit_user":"0","votes":null,"post_username":"\uff2d\uff41\uff54\uff54\uff30\uff29\uff23\uff26\uff2c","avatar":"https:\/\/assets-cloud.enjin.com\/users\/5308949\/avatar\/medium.1420081334.png","user_online":false,"user_votes":"141","user_posts":"996","url":"https:\/\/www.enjin.com\/ajax.php?s=redirect&cmd=forum-post&mobile=1&preset=12571633&id=51349442"},{"post_id":"51349454","post_time":"1381023880","post_content":"Stop trying to acuse me then! i didnt do anything!","post_content_html":"Stop trying to acuse me then! i didnt do anything!","post_content_clean":"Stop trying to acuse me then! i didnt do anything!","post_user_id":"4898494","show_signature":"1","last_edit_time":"0","post_votes":"0","post_unhidden":"0","post_admin_hidden":"0","post_locked":"0","last_edit_user":"0","votes":null,"post_username":"6Gopher6","avatar":"https:\/\/resources.enjin.com\/1465083537\/profile\/images\/avatar\/medium.png","user_online":false,"user_votes":"0","user_posts":"12","url":"https:\/\/www.enjin.com\/ajax.php?s=redirect&cmd=forum-post&mobile=1&preset=12571633&id=51349454"},{"post_id":"51349464","post_time":"1381023892","post_content":"Thank you, jesus,","post_content_html":"Thank you, jesus,","post_content_clean":"Thank you, jesus,","post_user_id":"7256144","show_signature":"1","last_edit_time":"0","post_votes":"0","post_unhidden":"0","post_admin_hidden":"0","post_locked":"0","last_edit_user":"0","votes":null,"post_username":"Winston999","avatar":"https:\/\/assets-cloud.enjin.com\/users\/7256144\/avatar\/medium.1400116651.png","user_online":false,"user_votes":"16","user_posts":"483","url":"https:\/\/www.enjin.com\/ajax.php?s=redirect&cmd=forum-post&mobile=1&preset=12571633&id=51349464"}],"total_items":"52","pages":6,"voted":false,"new_post_id":"51349014","thread_labels":[],"top_posters":{"result":[{"post_user_id":"7256144","posts":"25","username":"Winston999","avatar":"https:\/\/assets-cloud.enjin.com\/users\/7256144\/avatar\/medium.1400116651.png"},{"post_user_id":"4898494","posts":"10","username":"6Gopher6","avatar":"https:\/\/resources.enjin.com\/1465083537\/profile\/images\/avatar\/medium.png"},{"post_user_id":"5308949","posts":"10","username":"\uff2d\uff41\uff54\uff54\uff30\uff29\uff23\uff26\uff2c","avatar":"https:\/\/assets-cloud.enjin.com\/users\/5308949\/avatar\/medium.1420081334.png"},{"post_user_id":"5175307","posts":"5","username":"DragonLord","avatar":"https:\/\/assets-cloud.enjin.com\/users\/5175307\/avatar\/medium.1400094584.png"},{"post_user_id":"5375337","posts":"1","username":"Scarlet Witch","avatar":"https:\/\/assets-cloud.enjin.com\/users\/5375337\/avatar\/medium.1437162398.jpeg"},{"post_user_id":"5496936","posts":"1","username":"Dwarfs_Digging","avatar":"https:\/\/assets-cloud.enjin.com\/users\/5496936\/avatar\/medium.1406468426.jpeg"}],"num_users":"6"},"moderation_access":false,"poll_post":null,"post_access":true,"new_thread_access":true},"id":"1234567","jsonrpc":"2.0"}
{"result":{"thread":{"preset_id":"12571633","forum_id":"2419080","thread_id":"9024356","thread_subject":"6Gopher6 Calling me bad words","thread_replies":"51","thread_views":"6895","thread_type":"normal","thread_status":"locked","thread_user_id":"7256144","thread_username":"1378483354575123327","thread_avatar":"https:\/\/assets-cloud.enjin.com\/users\/7256144\/avatar\/medium.1400116651.png","thread_lastpost_user_id":"5375337","thread_lastpost_username":"13641455421368885873","thread_lastpost_time":"1381181807","thread_moved_id":"0","thread_post_time":"1381022042","url":"https:\/\/www.enjin.com\/ajax.php?s=redirect&cmd=forum-thread&mobile=1&preset=12571633&id=9024356","post_count":"1","category_id":"1906989","forum_name":"Report a Player","forum_description":"Found a player breaking rules? Post them here with evidence!","disable_voting":"0","show_signature":"1","url_cms":"https:\/\/www.craftsurvivalgames.com\/forum\/m\/12571633\/viewthread\/9024356-6gopher6-calling-me-bad-words"},"posts":[{"post_id":"51349498","post_time":"1381023931","post_content":"Yes you did proof right there and thats you, and ur denying it more obviously u did it","post_content_html":"Yes you did proof right there and thats you, and ur denying it more obviously u did it","post_content_clean":"Yes you did proof right there and thats you, and ur denying it more obviously u did it","post_user_id":"7256144","show_signature":"1","last_edit_time":"0","post_votes":"0","post_unhidden":"0","post_admin_hidden":"0","post_locked":"0","last_edit_user":"0","votes":null,"post_username":"Winston999","avatar":"https:\/\/assets-cloud.enjin.com\/users\/7256144\/avatar\/medium.1400116651.png","user_online":false,"user_votes":"16","user_posts":"483","url":"https:\/\/www.enjin.com\/ajax.php?s=redirect&cmd=forum-post&mobile=1&preset=12571633&id=51349498"},{"post_id":"51349536","post_time":"1381023969","post_content":"Be\r\nQuiet and stop accusing me!","post_content_html":"Be<br \/> <br \/> Quiet and stop accusing me!","post_content_clean":"Be \r Quiet and stop accusing me!","post_user_id":"4898494","show_signature":"1","last_edit_time":"0","post_votes":"0","post_unhidden":"0","post_admin_hidden":"0","post_locked":"0","last_edit_user":"0","votes":null,"post_username":"6Gopher6","avatar":"https:\/\/resources.enjin.com\/1465083537\/profile\/images\/avatar\/medium.png","user_online":false,"user_votes":"0","user_posts":"12","url":"https:\/\/www.enjin.com\/ajax.php?s=redirect&cmd=forum-post&mobile=1&preset=12571633&id=51349536"},{"post_id":"51349556","post_time":"1381024005","post_content":"[quote user_id=\"4898494\" avatar=\"https:\/\/cravatar.eu\/helmavatar\/6Gopher6\/74.png\" name=\"6Gopher6\"]Stop trying to acuse me then! i didnt do anything![\/quote]\r\nyeah sure..","post_content_html":" <div class=\"bbcode_quote\"> <div class=\"bbcode_quote_head\">@4898494 wrote:<\/div> <div class=\"bbcode_quote_body\">Stop trying to acuse me then! i didnt do anything!<\/div> <\/div> <br \/> yeah sure..","post_content_clean":"Stop trying to acuse me then! i didnt do anything!\r yeah sure..","post_user_id":"5308949","show_signature":"1","last_edit_time":"0","post_votes":"0","post_unhidden":"0","post_admin_hidden":"0","post_locked":"0","last_edit_user":"0","votes":null,"post_username":"\uff2d\uff41\uff54\uff54\uff30\uff29\uff23\uff26\uff2c","avatar":"https:\/\/assets-cloud.enjin.com\/users\/5308949\/avatar\/medium.1420081334.png","user_online":false,"user_votes":"141","user_posts":"996","url":"https:\/\/www.enjin.com\/ajax.php?s=redirect&cmd=forum-post&mobile=1&preset=12571633&id=51349556"},{"post_id":"51349590","post_time":"1381024040","post_content":"No i just dont want to get in trouble for something i didnt do anyone would","post_content_html":"No i just dont want to get in trouble for something i didnt do anyone would","post_content_clean":"No i just dont want to get in trouble for something i didnt do anyone would","post_user_id":"4898494","show_signature":"1","last_edit_time":"0","post_votes":"0","post_unhidden":"0","post_admin_hidden":"0","post_locked":"0","last_edit_user":"0","votes":null,"post_username":"6Gopher6","avatar":"https:\/\/resources.enjin.com\/1465083537\/profile\/images\/avatar\/medium.png","user_online":false,"user_votes":"0","user_posts":"12","url":"https:\/\/www.enjin.com\/ajax.php?s=redirect&cmd=forum-post&mobile=1&preset=12571633&id=51349590"},{"post_id":"51349602","post_time":"1381024059","post_content":"[quote user_id=\"4898494\" avatar=\"https:\/\/cravatar.eu\/helmavatar\/6Gopher6\/74.png\" name=\"6Gopher6\"]Be\r\nQuiet and stop accusing me![\/quote]\r\nstop and shut up. you need to stop bullying people and calling them names. why dont you just go bully urself.","post_content_html":" <div class=\"bbcode_quote\"> <div class=\"bbcode_quote_head\">@4898494 wrote:<\/div> <div class=\"bbcode_quote_body\">Be<br \/> <br \/> Quiet and stop accusing me!<\/div> <\/div> <br \/> stop and shut up. you need to stop bullying people and calling them names. why dont you just go bully urself.","post_content_clean":"Be \r Quiet and stop accusing me!\r stop and shut up. you need to stop bullying people and calling them names. why dont you just go bully urself.","post_user_id":"5308949","show_signature":"1","last_edit_time":"0","post_votes":"0","post_unhidden":"0","post_admin_hidden":"0","post_locked":"0","last_edit_user":"0","votes":null,"post_username":"\uff2d\uff41\uff54\uff54\uff30\uff29\uff23\uff26\uff2c","avatar":"https:\/\/assets-cloud.enjin.com\/users\/5308949\/avatar\/medium.1420081334.png","user_online":false,"user_votes":"141","user_posts":"996","url":"https:\/\/www.enjin.com\/ajax.php?s=redirect&cmd=forum-post&mobile=1&preset=12571633&id=51349602"},{"post_id":"51349682","post_time":"1381024157","post_content":"And we cant just get a mod\/shicking HERE NOW 2 BAN HIM\/MUTE OR PERM MUTED","post_content_html":"And we cant just get a mod\/shicking HERE NOW 2 BAN HIM\/MUTE OR PERM MUTED","post_content_clean":"And we cant just get a mod\/shicking HERE NOW 2 BAN HIM\/MUTE OR PERM MUTED","post_user_id":"7256144","show_signature":"1","last_edit_time":"0","post_votes":"0","post_unhidden":"0","post_admin_hidden":"0","post_locked":"0","last_edit_user":"0","votes":null,"post_username":"Winston999","avatar":"https:\/\/assets-cloud.enjin.com\/users\/7256144\/avatar\/medium.1400116651.png","user_online":false,"user_votes":"16","user_posts":"483","url":"https:\/\/www.enjin.com\/ajax.php?s=redirect&cmd=forum-post&mobile=1&preset=12571633&id=51349682"},{"post_id":"51349702","post_time":"1381024183","post_content":"[quote user_id=\"7256144\" avatar=\"https:\/\/assets-cloud.enjin.com\/users\/7256144\/avatar\/medium.1400116651.png\" name=\"Winston999\"]And we cant just get a mod\/shicking HERE NOW 2 BAN HIM\/MUTE OR PERM MUTED[\/quote]\r\nhm.","post_content_html":" <div class=\"bbcode_quote\"> <div class=\"bbcode_quote_head\">@7256144 wrote:<\/div> <div class=\"bbcode_quote_body\">And we cant just get a mod\/shicking HERE NOW 2 BAN HIM\/MUTE OR PERM MUTED<\/div> <\/div> <br \/> hm.","post_content_clean":"And we cant just get a mod\/shicking HERE NOW 2 BAN HIM\/MUTE OR PERM MUTED\r hm.","post_user_id":"5308949","show_signature":"1","last_edit_time":"0","post_votes":"0","post_unhidden":"0","post_admin_hidden":"0","post_locked":"0","last_edit_user":"0","votes":null,"post_username":"\uff2d\uff41\uff54\uff54\uff30\uff29\uff23\uff26\uff2c","avatar":"https:\/\/assets-cloud.enjin.com\/users\/5308949\/avatar\/medium.1420081334.png","user_online":false,"user_votes":"141","user_posts":"996","url":"https:\/\/www.enjin.com\/ajax.php?s=redirect&cmd=forum-post&mobile=1&preset=12571633&id=51349702"},{"post_id":"51349737","post_time":"1381024228","post_content":"ok ill stop trying to defend myself of doing nothing bye!","post_content_html":"ok ill stop trying to defend myself of doing nothing bye!","post_content_clean":"ok ill stop trying to defend myself of doing nothing bye!","post_user_id":"4898494","show_signature":"1","last_edit_time":"0","post_votes":"0","post_unhidden":"0","post_admin_hidden":"0","post_locked":"0","last_edit_user":"0","votes":null,"post_username":"6Gopher6","avatar":"https:\/\/resources.enjin.com\/1465083537\/profile\/images\/avatar\/medium.png","user_online":false,"user_votes":"0","user_posts":"12","url":"https:\/\/www.enjin.com\/ajax.php?s=redirect&cmd=forum-post&mobile=1&preset=12571633&id=51349737"},{"post_id":"51349742","post_time":"1381024231","post_content":"then the server started getting spammed with these Nicks like 6 peeps had the same thing then i ignored em all and left","post_content_html":"then the server started getting spammed with these Nicks like 6 peeps had the same thing then i ignored em all and left","post_content_clean":"then the server started getting spammed with these Nicks like 6 peeps had the same thing then i ignored em all and left","post_user_id":"7256144","show_signature":"1","last_edit_time":"0","post_votes":"0","post_unhidden":"0","post_admin_hidden":"0","post_locked":"0","last_edit_user":"0","votes":null,"post_username":"Winston999","avatar":"https:\/\/assets-cloud.enjin.com\/users\/7256144\/avatar\/medium.1400116651.png","user_online":false,"user_votes":"16","user_posts":"483","url":"https:\/\/www.enjin.com\/ajax.php?s=redirect&cmd=forum-post&mobile=1&preset=12571633&id=51349742"},{"post_id":"51349766","post_time":"1381024256","post_content":"YESH!!! He left Now its time 2 chat about him hehe","post_content_html":"YESH!!! He left Now its time 2 chat about him hehe","post_content_clean":"YESH!!! He left Now its time 2 chat about him hehe","post_user_id":"7256144","show_signature":"1","last_edit_time":"0","post_votes":"0","post_unhidden":"0","post_admin_hidden":"0","post_locked":"0","last_edit_user":"0","votes":null,"post_username":"Winston999","avatar":"https:\/\/assets-cloud.enjin.com\/users\/7256144\/avatar\/medium.1400116651.png","user_online":false,"user_votes":"16","user_posts":"483","url":"https:\/\/www.enjin.com\/ajax.php?s=redirect&cmd=forum-post&mobile=1&preset=12571633&id=51349766"}],"total_items":"52","pages":6,"voted":false,"new_post_id":"51349498","thread_labels":[],"top_posters":{"result":[{"post_user_id":"7256144","posts":"25","username":"Winston999","avatar":"https:\/\/assets-cloud.enjin.com\/users\/7256144\/avatar\/medium.1400116651.png"},{"post_user_id":"4898494","posts":"10","username":"6Gopher6","avatar":"https:\/\/resources.enjin.com\/1465083537\/profile\/images\/avatar\/medium.png"},{"post_user_id":"5308949","posts":"10","username":"\uff2d\uff41\uff54\uff54\uff30\uff29\uff23\uff26\uff2c","avatar":"https:\/\/assets-cloud.enjin.com\/users\/5308949\/avatar\/medium.1420081334.png"},{"post_user_id":"5175307","posts":"5","username":"DragonLord","avatar":"https:\/\/assets-cloud.enjin.com\/users\/5175307\/avatar\/medium.1400094584.png"},{"post_user_id":"5496936","posts":"1","username":"Dwarfs_Digging","avatar":"https:\/\/assets-cloud.enjin.com\/users\/5496936\/avatar\/medium.1406468426.jpeg"},{"post_user_id":"5375337","posts":"1","username":"Scarlet Witch","avatar":"https:\/\/assets-cloud.enjin.com\/users\/5375337\/avatar\/medium.1437162398.jpeg"}],"num_users":"6"},"moderation_access":false,"poll_post":null,"post_access":true,"new_thread_access":true},"id":"1234567","jsonrpc":"2.0"}
{"result":{"thread":{"preset_id":"12571633","forum_id":"2419080","thread_id":"9024356","thread_subject":"6Gopher6 Calling me bad words","thread_replies":"51","thread_views":"6895","thread_type":"normal","thread_status":"locked","thread_user_id":"7256144","thread_username":"1378483354575123327","thread_avatar":"https:\/\/assets-cloud.enjin.com\/users\/7256144\/avatar\/medium.1420081334.png","thread_lastpost_user_id":"5375337","thread_lastpost_username":"13641455421368885873","thread_lastpost_time":"1381181807","thread_moved_id":"0","thread_post_time":"1381022042","url":"https:\/\/www.enjin.com\/ajax.php?s=redirect&cmd=forum-thread&mobile=1&preset=12571633&id=9024356","post_count":"1","category_id":"1906989","forum_name":"Report a Player","forum_description":"Found a player breaking rules? Post them here with evidence!","disable_voting":"0","show_signature":"1","url_cms":"https:\/\/www.craftsurvivalgames.com\/forum\/m\/12571633\/viewthread\/9024356-6gopher6-calling-me-bad-words"},"posts":[{"post_id":"51349779","post_time":"1381024274","post_content":"[quote user_id=\"4898494\" avatar=\"https:\/\/cravatar.eu\/helmavatar\/6Gopher6\/74.png\" name=\"6Gopher6\"]ok ill stop trying to defend myself of doing nothing bye![\/quote]\r\n[quote user_id=\"4898494\" avatar=\"https:\/\/cravatar.eu\/helmavatar\/6Gopher6\/74.png\" name=\"6Gopher6\"]ok ill stop trying to defend myself of doing nothing bye![\/quote]\r\n[quote user_id=\"4898494\" avatar=\"https:\/\/cravatar.eu\/helmavatar\/6Gopher6\/74.png\" name=\"6Gopher6\"]ok ill stop trying to defend myself of doing nothing bye![\/quote]\r\n[quote user_id=\"4898494\" avatar=\"https:\/\/cravatar.eu\/helmavatar\/6Gopher6\/74.png\" name=\"6Gopher6\"]ok ill stop trying to defend myself of doing nothing bye![\/quote]\r\n[quote user_id=\"4898494\" avatar=\"https:\/\/cravatar.eu\/helmavatar\/6Gopher6\/74.png\" name=\"6Gopher6\"]ok ill stop trying to defend myself of doing nothing bye![\/quote]\r\n[quote user_id=\"4898494\" avatar=\"https:\/\/cravatar.eu\/helmavatar\/6Gopher6\/74.png\" name=\"6Gopher6\"]ok ill stop trying to defend myself of doing nothing bye![\/quote]\r\n[quote user_id=\"4898494\" avatar=\"https:\/\/cravatar.eu\/helmavatar\/6Gopher6\/74.png\" name=\"6Gopher6\"]ok ill stop trying to defend myself of doing nothing bye![\/quote]\r\n[quote user_id=\"4898494\" avatar=\"https:\/\/cravatar.eu\/helmavatar\/6Gopher6\/74.png\" name=\"6Gopher6\"]ok ill stop trying to defend myself of doing nothing bye![\/quote]\r\n[quote user_id=\"4898494\" avatar=\"https:\/\/cravatar.eu\/helmavatar\/6Gopher6\/74.png\" name=\"6Gopher6\"]ok ill stop trying to defend myself of doing nothing bye![\/quote]\r\nlook at that. trying to deny it. just stop and take the blame\/","post_content_html":" <div class=\"bbcode_quote\"> <div class=\"bbcode_quote_head\">@4898494 wrote:<\/div> <div class=\"bbcode_quote_body\">ok ill stop trying to defend myself of doing nothing bye!<\/div> <\/div>  <div class=\"bbcode_quote\"> <div class=\"bbcode_quote_head\">@4898494 wrote:<\/div> <div class=\"bbcode_quote_body\">ok ill stop trying to defend myself of doing nothing bye!<\/div> <\/div>  <div class=\"bbcode_quote\"> <div class=\"bbcode_quote_head\">@4898494 wrote:<\/div> <div class=\"bbcode_quote_body\">ok ill stop trying to defend myself of doing nothing bye!<\/div> <\/div>  <div class=\"bbcode_quote\"> <div class=\"bbcode_quote_head\">@4898494 wrote:<\/div> <div class=\"bbcode_quote_body\">ok ill stop trying to defend myself of doing nothing bye!<\/div> <\/div>  <div class=\"bbcode_quote\"> <div class=\"bbcode_quote_head\">@4898494 wrote:<\/div> <div class=\"bbcode_quote_body\">ok ill stop trying to defend myself of doing nothing bye!<\/div> <\/div>  <div class=\"bbcode_quote\"> <div class=\"bbcode_quote_head\">@4898494 wrote:<\/div> <div class=\"bbcode_quote_body\">ok ill stop trying to defend myself of doing nothing bye!<\/div> <\/div>  <div class=\"bbcode_quote\"> <div class=\"bbcode_quote_head\">@4898494 wrote:<\/div> <div class=\"bbcode_quote_body\">ok ill stop trying to defend myself of doing nothing bye!<\/div> <\/div>  <div class=\"bbcode_quote\"> <div class=\"bbcode_quote_head\">@4898494 wrote:<\/div> <div class=\"bbcode_quote_body\">ok ill stop trying to defend myself of doing nothing bye!<\/div> <\/div>  <div class=\"bbcode_quote\"> <div class=\"bbcode_quote_head\">@4898494 wrote:<\/div> <div class=\"bbcode_quote_body\">ok ill stop trying to defend myself of doing nothing bye!<\/div> <\/div> <br \/> look at that. trying to deny it. just stop and take the blame\/","post_content_clean":"ok ill stop trying to defend myself of doing nothing bye!\r ok ill stop trying to defend myself of doing nothing bye!\r ok ill stop trying to defend myself of doing nothing bye!\r ok ill stop trying to defend myself of doing nothing bye!\r ok ill stop trying to defend myself of doing nothing bye!\r ok ill stop trying to defend myself of doing nothing bye!\r ok ill stop trying to defend myself of doing nothing bye!\r ok ill stop trying to defend myself of doing nothing bye!\r ok ill stop trying to defend myself of doing nothing bye!\r look at that. trying to deny it. just stop and take the blame\/","post_user_id":"5308949","show_signature":"1","last_edit_time":"0","post_votes":"0","post_unhidden":"0","post_admin_hidden":"0","post_locked":"0","last_edit_user":"0","votes":null,"post_username":"\uff2d\uff41\uff54\uff54\uff30\uff29\uff23\uff26\uff2c","avatar":"https:\/\/assets-cloud.enjin.com\/users\/5308949\/avatar\/medium.1420081334.png","user_online":false,"user_votes":"141","user_posts":"996","url":"https:\/\/www.enjin.com\/ajax.php?s=redirect&cmd=forum-post&mobile=1&preset=12571633&id=51349779"},{"post_id":"51349793","post_time":"1381024288","post_content":"This has happened in to many cases for you to convince me that isnt wasnt you gopher, if you could ever so kindly stop denying it and take the punishment that would be great, no one knows for sure if it was someone else in a nick so were going to assume it was you, personally I dont give a damn if this seems unfair to you because its happened to me, so just deal with it because no one is going to believe you until there is solid proof.","post_content_html":"This has happened in to many cases for you to convince me that isnt wasnt you gopher, if you could ever so kindly stop denying it and take the punishment that would be great, no one knows for sure if it was someone else in a nick so were going to assume it was you, personally I dont give a damn if this seems unfair to you because its happened to me, so just deal with it because no one is going to believe you until there is solid proof.","post_content_clean":"This has happened in to many cases for you to convince me that isnt wasnt you gopher, if you could ever so kindly stop denying it and take the punishment that would be great, no one knows for sure if it was someone else in a nick so were going to assume it was you, personally I dont give a damn if this seems unfair to you because its happened to me, so just deal with it because no one is going to believe you until there is solid proof.","post_user_id":"5175307","show_signature":"1","last_edit_time":"0","post_votes":"0","post_unhidden":"0","post_admin_hidden":"0","post_locked":"0","last_edit_user":"0","votes":null,"post_username":"DragonLord","avatar":"https:\/\/assets-cloud.enjin.com\/users\/5175307\/avatar\/medium.1400094584.png","user_online":false,"user_votes":"14","user_posts":"4","url":"https:\/\/www.enjin.com\/ajax.php?s=redirect&cmd=forum-post&mobile=1&preset=12571633&id=51349793"},{"post_id":"51349857","post_time":"1381024344","post_content":"Oh but theres one person in the world and THATS ME it was him.....","post_content_html":"Oh but theres one person in the world and THATS ME it was him.....","post_content_clean":"Oh but theres one person in the world and THATS ME it was him.....","post_user_id":"7256144","show_signature":"1","last_edit_time":"0","post_votes":"0","post_unhidden":"0","post_admin_hidden":"0","post_locked":"0","last_edit_user":"0","votes":null,"post_username":"Winston999","avatar":"https:\/\/assets-cloud.enjin.com\/users\/7256144\/avatar\/medium.1400116651.png","user_online":false,"user_votes":"16","user_posts":"483","url":"https:\/\/www.enjin.com\/ajax.php?s=redirect&cmd=forum-post&mobile=1&preset=12571633&id=51349857"},{"post_id":"51349860","post_time":"1381024345","post_content":"[quote user_id=\"5175307\" avatar=\"https:\/\/cravatar.eu\/helmavatar\/Dragon_Lord0\/74.png\" name=\"Dragon_Lord0\"]This has happened in to many cases for you to convince me that isnt wasnt you gopher, if you could ever so kindly stop denying it and take the punishment that would be great, no one knows for sure if it was someone else in a nick so were going to assume it was you, personally I dont give a damn if this seems unfair to you because its happened to me, so just deal with it because no one is going to believe you until there is solid proof.[\/quote]\r\n^^^^^^^^^^^^^^^^^^^^^^^^^^^^^^^^^^^^^^^^^^^^^","post_content_html":" <div class=\"bbcode_quote\"> <div class=\"bbcode_quote_head\">@5175307 wrote:<\/div> <div class=\"bbcode_quote_body\">This has happened in to many cases for you to convince me that isnt wasnt you gopher, if you could ever so kindly stop denying it and take the punishment that would be great, no one knows for sure if it was someone else in a nick so were going to assume it was you, personally I dont give a damn if this seems unfair to you because its happened to me, so just deal with it because no one is going to believe you until there is solid proof.<\/div> <\/div> <br \/> ^^^^^^^^^^^^^^^^^^^^^^^^^^^^^^^^^^^^^^^^^^^^^","post_content_clean":"This has happened in to many cases for you to convince me that isnt wasnt you gopher, if you could ever so kindly stop denying it and take the punishment that would be great, no one knows for sure if it was someone else in a nick so were going to assume it was you, personally I dont give a damn if this seems unfair to you because its happened to me, so just deal with it because no one is going to believe you until there is solid proof.\r ^^^^^^^^^^^^^^^^^^^^^^^^^^^^^^^^^^^^^^^^^^^^^","post_user_id":"5308949","show_signature":"1","last_edit_time":"0","post_votes":"0","post_unhidden":"0","post_admin_hidden":"0","post_locked":"0","last_edit_user":"0","votes":null,"post_username":"\uff2d\uff41\uff54\uff54\uff30\uff29\uff23\uff26\uff2c","avatar":"https:\/\/assets-cloud.enjin.com\/users\/5308949\/avatar\/medium.1420081334.png","user_online":false,"user_votes":"141","user_posts":"996","url":"https:\/\/www.enjin.com\/ajax.php?s=redirect&cmd=forum-post&mobile=1&preset=12571633&id=51349860"},{"post_id":"51349889","post_time":"1381024390","post_content":"I love when Dragon_Lord comes in I think to myself oh damn it just got real! xD","post_content_html":"I love when Dragon_Lord comes in I think to myself oh damn it just got real! xD","post_content_clean":"I love when Dragon_Lord comes in I think to myself oh damn it just got real! xD","post_user_id":"7256144","show_signature":"1","last_edit_time":"0","post_votes":"0","post_unhidden":"0","post_admin_hidden":"0","post_locked":"0","last_edit_user":"0","votes":null,"post_username":"Winston999","avatar":"https:\/\/assets-cloud.enjin.com\/users\/7256144\/avatar\/medium.1400116651.png","user_online":false,"user_votes":"16","user_posts":"483","url":"https:\/\/www.enjin.com\/ajax.php?s=redirect&cmd=forum-post&mobile=1&preset=12571633&id=51349889"},{"post_id":"51349908","post_time":"1381024414","post_content":"Look at that 4 pages already in like 15mins....from his spam","post_content_html":"Look at that 4 pages already in like 15mins....from his spam","post_content_clean":"Look at that 4 pages already in like 15mins....from his spam","post_user_id":"7256144","show_signature":"1","last_edit_time":"0","post_votes":"0","post_unhidden":"0","post_admin_hidden":"0","post_locked":"0","last_edit_user":"0","votes":null,"post_username":"Winston999","avatar":"https:\/\/assets-cloud.enjin.com\/users\/7256144\/avatar\/medium.1400116651.png","user_online":false,"user_votes":"16","user_posts":"483","url":"https:\/\/www.enjin.com\/ajax.php?s=redirect&cmd=forum-post&mobile=1&preset=12571633&id=51349908"},{"post_id":"51349929","post_time":"1381024438","post_content":"ikr,","post_content_html":"ikr,","post_content_clean":"ikr,","post_user_id":"5308949","show_signature":"1","last_edit_time":"0","post_votes":"0","post_unhidden":"0","post_admin_hidden":"0","post_locked":"0","last_edit_user":"0","votes":null,"post_username":"\uff2d\uff41\uff54\uff54\uff30\uff29\uff23\uff26\uff2c","avatar":"https:\/\/assets-cloud.enjin.com\/users\/5308949\/avatar\/medium.1420081334.png","user_online":false,"user_votes":"141","user_posts":"996","url":"https:\/\/www.enjin.com\/ajax.php?s=redirect&cmd=forum-post&mobile=1&preset=12571633&id=51349929"},{"post_id":"51350140","post_time":"1381024676","post_content":"Yes, I have never seen him in-game and I have every reason to believe he is lying, winston I know a bit better, he has been quite rude verbally in the past but I would take winstons word over a random player whom I have never met before in a heartbeat, were not stupid, were humans, we can see through the cloud of denial you have thrown at us, I am going to at some point figure out what gophers rank is and if it is the same as the one in the screenshots I will be more convinced it was him, if it isnt, I will back off.","post_content_html":"Yes, I have never seen him in-game and I have every reason to believe he is lying, winston I know a bit better, he has been quite rude verbally in the past but I would take winstons word over a random player whom I have never met before in a heartbeat, were not stupid, were humans, we can see through the cloud of denial you have thrown at us, I am going to at some point figure out what gophers rank is and if it is the same as the one in the screenshots I will be more convinced it was him, if it isnt, I will back off.","post_content_clean":"Yes, I have never seen him in-game and I have every reason to believe he is lying, winston I know a bit better, he has been quite rude verbally in the past but I would take winstons word over a random player whom I have never met before in a heartbeat, were not stupid, were humans, we can see through the cloud of denial you have thrown at us, I am going to at some point figure out what gophers rank is and if it is the same as the one in the screenshots I will be more convinced it was him, if it isnt, I will back off.","post_user_id":"5175307","show_signature":"1","last_edit_time":"0","post_votes":"0","post_unhidden":"0","post_admin_hidden":"0","post_locked":"0","last_edit_user":"0","votes":null,"post_username":"DragonLord","avatar":"https:\/\/assets-cloud.enjin.com\/users\/5175307\/avatar\/medium.1400094584.png","user_online":false,"user_votes":"14","user_posts":"4","url":"https:\/\/www.enjin.com\/ajax.php?s=redirect&cmd=forum-post&mobile=1&preset=12571633&id=51350140"},{"post_id":"51350207","post_time":"1381024755","post_content":"[quote user_id=\"5175307\" avatar=\"https:\/\/cravatar.eu\/helmavatar\/Dragon_Lord0\/74.png\" name=\"Dragon_Lord0\"]Isnt it amazing how I managed to get 1000 posts so quickly when I make such detailed posts? xD[\/quote]\r\nxD","post_content_html":" <div class=\"bbcode_quote\"> <div class=\"bbcode_quote_head\">@5175307 wrote:<\/div> <div class=\"bbcode_quote_body\">Isnt it amazing how I managed to get 1000 posts so quickly when I make such detailed posts? xD<\/div> <\/div> <br \/> xD","post_content_clean":"Isnt it amazing how I managed to get 1000 posts so quickly when I make such detailed posts? xD\r xD","post_user_id":"5308949","show_signature":"1","last_edit_time":"0","post_votes":"0","post_unhidden":"0","post_admin_hidden":"0","post_locked":"0","last_edit_user":"0","votes":null,"post_username":"\uff2d\uff41\uff54\uff54\uff30\uff29\uff23\uff26\uff2c","avatar":"https:\/\/assets-cloud.enjin.com\/users\/5308949\/avatar\/medium.1420081334.png","user_online":false,"user_votes":"141","user_posts":"996","url":"https:\/\/www.enjin.com\/ajax.php?s=redirect&cmd=forum-post&mobile=1&preset=12571633&id=51350207"},{"post_id":"51350272","post_time":"1381024819","post_content":"And he kept saying kept saying i kept swearing at that point I was laughing cuz I dont swear much anymore","post_content_html":"And he kept saying kept saying i kept swearing at that point I was laughing cuz I dont swear much anymore","post_content_clean":"And he kept saying kept saying i kept swearing at that point I was laughing cuz I dont swear much anymore","post_user_id":"7256144","show_signature":"1","last_edit_time":"0","post_votes":"0","post_unhidden":"0","post_admin_hidden":"0","post_locked":"0","last_edit_user":"0","votes":null,"post_username":"Winston999","avatar":"https:\/\/assets-cloud.enjin.com\/users\/7256144\/avatar\/medium.1400116651.png","user_online":false,"user_votes":"16","user_posts":"483","url":"https:\/\/www.enjin.com\/ajax.php?s=redirect&cmd=forum-post&mobile=1&preset=12571633&id=51350272"}],"total_items":"52","pages":6,"voted":false,"new_post_id":"51349779","thread_labels":[],"top_posters":{"result":[{"post_user_id":"7256144","posts":"25","username":"Winston999","avatar":"https:\/\/assets-cloud.enjin.com\/users\/7256144\/avatar\/medium.1400116651.png"},{"post_user_id":"4898494","posts":"10","username":"6Gopher6","avatar":"https:\/\/resources.enjin.com\/1465083537\/profile\/images\/avatar\/medium.png"},{"post_user_id":"5308949","posts":"10","username":"\uff2d\uff41\uff54\uff54\uff30\uff29\uff23\uff26\uff2c","avatar":"https:\/\/assets-cloud.enjin.com\/users\/5308949\/avatar\/medium.1420081334.png"},{"post_user_id":"5175307","posts":"5","username":"DragonLord","avatar":"https:\/\/assets-cloud.enjin.com\/users\/5175307\/avatar\/medium.1400094584.png"},{"post_user_id":"5496936","posts":"1","username":"Dwarfs_Digging","avatar":"https:\/\/assets-cloud.enjin.com\/users\/5496936\/avatar\/medium.1406468426.jpeg"},{"post_user_id":"5375337","posts":"1","username":"Scarlet Witch","avatar":"https:\/\/assets-cloud.enjin.com\/users\/5375337\/avatar\/medium.1437162398.jpeg"}],"num_users":"6"},"moderation_access":false,"poll_post":null,"post_access":true,"new_thread_access":true},"id":"1234567","jsonrpc":"2.0"}
{"result":{"thread":{"preset_id":"12571633","forum_id":"2419080","thread_id":"9024356","thread_subject":"6Gopher6 Calling me bad words","thread_replies":"51","thread_views":"6895","thread_type":"normal","thread_status":"locked","thread_user_id":"7256144","thread_username":"1378483354575123327","thread_avatar":"https:\/\/assets-cloud.enjin.com\/users\/7256144\/avatar\/medium.1420081334.png","thread_lastpost_user_id":"5375337","thread_lastpost_username":"13641455421368885873","thread_lastpost_time":"1381181807","thread_moved_id":"0","thread_post_time":"1381022042","url":"https:\/\/www.enjin.com\/ajax.php?s=redirect&cmd=forum-thread&mobile=1&preset=12571633&id=9024356","post_count":"1","category_id":"1906989","forum_name":"Report a Player","forum_description":"Found a player breaking rules? Post them here with evidence!","disable_voting":"0","show_signature":"1","url_cms":"https:\/\/www.craftsurvivalgames.com\/forum\/m\/12571633\/viewthread\/9024356-6gopher6-calling-me-bad-words"},"posts":[{"post_id":"51350298","post_time":"1381024848","post_content":"[quote user_id=\"7256144\" avatar=\"https:\/\/assets-cloud.enjin.com\/users\/7256144\/avatar\/medium.1400116651.png\" name=\"Winston999\"]And he kept saying kept saying i kept swearing at that point I was laughing cuz I dont swear much anymore[\/quote]\r\nkewl","post_content_html":" <div class=\"bbcode_quote\"> <div class=\"bbcode_quote_head\">@7256144 wrote:<\/div> <div class=\"bbcode_quote_body\">And he kept saying kept saying i kept swearing at that point I was laughing cuz I dont swear much anymore<\/div> <\/div> <br \/> kewl","post_content_clean":"And he kept saying kept saying i kept swearing at that point I was laughing cuz I dont swear much anymore\r kewl","post_user_id":"5308949","show_signature":"1","last_edit_time":"0","post_votes":"0","post_unhidden":"0","post_admin_hidden":"0","post_locked":"0","last_edit_user":"0","votes":null,"post_username":"\uff2d\uff41\uff54\uff54\uff30\uff29\uff23\uff26\uff2c","avatar":"https:\/\/assets-cloud.enjin.com\/users\/5308949\/avatar\/medium.1420081334.png","user_online":false,"user_votes":"141","user_posts":"996","url":"https:\/\/www.enjin.com\/ajax.php?s=redirect&cmd=forum-post&mobile=1&preset=12571633&id=51350298"},{"post_id":"51350311","post_time":"1381024861","post_content":"xD","post_content_html":"xD","post_content_clean":"xD","post_user_id":"7256144","show_signature":"1","last_edit_time":"0","post_votes":"0","post_unhidden":"0","post_admin_hidden":"0","post_locked":"0","last_edit_user":"0","votes":null,"post_username":"Winston999","avatar":"https:\/\/assets-cloud.enjin.com\/users\/7256144\/avatar\/medium.1400116651.png","user_online":false,"user_votes":"16","user_posts":"483","url":"https:\/\/www.enjin.com\/ajax.php?s=redirect&cmd=forum-post&mobile=1&preset=12571633&id=51350311"},{"post_id":"51350369","post_time":"1381024917","post_content":"jkvblighvbkn.ijg","post_content_html":"jkvblighvbkn.ijg","post_content_clean":"jkvblighvbkn.ijg","post_user_id":"5308949","show_signature":"1","last_edit_time":"0","post_votes":"0","post_unhidden":"0","post_admin_hidden":"0","post_locked":"0","last_edit_user":"0","votes":null,"post_username":"\uff2d\uff41\uff54\uff54\uff30\uff29\uff23\uff26\uff2c","avatar":"https:\/\/assets-cloud.enjin.com\/users\/5308949\/avatar\/medium.1420081334.png","user_online":false,"user_votes":"141","user_posts":"996","url":"https:\/\/www.enjin.com\/ajax.php?s=redirect&cmd=forum-post&mobile=1&preset=12571633&id=51350369"},{"post_id":"51350493","post_time":"1381025034","post_content":"So what do you think is gonna happen 2 him?","post_content_html":"So what do you think is gonna happen 2 him?","post_content_clean":"So what do you think is gonna happen 2 him?","post_user_id":"7256144","show_signature":"1","last_edit_time":"0","post_votes":"0","post_unhidden":"0","post_admin_hidden":"0","post_locked":"0","last_edit_user":"0","votes":null,"post_username":"Winston999","avatar":"https:\/\/assets-cloud.enjin.com\/users\/7256144\/avatar\/medium.1400116651.png","user_online":false,"user_votes":"16","user_posts":"483","url":"https:\/\/www.enjin.com\/ajax.php?s=redirect&cmd=forum-post&mobile=1&preset=12571633&id=51350493"},{"post_id":"51350509","post_time":"1381025056","post_content":"That is the truth of it, I dont know what kind of life he has at home but someone needs to teach him it isnt cool to say things like that in-game.","post_content_html":"That is the truth of it, I dont know what kind of life he has at home but someone needs to teach him it isnt cool to say things like that in-game.","post_content_clean":"That is the truth of it, I dont know what kind of life he has at home but someone needs to teach him it isnt cool to say things like that in-game.","post_user_id":"5175307","show_signature":"1","last_edit_time":"0","post_votes":"0","post_unhidden":"0","post_admin_hidden":"0","post_locked":"0","last_edit_user":"0","votes":null,"post_username":"DragonLord","avatar":"https:\/\/assets-cloud.enjin.com\/users\/5175307\/avatar\/medium.1400094584.png","user_online":false,"user_votes":"14","user_posts":"4","url":"https:\/\/www.enjin.com\/ajax.php?s=redirect&cmd=forum-post&mobile=1&preset=12571633&id=51350509"},{"post_id":"51350521","post_time":"1381025079","post_content":":) I'm happy now :3","post_content_html":"<object class=\"emojione\" data=\"https:\/\/resources.enjin.com\/1489581540\/themes\/core\/images\/emojione\/svg\/1f642.svg?0\" type=\"image\/svg+xml\" standby=\":)\">:)<\/object> I'm happy now :3","post_content_clean":":) I'm happy now :3","post_user_id":"7256144","show_signature":"1","last_edit_time":"0","post_votes":"0","post_unhidden":"0","post_admin_hidden":"0","post_locked":"0","last_edit_user":"0","votes":null,"post_username":"Winston999","avatar":"https:\/\/assets-cloud.enjin.com\/users\/7256144\/avatar\/medium.1400116651.png","user_online":false,"user_votes":"16","user_posts":"483","url":"https:\/\/www.enjin.com\/ajax.php?s=redirect&cmd=forum-post&mobile=1&preset=12571633&id=51350521"},{"post_id":"51350707","post_time":"1381025304","post_content":"Whats gonna happen???? to him","post_content_html":"Whats gonna happen???? to him","post_content_clean":"Whats gonna happen???? to him","post_user_id":"7256144","show_signature":"1","last_edit_time":"0","post_votes":"0","post_unhidden":"0","post_admin_hidden":"0","post_locked":"0","last_edit_user":"0","votes":null,"post_username":"Winston999","avatar":"https:\/\/assets-cloud.enjin.com\/users\/7256144\/avatar\/medium.1400116651.png","user_online":false,"user_votes":"16","user_posts":"483","url":"https:\/\/www.enjin.com\/ajax.php?s=redirect&cmd=forum-post&mobile=1&preset=12571633&id=51350707"},{"post_id":"51351146","post_time":"1381025796","post_content":"We dont know yet, no mod has been on the forums between the time you reported him and now.","post_content_html":"We dont know yet, no mod has been on the forums between the time you reported him and now.","post_content_clean":"We dont know yet, no mod has been on the forums between the time you reported him and now.","post_user_id":"5175307","show_signature":"1","last_edit_time":"0","post_votes":"0","post_unhidden":"0","post_admin_hidden":"0","post_locked":"0","last_edit_user":"0","votes":null,"post_username":"DragonLord","avatar":"https:\/\/assets-cloud.enjin.com\/users\/5175307\/avatar\/medium.1400094584.png","user_online":false,"user_votes":"14","user_posts":"4","url":"https:\/\/www.enjin.com\/ajax.php?s=redirect&cmd=forum-post&mobile=1&preset=12571633&id=51351146"},{"post_id":"51415490","post_time":"1381104226","post_content":"Some mod please mute him he deserves this PWEASE.","post_content_html":"Some mod please mute him he deserves this PWEASE.","post_content_clean":"Some mod please mute him he deserves this PWEASE.","post_user_id":"7256144","show_signature":"1","last_edit_time":"0","post_votes":"0","post_unhidden":"0","post_admin_hidden":"0","post_locked":"0","last_edit_user":"0","votes":null,"post_username":"Winston999","avatar":"https:\/\/assets-cloud.enjin.com\/users\/7256144\/avatar\/medium.1400116651.png","user_online":false,"user_votes":"16","user_posts":"483","url":"https:\/\/www.enjin.com\/ajax.php?s=redirect&cmd=forum-post&mobile=1&preset=12571633&id=51415490"},{"post_id":"51417533","post_time":"1381106315","post_content":"Something needs to be done.","post_content_html":"Something needs to be done.","post_content_clean":"Something needs to be done.","post_user_id":"5175307","show_signature":"1","last_edit_time":"0","post_votes":"0","post_unhidden":"0","post_admin_hidden":"0","post_locked":"0","last_edit_user":"0","votes":null,"post_username":"DragonLord","avatar":"https:\/\/assets-cloud.enjin.com\/users\/5175307\/avatar\/medium.1400094584.png","user_online":false,"user_votes":"14","user_posts":"4","url":"https:\/\/www.enjin.com\/ajax.php?s=redirect&cmd=forum-post&mobile=1&preset=12571633&id=51417533"}],"total_items":"52","pages":6,"voted":false,"new_post_id":"51350298","thread_labels":[],"top_posters":{"result":[{"post_user_id":"7256144","posts":"25","username":"Winston999","avatar":"https:\/\/assets-cloud.enjin.com\/users\/7256144\/avatar\/medium.1400116651.png"},{"post_user_id":"4898494","posts":"10","username":"6Gopher6","avatar":"https:\/\/resources.enjin.com\/1465083537\/profile\/images\/avatar\/medium.png"},{"post_user_id":"5308949","posts":"10","username":"\uff2d\uff41\uff54\uff54\uff30\uff29\uff23\uff26\uff2c","avatar":"https:\/\/assets-cloud.enjin.com\/users\/5308949\/avatar\/medium.1420081334.png"},{"post_user_id":"5175307","posts":"5","username":"DragonLord","avatar":"https:\/\/assets-cloud.enjin.com\/users\/5175307\/avatar\/medium.1400094584.png"},{"post_user_id":"5496936","posts":"1","username":"Dwarfs_Digging","avatar":"https:\/\/assets-cloud.enjin.com\/users\/5496936\/avatar\/medium.1406468426.jpeg"},{"post_user_id":"5375337","posts":"1","username":"Scarlet Witch","avatar":"https:\/\/assets-cloud.enjin.com\/users\/5375337\/avatar\/medium.1437162398.jpeg"}],"num_users":"6"},"moderation_access":false,"poll_post":null,"post_access":true,"new_thread_access":true},"id":"1234567","jsonrpc":"2.0"}
{"result":{"thread":{"preset_id":"12571633","forum_id":"2419080","thread_id":"9024356","thread_subject":"6Gopher6 Calling me bad words","thread_replies":"51","thread_views":"6895","thread_type":"normal","thread_status":"locked","thread_user_id":"7256144","thread_username":"1378483354575123327","thread_avatar":"https:\/\/assets-cloud.enjin.com\/users\/7256144\/avatar\/medium.1400116651.png","thread_lastpost_user_id":"5375337","thread_lastpost_username":"13641455421368885873","thread_lastpost_time":"1381181807","thread_moved_id":"0","thread_post_time":"1381022042","url":"https:\/\/www.enjin.com\/ajax.php?s=redirect&cmd=forum-thread&mobile=1&preset=12571633&id=9024356","post_count":"1","category_id":"1906989","forum_name":"Report a Player","forum_description":"Found a player breaking rules? Post them here with evidence!","disable_voting":"0","show_signature":"1","url_cms":"https:\/\/www.craftsurvivalgames.com\/forum\/m\/12571633\/viewthread\/9024356-6gopher6-calling-me-bad-words"},"posts":[{"post_id":"51473832","post_time":"1381180320","post_content":"i am not going to stop posting til he gets muted so help now","post_content_html":"i am not going to stop posting til he gets muted so help now","post_content_clean":"i am not going to stop posting til he gets muted so help now","post_user_id":"7256144","show_signature":"1","last_edit_time":"0","post_votes":"0","post_unhidden":"0","post_admin_hidden":"0","post_locked":"0","last_edit_user":"0","votes":null,"post_username":"Winston999","avatar":"https:\/\/assets-cloud.enjin.com\/users\/7256144\/avatar\/medium.1400116651.png","user_online":false,"user_votes":"16","user_posts":"483","url":"https:\/\/www.enjin.com\/ajax.php?s=redirect&cmd=forum-post&mobile=1&preset=12571633&id=51473832"},{"post_id":"51475687","post_time":"1381181807","post_content":"Hello Winston and Gopher, and whoever else has posted on this thread.\r\nWhoever was cursing did it 2-3 times and spammed. Yes, that deserves a mute for about 1 hour, but there is NO proof that this &quot;nicked troublemaker&quot; is Gopher. Someone said that about 5-6 people have those nicknames, and someone also could've been impersonating. Unless you get me proof that it was Gopher or he admits to it, there will be no muting going on. Also, enough fighting and spamming. Thread Locked.","post_content_html":"Hello Winston and Gopher, and whoever else has posted on this thread.<br \/> <br \/> Whoever was cursing did it 2-3 times and spammed. Yes, that deserves a mute for about 1 hour, but there is NO proof that this &quot;nicked troublemaker&quot; is Gopher. Someone said that about 5-6 people have those nicknames, and someone also could've been impersonating. Unless you get me proof that it was Gopher or he admits to it, there will be no muting going on. Also, enough fighting and spamming. Thread Locked.","post_content_clean":"Hello Winston and Gopher, and whoever else has posted on this thread. \r Whoever was cursing did it 2-3 times and spammed. Yes, that deserves a mute for about 1 hour, but there is NO proof that this \"nicked troublemaker\" is Gopher. Someone said that about 5-6 people have those nicknames, and someone also could've been impersonating. Unless you get me proof that it was Gopher or he admits to it, there will be no muting going on. Also, enough fighting and spamming. Thread Locked.","post_user_id":"5375337","show_signature":"1","last_edit_time":"0","post_votes":"0","post_unhidden":"0","post_admin_hidden":"0","post_locked":"0","last_edit_user":"0","votes":null,"post_username":"Scarlet Witch","avatar":"https:\/\/assets-cloud.enjin.com\/users\/5375337\/avatar\/medium.1437162398.jpeg","user_online":false,"user_votes":"741","user_posts":"1506","url":"https:\/\/www.enjin.com\/ajax.php?s=redirect&cmd=forum-post&mobile=1&preset=12571633&id=51475687"}],"total_items":"52","pages":6,"voted":false,"new_post_id":"51473832","thread_labels":[],"top_posters":{"result":[{"post_user_id":"7256144","posts":"25","username":"Winston999","avatar":"https:\/\/assets-cloud.enjin.com\/users\/7256144\/avatar\/medium.1400116651.png"},{"post_user_id":"5308949","posts":"10","username":"\uff2d\uff41\uff54\uff54\uff30\uff29\uff23\uff26\uff2c","avatar":"https:\/\/assets-cloud.enjin.com\/users\/5308949\/avatar\/medium.1420081334.png"},{"post_user_id":"4898494","posts":"10","username":"6Gopher6","avatar":"https:\/\/resources.enjin.com\/1465083537\/profile\/images\/avatar\/medium.png"},{"post_user_id":"5175307","posts":"5","username":"DragonLord","avatar":"https:\/\/assets-cloud.enjin.com\/users\/5175307\/avatar\/medium.1400094584.png"},{"post_user_id":"5375337","posts":"1","username":"Scarlet Witch","avatar":"https:\/\/assets-cloud.enjin.com\/users\/5375337\/avatar\/medium.1437162398.jpeg"},{"post_user_id":"5496936","posts":"1","username":"Dwarfs_Digging","avatar":"https:\/\/assets-cloud.enjin.com\/users\/5496936\/avatar\/medium.1406468426.jpeg"}],"num_users":"6"},"moderation_access":false,"poll_post":null,"post_access":true,"new_thread_access":true},"id":"1234567","jsonrpc":"2.0"}
