{"result":{"thread":{"preset_id":"12571633","forum_id":"2419049","thread_id":"9039256","thread_subject":"Golden Apples Over-Priced","thread_replies":"25","thread_views":"1799","thread_type":"normal","thread_status":"locked","thread_user_id":"5931945","thread_username":"1368305484293136370","thread_avatar":"https:\/\/assets-cloud.enjin.com\/users\/5931945\/avatar\/medium.1400104636.png","thread_lastpost_user_id":"6806305","thread_lastpost_username":"1375057529271890020","thread_lastpost_time":"1383279875","thread_moved_id":"0","thread_post_time":"1381112259","url":"https:\/\/www.enjin.com\/ajax.php?s=redirect&cmd=forum-thread&mobile=1&preset=12571633&id=9039256","post_count":"1","category_id":"1023514","forum_name":"Gaming","forum_description":"Chat about anything gaming related, no matter what platform!.","disable_voting":"0","show_signature":"1","url_cms":"https:\/\/www.craftsurvivalgames.com\/forum\/m\/12571633\/viewthread\/9039256-golden-apples-overpriced"},"posts":[{"post_id":"51423842","post_time":"1381112259","post_content":"LAME!!!!!!!!!","post_content_html":"LAME!!!!!!!!!","post_content_clean":"LAME!!!!!!!!!","post_user_id":"5931945","show_signature":"1","last_edit_time":"0","post_votes":"0","post_unhidden":"0","post_admin_hidden":"0","post_locked":"0","last_edit_user":"0","votes":null,"post_username":"&uArr;&mdash;=\u2630[=Flamy=]\u2630=&mdash;&uArr;","avatar":"https:\/\/assets-cloud.enjin.com\/users\/5931945\/avatar\/medium.1400104636.png","user_online":false,"user_votes":"24","user_posts":"394","url":"https:\/\/www.enjin.com\/ajax.php?s=redirect&cmd=forum-post&mobile=1&preset=12571633&id=51423842"},{"post_id":"51425725","post_time":"1381114398","post_content":"It is overpriced &gt;.&lt; it needs to be nerfed by about half","post_content_html":"It is overpriced &gt;.&lt; it needs to be nerfed by about half","post_content_clean":"It is overpriced >.< it needs to be nerfed by about half","post_user_id":"5175307","show_signature":"1","last_edit_time":"0","post_votes":"1","post_unhidden":"0","post_admin_hidden":"0","post_locked":"0","last_edit_user":"0","votes":null,"post_username":"DragonLord","avatar":"https:\/\/assets-cloud.enjin.com\/users\/5175307\/avatar\/medium.1400094584.png","user_online":false,"user_votes":"14","user_posts":"4","url":"https:\/\/www.enjin.com\/ajax.php?s=redirect&cmd=forum-post&mobile=1&preset=12571633&id=51425725"},{"post_id":"51426226","post_time":"1381115018","post_content":"Lol not a problem to me","post_content_html":"Lol not a problem to me","post_content_clean":"Lol not a problem to me","post_user_id":"6333014","show_signature":"1","last_edit_time":"0","post_votes":"0","post_unhidden":"0","post_admin_hidden":"0","post_locked":"0","last_edit_user":"0","votes":null,"post_username":"toby","avatar":"https:\/\/resources.enjin.com\/1465083537\/profile\/images\/avatar\/medium.png","user_online":false,"user_votes":"134","user_posts":"1023","url":"https:\/\/www.enjin.com\/ajax.php?s=redirect&cmd=forum-post&mobile=1&preset=12571633&id=51426226"},{"post_id":"51426982","post_time":"1381115952","post_content":"I agree this needs to be the price it was before or half of the price it is","post_content_html":"I agree this needs to be the price it was before or half of the price it is","post_content_clean":"I agree this needs to be the price it was before or half of the price it is","post_user_id":"5634129","show_signature":"1","last_edit_time":"0","post_votes":"0","post_unhidden":"0","post_admin_hidden":"0","post_locked":"0","last_edit_user":"0","votes":null,"post_username":"pokezombie1","avatar":"https:\/\/assets-cloud.enjin.com\/users\/5634129\/avatar\/medium.1400097769.png","user_online":false,"user_votes":"10","user_posts":"239","url":"https:\/\/www.enjin.com\/ajax.php?s=redirect&cmd=forum-post&mobile=1&preset=12571633&id=51426982"},{"post_id":"51427022","post_time":"1381116002","post_content":"i dont agree people think that its to op","post_content_html":"i dont agree people think that its to op","post_content_clean":"i dont agree people think that its to op","post_user_id":"6333014","show_signature":"1","last_edit_time":"0","post_votes":"0","post_unhidden":"0","post_admin_hidden":"0","post_locked":"0","last_edit_user":"0","votes":null,"post_username":"toby","avatar":"https:\/\/resources.enjin.com\/1465083537\/profile\/images\/avatar\/medium.png","user_online":false,"user_votes":"134","user_posts":"1023","url":"https:\/\/www.enjin.com\/ajax.php?s=redirect&cmd=forum-post&mobile=1&preset=12571633&id=51427022"},{"post_id":"51427040","post_time":"1381116023","post_content":"and reminding you im really OP","post_content_html":"and reminding you im really OP","post_content_clean":"and reminding you im really OP","post_user_id":"6333014","show_signature":"1","last_edit_time":"0","post_votes":"0","post_unhidden":"0","post_admin_hidden":"0","post_locked":"0","last_edit_user":"0","votes":null,"post_username":"toby","avatar":"https:\/\/resources.enjin.com\/1465083537\/profile\/images\/avatar\/medium.png","user_online":false,"user_votes":"134","user_posts":"1023","url":"https:\/\/www.enjin.com\/ajax.php?s=redirect&cmd=forum-post&mobile=1&preset=12571633&id=51427040"},{"post_id":"51427166","post_time":"1381116176","post_content":"Well lots of people are really oped on this sever including myself but this does need to change its way to much money for one apples Mabey change it for 8 but that's too much","post_content_html":"Well lots of people are really oped on this sever including myself but this does need to change its way to much money for one apples Mabey change it for 8 but that's too much","post_content_clean":"Well lots of people are really oped on this sever including myself but this does need to change its way to much money for one apples Mabey change it for 8 but that's too much","post_user_id":"5634129","show_signature":"1","last_edit_time":"0","post_votes":"0","post_unhidden":"0","post_admin_hidden":"0","post_locked":"0","last_edit_user":"0","votes":null,"post_username":"pokezombie1","avatar":"https:\/\/assets-cloud.enjin.com\/users\/5634129\/avatar\/medium.1400097769.png","user_online":false,"user_votes":"10","user_posts":"239","url":"https:\/\/www.enjin.com\/ajax.php?s=redirect&cmd=forum-post&mobile=1&preset=12571633&id=51427166"},{"post_id":"51428131","post_time":"1381117601","post_content":"[quote user_id=\"6333014\" avatar=\"https:\/\/resources.enjin.com\/profile\/images\/avatar\/medium.png\" name=\"toby\"]and reminding you im really OP[\/quote]\r\nIt isnt an issue for me either, stop showing off, I could easily kill you.","post_content_html":" <div class=\"bbcode_quote\"> <div class=\"bbcode_quote_head\">@6333014 wrote:<\/div> <div class=\"bbcode_quote_body\">and reminding you im really OP<\/div> <\/div> <br \/> It isnt an issue for me either, stop showing off, I could easily kill you.","post_content_clean":"and reminding you im really OP\r It isnt an issue for me either, stop showing off, I could easily kill you.","post_user_id":"5175307","show_signature":"1","last_edit_time":"0","post_votes":"1","post_unhidden":"0","post_admin_hidden":"0","post_locked":"0","last_edit_user":"0","votes":null,"post_username":"DragonLord","avatar":"https:\/\/assets-cloud.enjin.com\/users\/5175307\/avatar\/medium.1400094584.png","user_online":false,"user_votes":"14","user_posts":"4","url":"https:\/\/www.enjin.com\/ajax.php?s=redirect&cmd=forum-post&mobile=1&preset=12571633&id=51428131"},{"post_id":"51430604","post_time":"1381121741","post_content":"In my opinion they shouldn't be in the shop at all.","post_content_html":"In my opinion they shouldn't be in the shop at all.","post_content_clean":"In my opinion they shouldn't be in the shop at all.","post_user_id":"1084942","show_signature":"1","last_edit_time":"0","post_votes":"0","post_unhidden":"0","post_admin_hidden":"0","post_locked":"0","last_edit_user":"0","votes":null,"post_username":"Mozzie","avatar":"https:\/\/assets-cloud.enjin.com\/users\/1084942\/avatar\/medium.1400212514.png","user_online":false,"user_votes":"363","user_posts":"590","url":"https:\/\/www.enjin.com\/ajax.php?s=redirect&cmd=forum-post&mobile=1&preset=12571633&id=51430604"},{"post_id":"51431400","post_time":"1381123339","post_content":"Well, If you want to get the Enchanted Golden Apples the cheap way, why not just craft it? I mean the Gold Blocks in the store aren't too expensive. But I discovered that using gold ingots to make gold blocks are cheap than buying gold blocks first!\r\n\r\n-   Hansonwang2004\r\nDiamondaires!","post_content_html":"Well, If you want to get the Enchanted Golden Apples the cheap way, why not just craft it? I mean the Gold Blocks in the store aren't too expensive. But I discovered that using gold ingots to make gold blocks are cheap than buying gold blocks first!<br \/> <br \/> -   Hansonwang2004<br \/> <br \/> Diamondaires!","post_content_clean":"Well, If you want to get the Enchanted Golden Apples the cheap way, why not just craft it? I mean the Gold Blocks in the store aren't too expensive. But I discovered that using gold ingots to make gold blocks are cheap than buying gold blocks first! \r \r -   Hansonwang2004\r     Diamondaires!","post_user_id":"6993256","show_signature":"1","last_edit_time":"0","post_votes":"0","post_unhidden":"0","post_admin_hidden":"0","post_locked":"0","last_edit_user":"0","votes":null,"post_username":"HansonMC","avatar":"https:\/\/assets-cloud.enjin.com\/users\/6993256\/avatar\/medium.1407658173.png","user_online":false,"user_votes":"73","user_posts":"525","url":"https:\/\/www.enjin.com\/ajax.php?s=redirect&cmd=forum-post&mobile=1&preset=12571633&id=51431400"}],"total_items":"26","pages":3,"voted":false,"new_post_id":false,"thread_labels":[],"top_posters":{"result":[{"post_user_id":"6333014","posts":"6","username":"toby","avatar":"https:\/\/resources.enjin.com\/1465083537\/profile\/images\/avatar\/medium.png"},{"post_user_id":"5931945","posts":"5","username":"&uArr;&mdash;=\u2630[=Flamy=]\u2630=&mdash;&uArr;","avatar":"https:\/\/assets-cloud.enjin.com\/users\/5931945\/avatar\/medium.1400104636.png"},{"post_user_id":"5634129","posts":"2","username":"pokezombie1","avatar":"https:\/\/assets-cloud.enjin.com\/users\/5634129\/avatar\/medium.1400097769.png"},{"post_user_id":"5175307","posts":"2","username":"DragonLord","avatar":"https:\/\/assets-cloud.enjin.com\/users\/5175307\/avatar\/medium.1400094584.png"},{"post_user_id":"3247543","posts":"1","username":"FriendlyBum","avatar":"https:\/\/assets-cloud.enjin.com\/users\/3247543\/avatar\/medium.1400072406.png"},{"post_user_id":"6806305","posts":"1","username":"User","avatar":"https:\/\/resources.enjin.com\/1465083537\/profile\/images\/avatar\/medium.png"},{"post_user_id":"1084942","posts":"1","username":"Mozzie","avatar":"https:\/\/assets-cloud.enjin.com\/users\/1084942\/avatar\/medium.1400212514.png"},{"post_user_id":"6993256","posts":"1","username":"HansonMC","avatar":"https:\/\/assets-cloud.enjin.com\/users\/6993256\/avatar\/medium.1407658173.png"},{"post_user_id":"6240898","posts":"1","username":"spot","avatar":"https:\/\/assets-cloud.enjin.com\/users\/6240898\/avatar\/medium.1400106374.png"},{"post_user_id":"5375337","posts":"1","username":"Scarlet Witch","avatar":"https:\/\/assets-cloud.enjin.com\/users\/5375337\/avatar\/medium.1437162398.jpeg"},{"post_user_id":"5576473","posts":"1","username":"angry_bird_2000","avatar":"https:\/\/resources.enjin.com\/1465083537\/profile\/images\/avatar\/medium.png"},{"post_user_id":"5277236","posts":"1","username":"[Hi :3]TrickDoor","avatar":"https:\/\/assets-cloud.enjin.com\/users\/5277236\/avatar\/medium.1400100439.png"}],"num_users":"15"},"moderation_access":false,"poll_post":null,"post_access":true,"new_thread_access":true},"id":"1234567","jsonrpc":"2.0"}
{"result":{"thread":{"preset_id":"12571633","forum_id":"2419049","thread_id":"9039256","thread_subject":"Golden Apples Over-Priced","thread_replies":"25","thread_views":"1799","thread_type":"normal","thread_status":"locked","thread_user_id":"5931945","thread_username":"1368305484293136370","thread_avatar":"https:\/\/assets-cloud.enjin.com\/users\/5931945\/avatar\/medium.1400104636.png","thread_lastpost_user_id":"6806305","thread_lastpost_username":"1375057529271890020","thread_lastpost_time":"1383279875","thread_moved_id":"0","thread_post_time":"1381112259","url":"https:\/\/www.enjin.com\/ajax.php?s=redirect&cmd=forum-thread&mobile=1&preset=12571633&id=9039256","post_count":"1","category_id":"1023514","forum_name":"Gaming","forum_description":"Chat about anything gaming related, no matter what platform!.","disable_voting":"0","show_signature":"1","url_cms":"https:\/\/www.craftsurvivalgames.com\/forum\/m\/12571633\/viewthread\/9039256-golden-apples-overpriced"},"posts":[{"post_id":"51447566","post_time":"1381154035","post_content":"nice idea Wang. Thanks!","post_content_html":"nice idea Wang. Thanks!","post_content_clean":"nice idea Wang. Thanks!","post_user_id":"5931945","show_signature":"1","last_edit_time":"0","post_votes":"0","post_unhidden":"0","post_admin_hidden":"0","post_locked":"0","last_edit_user":"0","votes":null,"post_username":"&uArr;&mdash;=\u2630[=Flamy=]\u2630=&mdash;&uArr;","avatar":"https:\/\/assets-cloud.enjin.com\/users\/5931945\/avatar\/medium.1400104636.png","user_online":false,"user_votes":"24","user_posts":"394","url":"https:\/\/www.enjin.com\/ajax.php?s=redirect&cmd=forum-post&mobile=1&preset=12571633&id=51447566"},{"post_id":"51447647","post_time":"1381154147","post_content":"all im saying is that i dont really care because i have over 4stacks of them","post_content_html":"all im saying is that i dont really care because i have over 4stacks of them","post_content_clean":"all im saying is that i dont really care because i have over 4stacks of them","post_user_id":"6333014","show_signature":"1","last_edit_time":"0","post_votes":"0","post_unhidden":"0","post_admin_hidden":"0","post_locked":"0","last_edit_user":"0","votes":null,"post_username":"toby","avatar":"https:\/\/resources.enjin.com\/1465083537\/profile\/images\/avatar\/medium.png","user_online":false,"user_votes":"134","user_posts":"1023","url":"https:\/\/www.enjin.com\/ajax.php?s=redirect&cmd=forum-post&mobile=1&preset=12571633&id=51447647"},{"post_id":"51447699","post_time":"1381154227","post_content":"oh lol wait till you run out i had 10 stacks for about 2 monthsand when i went over to the sign they where overpriced","post_content_html":"oh lol wait till you run out i had 10 stacks for about 2 monthsand when i went over to the sign they where overpriced","post_content_clean":"oh lol wait till you run out i had 10 stacks for about 2 monthsand when i went over to the sign they where overpriced","post_user_id":"5931945","show_signature":"1","last_edit_time":"0","post_votes":"0","post_unhidden":"0","post_admin_hidden":"0","post_locked":"0","last_edit_user":"0","votes":null,"post_username":"&uArr;&mdash;=\u2630[=Flamy=]\u2630=&mdash;&uArr;","avatar":"https:\/\/assets-cloud.enjin.com\/users\/5931945\/avatar\/medium.1400104636.png","user_online":false,"user_votes":"24","user_posts":"394","url":"https:\/\/www.enjin.com\/ajax.php?s=redirect&cmd=forum-post&mobile=1&preset=12571633&id=51447699"},{"post_id":"51447811","post_time":"1381154363","post_content":"[quote user_id=\"5931945\" avatar=\"https:\/\/assets-cloud.enjin.com\/users\/5931945\/avatar\/characters\/8590179\/medium.png\" name=\"flamedude17\"]oh lol wait till you run out i had 10 stacks for about 2 monthsand when i went over to the sign they where overpriced[\/quote]\r\nDude im not much of a pvper. The only thing that i do is build on to my faction","post_content_html":" <div class=\"bbcode_quote\"> <div class=\"bbcode_quote_head\">@5931945 wrote:<\/div> <div class=\"bbcode_quote_body\">oh lol wait till you run out i had 10 stacks for about 2 monthsand when i went over to the sign they where overpriced<\/div> <\/div> <br \/> Dude im not much of a pvper. The only thing that i do is build on to my faction","post_content_clean":"oh lol wait till you run out i had 10 stacks for about 2 monthsand when i went over to the sign they where overpriced\r Dude im not much of a pvper. The only thing that i do is build on to my faction","post_user_id":"6333014","show_signature":"1","last_edit_time":"0","post_votes":"0","post_unhidden":"0","post_admin_hidden":"0","post_locked":"0","last_edit_user":"0","votes":null,"post_username":"toby","avatar":"https:\/\/resources.enjin.com\/1465083537\/profile\/images\/avatar\/medium.png","user_online":false,"user_votes":"134","user_posts":"1023","url":"https:\/\/www.enjin.com\/ajax.php?s=redirect&cmd=forum-post&mobile=1&preset=12571633&id=51447811"},{"post_id":"51447835","post_time":"1381154396","post_content":"and besides im only using them in raids","post_content_html":"and besides im only using them in raids","post_content_clean":"and besides im only using them in raids","post_user_id":"6333014","show_signature":"1","last_edit_time":"0","post_votes":"0","post_unhidden":"0","post_admin_hidden":"0","post_locked":"0","last_edit_user":"0","votes":null,"post_username":"toby","avatar":"https:\/\/resources.enjin.com\/1465083537\/profile\/images\/avatar\/medium.png","user_online":false,"user_votes":"134","user_posts":"1023","url":"https:\/\/www.enjin.com\/ajax.php?s=redirect&cmd=forum-post&mobile=1&preset=12571633&id=51447835"},{"post_id":"51454156","post_time":"1381161806","post_content":"I think it is cheaper to buy gold blocks and then apples","post_content_html":"I think it is cheaper to buy gold blocks and then apples","post_content_clean":"I think it is cheaper to buy gold blocks and then apples","post_user_id":"6240898","show_signature":"1","last_edit_time":"0","post_votes":"0","post_unhidden":"0","post_admin_hidden":"0","post_locked":"0","last_edit_user":"0","votes":null,"post_username":"spot","avatar":"https:\/\/assets-cloud.enjin.com\/users\/6240898\/avatar\/medium.1400106374.png","user_online":false,"user_votes":"258","user_posts":"2284","url":"https:\/\/www.enjin.com\/ajax.php?s=redirect&cmd=forum-post&mobile=1&preset=12571633&id=51454156"},{"post_id":"51464056","post_time":"1381172034","post_content":"The price is that way because half of the people on the server have billions of dollars. Which means they buy hundreds of them and use them constantly during pvp. We have had many complaints for players constantly scarfing them down while pvping. It's too OP for players. Unless they are going to be taken out of the shop, the price will remain the same.","post_content_html":"The price is that way because half of the people on the server have billions of dollars. Which means they buy hundreds of them and use them constantly during pvp. We have had many complaints for players constantly scarfing them down while pvping. It's too OP for players. Unless they are going to be taken out of the shop, the price will remain the same.","post_content_clean":"The price is that way because half of the people on the server have billions of dollars. Which means they buy hundreds of them and use them constantly during pvp. We have had many complaints for players constantly scarfing them down while pvping. It's too OP for players. Unless they are going to be taken out of the shop, the price will remain the same.","post_user_id":"5375337","show_signature":"1","last_edit_time":"0","post_votes":"0","post_unhidden":"0","post_admin_hidden":"0","post_locked":"0","last_edit_user":"0","votes":null,"post_username":"Scarlet Witch","avatar":"https:\/\/assets-cloud.enjin.com\/users\/5375337\/avatar\/medium.1437162398.jpeg","user_online":false,"user_votes":"741","user_posts":"1506","url":"https:\/\/www.enjin.com\/ajax.php?s=redirect&cmd=forum-post&mobile=1&preset=12571633&id=51464056"},{"post_id":"51468651","post_time":"1381176120","post_content":"ik its fine upping the price just not that high","post_content_html":"ik its fine upping the price just not that high","post_content_clean":"ik its fine upping the price just not that high","post_user_id":"5931945","show_signature":"1","last_edit_time":"0","post_votes":"0","post_unhidden":"0","post_admin_hidden":"0","post_locked":"0","last_edit_user":"0","votes":null,"post_username":"&uArr;&mdash;=\u2630[=Flamy=]\u2630=&mdash;&uArr;","avatar":"https:\/\/assets-cloud.enjin.com\/users\/5931945\/avatar\/medium.1400104636.png","user_online":false,"user_votes":"24","user_posts":"394","url":"https:\/\/www.enjin.com\/ajax.php?s=redirect&cmd=forum-post&mobile=1&preset=12571633&id=51468651"},{"post_id":"51470114","post_time":"1381177433","post_content":"I have several large chests full xD I am going to make myself some $$$!","post_content_html":"I have several large chests full xD I am going to make myself some $$$!","post_content_clean":"I have several large chests full xD I am going to make myself some $$$!","post_user_id":"5576473","show_signature":"1","last_edit_time":"0","post_votes":"1","post_unhidden":"0","post_admin_hidden":"0","post_locked":"0","last_edit_user":"0","votes":null,"post_username":"angry_bird_2000","avatar":"https:\/\/resources.enjin.com\/1465083537\/profile\/images\/avatar\/medium.png","user_online":false,"user_votes":"115","user_posts":"476","url":"https:\/\/www.enjin.com\/ajax.php?s=redirect&cmd=forum-post&mobile=1&preset=12571633&id=51470114"},{"post_id":"51470727","post_time":"1381177902","post_content":"lol","post_content_html":"lol","post_content_clean":"lol","post_user_id":"5931945","show_signature":"1","last_edit_time":"0","post_votes":"0","post_unhidden":"0","post_admin_hidden":"0","post_locked":"0","last_edit_user":"0","votes":null,"post_username":"&uArr;&mdash;=\u2630[=Flamy=]\u2630=&mdash;&uArr;","avatar":"https:\/\/assets-cloud.enjin.com\/users\/5931945\/avatar\/medium.1400104636.png","user_online":false,"user_votes":"24","user_posts":"394","url":"https:\/\/www.enjin.com\/ajax.php?s=redirect&cmd=forum-post&mobile=1&preset=12571633&id=51470727"}],"total_items":"26","pages":3,"voted":false,"new_post_id":"51447566","thread_labels":[],"top_posters":{"result":[{"post_user_id":"6333014","posts":"6","username":"toby","avatar":"https:\/\/resources.enjin.com\/1465083537\/profile\/images\/avatar\/medium.png"},{"post_user_id":"5931945","posts":"5","username":"&uArr;&mdash;=\u2630[=Flamy=]\u2630=&mdash;&uArr;","avatar":"https:\/\/assets-cloud.enjin.com\/users\/5931945\/avatar\/medium.1400104636.png"},{"post_user_id":"5175307","posts":"2","username":"DragonLord","avatar":"https:\/\/assets-cloud.enjin.com\/users\/5175307\/avatar\/medium.1400094584.png"},{"post_user_id":"5634129","posts":"2","username":"pokezombie1","avatar":"https:\/\/assets-cloud.enjin.com\/users\/5634129\/avatar\/medium.1400097769.png"},{"post_user_id":"6240898","posts":"1","username":"spot","avatar":"https:\/\/assets-cloud.enjin.com\/users\/6240898\/avatar\/medium.1400106374.png"},{"post_user_id":"5375337","posts":"1","username":"Scarlet Witch","avatar":"https:\/\/assets-cloud.enjin.com\/users\/5375337\/avatar\/medium.1437162398.jpeg"},{"post_user_id":"5576473","posts":"1","username":"angry_bird_2000","avatar":"https:\/\/resources.enjin.com\/1465083537\/profile\/images\/avatar\/medium.png"},{"post_user_id":"5277236","posts":"1","username":"[Hi :3]TrickDoor","avatar":"https:\/\/assets-cloud.enjin.com\/users\/5277236\/avatar\/medium.1400100439.png"},{"post_user_id":"6565656","posts":"1","username":"Bobby77718","avatar":"https:\/\/assets-cloud.enjin.com\/users\/6565656\/avatar\/medium.1400117730.png"},{"post_user_id":"6878670","posts":"1","username":"J\u012fn (^&omega;^)","avatar":"https:\/\/assets-cloud.enjin.com\/users\/6878670\/avatar\/medium.1400114124.png"},{"post_user_id":"1858801","posts":"1","username":"TexSupport","avatar":"https:\/\/assets-cloud.enjin.com\/users\/1858801\/avatar\/medium.1545528815.jpeg"},{"post_user_id":"3247543","posts":"1","username":"FriendlyBum","avatar":"https:\/\/assets-cloud.enjin.com\/users\/3247543\/avatar\/medium.1400072406.png"}],"num_users":"15"},"moderation_access":false,"poll_post":null,"post_access":true,"new_thread_access":true},"id":"1234567","jsonrpc":"2.0"}
{"result":{"thread":{"preset_id":"12571633","forum_id":"2419049","thread_id":"9039256","thread_subject":"Golden Apples Over-Priced","thread_replies":"25","thread_views":"1799","thread_type":"normal","thread_status":"locked","thread_user_id":"5931945","thread_username":"1368305484293136370","thread_avatar":"https:\/\/assets-cloud.enjin.com\/users\/5931945\/avatar\/medium.1400100439.png","thread_lastpost_user_id":"6806305","thread_lastpost_username":"1375057529271890020","thread_lastpost_time":"1383279875","thread_moved_id":"0","thread_post_time":"1381112259","url":"https:\/\/www.enjin.com\/ajax.php?s=redirect&cmd=forum-thread&mobile=1&preset=12571633&id=9039256","post_count":"1","category_id":"1023514","forum_name":"Gaming","forum_description":"Chat about anything gaming related, no matter what platform!.","disable_voting":"0","show_signature":"1","url_cms":"https:\/\/www.craftsurvivalgames.com\/forum\/m\/12571633\/viewthread\/9039256-golden-apples-overpriced"},"posts":[{"post_id":"51478099","post_time":"1381183803","post_content":"I think the costs should be near 50-150k range...Thats really over priced if u ask me","post_content_html":"I think the costs should be near 50-150k range...Thats really over priced if u ask me","post_content_clean":"I think the costs should be near 50-150k range...Thats really over priced if u ask me","post_user_id":"5277236","show_signature":"1","last_edit_time":"0","post_votes":"0","post_unhidden":"0","post_admin_hidden":"0","post_locked":"0","last_edit_user":"0","votes":null,"post_username":"[Hi :3]TrickDoor","avatar":"https:\/\/assets-cloud.enjin.com\/users\/5277236\/avatar\/medium.1400100439.png","user_online":false,"user_votes":"389","user_posts":"2836","url":"https:\/\/www.enjin.com\/ajax.php?s=redirect&cmd=forum-post&mobile=1&preset=12571633&id=51478099"},{"post_id":"51540652","post_time":"1381267071","post_content":"preety much everything in the shop is expensive (to me) IM RUNNING OUT OF MONEY!!!","post_content_html":"preety much everything in the shop is expensive (to me) IM RUNNING OUT OF MONEY!!!","post_content_clean":"preety much everything in the shop is expensive (to me) IM RUNNING OUT OF MONEY!!!","post_user_id":"6565656","show_signature":"1","last_edit_time":"0","post_votes":"0","post_unhidden":"0","post_admin_hidden":"0","post_locked":"0","last_edit_user":"0","votes":null,"post_username":"Bobby77718","avatar":"https:\/\/assets-cloud.enjin.com\/users\/6565656\/avatar\/medium.1400117730.png","user_online":false,"user_votes":"1","user_posts":"84","url":"https:\/\/www.enjin.com\/ajax.php?s=redirect&cmd=forum-post&mobile=1&preset=12571633&id=51540652"},{"post_id":"51541541","post_time":"1381267781","post_content":"People are saying that the apples are over priced but really I think that they are a fair price because people are using then in a pvp fight which I think is annoying and unfair. In my opinion, I think that they should not be in the shop at all! But it is just my opinion so it may not happen so, can we please stop with this madness please?","post_content_html":"People are saying that the apples are over priced but really I think that they are a fair price because people are using then in a pvp fight which I think is annoying and unfair. In my opinion, I think that they should not be in the shop at all! But it is just my opinion so it may not happen so, can we please stop with this madness please?","post_content_clean":"People are saying that the apples are over priced but really I think that they are a fair price because people are using then in a pvp fight which I think is annoying and unfair. In my opinion, I think that they should not be in the shop at all! But it is just my opinion so it may not happen so, can we please stop with this madness please?","post_user_id":"6878670","show_signature":"1","last_edit_time":"0","post_votes":"0","post_unhidden":"0","post_admin_hidden":"0","post_locked":"0","last_edit_user":"0","votes":null,"post_username":"J\u012fn (^&omega;^)","avatar":"https:\/\/assets-cloud.enjin.com\/users\/6878670\/avatar\/medium.1400114124.png","user_online":false,"user_votes":"23","user_posts":"80","url":"https:\/\/www.enjin.com\/ajax.php?s=redirect&cmd=forum-post&mobile=1&preset=12571633&id=51541541"},{"post_id":"53209046","post_time":"1383268728","post_content":"simple. get iron, get gold, get diamond\r\nsell all of it\r\n\r\n$$$$\r\n\r\nand das' da way i rooolll.","post_content_html":"simple. get iron, get gold, get diamond<br \/> <br \/> sell all of it<br \/> <br \/> $$$$<br \/> <br \/> and das' da way i rooolll.","post_content_clean":"simple. get iron, get gold, get diamond\r sell all of it\r \r $$$$\r \r and das' da way i rooolll.","post_user_id":"1858801","show_signature":"1","last_edit_time":"0","post_votes":"0","post_unhidden":"0","post_admin_hidden":"0","post_locked":"0","last_edit_user":"0","votes":null,"post_username":"TexSupport","avatar":"https:\/\/assets-cloud.enjin.com\/users\/1858801\/avatar\/medium.1545528815.jpeg","user_online":false,"user_votes":"167","user_posts":"1175","url":"https:\/\/www.enjin.com\/ajax.php?s=redirect&cmd=forum-post&mobile=1&preset=12571633&id=53209046"},{"post_id":"53210610","post_time":"1383270498","post_content":"[b]In my opinion, they are just right. There is to many god people in factions, in fact I think there shouldn't even be apples.[\/b]","post_content_html":"<b>In my opinion, they are just right. There is to many god people in factions, in fact I think there shouldn't even be apples.<\/b>","post_content_clean":"In my opinion, they are just right. There is to many god people in factions, in fact I think there shouldn't even be apples.","post_user_id":"3247543","show_signature":"1","last_edit_time":"0","post_votes":"0","post_unhidden":"0","post_admin_hidden":"0","post_locked":"0","last_edit_user":"0","votes":null,"post_username":"FriendlyBum","avatar":"https:\/\/assets-cloud.enjin.com\/users\/3247543\/avatar\/medium.1400072406.png","user_online":false,"user_votes":"555","user_posts":"2153","url":"https:\/\/www.enjin.com\/ajax.php?s=redirect&cmd=forum-post&mobile=1&preset=12571633&id=53210610"},{"post_id":"53216781","post_time":"1383279875","post_content":"[color=#6e23dd][b]I think its a good price. Having that kind of OP stuff needs to have a high cost. In my opinion...\r\n\r\n-Nutella[\/b][\/color]","post_content_html":"<b>I think its a good price. Having that kind of OP stuff needs to have a high cost. In my opinion...<br \/> <br \/> -Nutella<\/b>","post_content_clean":"I think its a good price. Having that kind of OP stuff needs to have a high cost. In my opinion...\r \r -Nutella","post_user_id":"6806305","show_signature":"1","last_edit_time":"0","post_votes":"0","post_unhidden":"0","post_admin_hidden":"0","post_locked":"0","last_edit_user":"0","votes":null,"post_username":"User","avatar":"https:\/\/resources.enjin.com\/1465083537\/profile\/images\/avatar\/medium.png","user_online":false,"user_votes":"767","user_posts":"1491","url":"https:\/\/www.enjin.com\/ajax.php?s=redirect&cmd=forum-post&mobile=1&preset=12571633&id=53216781"}],"total_items":"26","pages":3,"voted":false,"new_post_id":"51478099","thread_labels":[],"top_posters":{"result":[{"post_user_id":"6333014","posts":"6","username":"toby","avatar":"https:\/\/resources.enjin.com\/1465083537\/profile\/images\/avatar\/medium.png"},{"post_user_id":"5931945","posts":"5","username":"&uArr;&mdash;=\u2630[=Flamy=]\u2630=&mdash;&uArr;","avatar":"https:\/\/assets-cloud.enjin.com\/users\/5931945\/avatar\/medium.1400104636.png"},{"post_user_id":"5175307","posts":"2","username":"DragonLord","avatar":"https:\/\/assets-cloud.enjin.com\/users\/5175307\/avatar\/medium.1400094584.png"},{"post_user_id":"5634129","posts":"2","username":"pokezombie1","avatar":"https:\/\/assets-cloud.enjin.com\/users\/5634129\/avatar\/medium.1400097769.png"},{"post_user_id":"6240898","posts":"1","username":"spot","avatar":"https:\/\/assets-cloud.enjin.com\/users\/6240898\/avatar\/medium.1400106374.png"},{"post_user_id":"5375337","posts":"1","username":"Scarlet Witch","avatar":"https:\/\/assets-cloud.enjin.com\/users\/5375337\/avatar\/medium.1437162398.jpeg"},{"post_user_id":"5576473","posts":"1","username":"angry_bird_2000","avatar":"https:\/\/resources.enjin.com\/1465083537\/profile\/images\/avatar\/medium.png"},{"post_user_id":"5277236","posts":"1","username":"[Hi :3]TrickDoor","avatar":"https:\/\/assets-cloud.enjin.com\/users\/5277236\/avatar\/medium.1400100439.png"},{"post_user_id":"6565656","posts":"1","username":"Bobby77718","avatar":"https:\/\/assets-cloud.enjin.com\/users\/6565656\/avatar\/medium.1400117730.png"},{"post_user_id":"6878670","posts":"1","username":"J\u012fn (^&omega;^)","avatar":"https:\/\/assets-cloud.enjin.com\/users\/6878670\/avatar\/medium.1400114124.png"},{"post_user_id":"1858801","posts":"1","username":"TexSupport","avatar":"https:\/\/assets-cloud.enjin.com\/users\/1858801\/avatar\/medium.1545528815.jpeg"},{"post_user_id":"3247543","posts":"1","username":"FriendlyBum","avatar":"https:\/\/assets-cloud.enjin.com\/users\/3247543\/avatar\/medium.1400072406.png"}],"num_users":"15"},"moderation_access":false,"poll_post":null,"post_access":true,"new_thread_access":true},"id":"1234567","jsonrpc":"2.0"}
