{"result":{"thread":{"preset_id":"12571633","forum_id":"3421425","thread_id":"9086886","thread_subject":"Who will win in a fight?! (Game)","thread_replies":"23","thread_views":"3742","thread_type":"normal","thread_status":"locked","thread_user_id":"5440874","thread_username":"1364607932959845462","thread_avatar":"https:\/\/assets-cloud.enjin.com\/users\/5440874\/avatar\/medium.1495487251.jpeg","thread_lastpost_user_id":"4269573","thread_lastpost_username":"13556883971927174286","thread_lastpost_time":"1383791952","thread_moved_id":"0","thread_post_time":"1381457087","url":"https:\/\/www.enjin.com\/ajax.php?s=redirect&cmd=forum-thread&mobile=1&preset=12571633&id=9086886","post_count":0,"category_id":"1023514","forum_name":"Games","forum_description":"Feel free to post a game, that the whole community would enjoy!","disable_voting":"0","show_signature":"1","url_cms":"https:\/\/www.craftsurvivalgames.com\/forum\/m\/12571633\/viewthread\/9086886-who-will-win-in-fight-game"},"posts":[{"post_id":"51698346","post_time":"1381457087","post_content":"Vote on who you think would win in a fight!\r\n\r\n\r\nNext Match is!\r\n\r\n[center][b]Kratos[\/b][\/center]\r\n[img]http:\/\/xbigygames.com\/wp-content\/uploads\/2013\/03\/kratos_god_of_war-1920x1200.jpg[\/img]\r\n\r\n\r\n[center]Vs[\/center]\r\n\r\n\r\n[center][b]Master Chief[\/b][\/center]\r\n[img]http:\/\/static.comicvine.com\/uploads\/original\/11111\/111114474\/3268850-master+chief+epicness.jpg[\/img]","post_content_html":"Vote on who you think would win in a fight!<br \/> <br \/> Next Match is!<br \/>  <center> <b>Kratos<\/b> <\/center> <br \/> <img src=\"http:\/\/xbigygames.com\/wp-content\/uploads\/2013\/03\/kratos_god_of_war-1920x1200.jpg\" alt=\"kratos_god_of_war-1920x1200.jpg\" class=\"bbcode_img mobile_img\" style=\"\" \/><br \/>  <center> Vs <\/center>  <center> <b>Master Chief<\/b> <\/center> <br \/> <img src=\"http:\/\/static.comicvine.com\/uploads\/original\/11111\/111114474\/3268850-master+chief+epicness.jpg\" alt=\"3268850-master+chief+epicness.jpg\" class=\"bbcode_img mobile_img\" style=\"\" \/>","post_content_clean":"Vote on who you think would win in a fight! \r \r \r Next Match is!\r \r Kratos\r \r \r \r Vs\r \r \r Master Chief\r ","post_user_id":"5440874","show_signature":"1","last_edit_time":"1383789417","post_votes":"0","post_unhidden":"0","post_admin_hidden":"0","post_locked":"0","last_edit_user":"0","votes":null,"post_username":"MooseTheEngineer","avatar":"https:\/\/assets-cloud.enjin.com\/users\/5440874\/avatar\/medium.1495487251.jpeg","user_online":false,"user_votes":"0","user_posts":0,"url":"https:\/\/www.enjin.com\/ajax.php?s=redirect&cmd=forum-post&mobile=1&preset=12571633&id=51698346"},{"post_id":"51698723","post_time":"1381457473","post_content":"Lololol duuued robo cop doesnt stand chance","post_content_html":"Lololol duuued robo cop doesnt stand chance","post_content_clean":"Lololol duuued robo cop doesnt stand chance","post_user_id":"5277236","show_signature":"1","last_edit_time":"0","post_votes":"0","post_unhidden":"0","post_admin_hidden":"0","post_locked":"0","last_edit_user":"0","votes":null,"post_username":"[Hi :3]TrickDoor","avatar":"https:\/\/assets-cloud.enjin.com\/users\/5277236\/avatar\/medium.1400100439.png","user_online":false,"user_votes":"389","user_posts":"2836","url":"https:\/\/www.enjin.com\/ajax.php?s=redirect&cmd=forum-post&mobile=1&preset=12571633&id=51698723"},{"post_id":"51702213","post_time":"1381461559","post_content":"Both are pretty cool. :p","post_content_html":"Both are pretty cool. <object class=\"emojione\" data=\"https:\/\/resources.enjin.com\/1489581540\/themes\/core\/images\/emojione\/svg\/1f61b.svg?0\" type=\"image\/svg+xml\" standby=\":p\">:p<\/object>","post_content_clean":"Both are pretty cool. :p","post_user_id":"5440874","show_signature":"1","last_edit_time":"0","post_votes":"0","post_unhidden":"0","post_admin_hidden":"0","post_locked":"0","last_edit_user":"0","votes":null,"post_username":"MooseTheEngineer","avatar":"https:\/\/assets-cloud.enjin.com\/users\/5440874\/avatar\/medium.1495487251.jpeg","user_online":false,"user_votes":"0","user_posts":"2843","url":"https:\/\/www.enjin.com\/ajax.php?s=redirect&cmd=forum-post&mobile=1&preset=12571633&id=51702213"},{"post_id":"51702255","post_time":"1381461608","post_content":"Judge Dredd looks constipated. xD","post_content_html":"Judge Dredd looks constipated. xD","post_content_clean":"Judge Dredd looks constipated. xD","post_user_id":"5440874","show_signature":"1","last_edit_time":"0","post_votes":"0","post_unhidden":"0","post_admin_hidden":"0","post_locked":"0","last_edit_user":"0","votes":null,"post_username":"MooseTheEngineer","avatar":"https:\/\/assets-cloud.enjin.com\/users\/5440874\/avatar\/medium.1495487251.jpeg","user_online":false,"user_votes":"0","user_posts":"2843","url":"https:\/\/www.enjin.com\/ajax.php?s=redirect&cmd=forum-post&mobile=1&preset=12571633&id=51702255"},{"post_id":"51702331","post_time":"1381461707","post_content":"LOLO","post_content_html":"LOLO","post_content_clean":"LOLO","post_user_id":"6333014","show_signature":"1","last_edit_time":"0","post_votes":"0","post_unhidden":"0","post_admin_hidden":"0","post_locked":"0","last_edit_user":"0","votes":null,"post_username":"toby","avatar":"https:\/\/resources.enjin.com\/1465083537\/profile\/images\/avatar\/medium.png","user_online":false,"user_votes":"134","user_posts":"1023","url":"https:\/\/www.enjin.com\/ajax.php?s=redirect&cmd=forum-post&mobile=1&preset=12571633&id=51702331"},{"post_id":"51702611","post_time":"1381462073","post_content":"I love robocop!.\r\nRobo cop all the way!","post_content_html":"I love robocop!.<br \/> <br \/> Robo cop all the way!","post_content_clean":"I love robocop!.\r Robo cop all the way!","post_user_id":"2423867","show_signature":"1","last_edit_time":"0","post_votes":"0","post_unhidden":"0","post_admin_hidden":"0","post_locked":"0","last_edit_user":"0","votes":null,"post_username":"PandaPlaysAll","avatar":"https:\/\/assets-cloud.enjin.com\/users\/2423867\/avatar\/medium.1401883342.png","user_online":false,"user_votes":"347","user_posts":"2975","url":"https:\/\/www.enjin.com\/ajax.php?s=redirect&cmd=forum-post&mobile=1&preset=12571633&id=51702611"},{"post_id":"51703144","post_time":"1381462799","post_content":"Robocop reboot.","post_content_html":"Robocop reboot.","post_content_clean":"Robocop reboot.","post_user_id":"5440874","show_signature":"1","last_edit_time":"0","post_votes":"0","post_unhidden":"0","post_admin_hidden":"0","post_locked":"0","last_edit_user":"0","votes":null,"post_username":"MooseTheEngineer","avatar":"https:\/\/assets-cloud.enjin.com\/users\/5440874\/avatar\/medium.1495487251.jpeg","user_online":false,"user_votes":"0","user_posts":"2843","url":"https:\/\/www.enjin.com\/ajax.php?s=redirect&cmd=forum-post&mobile=1&preset=12571633&id=51703144"},{"post_id":"51704040","post_time":"1381464163","post_content":"This is a close battle. :D","post_content_html":"This is a close battle. <object class=\"emojione\" data=\"https:\/\/resources.enjin.com\/1489581540\/themes\/core\/images\/emojione\/svg\/1f600.svg?0\" type=\"image\/svg+xml\" standby=\":d\">:d<\/object>","post_content_clean":"This is a close battle. :D","post_user_id":"5440874","show_signature":"1","last_edit_time":"0","post_votes":"0","post_unhidden":"0","post_admin_hidden":"0","post_locked":"0","last_edit_user":"0","votes":null,"post_username":"MooseTheEngineer","avatar":"https:\/\/assets-cloud.enjin.com\/users\/5440874\/avatar\/medium.1495487251.jpeg","user_online":false,"user_votes":"0","user_posts":"2843","url":"https:\/\/www.enjin.com\/ajax.php?s=redirect&cmd=forum-post&mobile=1&preset=12571633&id=51704040"},{"post_id":"51767333","post_time":"1381545076","post_content":"[center][b]Judge Dredd[\/b] Wins![\/center]\r\n[img w=\"980\" h=\"650\"]http:\/\/wac.450f.edgecastcdn.net\/80450F\/comicsalliance.com\/files\/2013\/09\/dayofchaosdredd.jpg[\/img]","post_content_html":" <center> <b>Judge Dredd<\/b> Wins! <\/center> <br \/> <img src=\"http:\/\/wac.450f.edgecastcdn.net\/80450F\/comicsalliance.com\/files\/2013\/09\/dayofchaosdredd.jpg\" alt=\"dayofchaosdredd.jpg\" class=\"bbcode_img mobile_img\" style=\"\" width=\"980\" height=\"650\" \/>","post_content_clean":"Judge Dredd Wins!\r ","post_user_id":"5440874","show_signature":"1","last_edit_time":"0","post_votes":"0","post_unhidden":"0","post_admin_hidden":"0","post_locked":"0","last_edit_user":"0","votes":null,"post_username":"MooseTheEngineer","avatar":"https:\/\/assets-cloud.enjin.com\/users\/5440874\/avatar\/medium.1495487251.jpeg","user_online":false,"user_votes":"0","user_posts":"2843","url":"https:\/\/www.enjin.com\/ajax.php?s=redirect&cmd=forum-post&mobile=1&preset=12571633&id=51767333"},{"post_id":"51767536","post_time":"1381545319","post_content":"Goku vs Vegeta! Cast your votes!","post_content_html":"Goku vs Vegeta! Cast your votes!","post_content_clean":"Goku vs Vegeta! Cast your votes!","post_user_id":"5440874","show_signature":"1","last_edit_time":"0","post_votes":"0","post_unhidden":"0","post_admin_hidden":"0","post_locked":"0","last_edit_user":"0","votes":null,"post_username":"MooseTheEngineer","avatar":"https:\/\/assets-cloud.enjin.com\/users\/5440874\/avatar\/medium.1495487251.jpeg","user_online":false,"user_votes":"0","user_posts":"2843","url":"https:\/\/www.enjin.com\/ajax.php?s=redirect&cmd=forum-post&mobile=1&preset=12571633&id=51767536"}],"total_items":"24","pages":3,"voted":false,"new_post_id":false,"thread_labels":[],"top_posters":{"result":[{"post_user_id":"5440874","posts":"11","username":"MooseTheEngineer","avatar":"https:\/\/assets-cloud.enjin.com\/users\/5440874\/avatar\/medium.1495487251.jpeg"},{"post_user_id":"4269573","posts":"5","username":"9875146","avatar":"https:\/\/assets-cloud.enjin.com\/users\/4269573\/avatar\/medium.1400079797.png"},{"post_user_id":"2423867","posts":"2","username":"PandaPlaysAll","avatar":"https:\/\/assets-cloud.enjin.com\/users\/2423867\/avatar\/medium.1401883342.png"},{"post_user_id":"5277236","posts":"1","username":"[Hi :3]TrickDoor","avatar":"https:\/\/assets-cloud.enjin.com\/users\/5277236\/avatar\/medium.1400100439.png"},{"post_user_id":"6333014","posts":"1","username":"toby","avatar":"https:\/\/resources.enjin.com\/1465083537\/profile\/images\/avatar\/medium.png"},{"post_user_id":"3247543","posts":"1","username":"FriendlyBum","avatar":"https:\/\/assets-cloud.enjin.com\/users\/3247543\/avatar\/medium.1400072406.png"},{"post_user_id":"4331303","posts":"1","username":"Boom \u30c4","avatar":"https:\/\/assets-cloud.enjin.com\/users\/4331303\/avatar\/medium.1400080585.png"},{"post_user_id":"5375337","posts":"1","username":"Scarlet Witch","avatar":"https:\/\/assets-cloud.enjin.com\/users\/5375337\/avatar\/medium.1437162398.jpeg"},{"post_user_id":"7414718","posts":"1","username":"o355","avatar":"https:\/\/assets-cloud.enjin.com\/users\/7414718\/avatar\/medium.1400127287.png"}],"num_users":"9"},"moderation_access":false,"poll_post":null,"post_access":true,"new_thread_access":true},"id":"1234567","jsonrpc":"2.0"}
{"result":{"thread":{"preset_id":"12571633","forum_id":"3421425","thread_id":"9086886","thread_subject":"Who will win in a fight?! (Game)","thread_replies":"23","thread_views":"3742","thread_type":"normal","thread_status":"locked","thread_user_id":"5440874","thread_username":"1364607932959845462","thread_avatar":"https:\/\/assets-cloud.enjin.com\/users\/5440874\/avatar\/medium.1495487251.jpeg","thread_lastpost_user_id":"4269573","thread_lastpost_username":"13556883971927174286","thread_lastpost_time":"1383791952","thread_moved_id":"0","thread_post_time":"1381457087","url":"https:\/\/www.enjin.com\/ajax.php?s=redirect&cmd=forum-thread&mobile=1&preset=12571633&id=9086886","post_count":0,"category_id":"1023514","forum_name":"Games","forum_description":"Feel free to post a game, that the whole community would enjoy!","disable_voting":"0","show_signature":"1","url_cms":"https:\/\/www.craftsurvivalgames.com\/forum\/m\/12571633\/viewthread\/9086886-who-will-win-in-fight-game"},"posts":[{"post_id":"51698346","post_time":"1381457087","post_content":"Vote on who you think would win in a fight!\r\n\r\n\r\nNext Match is!\r\n\r\n[center][b]Kratos[\/b][\/center]\r\n[img]http:\/\/xbigygames.com\/wp-content\/uploads\/2013\/03\/kratos_god_of_war-1920x1200.jpg[\/img]\r\n\r\n\r\n[center]Vs[\/center]\r\n\r\n\r\n[center][b]Master Chief[\/b][\/center]\r\n[img]http:\/\/static.comicvine.com\/uploads\/original\/11111\/111114474\/3268850-master+chief+epicness.jpg[\/img]","post_content_html":"Vote on who you think would win in a fight!<br \/> <br \/> Next Match is!<br \/>  <center> <b>Kratos<\/b> <\/center> <br \/> <img src=\"http:\/\/xbigygames.com\/wp-content\/uploads\/2013\/03\/kratos_god_of_war-1920x1200.jpg\" alt=\"kratos_god_of_war-1920x1200.jpg\" class=\"bbcode_img mobile_img\" style=\"\" \/><br \/>  <center> Vs <\/center>  <center> <b>Master Chief<\/b> <\/center> <br \/> <img src=\"http:\/\/static.comicvine.com\/uploads\/original\/11111\/111114474\/3268850-master+chief+epicness.jpg\" alt=\"3268850-master+chief+epicness.jpg\" class=\"bbcode_img mobile_img\" style=\"\" \/>","post_content_clean":"Vote on who you think would win in a fight! \r \r \r Next Match is!\r \r Kratos\r \r \r \r Vs\r \r \r Master Chief\r ","post_user_id":"5440874","show_signature":"1","last_edit_time":"1383789417","post_votes":"0","post_unhidden":"0","post_admin_hidden":"0","post_locked":"0","last_edit_user":"0","votes":null,"post_username":"MooseTheEngineer","avatar":"https:\/\/assets-cloud.enjin.com\/users\/5440874\/avatar\/medium.1495487251.jpeg","user_online":false,"user_votes":"0","user_posts":0,"url":"https:\/\/www.enjin.com\/ajax.php?s=redirect&cmd=forum-post&mobile=1&preset=12571633&id=51698346"},{"post_id":"51768314","post_time":"1381546197","post_content":":( i love them both to much. I think goveta would when not vegeto :3. But idkkkk","post_content_html":":( i love them both to much. I think goveta would when not vegeto :3. But idkkkk","post_content_clean":":( i love them both to much. I think goveta would when not vegeto :3. But idkkkk","post_user_id":"2423867","show_signature":"1","last_edit_time":"0","post_votes":"0","post_unhidden":"0","post_admin_hidden":"0","post_locked":"0","last_edit_user":"0","votes":null,"post_username":"PandaPlaysAll","avatar":"https:\/\/assets-cloud.enjin.com\/users\/2423867\/avatar\/medium.1401883342.png","user_online":false,"user_votes":"347","user_posts":"2975","url":"https:\/\/www.enjin.com\/ajax.php?s=redirect&cmd=forum-post&mobile=1&preset=12571633&id=51768314"},{"post_id":"53626089","post_time":"1383789443","post_content":"Who would win? Kratos or Master Chief!","post_content_html":"Who would win? Kratos or Master Chief!","post_content_clean":"Who would win? Kratos or Master Chief!","post_user_id":"5440874","show_signature":"1","last_edit_time":"0","post_votes":"0","post_unhidden":"0","post_admin_hidden":"0","post_locked":"0","last_edit_user":"0","votes":null,"post_username":"MooseTheEngineer","avatar":"https:\/\/assets-cloud.enjin.com\/users\/5440874\/avatar\/medium.1495487251.jpeg","user_online":false,"user_votes":"0","user_posts":"2843","url":"https:\/\/www.enjin.com\/ajax.php?s=redirect&cmd=forum-post&mobile=1&preset=12571633&id=53626089"},{"post_id":"53626441","post_time":"1383789796","post_content":"Master chief is pro","post_content_html":"Master chief is pro","post_content_clean":"Master chief is pro","post_user_id":"4269573","show_signature":"1","last_edit_time":"0","post_votes":"0","post_unhidden":"0","post_admin_hidden":"0","post_locked":"0","last_edit_user":"0","votes":null,"post_username":"9875146","avatar":"https:\/\/assets-cloud.enjin.com\/users\/4269573\/avatar\/medium.1400079797.png","user_online":false,"user_votes":"3","user_posts":"60","url":"https:\/\/www.enjin.com\/ajax.php?s=redirect&cmd=forum-post&mobile=1&preset=12571633&id=53626441"},{"post_id":"53626788","post_time":"1383790141","post_content":"[b]No way, Kratos.[\/b]","post_content_html":"<b>No way, Kratos.<\/b>","post_content_clean":"No way, Kratos.","post_user_id":"3247543","show_signature":"1","last_edit_time":"0","post_votes":"0","post_unhidden":"0","post_admin_hidden":"0","post_locked":"0","last_edit_user":"0","votes":null,"post_username":"FriendlyBum","avatar":"https:\/\/assets-cloud.enjin.com\/users\/3247543\/avatar\/medium.1400072406.png","user_online":false,"user_votes":"555","user_posts":"2153","url":"https:\/\/www.enjin.com\/ajax.php?s=redirect&cmd=forum-post&mobile=1&preset=12571633&id=53626788"},{"post_id":"53627146","post_time":"1383790504","post_content":"[b][color=#6e23dd]Kratos all the way![\/color][\/b]","post_content_html":"<b>Kratos all the way!<\/b>","post_content_clean":"Kratos all the way!","post_user_id":"4331303","show_signature":"1","last_edit_time":"0","post_votes":"0","post_unhidden":"0","post_admin_hidden":"0","post_locked":"0","last_edit_user":"0","votes":null,"post_username":"Boom \u30c4","avatar":"https:\/\/assets-cloud.enjin.com\/users\/4331303\/avatar\/medium.1400080585.png","user_online":false,"user_votes":"122","user_posts":"871","url":"https:\/\/www.enjin.com\/ajax.php?s=redirect&cmd=forum-post&mobile=1&preset=12571633&id=53627146"},{"post_id":"53627228","post_time":"1383790581","post_content":"You guys think some random nude hobo can beat master chief.... well if you say so..... Jk don't mean to start a fight so pretend I said nothing....","post_content_html":"You guys think some random nude hobo can beat master chief.... well if you say so..... Jk don't mean to start a fight so pretend I said nothing....","post_content_clean":"You guys think some random nude hobo can beat master chief.... well if you say so..... Jk don't mean to start a fight so pretend I said nothing....","post_user_id":"4269573","show_signature":"1","last_edit_time":"0","post_votes":"0","post_unhidden":"0","post_admin_hidden":"0","post_locked":"0","last_edit_user":"0","votes":null,"post_username":"9875146","avatar":"https:\/\/assets-cloud.enjin.com\/users\/4269573\/avatar\/medium.1400079797.png","user_online":false,"user_votes":"3","user_posts":"60","url":"https:\/\/www.enjin.com\/ajax.php?s=redirect&cmd=forum-post&mobile=1&preset=12571633&id=53627228"},{"post_id":"53627280","post_time":"1383790643","post_content":"[quote user_id=\"4269573\" avatar=\"https:\/\/cravatar.eu\/helmavatar\/9875146\/74.png\" name=\"9875146\"]You guys think some random nude hobo can beat master chief.... well if you say so..... Jk don't mean to start a fight so pretend I said nothing....[\/quote]\r\nDo you even know who Kratos is? :P","post_content_html":" <div class=\"bbcode_quote\"> <div class=\"bbcode_quote_head\">@4269573 wrote:<\/div> <div class=\"bbcode_quote_body\">You guys think some random nude hobo can beat master chief.... well if you say so..... Jk don't mean to start a fight so pretend I said nothing....<\/div> <\/div> <br \/> Do you even know who Kratos is? <object class=\"emojione\" data=\"https:\/\/resources.enjin.com\/1489581540\/themes\/core\/images\/emojione\/svg\/1f61b.svg?0\" type=\"image\/svg+xml\" standby=\":p\">:p<\/object>","post_content_clean":"You guys think some random nude hobo can beat master chief.... well if you say so..... Jk don't mean to start a fight so pretend I said nothing....\r Do you even know who Kratos is? :P","post_user_id":"5440874","show_signature":"1","last_edit_time":"0","post_votes":"0","post_unhidden":"0","post_admin_hidden":"0","post_locked":"0","last_edit_user":"0","votes":null,"post_username":"MooseTheEngineer","avatar":"https:\/\/assets-cloud.enjin.com\/users\/5440874\/avatar\/medium.1495487251.jpeg","user_online":false,"user_votes":"0","user_posts":"2843","url":"https:\/\/www.enjin.com\/ajax.php?s=redirect&cmd=forum-post&mobile=1&preset=12571633&id=53627280"},{"post_id":"53627956","post_time":"1383791256","post_content":"I dont know who Kratos is :3","post_content_html":"I dont know who Kratos is :3","post_content_clean":"I dont know who Kratos is :3","post_user_id":"5375337","show_signature":"1","last_edit_time":"0","post_votes":"0","post_unhidden":"0","post_admin_hidden":"0","post_locked":"0","last_edit_user":"0","votes":null,"post_username":"Scarlet Witch","avatar":"https:\/\/assets-cloud.enjin.com\/users\/5375337\/avatar\/medium.1437162398.jpeg","user_online":false,"user_votes":"741","user_posts":"1506","url":"https:\/\/www.enjin.com\/ajax.php?s=redirect&cmd=forum-post&mobile=1&preset=12571633&id=53627956"},{"post_id":"53627993","post_time":"1383791303","post_content":"I don't even know these people...","post_content_html":"I don't even know these people...","post_content_clean":"I don't even know these people...","post_user_id":"7414718","show_signature":"1","last_edit_time":"0","post_votes":"0","post_unhidden":"0","post_admin_hidden":"0","post_locked":"0","last_edit_user":"0","votes":null,"post_username":"o355","avatar":"https:\/\/assets-cloud.enjin.com\/users\/7414718\/avatar\/medium.1400127287.png","user_online":false,"user_votes":"85","user_posts":"726","url":"https:\/\/www.enjin.com\/ajax.php?s=redirect&cmd=forum-post&mobile=1&preset=12571633&id=53627993"}],"total_items":"24","pages":3,"voted":false,"new_post_id":"51768314","thread_labels":[],"top_posters":{"result":[{"post_user_id":"5440874","posts":"11","username":"MooseTheEngineer","avatar":"https:\/\/assets-cloud.enjin.com\/users\/5440874\/avatar\/medium.1495487251.jpeg"},{"post_user_id":"4269573","posts":"5","username":"9875146","avatar":"https:\/\/assets-cloud.enjin.com\/users\/4269573\/avatar\/medium.1400079797.png"},{"post_user_id":"2423867","posts":"2","username":"PandaPlaysAll","avatar":"https:\/\/assets-cloud.enjin.com\/users\/2423867\/avatar\/medium.1401883342.png"},{"post_user_id":"3247543","posts":"1","username":"FriendlyBum","avatar":"https:\/\/assets-cloud.enjin.com\/users\/3247543\/avatar\/medium.1400072406.png"},{"post_user_id":"4331303","posts":"1","username":"Boom \u30c4","avatar":"https:\/\/assets-cloud.enjin.com\/users\/4331303\/avatar\/medium.1400080585.png"},{"post_user_id":"5375337","posts":"1","username":"Scarlet Witch","avatar":"https:\/\/assets-cloud.enjin.com\/users\/5375337\/avatar\/medium.1437162398.jpeg"},{"post_user_id":"7414718","posts":"1","username":"o355","avatar":"https:\/\/assets-cloud.enjin.com\/users\/7414718\/avatar\/medium.1400127287.png"},{"post_user_id":"5277236","posts":"1","username":"[Hi :3]TrickDoor","avatar":"https:\/\/assets-cloud.enjin.com\/users\/5277236\/avatar\/medium.1400100439.png"},{"post_user_id":"6333014","posts":"1","username":"toby","avatar":"https:\/\/resources.enjin.com\/1465083537\/profile\/images\/avatar\/medium.png"}],"num_users":"9"},"moderation_access":false,"poll_post":null,"post_access":true,"new_thread_access":true},"id":"1234567","jsonrpc":"2.0"}
{"result":{"thread":{"preset_id":"12571633","forum_id":"3421425","thread_id":"9086886","thread_subject":"Who will win in a fight?! (Game)","thread_replies":"23","thread_views":"3742","thread_type":"normal","thread_status":"locked","thread_user_id":"5440874","thread_username":"1364607932959845462","thread_avatar":"https:\/\/assets-cloud.enjin.com\/users\/5440874\/avatar\/medium.1495487251.jpeg","thread_lastpost_user_id":"4269573","thread_lastpost_username":"13556883971927174286","thread_lastpost_time":"1383791952","thread_moved_id":"0","thread_post_time":"1381457087","url":"https:\/\/www.enjin.com\/ajax.php?s=redirect&cmd=forum-thread&mobile=1&preset=12571633&id=9086886","post_count":0,"category_id":"1023514","forum_name":"Games","forum_description":"Feel free to post a game, that the whole community would enjoy!","disable_voting":"0","show_signature":"1","url_cms":"https:\/\/www.craftsurvivalgames.com\/forum\/m\/12571633\/viewthread\/9086886-who-will-win-in-fight-game"},"posts":[{"post_id":"51698346","post_time":"1381457087","post_content":"Vote on who you think would win in a fight!\r\n\r\n\r\nNext Match is!\r\n\r\n[center][b]Kratos[\/b][\/center]\r\n[img]http:\/\/xbigygames.com\/wp-content\/uploads\/2013\/03\/kratos_god_of_war-1920x1200.jpg[\/img]\r\n\r\n\r\n[center]Vs[\/center]\r\n\r\n\r\n[center][b]Master Chief[\/b][\/center]\r\n[img]http:\/\/static.comicvine.com\/uploads\/original\/11111\/111114474\/3268850-master+chief+epicness.jpg[\/img]","post_content_html":"Vote on who you think would win in a fight!<br \/> <br \/> Next Match is!<br \/>  <center> <b>Kratos<\/b> <\/center> <br \/> <img src=\"http:\/\/xbigygames.com\/wp-content\/uploads\/2013\/03\/kratos_god_of_war-1920x1200.jpg\" alt=\"kratos_god_of_war-1920x1200.jpg\" class=\"bbcode_img mobile_img\" style=\"\" \/><br \/>  <center> Vs <\/center>  <center> <b>Master Chief<\/b> <\/center> <br \/> <img src=\"http:\/\/static.comicvine.com\/uploads\/original\/11111\/111114474\/3268850-master+chief+epicness.jpg\" alt=\"3268850-master+chief+epicness.jpg\" class=\"bbcode_img mobile_img\" style=\"\" \/>","post_content_clean":"Vote on who you think would win in a fight! \r \r \r Next Match is!\r \r Kratos\r \r \r \r Vs\r \r \r Master Chief\r ","post_user_id":"5440874","show_signature":"1","last_edit_time":"1383789417","post_votes":"0","post_unhidden":"0","post_admin_hidden":"0","post_locked":"0","last_edit_user":"0","votes":null,"post_username":"MooseTheEngineer","avatar":"https:\/\/assets-cloud.enjin.com\/users\/5440874\/avatar\/medium.1495487251.jpeg","user_online":false,"user_votes":"0","user_posts":0,"url":"https:\/\/www.enjin.com\/ajax.php?s=redirect&cmd=forum-post&mobile=1&preset=12571633&id=51698346"},{"post_id":"53628036","post_time":"1383791348","post_content":"Ya i know kratos","post_content_html":"Ya i know kratos","post_content_clean":"Ya i know kratos","post_user_id":"4269573","show_signature":"1","last_edit_time":"0","post_votes":"0","post_unhidden":"0","post_admin_hidden":"0","post_locked":"0","last_edit_user":"0","votes":null,"post_username":"9875146","avatar":"https:\/\/assets-cloud.enjin.com\/users\/4269573\/avatar\/medium.1400079797.png","user_online":false,"user_votes":"3","user_posts":"60","url":"https:\/\/www.enjin.com\/ajax.php?s=redirect&cmd=forum-post&mobile=1&preset=12571633&id=53628036"},{"post_id":"53628162","post_time":"1383791484","post_content":"Breif summary of Kratos;\r\nSpartan who has killed creatures from Greek Mythology; and Greek Gods. Lost his family from his greed.","post_content_html":"Breif summary of Kratos;<br \/> <br \/> Spartan who has killed creatures from Greek Mythology; and Greek Gods. Lost his family from his greed.","post_content_clean":"Breif summary of Kratos;\r Spartan who has killed creatures from Greek Mythology; and Greek Gods. Lost his family from his greed.","post_user_id":"5440874","show_signature":"1","last_edit_time":"0","post_votes":"0","post_unhidden":"0","post_admin_hidden":"0","post_locked":"0","last_edit_user":"0","votes":null,"post_username":"MooseTheEngineer","avatar":"https:\/\/assets-cloud.enjin.com\/users\/5440874\/avatar\/medium.1495487251.jpeg","user_online":false,"user_votes":"0","user_posts":"2843","url":"https:\/\/www.enjin.com\/ajax.php?s=redirect&cmd=forum-post&mobile=1&preset=12571633&id=53628162"},{"post_id":"53628393","post_time":"1383791715","post_content":"I haven't played the God of war series cause it's to inappropriate.","post_content_html":"I haven't played the God of war series cause it's to inappropriate.","post_content_clean":"I haven't played the God of war series cause it's to inappropriate.","post_user_id":"4269573","show_signature":"1","last_edit_time":"0","post_votes":"0","post_unhidden":"0","post_admin_hidden":"0","post_locked":"0","last_edit_user":"0","votes":null,"post_username":"9875146","avatar":"https:\/\/assets-cloud.enjin.com\/users\/4269573\/avatar\/medium.1400079797.png","user_online":false,"user_votes":"3","user_posts":"60","url":"https:\/\/www.enjin.com\/ajax.php?s=redirect&cmd=forum-post&mobile=1&preset=12571633&id=53628393"},{"post_id":"53628548","post_time":"1383791864","post_content":"That is true, lost of limbs being ripped and; the yea. . .","post_content_html":"That is true, lost of limbs being ripped and; the yea. . .","post_content_clean":"That is true, lost of limbs being ripped and; the yea. . .","post_user_id":"5440874","show_signature":"1","last_edit_time":"0","post_votes":"0","post_unhidden":"0","post_admin_hidden":"0","post_locked":"0","last_edit_user":"0","votes":null,"post_username":"MooseTheEngineer","avatar":"https:\/\/assets-cloud.enjin.com\/users\/5440874\/avatar\/medium.1495487251.jpeg","user_online":false,"user_votes":"0","user_posts":"2843","url":"https:\/\/www.enjin.com\/ajax.php?s=redirect&cmd=forum-post&mobile=1&preset=12571633&id=53628548"},{"post_id":"53628645","post_time":"1383791952","post_content":"no i mean the nasty dirty stuff... I don't care about the violence...","post_content_html":"no i mean the nasty dirty stuff... I don't care about the violence...","post_content_clean":"no i mean the nasty dirty stuff... I don't care about the violence...","post_user_id":"4269573","show_signature":"1","last_edit_time":"0","post_votes":"0","post_unhidden":"0","post_admin_hidden":"0","post_locked":"0","last_edit_user":"0","votes":null,"post_username":"9875146","avatar":"https:\/\/assets-cloud.enjin.com\/users\/4269573\/avatar\/medium.1400079797.png","user_online":false,"user_votes":"3","user_posts":"60","url":"https:\/\/www.enjin.com\/ajax.php?s=redirect&cmd=forum-post&mobile=1&preset=12571633&id=53628645"}],"total_items":"24","pages":3,"voted":false,"new_post_id":"53628036","thread_labels":[],"top_posters":{"result":[{"post_user_id":"5440874","posts":"11","username":"MooseTheEngineer","avatar":"https:\/\/assets-cloud.enjin.com\/users\/5440874\/avatar\/medium.1495487251.jpeg"},{"post_user_id":"4269573","posts":"5","username":"9875146","avatar":"https:\/\/assets-cloud.enjin.com\/users\/4269573\/avatar\/medium.1400079797.png"},{"post_user_id":"2423867","posts":"2","username":"PandaPlaysAll","avatar":"https:\/\/assets-cloud.enjin.com\/users\/2423867\/avatar\/medium.1401883342.png"},{"post_user_id":"3247543","posts":"1","username":"FriendlyBum","avatar":"https:\/\/assets-cloud.enjin.com\/users\/3247543\/avatar\/medium.1400072406.png"},{"post_user_id":"4331303","posts":"1","username":"Boom \u30c4","avatar":"https:\/\/assets-cloud.enjin.com\/users\/4331303\/avatar\/medium.1400080585.png"},{"post_user_id":"5375337","posts":"1","username":"Scarlet Witch","avatar":"https:\/\/assets-cloud.enjin.com\/users\/5375337\/avatar\/medium.1437162398.jpeg"},{"post_user_id":"7414718","posts":"1","username":"o355","avatar":"https:\/\/assets-cloud.enjin.com\/users\/7414718\/avatar\/medium.1400127287.png"},{"post_user_id":"5277236","posts":"1","username":"[Hi :3]TrickDoor","avatar":"https:\/\/assets-cloud.enjin.com\/users\/5277236\/avatar\/medium.1400100439.png"},{"post_user_id":"6333014","posts":"1","username":"toby","avatar":"https:\/\/resources.enjin.com\/1465083537\/profile\/images\/avatar\/medium.png"}],"num_users":"9"},"moderation_access":false,"poll_post":null,"post_access":true,"new_thread_access":true},"id":"1234567","jsonrpc":"2.0"}
