{"result":{"thread":{"preset_id":"12571633","forum_id":"2419050","thread_id":"9281536","thread_subject":"[Official thread] Factions terrain contest! Post your pics here!","thread_replies":"70","thread_views":"19817","thread_type":"normal","thread_status":"locked","thread_user_id":"5295813","thread_username":"13635541171024291676","thread_avatar":"https:\/\/assets-cloud.enjin.com\/users\/5295813\/avatar\/medium.1400092930.png","thread_lastpost_user_id":"7935503","thread_lastpost_username":"13850865602013470996","thread_lastpost_time":"1393973026","thread_moved_id":"0","thread_post_time":"1382750803","url":"https:\/\/www.enjin.com\/ajax.php?s=redirect&cmd=forum-thread&mobile=1&preset=12571633&id=9281536","post_count":"1","category_id":"1023515","forum_name":"News & Announcements","forum_description":"Official news and announcements.","disable_voting":"0","show_signature":"1","url_cms":"https:\/\/www.craftsurvivalgames.com\/forum\/m\/12571633\/viewthread\/9281536-official-thread-factions-terrain-contest-post-your-pics-here"},"posts":[{"post_id":"52784565","post_time":"1382750803","post_content":"You can attach files, so that they will appear in your post.","post_content_html":"You can attach files, so that they will appear in your post.","post_content_clean":"You can attach files, so that they will appear in your post.","post_user_id":"5295813","show_signature":"1","last_edit_time":"0","post_votes":"3","post_unhidden":"0","post_admin_hidden":"0","post_locked":"0","last_edit_user":"0","votes":null,"post_username":"Shicking","avatar":"https:\/\/assets-cloud.enjin.com\/users\/5295813\/avatar\/medium.1400092930.png","user_online":false,"user_votes":"1795","user_posts":"1098","url":"https:\/\/www.enjin.com\/ajax.php?s=redirect&cmd=forum-post&mobile=1&preset=12571633&id=52784565"},{"post_id":"52802017","post_time":"1382781780","post_content":"Dat gif xD","post_content_html":"Dat gif xD","post_content_clean":"Dat gif xD","post_user_id":"7414718","show_signature":"1","last_edit_time":"0","post_votes":"0","post_unhidden":"0","post_admin_hidden":"0","post_locked":"0","last_edit_user":"0","votes":null,"post_username":"o355","avatar":"https:\/\/assets-cloud.enjin.com\/users\/7414718\/avatar\/medium.1400127287.png","user_online":false,"user_votes":"85","user_posts":"726","url":"https:\/\/www.enjin.com\/ajax.php?s=redirect&cmd=forum-post&mobile=1&preset=12571633&id=52802017"},{"post_id":"52802161","post_time":"1382782069","post_content":"It's a youtube video transfered into a Gif","post_content_html":"It's a youtube video transfered into a Gif","post_content_clean":"It's a youtube video transfered into a Gif","post_user_id":"2423867","show_signature":"1","last_edit_time":"0","post_votes":"0","post_unhidden":"0","post_admin_hidden":"0","post_locked":"0","last_edit_user":"0","votes":null,"post_username":"PandaPlaysAll","avatar":"https:\/\/assets-cloud.enjin.com\/users\/2423867\/avatar\/medium.1401883342.png","user_online":false,"user_votes":"347","user_posts":"2975","url":"https:\/\/www.enjin.com\/ajax.php?s=redirect&cmd=forum-post&mobile=1&preset=12571633&id=52802161"},{"post_id":"52802459","post_time":"1382782660","post_content":"so who can make the best terrain am I right???","post_content_html":"so who can make the best terrain am I right???","post_content_clean":"so who can make the best terrain am I right???","post_user_id":"6240898","show_signature":"1","last_edit_time":"0","post_votes":"0","post_unhidden":"0","post_admin_hidden":"0","post_locked":"0","last_edit_user":"0","votes":null,"post_username":"spot","avatar":"https:\/\/assets-cloud.enjin.com\/users\/6240898\/avatar\/medium.1400106374.png","user_online":false,"user_votes":"258","user_posts":"2284","url":"https:\/\/www.enjin.com\/ajax.php?s=redirect&cmd=forum-post&mobile=1&preset=12571633&id=52802459"},{"post_id":"52804021","post_time":"1382785585","post_content":"soo charchi Is a girl","post_content_html":"soo charchi Is a girl","post_content_clean":"soo charchi Is a girl","post_user_id":"7361443","show_signature":"1","last_edit_time":"0","post_votes":"0","post_unhidden":"0","post_admin_hidden":"0","post_locked":"0","last_edit_user":"0","votes":null,"post_username":"\u2704{snugglezxD:3emo} mojo215","avatar":"https:\/\/assets-cloud.enjin.com\/users\/7361443\/avatar\/medium.1455751269.jpeg","user_online":false,"user_votes":"0","user_posts":"2641","url":"https:\/\/www.enjin.com\/ajax.php?s=redirect&cmd=forum-post&mobile=1&preset=12571633&id=52804021"},{"post_id":"52804356","post_time":"1382786228","post_content":"no mojo..","post_content_html":"no mojo..","post_content_clean":"no mojo..","post_user_id":"3831403","show_signature":"1","last_edit_time":"0","post_votes":"0","post_unhidden":"0","post_admin_hidden":"0","post_locked":"0","last_edit_user":"0","votes":null,"post_username":"CAMILLA HANSEN","avatar":"https:\/\/assets-cloud.enjin.com\/users\/3831403\/avatar\/medium.1468103027.jpeg","user_online":false,"user_votes":null,"user_posts":0,"url":"https:\/\/www.enjin.com\/ajax.php?s=redirect&cmd=forum-post&mobile=1&preset=12571633&id=52804356"},{"post_id":"52808164","post_time":"1382792091","post_content":"[img]http:\/\/i1073.photobucket.com\/albums\/w396\/ridder1165\/Untitled12_zpsc5970848.jpg[\/img]\r\n[img]http:\/\/i1073.photobucket.com\/albums\/w396\/ridder1165\/Untitled13_zps983dd17e.jpg[\/img]","post_content_html":"<img src=\"http:\/\/i1073.photobucket.com\/albums\/w396\/ridder1165\/Untitled12_zpsc5970848.jpg\" alt=\"Untitled12_zpsc5970848.jpg\" class=\"bbcode_img mobile_img\" style=\"\" \/><br \/> <br \/> <img src=\"http:\/\/i1073.photobucket.com\/albums\/w396\/ridder1165\/Untitled13_zps983dd17e.jpg\" alt=\"Untitled13_zps983dd17e.jpg\" class=\"bbcode_img mobile_img\" style=\"\" \/>","post_content_clean":"\r ","post_user_id":"6267613","show_signature":"1","last_edit_time":"0","post_votes":"0","post_unhidden":"0","post_admin_hidden":"0","post_locked":"0","last_edit_user":"0","votes":null,"post_username":"Ridder","avatar":"https:\/\/resources.enjin.com\/1465083537\/profile\/images\/avatar\/medium.png","user_online":false,"user_votes":"82","user_posts":"172","url":"https:\/\/www.enjin.com\/ajax.php?s=redirect&cmd=forum-post&mobile=1&preset=12571633&id=52808164"},{"post_id":"52808234","post_time":"1382792182","post_content":"How did you get your pics to look so amazing...\r\nITS EPIC!","post_content_html":"How did you get your pics to look so amazing...<br \/> <br \/> ITS EPIC!","post_content_clean":"How did you get your pics to look so amazing...\r ITS EPIC!","post_user_id":"2423867","show_signature":"1","last_edit_time":"0","post_votes":"0","post_unhidden":"0","post_admin_hidden":"0","post_locked":"0","last_edit_user":"0","votes":null,"post_username":"PandaPlaysAll","avatar":"https:\/\/assets-cloud.enjin.com\/users\/2423867\/avatar\/medium.1401883342.png","user_online":false,"user_votes":"347","user_posts":"2975","url":"https:\/\/www.enjin.com\/ajax.php?s=redirect&cmd=forum-post&mobile=1&preset=12571633&id=52808234"},{"post_id":"52808625","post_time":"1382792665","post_content":"[quote user_id=\"6993256\" avatar=\"https:\/\/cravatar.eu\/helmavatar\/HansonMC\/74.png\" name=\"HansonMC\"]Wait a minute, is that 2nd picture Ridder posted upside down? 1.7 isn't even on the server yet!\r\n\r\nUnless the picutre has a water reflection or he's using a mod.[\/quote]\r\n\r\n\r\nNope, it isn't upside down, It's a Giant Cave. :P","post_content_html":" <div class=\"bbcode_quote\"> <div class=\"bbcode_quote_head\">@6993256 wrote:<\/div> <div class=\"bbcode_quote_body\">Wait a minute, is that 2nd picture Ridder posted upside down? 1.7 isn't even on the server yet!<br \/> <br \/> Unless the picutre has a water reflection or he's using a mod.<\/div> <\/div> <br \/> Nope, it isn't upside down, It's a Giant Cave. <object class=\"emojione\" data=\"https:\/\/resources.enjin.com\/1489581540\/themes\/core\/images\/emojione\/svg\/1f61b.svg?0\" type=\"image\/svg+xml\" standby=\":p\">:p<\/object>","post_content_clean":"Wait a minute, is that 2nd picture Ridder posted upside down? 1.7 isn't even on the server yet!\r \r Unless the picutre has a water reflection or he's using a mod.\r \r \r Nope, it isn't upside down, It's a Giant Cave. :P","post_user_id":"6267613","show_signature":"1","last_edit_time":"0","post_votes":"0","post_unhidden":"0","post_admin_hidden":"0","post_locked":"0","last_edit_user":"0","votes":null,"post_username":"Ridder","avatar":"https:\/\/resources.enjin.com\/1465083537\/profile\/images\/avatar\/medium.png","user_online":false,"user_votes":"82","user_posts":"172","url":"https:\/\/www.enjin.com\/ajax.php?s=redirect&cmd=forum-post&mobile=1&preset=12571633&id=52808625"},{"post_id":"52808936","post_time":"1382793086","post_content":"Oooh, xD!!","post_content_html":"Oooh, xD!!","post_content_clean":"Oooh, xD!!","post_user_id":"6993256","show_signature":"1","last_edit_time":"0","post_votes":"0","post_unhidden":"0","post_admin_hidden":"0","post_locked":"0","last_edit_user":"0","votes":null,"post_username":"HansonMC","avatar":"https:\/\/assets-cloud.enjin.com\/users\/6993256\/avatar\/medium.1407658173.png","user_online":false,"user_votes":"73","user_posts":"525","url":"https:\/\/www.enjin.com\/ajax.php?s=redirect&cmd=forum-post&mobile=1&preset=12571633&id=52808936"}],"total_items":"71","pages":8,"voted":false,"new_post_id":false,"thread_labels":[],"top_posters":{"result":[{"post_user_id":"2423867","posts":"10","username":"PandaPlaysAll","avatar":"https:\/\/assets-cloud.enjin.com\/users\/2423867\/avatar\/medium.1401883342.png"},{"post_user_id":"7361443","posts":"7","username":"\u2704{snugglezxD:3emo} mojo215","avatar":"https:\/\/assets-cloud.enjin.com\/users\/7361443\/avatar\/medium.1455751269.jpeg"},{"post_user_id":"6483016","posts":"4","username":"Lyft","avatar":"https:\/\/assets-cloud.enjin.com\/users\/6483016\/avatar\/medium.1463284308.png"},{"post_user_id":"6441306","posts":"3","username":"Monkey Of Doom","avatar":"https:\/\/assets-cloud.enjin.com\/users\/6441306\/avatar\/medium.1400117849.png"},{"post_user_id":"6934081","posts":"3","username":"Marsh Or Zach","avatar":"https:\/\/assets-cloud.enjin.com\/users\/6934081\/avatar\/medium.1400125658.png"},{"post_user_id":"5264359","posts":"3","username":"bertus112","avatar":"https:\/\/assets-cloud.enjin.com\/users\/5264359\/avatar\/medium.1400094074.png"},{"post_user_id":"5748339","posts":"3","username":"&hearts; Jackson &hearts;","avatar":"https:\/\/assets-cloud.enjin.com\/users\/5748339\/avatar\/medium.1400102531.png"},{"post_user_id":"7050341","posts":"2","username":"steeler7fan","avatar":"https:\/\/assets-cloud.enjin.com\/users\/7050341\/avatar\/medium.1400127443.png"},{"post_user_id":"7520192","posts":"2","username":"YungYeng","avatar":"https:\/\/assets-cloud.enjin.com\/users\/7520192\/avatar\/medium.1400213481.png"},{"post_user_id":"6806305","posts":"2","username":"User","avatar":"https:\/\/resources.enjin.com\/1465083537\/profile\/images\/avatar\/medium.png"},{"post_user_id":"5175307","posts":"2","username":"DragonLord","avatar":"https:\/\/assets-cloud.enjin.com\/users\/5175307\/avatar\/medium.1400094584.png"},{"post_user_id":"6878670","posts":"2","username":"J\u012fn (^&omega;^)","avatar":"https:\/\/assets-cloud.enjin.com\/users\/6878670\/avatar\/medium.1400114124.png"}],"num_users":"37"},"moderation_access":false,"poll_post":null,"post_access":true,"new_thread_access":true},"id":"1234567","jsonrpc":"2.0"}
{"result":{"thread":{"preset_id":"12571633","forum_id":"2419050","thread_id":"9281536","thread_subject":"[Official thread] Factions terrain contest! Post your pics here!","thread_replies":"70","thread_views":"19817","thread_type":"normal","thread_status":"locked","thread_user_id":"5295813","thread_username":"13635541171024291676","thread_avatar":"https:\/\/assets-cloud.enjin.com\/users\/5295813\/avatar\/medium.1400102531.png","thread_lastpost_user_id":"7935503","thread_lastpost_username":"13850865602013470996","thread_lastpost_time":"1393973026","thread_moved_id":"0","thread_post_time":"1382750803","url":"https:\/\/www.enjin.com\/ajax.php?s=redirect&cmd=forum-thread&mobile=1&preset=12571633&id=9281536","post_count":"1","category_id":"1023515","forum_name":"News & Announcements","forum_description":"Official news and announcements.","disable_voting":"0","show_signature":"1","url_cms":"https:\/\/www.craftsurvivalgames.com\/forum\/m\/12571633\/viewthread\/9281536-official-thread-factions-terrain-contest-post-your-pics-here"},"posts":[{"post_id":"52811699","post_time":"1382796450","post_content":"[b]It's not letting me upload my screenshots. . .[\/b]","post_content_html":"<b>It's not letting me upload my screenshots. . .<\/b>","post_content_clean":"It's not letting me upload my screenshots. . .","post_user_id":"5748339","show_signature":"1","last_edit_time":"0","post_votes":"0","post_unhidden":"0","post_admin_hidden":"0","post_locked":"0","last_edit_user":"0","votes":null,"post_username":"&hearts; Jackson &hearts;","avatar":"https:\/\/assets-cloud.enjin.com\/users\/5748339\/avatar\/medium.1400102531.png","user_online":false,"user_votes":"136","user_posts":"892","url":"https:\/\/www.enjin.com\/ajax.php?s=redirect&cmd=forum-post&mobile=1&preset=12571633&id=52811699"},{"post_id":"52814029","post_time":"1382799074","post_content":"MOJOLAND","post_content_html":"MOJOLAND","post_content_clean":"MOJOLAND","post_user_id":"7361443","show_signature":"1","last_edit_time":"0","post_votes":"0","post_unhidden":"0","post_admin_hidden":"0","post_locked":"0","last_edit_user":"0","votes":null,"post_username":"\u2704{snugglezxD:3emo} mojo215","avatar":"https:\/\/assets-cloud.enjin.com\/users\/7361443\/avatar\/medium.1455751269.jpeg","user_online":false,"user_votes":"0","user_posts":"2641","url":"https:\/\/www.enjin.com\/ajax.php?s=redirect&cmd=forum-post&mobile=1&preset=12571633&id=52814029"},{"post_id":"52814657","post_time":"1382799767","post_content":"[b]Junglish biome.[\/b]","post_content_html":"<b>Junglish biome.<\/b>","post_content_clean":"Junglish biome.","post_user_id":"5748339","show_signature":"1","last_edit_time":"0","post_votes":"0","post_unhidden":"0","post_admin_hidden":"0","post_locked":"0","last_edit_user":"0","votes":null,"post_username":"&hearts; Jackson &hearts;","avatar":"https:\/\/assets-cloud.enjin.com\/users\/5748339\/avatar\/medium.1400102531.png","user_online":false,"user_votes":"136","user_posts":"892","url":"https:\/\/www.enjin.com\/ajax.php?s=redirect&cmd=forum-post&mobile=1&preset=12571633&id=52814657"},{"post_id":"52815271","post_time":"1382800408","post_content":"or\r\n[size=6][u][b][i][color=#6f0a7f]me and octaval beef[\/color][\/i][\/b][\/u][\/i][\/size]","post_content_html":"or<br \/> <br \/> <span style=\"font-size:2.0em\"><u><b><i>me and octaval beef<\/i><\/b><\/u><\/span>","post_content_clean":"or\r me and octaval beef","post_user_id":"7361443","show_signature":"1","last_edit_time":"0","post_votes":"0","post_unhidden":"0","post_admin_hidden":"0","post_locked":"0","last_edit_user":"0","votes":null,"post_username":"\u2704{snugglezxD:3emo} mojo215","avatar":"https:\/\/assets-cloud.enjin.com\/users\/7361443\/avatar\/medium.1455751269.jpeg","user_online":false,"user_votes":"0","user_posts":"2641","url":"https:\/\/www.enjin.com\/ajax.php?s=redirect&cmd=forum-post&mobile=1&preset=12571633&id=52815271"},{"post_id":"52822508","post_time":"1382807514","post_content":"This is truly the best biome. . .","post_content_html":"This is truly the best biome. . .","post_content_clean":"This is truly the best biome. . .","post_user_id":"5748339","show_signature":"1","last_edit_time":"0","post_votes":"1","post_unhidden":"0","post_admin_hidden":"0","post_locked":"0","last_edit_user":"0","votes":null,"post_username":"&hearts; Jackson &hearts;","avatar":"https:\/\/assets-cloud.enjin.com\/users\/5748339\/avatar\/medium.1400102531.png","user_online":false,"user_votes":"136","user_posts":"892","url":"https:\/\/www.enjin.com\/ajax.php?s=redirect&cmd=forum-post&mobile=1&preset=12571633&id=52822508"},{"post_id":"52822960","post_time":"1382807962","post_content":"Oh wow...I found the floating island with whole loads of emerald ores and i didnt take a ss D:","post_content_html":"Oh wow...I found the floating island with whole loads of emerald ores and i didnt take a ss D:","post_content_clean":"Oh wow...I found the floating island with whole loads of emerald ores and i didnt take a ss D:","post_user_id":"5277236","show_signature":"1","last_edit_time":"0","post_votes":"0","post_unhidden":"0","post_admin_hidden":"0","post_locked":"0","last_edit_user":"0","votes":null,"post_username":"[Hi :3]TrickDoor","avatar":"https:\/\/assets-cloud.enjin.com\/users\/5277236\/avatar\/medium.1400100439.png","user_online":false,"user_votes":"389","user_posts":"2836","url":"https:\/\/www.enjin.com\/ajax.php?s=redirect&cmd=forum-post&mobile=1&preset=12571633&id=52822960"},{"post_id":"52850526","post_time":"1382836789","post_content":"whats better then a redstone biome????? trully taken from factions","post_content_html":"whats better then a redstone biome????? trully taken from factions","post_content_clean":"whats better then a redstone biome????? trully taken from factions","post_user_id":"7050341","show_signature":"1","last_edit_time":"0","post_votes":"0","post_unhidden":"0","post_admin_hidden":"0","post_locked":"0","last_edit_user":"0","votes":null,"post_username":"steeler7fan","avatar":"https:\/\/assets-cloud.enjin.com\/users\/7050341\/avatar\/medium.1400127443.png","user_online":false,"user_votes":"96","user_posts":"788","url":"https:\/\/www.enjin.com\/ajax.php?s=redirect&cmd=forum-post&mobile=1&preset=12571633&id=52850526"},{"post_id":"52850668","post_time":"1382836958","post_content":"HOLY COW! i used to live there!! dang","post_content_html":"HOLY COW! i used to live there!! dang","post_content_clean":"HOLY COW! i used to live there!! dang","post_user_id":"7050341","show_signature":"1","last_edit_time":"0","post_votes":"0","post_unhidden":"0","post_admin_hidden":"0","post_locked":"0","last_edit_user":"0","votes":null,"post_username":"steeler7fan","avatar":"https:\/\/assets-cloud.enjin.com\/users\/7050341\/avatar\/medium.1400127443.png","user_online":false,"user_votes":"96","user_posts":"788","url":"https:\/\/www.enjin.com\/ajax.php?s=redirect&cmd=forum-post&mobile=1&preset=12571633&id=52850668"},{"post_id":"52861522","post_time":"1382851315","post_content":"[img w=\"420\" h=\"236\"]http:\/\/i.imgur.com\/3YnjlK3.png[\/img]","post_content_html":"<img src=\"http:\/\/i.imgur.com\/3YnjlK3.png\" alt=\"3YnjlK3.png\" class=\"bbcode_img mobile_img\" style=\"\" width=\"420\" height=\"236\" \/>","post_content_clean":"","post_user_id":"2423867","show_signature":"1","last_edit_time":"0","post_votes":"0","post_unhidden":"0","post_admin_hidden":"0","post_locked":"0","last_edit_user":"0","votes":null,"post_username":"PandaPlaysAll","avatar":"https:\/\/assets-cloud.enjin.com\/users\/2423867\/avatar\/medium.1401883342.png","user_online":false,"user_votes":"347","user_posts":"2975","url":"https:\/\/www.enjin.com\/ajax.php?s=redirect&cmd=forum-post&mobile=1&preset=12571633&id=52861522"},{"post_id":"52863208","post_time":"1382854319","post_content":"[img w=\"420\" h=\"236\"]http:\/\/i.imgur.com\/plzDlDQ.gif[\/img]","post_content_html":"<img src=\"http:\/\/i.imgur.com\/plzDlDQ.gif\" alt=\"plzDlDQ.gif\" class=\"bbcode_img mobile_img\" style=\"\" width=\"420\" height=\"236\" \/>","post_content_clean":"","post_user_id":"2423867","show_signature":"1","last_edit_time":"0","post_votes":"0","post_unhidden":"0","post_admin_hidden":"0","post_locked":"0","last_edit_user":"0","votes":null,"post_username":"PandaPlaysAll","avatar":"https:\/\/assets-cloud.enjin.com\/users\/2423867\/avatar\/medium.1401883342.png","user_online":false,"user_votes":"347","user_posts":"2975","url":"https:\/\/www.enjin.com\/ajax.php?s=redirect&cmd=forum-post&mobile=1&preset=12571633&id=52863208"}],"total_items":"71","pages":8,"voted":false,"new_post_id":"52811699","thread_labels":[],"top_posters":{"result":[{"post_user_id":"2423867","posts":"10","username":"PandaPlaysAll","avatar":"https:\/\/assets-cloud.enjin.com\/users\/2423867\/avatar\/medium.1401883342.png"},{"post_user_id":"7361443","posts":"7","username":"\u2704{snugglezxD:3emo} mojo215","avatar":"https:\/\/assets-cloud.enjin.com\/users\/7361443\/avatar\/medium.1455751269.jpeg"},{"post_user_id":"6483016","posts":"4","username":"Lyft","avatar":"https:\/\/assets-cloud.enjin.com\/users\/6483016\/avatar\/medium.1463284308.png"},{"post_user_id":"6441306","posts":"3","username":"Monkey Of Doom","avatar":"https:\/\/assets-cloud.enjin.com\/users\/6441306\/avatar\/medium.1400117849.png"},{"post_user_id":"6934081","posts":"3","username":"Marsh Or Zach","avatar":"https:\/\/assets-cloud.enjin.com\/users\/6934081\/avatar\/medium.1400125658.png"},{"post_user_id":"5264359","posts":"3","username":"bertus112","avatar":"https:\/\/assets-cloud.enjin.com\/users\/5264359\/avatar\/medium.1400094074.png"},{"post_user_id":"5748339","posts":"3","username":"&hearts; Jackson &hearts;","avatar":"https:\/\/assets-cloud.enjin.com\/users\/5748339\/avatar\/medium.1400102531.png"},{"post_user_id":"6878670","posts":"2","username":"J\u012fn (^&omega;^)","avatar":"https:\/\/assets-cloud.enjin.com\/users\/6878670\/avatar\/medium.1400114124.png"},{"post_user_id":"6267613","posts":"2","username":"Ridder","avatar":"https:\/\/resources.enjin.com\/1465083537\/profile\/images\/avatar\/medium.png"},{"post_user_id":"6993256","posts":"2","username":"HansonMC","avatar":"https:\/\/assets-cloud.enjin.com\/users\/6993256\/avatar\/medium.1407658173.png"},{"post_user_id":"7334706","posts":"2","username":"cynns","avatar":"https:\/\/assets-cloud.enjin.com\/users\/7334706\/avatar\/medium.1400127145.png"},{"post_user_id":"7050341","posts":"2","username":"steeler7fan","avatar":"https:\/\/assets-cloud.enjin.com\/users\/7050341\/avatar\/medium.1400127443.png"}],"num_users":"37"},"moderation_access":false,"poll_post":null,"post_access":true,"new_thread_access":true},"id":"1234567","jsonrpc":"2.0"}
{"result":{"thread":{"preset_id":"12571633","forum_id":"2419050","thread_id":"9281536","thread_subject":"[Official thread] Factions terrain contest! Post your pics here!","thread_replies":"70","thread_views":"19817","thread_type":"normal","thread_status":"locked","thread_user_id":"5295813","thread_username":"13635541171024291676","thread_avatar":"https:\/\/assets-cloud.enjin.com\/users\/5295813\/avatar\/medium.1401883342.png","thread_lastpost_user_id":"7935503","thread_lastpost_username":"13850865602013470996","thread_lastpost_time":"1393973026","thread_moved_id":"0","thread_post_time":"1382750803","url":"https:\/\/www.enjin.com\/ajax.php?s=redirect&cmd=forum-thread&mobile=1&preset=12571633&id=9281536","post_count":"1","category_id":"1023515","forum_name":"News & Announcements","forum_description":"Official news and announcements.","disable_voting":"0","show_signature":"1","url_cms":"https:\/\/www.craftsurvivalgames.com\/forum\/m\/12571633\/viewthread\/9281536-official-thread-factions-terrain-contest-post-your-pics-here"},"posts":[{"post_id":"52869796","post_time":"1382867538","post_content":"[img w=\"420\" h=\"236\"]http:\/\/i.imgur.com\/7CcqWoG.png[\/img]","post_content_html":"<img src=\"http:\/\/i.imgur.com\/7CcqWoG.png\" alt=\"7CcqWoG.png\" class=\"bbcode_img mobile_img\" style=\"\" width=\"420\" height=\"236\" \/>","post_content_clean":"","post_user_id":"2423867","show_signature":"1","last_edit_time":"0","post_votes":"0","post_unhidden":"0","post_admin_hidden":"0","post_locked":"0","last_edit_user":"0","votes":null,"post_username":"PandaPlaysAll","avatar":"https:\/\/assets-cloud.enjin.com\/users\/2423867\/avatar\/medium.1401883342.png","user_online":false,"user_votes":"347","user_posts":"2975","url":"https:\/\/www.enjin.com\/ajax.php?s=redirect&cmd=forum-post&mobile=1&preset=12571633&id=52869796"},{"post_id":"52889165","post_time":"1382892082","post_content":":3","post_content_html":":3","post_content_clean":":3","post_user_id":"4746362","show_signature":"1","last_edit_time":"0","post_votes":"1","post_unhidden":"0","post_admin_hidden":"0","post_locked":"0","last_edit_user":"0","votes":null,"post_username":"Marcus_Quitscraft","avatar":"https:\/\/assets-cloud.enjin.com\/users\/4746362\/avatar\/medium.1429767943.jpeg","user_online":false,"user_votes":"13","user_posts":"219","url":"https:\/\/www.enjin.com\/ajax.php?s=redirect&cmd=forum-post&mobile=1&preset=12571633&id=52889165"},{"post_id":"52889487","post_time":"1382892401","post_content":"\r\n\r\nFound this. :)","post_content_html":"<br \/> <br \/> Found this. <object class=\"emojione\" data=\"https:\/\/resources.enjin.com\/1489581540\/themes\/core\/images\/emojione\/svg\/1f642.svg?0\" type=\"image\/svg+xml\" standby=\":)\">:)<\/object>","post_content_clean":"\r \r Found this. :)","post_user_id":"7520192","show_signature":"1","last_edit_time":"0","post_votes":"0","post_unhidden":"0","post_admin_hidden":"0","post_locked":"0","last_edit_user":"0","votes":null,"post_username":"YungYeng","avatar":"https:\/\/assets-cloud.enjin.com\/users\/7520192\/avatar\/medium.1400213481.png","user_online":false,"user_votes":"2","user_posts":"18","url":"https:\/\/www.enjin.com\/ajax.php?s=redirect&cmd=forum-post&mobile=1&preset=12571633&id=52889487"},{"post_id":"52889676","post_time":"1382892563","post_content":"Well thats cool, it doesnt show up. Can anyone help?","post_content_html":"Well thats cool, it doesnt show up. Can anyone help?","post_content_clean":"Well thats cool, it doesnt show up. Can anyone help?","post_user_id":"7520192","show_signature":"1","last_edit_time":"0","post_votes":"0","post_unhidden":"0","post_admin_hidden":"0","post_locked":"0","last_edit_user":"0","votes":null,"post_username":"YungYeng","avatar":"https:\/\/assets-cloud.enjin.com\/users\/7520192\/avatar\/medium.1400213481.png","user_online":false,"user_votes":"2","user_posts":"18","url":"https:\/\/www.enjin.com\/ajax.php?s=redirect&cmd=forum-post&mobile=1&preset=12571633&id=52889676"},{"post_id":"52913060","post_time":"1382912807","post_content":"Yung get rid of the thing that says [\/img] so it just has  lower case so its ","post_content_html":"Yung get rid of the thing that says  so it just has  lower case so its ","post_content_clean":"Yung get rid of the thing that says  so it just has  lower case so its ","post_user_id":"5175307","show_signature":"1","last_edit_time":"0","post_votes":"0","post_unhidden":"0","post_admin_hidden":"0","post_locked":"0","last_edit_user":"0","votes":null,"post_username":"DragonLord","avatar":"https:\/\/assets-cloud.enjin.com\/users\/5175307\/avatar\/medium.1400094584.png","user_online":false,"user_votes":"14","user_posts":"4","url":"https:\/\/www.enjin.com\/ajax.php?s=redirect&cmd=forum-post&mobile=1&preset=12571633&id=52913060"},{"post_id":"52913069","post_time":"1382912816","post_content":"[img w=\"300\" h=\"300\"]http:\/\/i40.tinypic.com\/2jadumv.png[\/img]","post_content_html":"<img src=\"http:\/\/i40.tinypic.com\/2jadumv.png\" alt=\"2jadumv.png\" class=\"bbcode_img mobile_img\" style=\"\" width=\"300\" height=\"300\" \/>","post_content_clean":"","post_user_id":"5380209","show_signature":"1","last_edit_time":"0","post_votes":"0","post_unhidden":"0","post_admin_hidden":"0","post_locked":"0","last_edit_user":"0","votes":null,"post_username":"AbbyG02","avatar":"https:\/\/assets-cloud.enjin.com\/users\/5380209\/avatar\/medium.1491350986.png","user_online":false,"user_votes":"13","user_posts":"80","url":"https:\/\/www.enjin.com\/ajax.php?s=redirect&cmd=forum-post&mobile=1&preset=12571633&id=52913069"},{"post_id":"52913675","post_time":"1382913318","post_content":":)","post_content_html":"<object class=\"emojione\" data=\"https:\/\/resources.enjin.com\/1489581540\/themes\/core\/images\/emojione\/svg\/1f642.svg?0\" type=\"image\/svg+xml\" standby=\":)\">:)<\/object>","post_content_clean":":)","post_user_id":"5175307","show_signature":"1","last_edit_time":"0","post_votes":"0","post_unhidden":"0","post_admin_hidden":"0","post_locked":"0","last_edit_user":"0","votes":null,"post_username":"DragonLord","avatar":"https:\/\/assets-cloud.enjin.com\/users\/5175307\/avatar\/medium.1400094584.png","user_online":false,"user_votes":"14","user_posts":"4","url":"https:\/\/www.enjin.com\/ajax.php?s=redirect&cmd=forum-post&mobile=1&preset=12571633&id=52913675"},{"post_id":"52913911","post_time":"1382913527","post_content":"Use shaders!","post_content_html":"Use shaders!","post_content_clean":"Use shaders!","post_user_id":"2423867","show_signature":"1","last_edit_time":"0","post_votes":"0","post_unhidden":"0","post_admin_hidden":"0","post_locked":"0","last_edit_user":"0","votes":null,"post_username":"PandaPlaysAll","avatar":"https:\/\/assets-cloud.enjin.com\/users\/2423867\/avatar\/medium.1401883342.png","user_online":false,"user_votes":"347","user_posts":"2975","url":"https:\/\/www.enjin.com\/ajax.php?s=redirect&cmd=forum-post&mobile=1&preset=12571633&id=52913911"},{"post_id":"52915415","post_time":"1382914837","post_content":"I have not taken any photos yet but I know that I would not win because these are some amazing photos xD","post_content_html":"I have not taken any photos yet but I know that I would not win because these are some amazing photos xD","post_content_clean":"I have not taken any photos yet but I know that I would not win because these are some amazing photos xD","post_user_id":"6878670","show_signature":"1","last_edit_time":"0","post_votes":"0","post_unhidden":"0","post_admin_hidden":"0","post_locked":"0","last_edit_user":"0","votes":null,"post_username":"J\u012fn (^&omega;^)","avatar":"https:\/\/assets-cloud.enjin.com\/users\/6878670\/avatar\/medium.1400114124.png","user_online":false,"user_votes":"23","user_posts":"80","url":"https:\/\/www.enjin.com\/ajax.php?s=redirect&cmd=forum-post&mobile=1&preset=12571633&id=52915415"},{"post_id":"52915528","post_time":"1382914918","post_content":"Take some!","post_content_html":"Take some!","post_content_clean":"Take some!","post_user_id":"2423867","show_signature":"1","last_edit_time":"0","post_votes":"0","post_unhidden":"0","post_admin_hidden":"0","post_locked":"0","last_edit_user":"0","votes":null,"post_username":"PandaPlaysAll","avatar":"https:\/\/assets-cloud.enjin.com\/users\/2423867\/avatar\/medium.1401883342.png","user_online":false,"user_votes":"347","user_posts":"2975","url":"https:\/\/www.enjin.com\/ajax.php?s=redirect&cmd=forum-post&mobile=1&preset=12571633&id=52915528"}],"total_items":"71","pages":8,"voted":false,"new_post_id":"52869796","thread_labels":[],"top_posters":{"result":[{"post_user_id":"2423867","posts":"10","username":"PandaPlaysAll","avatar":"https:\/\/assets-cloud.enjin.com\/users\/2423867\/avatar\/medium.1401883342.png"},{"post_user_id":"7361443","posts":"7","username":"\u2704{snugglezxD:3emo} mojo215","avatar":"https:\/\/assets-cloud.enjin.com\/users\/7361443\/avatar\/medium.1455751269.jpeg"},{"post_user_id":"6483016","posts":"4","username":"Lyft","avatar":"https:\/\/assets-cloud.enjin.com\/users\/6483016\/avatar\/medium.1463284308.png"},{"post_user_id":"6441306","posts":"3","username":"Monkey Of Doom","avatar":"https:\/\/assets-cloud.enjin.com\/users\/6441306\/avatar\/medium.1400117849.png"},{"post_user_id":"6934081","posts":"3","username":"Marsh Or Zach","avatar":"https:\/\/assets-cloud.enjin.com\/users\/6934081\/avatar\/medium.1400125658.png"},{"post_user_id":"5264359","posts":"3","username":"bertus112","avatar":"https:\/\/assets-cloud.enjin.com\/users\/5264359\/avatar\/medium.1400094074.png"},{"post_user_id":"5748339","posts":"3","username":"&hearts; Jackson &hearts;","avatar":"https:\/\/assets-cloud.enjin.com\/users\/5748339\/avatar\/medium.1400102531.png"},{"post_user_id":"6806305","posts":"2","username":"User","avatar":"https:\/\/resources.enjin.com\/1465083537\/profile\/images\/avatar\/medium.png"},{"post_user_id":"5175307","posts":"2","username":"DragonLord","avatar":"https:\/\/assets-cloud.enjin.com\/users\/5175307\/avatar\/medium.1400094584.png"},{"post_user_id":"6878670","posts":"2","username":"J\u012fn (^&omega;^)","avatar":"https:\/\/assets-cloud.enjin.com\/users\/6878670\/avatar\/medium.1400114124.png"},{"post_user_id":"6267613","posts":"2","username":"Ridder","avatar":"https:\/\/resources.enjin.com\/1465083537\/profile\/images\/avatar\/medium.png"},{"post_user_id":"6993256","posts":"2","username":"HansonMC","avatar":"https:\/\/assets-cloud.enjin.com\/users\/6993256\/avatar\/medium.1407658173.png"}],"num_users":"37"},"moderation_access":false,"poll_post":null,"post_access":true,"new_thread_access":true},"id":"1234567","jsonrpc":"2.0"}
{"result":{"thread":{"preset_id":"12571633","forum_id":"2419050","thread_id":"9281536","thread_subject":"[Official thread] Factions terrain contest! Post your pics here!","thread_replies":"70","thread_views":"19817","thread_type":"normal","thread_status":"locked","thread_user_id":"5295813","thread_username":"13635541171024291676","thread_avatar":"https:\/\/assets-cloud.enjin.com\/users\/5295813\/avatar\/medium.1463284308.png","thread_lastpost_user_id":"7935503","thread_lastpost_username":"13850865602013470996","thread_lastpost_time":"1393973026","thread_moved_id":"0","thread_post_time":"1382750803","url":"https:\/\/www.enjin.com\/ajax.php?s=redirect&cmd=forum-thread&mobile=1&preset=12571633&id=9281536","post_count":"1","category_id":"1023515","forum_name":"News & Announcements","forum_description":"Official news and announcements.","disable_voting":"0","show_signature":"1","url_cms":"https:\/\/www.craftsurvivalgames.com\/forum\/m\/12571633\/viewthread\/9281536-official-thread-factions-terrain-contest-post-your-pics-here"},"posts":[{"post_id":"52937339","post_time":"1382942622","post_content":"My Photos.","post_content_html":"My Photos.","post_content_clean":"My Photos.","post_user_id":"6483016","show_signature":"1","last_edit_time":"0","post_votes":"0","post_unhidden":"0","post_admin_hidden":"0","post_locked":"0","last_edit_user":"0","votes":null,"post_username":"Lyft","avatar":"https:\/\/assets-cloud.enjin.com\/users\/6483016\/avatar\/medium.1463284308.png","user_online":false,"user_votes":"15","user_posts":"221","url":"https:\/\/www.enjin.com\/ajax.php?s=redirect&cmd=forum-post&mobile=1&preset=12571633&id=52937339"},{"post_id":"52977667","post_time":"1382993457","post_content":"pvp and a plais","post_content_html":"pvp and a plais","post_content_clean":"pvp and a plais","post_user_id":"7361443","show_signature":"1","last_edit_time":"0","post_votes":"0","post_unhidden":"0","post_admin_hidden":"0","post_locked":"0","last_edit_user":"0","votes":null,"post_username":"\u2704{snugglezxD:3emo} mojo215","avatar":"https:\/\/assets-cloud.enjin.com\/users\/7361443\/avatar\/medium.1455751269.jpeg","user_online":false,"user_votes":"0","user_posts":"2641","url":"https:\/\/www.enjin.com\/ajax.php?s=redirect&cmd=forum-post&mobile=1&preset=12571633&id=52977667"},{"post_id":"53013021","post_time":"1383032153","post_content":"Im Probably Not Going To Win Since Their Are Some Great Photo Editing Ppl Who Is Going To Do Way Better.","post_content_html":"Im Probably Not Going To Win Since Their Are Some Great Photo Editing Ppl Who Is Going To Do Way Better.","post_content_clean":"Im Probably Not Going To Win Since Their Are Some Great Photo Editing Ppl Who Is Going To Do Way Better.","post_user_id":"6483016","show_signature":"1","last_edit_time":"0","post_votes":"0","post_unhidden":"0","post_admin_hidden":"0","post_locked":"0","last_edit_user":"0","votes":null,"post_username":"Lyft","avatar":"https:\/\/assets-cloud.enjin.com\/users\/6483016\/avatar\/medium.1463284308.png","user_online":false,"user_votes":"15","user_posts":"221","url":"https:\/\/www.enjin.com\/ajax.php?s=redirect&cmd=forum-post&mobile=1&preset=12571633&id=53013021"},{"post_id":"53019911","post_time":"1383045167","post_content":"Didn't work. use imugur!","post_content_html":"Didn't work. use imugur!","post_content_clean":"Didn't work. use imugur!","post_user_id":"2423867","show_signature":"1","last_edit_time":"0","post_votes":"0","post_unhidden":"0","post_admin_hidden":"0","post_locked":"0","last_edit_user":"0","votes":null,"post_username":"PandaPlaysAll","avatar":"https:\/\/assets-cloud.enjin.com\/users\/2423867\/avatar\/medium.1401883342.png","user_online":false,"user_votes":"347","user_posts":"2975","url":"https:\/\/www.enjin.com\/ajax.php?s=redirect&cmd=forum-post&mobile=1&preset=12571633&id=53019911"},{"post_id":"53037007","post_time":"1383066107","post_content":"[color=#3a7613][b]The Tree Biome. :3[\/b][\/color]","post_content_html":"<b>The Tree Biome. :3<\/b>","post_content_clean":"The Tree Biome. :3","post_user_id":"5748484","show_signature":"1","last_edit_time":"0","post_votes":"0","post_unhidden":"0","post_admin_hidden":"0","post_locked":"0","last_edit_user":"0","votes":null,"post_username":"mary","avatar":"https:\/\/assets-cloud.enjin.com\/users\/5748484\/avatar\/medium.1445642587.jpeg","user_online":false,"user_votes":"259","user_posts":"623","url":"https:\/\/www.enjin.com\/ajax.php?s=redirect&cmd=forum-post&mobile=1&preset=12571633&id=53037007"},{"post_id":"53037210","post_time":"1383066312","post_content":":o","post_content_html":"<object class=\"emojione\" data=\"https:\/\/resources.enjin.com\/1489581540\/themes\/core\/images\/emojione\/svg\/1f632.svg?0\" type=\"image\/svg+xml\" standby=\":o\">:o<\/object>","post_content_clean":":o","post_user_id":"5264359","show_signature":"1","last_edit_time":"0","post_votes":"0","post_unhidden":"0","post_admin_hidden":"0","post_locked":"0","last_edit_user":"0","votes":null,"post_username":"bertus112","avatar":"https:\/\/assets-cloud.enjin.com\/users\/5264359\/avatar\/medium.1400094074.png","user_online":false,"user_votes":"894","user_posts":"1926","url":"https:\/\/www.enjin.com\/ajax.php?s=redirect&cmd=forum-post&mobile=1&preset=12571633&id=53037210"},{"post_id":"53048851","post_time":"1383077628","post_content":"me and 1.7 secert setings :)","post_content_html":"me and 1.7 secert setings <object class=\"emojione\" data=\"https:\/\/resources.enjin.com\/1489581540\/themes\/core\/images\/emojione\/svg\/1f642.svg?0\" type=\"image\/svg+xml\" standby=\":)\">:)<\/object>","post_content_clean":"me and 1.7 secert setings :)","post_user_id":"7361443","show_signature":"1","last_edit_time":"0","post_votes":"0","post_unhidden":"0","post_admin_hidden":"0","post_locked":"0","last_edit_user":"0","votes":null,"post_username":"\u2704{snugglezxD:3emo} mojo215","avatar":"https:\/\/assets-cloud.enjin.com\/users\/7361443\/avatar\/medium.1455751269.jpeg","user_online":false,"user_votes":"0","user_posts":"2641","url":"https:\/\/www.enjin.com\/ajax.php?s=redirect&cmd=forum-post&mobile=1&preset=12571633&id=53048851"},{"post_id":"53049191","post_time":"1383077907","post_content":"Dats niceeeee","post_content_html":"Dats niceeeee","post_content_clean":"Dats niceeeee","post_user_id":"5264359","show_signature":"1","last_edit_time":"0","post_votes":"0","post_unhidden":"0","post_admin_hidden":"0","post_locked":"0","last_edit_user":"0","votes":null,"post_username":"bertus112","avatar":"https:\/\/assets-cloud.enjin.com\/users\/5264359\/avatar\/medium.1400094074.png","user_online":false,"user_votes":"894","user_posts":"1926","url":"https:\/\/www.enjin.com\/ajax.php?s=redirect&cmd=forum-post&mobile=1&preset=12571633&id=53049191"},{"post_id":"53049343","post_time":"1383078033","post_content":"thanks its like the 7th one","post_content_html":"thanks its like the 7th one","post_content_clean":"thanks its like the 7th one","post_user_id":"7361443","show_signature":"1","last_edit_time":"0","post_votes":"0","post_unhidden":"0","post_admin_hidden":"0","post_locked":"0","last_edit_user":"0","votes":null,"post_username":"\u2704{snugglezxD:3emo} mojo215","avatar":"https:\/\/assets-cloud.enjin.com\/users\/7361443\/avatar\/medium.1455751269.jpeg","user_online":false,"user_votes":"0","user_posts":"2641","url":"https:\/\/www.enjin.com\/ajax.php?s=redirect&cmd=forum-post&mobile=1&preset=12571633&id=53049343"},{"post_id":"53052729","post_time":"1383080865","post_content":"yeah","post_content_html":"yeah","post_content_clean":"yeah","post_user_id":"1084942","show_signature":"1","last_edit_time":"0","post_votes":"0","post_unhidden":"0","post_admin_hidden":"0","post_locked":"0","last_edit_user":"0","votes":null,"post_username":"Mozzie","avatar":"https:\/\/assets-cloud.enjin.com\/users\/1084942\/avatar\/medium.1400212514.png","user_online":false,"user_votes":"363","user_posts":"590","url":"https:\/\/www.enjin.com\/ajax.php?s=redirect&cmd=forum-post&mobile=1&preset=12571633&id=53052729"}],"total_items":"71","pages":8,"voted":false,"new_post_id":"52937339","thread_labels":[],"top_posters":{"result":[{"post_user_id":"2423867","posts":"10","username":"PandaPlaysAll","avatar":"https:\/\/assets-cloud.enjin.com\/users\/2423867\/avatar\/medium.1401883342.png"},{"post_user_id":"7361443","posts":"7","username":"\u2704{snugglezxD:3emo} mojo215","avatar":"https:\/\/assets-cloud.enjin.com\/users\/7361443\/avatar\/medium.1455751269.jpeg"},{"post_user_id":"6483016","posts":"4","username":"Lyft","avatar":"https:\/\/assets-cloud.enjin.com\/users\/6483016\/avatar\/medium.1463284308.png"},{"post_user_id":"6441306","posts":"3","username":"Monkey Of Doom","avatar":"https:\/\/assets-cloud.enjin.com\/users\/6441306\/avatar\/medium.1400117849.png"},{"post_user_id":"6934081","posts":"3","username":"Marsh Or Zach","avatar":"https:\/\/assets-cloud.enjin.com\/users\/6934081\/avatar\/medium.1400125658.png"},{"post_user_id":"5264359","posts":"3","username":"bertus112","avatar":"https:\/\/assets-cloud.enjin.com\/users\/5264359\/avatar\/medium.1400094074.png"},{"post_user_id":"5748339","posts":"3","username":"&hearts; Jackson &hearts;","avatar":"https:\/\/assets-cloud.enjin.com\/users\/5748339\/avatar\/medium.1400102531.png"},{"post_user_id":"7050341","posts":"2","username":"steeler7fan","avatar":"https:\/\/assets-cloud.enjin.com\/users\/7050341\/avatar\/medium.1400127443.png"},{"post_user_id":"7520192","posts":"2","username":"YungYeng","avatar":"https:\/\/assets-cloud.enjin.com\/users\/7520192\/avatar\/medium.1400213481.png"},{"post_user_id":"6806305","posts":"2","username":"User","avatar":"https:\/\/resources.enjin.com\/1465083537\/profile\/images\/avatar\/medium.png"},{"post_user_id":"5175307","posts":"2","username":"DragonLord","avatar":"https:\/\/assets-cloud.enjin.com\/users\/5175307\/avatar\/medium.1400094584.png"},{"post_user_id":"6878670","posts":"2","username":"J\u012fn (^&omega;^)","avatar":"https:\/\/assets-cloud.enjin.com\/users\/6878670\/avatar\/medium.1400114124.png"}],"num_users":"37"},"moderation_access":false,"poll_post":null,"post_access":true,"new_thread_access":true},"id":"1234567","jsonrpc":"2.0"}
{"result":{"thread":{"preset_id":"12571633","forum_id":"2419050","thread_id":"9281536","thread_subject":"[Official thread] Factions terrain contest! Post your pics here!","thread_replies":"70","thread_views":"19817","thread_type":"normal","thread_status":"locked","thread_user_id":"5295813","thread_username":"13635541171024291676","thread_avatar":"https:\/\/assets-cloud.enjin.com\/users\/5295813\/avatar\/medium.1463284308.png","thread_lastpost_user_id":"7935503","thread_lastpost_username":"13850865602013470996","thread_lastpost_time":"1393973026","thread_moved_id":"0","thread_post_time":"1382750803","url":"https:\/\/www.enjin.com\/ajax.php?s=redirect&cmd=forum-thread&mobile=1&preset=12571633&id=9281536","post_count":"1","category_id":"1023515","forum_name":"News & Announcements","forum_description":"Official news and announcements.","disable_voting":"0","show_signature":"1","url_cms":"https:\/\/www.craftsurvivalgames.com\/forum\/m\/12571633\/viewthread\/9281536-official-thread-factions-terrain-contest-post-your-pics-here"},"posts":[{"post_id":"53067049","post_time":"1383092309","post_content":"Wut Didnt Work?? :3","post_content_html":"Wut Didnt Work?? :3","post_content_clean":"Wut Didnt Work?? :3","post_user_id":"6483016","show_signature":"1","last_edit_time":"0","post_votes":"0","post_unhidden":"0","post_admin_hidden":"0","post_locked":"0","last_edit_user":"0","votes":null,"post_username":"Lyft","avatar":"https:\/\/assets-cloud.enjin.com\/users\/6483016\/avatar\/medium.1463284308.png","user_online":false,"user_votes":"15","user_posts":"221","url":"https:\/\/www.enjin.com\/ajax.php?s=redirect&cmd=forum-post&mobile=1&preset=12571633&id=53067049"},{"post_id":"53069770","post_time":"1383094786","post_content":"really mozzie","post_content_html":"really mozzie","post_content_clean":"really mozzie","post_user_id":"7361443","show_signature":"1","last_edit_time":"0","post_votes":"0","post_unhidden":"0","post_admin_hidden":"0","post_locked":"0","last_edit_user":"0","votes":null,"post_username":"\u2704{snugglezxD:3emo} mojo215","avatar":"https:\/\/assets-cloud.enjin.com\/users\/7361443\/avatar\/medium.1455751269.jpeg","user_online":false,"user_votes":"0","user_posts":"2641","url":"https:\/\/www.enjin.com\/ajax.php?s=redirect&cmd=forum-post&mobile=1&preset=12571633&id=53069770"},{"post_id":"53143469","post_time":"1383182944","post_content":"its not upside down... look at the golden apple he holds. he probably used shaders to an extent","post_content_html":"its not upside down... look at the golden apple he holds. he probably used shaders to an extent","post_content_clean":"its not upside down... look at the golden apple he holds. he probably used shaders to an extent","post_user_id":"1858801","show_signature":"1","last_edit_time":"0","post_votes":"0","post_unhidden":"0","post_admin_hidden":"0","post_locked":"0","last_edit_user":"0","votes":null,"post_username":"TexSupport","avatar":"https:\/\/assets-cloud.enjin.com\/users\/1858801\/avatar\/medium.1545528815.jpeg","user_online":false,"user_votes":"167","user_posts":"1175","url":"https:\/\/www.enjin.com\/ajax.php?s=redirect&cmd=forum-post&mobile=1&preset=12571633&id=53143469"},{"post_id":"53211139","post_time":"1383271173","post_content":"Factions","post_content_html":"Factions","post_content_clean":"Factions","post_user_id":"6483016","show_signature":"1","last_edit_time":"0","post_votes":"0","post_unhidden":"0","post_admin_hidden":"0","post_locked":"0","last_edit_user":"0","votes":null,"post_username":"Lyft","avatar":"https:\/\/assets-cloud.enjin.com\/users\/6483016\/avatar\/medium.1463284308.png","user_online":false,"user_votes":"15","user_posts":"221","url":"https:\/\/www.enjin.com\/ajax.php?s=redirect&cmd=forum-post&mobile=1&preset=12571633&id=53211139"},{"post_id":"53211396","post_time":"1383271447","post_content":"[b]I would love post a picture, but I there's no shaders or optifine.[\/b]","post_content_html":"<b>I would love post a picture, but I there's no shaders or optifine.<\/b>","post_content_clean":"I would love post a picture, but I there's no shaders or optifine.","post_user_id":"3247543","show_signature":"1","last_edit_time":"0","post_votes":"0","post_unhidden":"0","post_admin_hidden":"0","post_locked":"0","last_edit_user":"0","votes":null,"post_username":"FriendlyBum","avatar":"https:\/\/assets-cloud.enjin.com\/users\/3247543\/avatar\/medium.1400072406.png","user_online":false,"user_votes":"555","user_posts":"2153","url":"https:\/\/www.enjin.com\/ajax.php?s=redirect&cmd=forum-post&mobile=1&preset=12571633&id=53211396"},{"post_id":"53229519","post_time":"1383307479","post_content":"Add This :D","post_content_html":"Add This <object class=\"emojione\" data=\"https:\/\/resources.enjin.com\/1489581540\/themes\/core\/images\/emojione\/svg\/1f600.svg?0\" type=\"image\/svg+xml\" standby=\":d\">:d<\/object>","post_content_clean":"Add This :D","post_user_id":"7598984","show_signature":"1","last_edit_time":"0","post_votes":"0","post_unhidden":"0","post_admin_hidden":"0","post_locked":"0","last_edit_user":"0","votes":null,"post_username":"shaker12345","avatar":"https:\/\/assets-cloud.enjin.com\/users\/7598984\/avatar\/medium.1400127947.png","user_online":false,"user_votes":"2","user_posts":"39","url":"https:\/\/www.enjin.com\/ajax.php?s=redirect&cmd=forum-post&mobile=1&preset=12571633&id=53229519"},{"post_id":"53234851","post_time":"1383314883","post_content":"I call it ''derpbiome'' :)","post_content_html":"I call it ''derpbiome'' <object class=\"emojione\" data=\"https:\/\/resources.enjin.com\/1489581540\/themes\/core\/images\/emojione\/svg\/1f642.svg?0\" type=\"image\/svg+xml\" standby=\":)\">:)<\/object>","post_content_clean":"I call it ''derpbiome'' :)","post_user_id":"5264359","show_signature":"1","last_edit_time":"0","post_votes":"2","post_unhidden":"0","post_admin_hidden":"0","post_locked":"0","last_edit_user":"0","votes":null,"post_username":"bertus112","avatar":"https:\/\/assets-cloud.enjin.com\/users\/5264359\/avatar\/medium.1400094074.png","user_online":false,"user_votes":"894","user_posts":"1926","url":"https:\/\/www.enjin.com\/ajax.php?s=redirect&cmd=forum-post&mobile=1&preset=12571633&id=53234851"},{"post_id":"53286804","post_time":"1383373757","post_content":"[img]http:\/\/i205.photobucket.com\/albums\/bb14\/Mikikelly\/MinecraftFlare_zps6a1099a3.jpg[\/img][\/URL]\r\nVOTE","post_content_html":"<img src=\"http:\/\/i205.photobucket.com\/albums\/bb14\/Mikikelly\/MinecraftFlare_zps6a1099a3.jpg\" alt=\"MinecraftFlare_zps6a1099a3.jpg\" class=\"bbcode_img mobile_img\" style=\"\" \/><br \/> <br \/> VOTE","post_content_clean":"\r VOTE","post_user_id":"7102430","show_signature":"0","last_edit_time":"1384044585","post_votes":"0","post_unhidden":"0","post_admin_hidden":"0","post_locked":"0","last_edit_user":"0","votes":null,"post_username":"THV","avatar":"https:\/\/resources.enjin.com\/1465083537\/profile\/images\/avatar\/medium.png","user_online":false,"user_votes":"3","user_posts":"69","url":"https:\/\/www.enjin.com\/ajax.php?s=redirect&cmd=forum-post&mobile=1&preset=12571633&id=53286804"},{"post_id":"53289352","post_time":"1383379661","post_content":"Bertus i've been in that biome kids showed me it :)","post_content_html":"Bertus i've been in that biome kids showed me it <object class=\"emojione\" data=\"https:\/\/resources.enjin.com\/1489581540\/themes\/core\/images\/emojione\/svg\/1f642.svg?0\" type=\"image\/svg+xml\" standby=\":)\">:)<\/object>","post_content_clean":"Bertus i've been in that biome kids showed me it :)","post_user_id":"2423867","show_signature":"1","last_edit_time":"0","post_votes":"0","post_unhidden":"0","post_admin_hidden":"0","post_locked":"0","last_edit_user":"0","votes":null,"post_username":"PandaPlaysAll","avatar":"https:\/\/assets-cloud.enjin.com\/users\/2423867\/avatar\/medium.1401883342.png","user_online":false,"user_votes":"347","user_posts":"2975","url":"https:\/\/www.enjin.com\/ajax.php?s=redirect&cmd=forum-post&mobile=1&preset=12571633&id=53289352"},{"post_id":"53327113","post_time":"1383426183","post_content":"Here is a beautiful screenshot I took.","post_content_html":"Here is a beautiful screenshot I took.","post_content_clean":"Here is a beautiful screenshot I took.","post_user_id":"5611008","show_signature":"1","last_edit_time":"0","post_votes":"0","post_unhidden":"0","post_admin_hidden":"0","post_locked":"0","last_edit_user":"0","votes":null,"post_username":"XPminer13","avatar":"https:\/\/assets-cloud.enjin.com\/users\/5611008\/avatar\/medium.1400101087.png","user_online":false,"user_votes":"-1","user_posts":"7","url":"https:\/\/www.enjin.com\/ajax.php?s=redirect&cmd=forum-post&mobile=1&preset=12571633&id=53327113"}],"total_items":"71","pages":8,"voted":false,"new_post_id":"53067049","thread_labels":[],"top_posters":{"result":[{"post_user_id":"2423867","posts":"10","username":"PandaPlaysAll","avatar":"https:\/\/assets-cloud.enjin.com\/users\/2423867\/avatar\/medium.1401883342.png"},{"post_user_id":"7361443","posts":"7","username":"\u2704{snugglezxD:3emo} mojo215","avatar":"https:\/\/assets-cloud.enjin.com\/users\/7361443\/avatar\/medium.1455751269.jpeg"},{"post_user_id":"6483016","posts":"4","username":"Lyft","avatar":"https:\/\/assets-cloud.enjin.com\/users\/6483016\/avatar\/medium.1463284308.png"},{"post_user_id":"6441306","posts":"3","username":"Monkey Of Doom","avatar":"https:\/\/assets-cloud.enjin.com\/users\/6441306\/avatar\/medium.1400117849.png"},{"post_user_id":"6934081","posts":"3","username":"Marsh Or Zach","avatar":"https:\/\/assets-cloud.enjin.com\/users\/6934081\/avatar\/medium.1400125658.png"},{"post_user_id":"5264359","posts":"3","username":"bertus112","avatar":"https:\/\/assets-cloud.enjin.com\/users\/5264359\/avatar\/medium.1400094074.png"},{"post_user_id":"5748339","posts":"3","username":"&hearts; Jackson &hearts;","avatar":"https:\/\/assets-cloud.enjin.com\/users\/5748339\/avatar\/medium.1400102531.png"},{"post_user_id":"6878670","posts":"2","username":"J\u012fn (^&omega;^)","avatar":"https:\/\/assets-cloud.enjin.com\/users\/6878670\/avatar\/medium.1400114124.png"},{"post_user_id":"6267613","posts":"2","username":"Ridder","avatar":"https:\/\/resources.enjin.com\/1465083537\/profile\/images\/avatar\/medium.png"},{"post_user_id":"6993256","posts":"2","username":"HansonMC","avatar":"https:\/\/assets-cloud.enjin.com\/users\/6993256\/avatar\/medium.1407658173.png"},{"post_user_id":"7334706","posts":"2","username":"cynns","avatar":"https:\/\/assets-cloud.enjin.com\/users\/7334706\/avatar\/medium.1400127145.png"},{"post_user_id":"7050341","posts":"2","username":"steeler7fan","avatar":"https:\/\/assets-cloud.enjin.com\/users\/7050341\/avatar\/medium.1400127443.png"}],"num_users":"37"},"moderation_access":false,"poll_post":null,"post_access":true,"new_thread_access":true},"id":"1234567","jsonrpc":"2.0"}
{"result":{"thread":{"preset_id":"12571633","forum_id":"2419050","thread_id":"9281536","thread_subject":"[Official thread] Factions terrain contest! Post your pics here!","thread_replies":"70","thread_views":"19817","thread_type":"normal","thread_status":"locked","thread_user_id":"5295813","thread_username":"13635541171024291676","thread_avatar":"https:\/\/assets-cloud.enjin.com\/users\/5295813\/avatar\/medium.1400117849.png","thread_lastpost_user_id":"7935503","thread_lastpost_username":"13850865602013470996","thread_lastpost_time":"1393973026","thread_moved_id":"0","thread_post_time":"1382750803","url":"https:\/\/www.enjin.com\/ajax.php?s=redirect&cmd=forum-thread&mobile=1&preset=12571633&id=9281536","post_count":"1","category_id":"1023515","forum_name":"News & Announcements","forum_description":"Official news and announcements.","disable_voting":"0","show_signature":"1","url_cms":"https:\/\/www.craftsurvivalgames.com\/forum\/m\/12571633\/viewthread\/9281536-official-thread-factions-terrain-contest-post-your-pics-here"},"posts":[{"post_id":"53345966","post_time":"1383445530","post_content":"Hope you like it :). Can we upload more than one photo Shicking?","post_content_html":"Hope you like it <object class=\"emojione\" data=\"https:\/\/resources.enjin.com\/1489581540\/themes\/core\/images\/emojione\/svg\/1f642.svg?0\" type=\"image\/svg+xml\" standby=\":)\">:)<\/object>. Can we upload more than one photo Shicking?","post_content_clean":"Hope you like it :). Can we upload more than one photo Shicking?","post_user_id":"6441306","show_signature":"1","last_edit_time":"0","post_votes":"0","post_unhidden":"0","post_admin_hidden":"0","post_locked":"0","last_edit_user":"0","votes":null,"post_username":"Monkey Of Doom","avatar":"https:\/\/assets-cloud.enjin.com\/users\/6441306\/avatar\/medium.1400117849.png","user_online":false,"user_votes":"7","user_posts":"210","url":"https:\/\/www.enjin.com\/ajax.php?s=redirect&cmd=forum-post&mobile=1&preset=12571633&id=53345966"},{"post_id":"53346436","post_time":"1383446075","post_content":"Yes you can","post_content_html":"Yes you can","post_content_clean":"Yes you can","post_user_id":"2423867","show_signature":"1","last_edit_time":"0","post_votes":"0","post_unhidden":"0","post_admin_hidden":"0","post_locked":"0","last_edit_user":"0","votes":null,"post_username":"PandaPlaysAll","avatar":"https:\/\/assets-cloud.enjin.com\/users\/2423867\/avatar\/medium.1401883342.png","user_online":false,"user_votes":"347","user_posts":"2975","url":"https:\/\/www.enjin.com\/ajax.php?s=redirect&cmd=forum-post&mobile=1&preset=12571633&id=53346436"},{"post_id":"53346560","post_time":"1383446203","post_content":"Cool, Thanks!","post_content_html":"Cool, Thanks!","post_content_clean":"Cool, Thanks!","post_user_id":"6441306","show_signature":"1","last_edit_time":"0","post_votes":"0","post_unhidden":"0","post_admin_hidden":"0","post_locked":"0","last_edit_user":"0","votes":null,"post_username":"Monkey Of Doom","avatar":"https:\/\/assets-cloud.enjin.com\/users\/6441306\/avatar\/medium.1400117849.png","user_online":false,"user_votes":"7","user_posts":"210","url":"https:\/\/www.enjin.com\/ajax.php?s=redirect&cmd=forum-post&mobile=1&preset=12571633&id=53346560"},{"post_id":"53383656","post_time":"1383499779","post_content":"This is mine :D call it the sun never set's on pvp","post_content_html":"This is mine <object class=\"emojione\" data=\"https:\/\/resources.enjin.com\/1489581540\/themes\/core\/images\/emojione\/svg\/1f600.svg?0\" type=\"image\/svg+xml\" standby=\":d\">:d<\/object> call it the sun never set's on pvp","post_content_clean":"This is mine :D call it the sun never set's on pvp","post_user_id":"6934081","show_signature":"1","last_edit_time":"0","post_votes":"0","post_unhidden":"0","post_admin_hidden":"0","post_locked":"0","last_edit_user":"0","votes":null,"post_username":"Marsh Or Zach","avatar":"https:\/\/assets-cloud.enjin.com\/users\/6934081\/avatar\/medium.1400125658.png","user_online":false,"user_votes":"171","user_posts":"861","url":"https:\/\/www.enjin.com\/ajax.php?s=redirect&cmd=forum-post&mobile=1&preset=12571633&id=53383656"},{"post_id":"53465253","post_time":"1383598565","post_content":"Y ain't my picture in da feed lol","post_content_html":"Y ain't my picture in da feed lol","post_content_clean":"Y ain't my picture in da feed lol","post_user_id":"6934081","show_signature":"1","last_edit_time":"0","post_votes":"0","post_unhidden":"0","post_admin_hidden":"0","post_locked":"0","last_edit_user":"0","votes":null,"post_username":"Marsh Or Zach","avatar":"https:\/\/assets-cloud.enjin.com\/users\/6934081\/avatar\/medium.1400125658.png","user_online":false,"user_votes":"171","user_posts":"861","url":"https:\/\/www.enjin.com\/ajax.php?s=redirect&cmd=forum-post&mobile=1&preset=12571633&id=53465253"},{"post_id":"53480637","post_time":"1383611409","post_content":":)","post_content_html":"<object class=\"emojione\" data=\"https:\/\/resources.enjin.com\/1489581540\/themes\/core\/images\/emojione\/svg\/1f642.svg?0\" type=\"image\/svg+xml\" standby=\":)\">:)<\/object>","post_content_clean":":)","post_user_id":"6441306","show_signature":"1","last_edit_time":"0","post_votes":"0","post_unhidden":"0","post_admin_hidden":"0","post_locked":"0","last_edit_user":"0","votes":null,"post_username":"Monkey Of Doom","avatar":"https:\/\/assets-cloud.enjin.com\/users\/6441306\/avatar\/medium.1400117849.png","user_online":false,"user_votes":"7","user_posts":"210","url":"https:\/\/www.enjin.com\/ajax.php?s=redirect&cmd=forum-post&mobile=1&preset=12571633&id=53480637"},{"post_id":"53615321","post_time":"1383779053","post_content":"Flower :3","post_content_html":"Flower :3","post_content_clean":"Flower :3","post_user_id":"6878670","show_signature":"1","last_edit_time":"0","post_votes":"2","post_unhidden":"0","post_admin_hidden":"0","post_locked":"0","last_edit_user":"0","votes":null,"post_username":"J\u012fn (^&omega;^)","avatar":"https:\/\/assets-cloud.enjin.com\/users\/6878670\/avatar\/medium.1400114124.png","user_online":false,"user_votes":"23","user_posts":"80","url":"https:\/\/www.enjin.com\/ajax.php?s=redirect&cmd=forum-post&mobile=1&preset=12571633&id=53615321"},{"post_id":"54023895","post_time":"1384294300","post_content":"Well the pic in the slide show that was mine my name is spelled wrong","post_content_html":"Well the pic in the slide show that was mine my name is spelled wrong","post_content_clean":"Well the pic in the slide show that was mine my name is spelled wrong","post_user_id":"6934081","show_signature":"1","last_edit_time":"0","post_votes":"0","post_unhidden":"0","post_admin_hidden":"0","post_locked":"0","last_edit_user":"0","votes":null,"post_username":"Marsh Or Zach","avatar":"https:\/\/assets-cloud.enjin.com\/users\/6934081\/avatar\/medium.1400125658.png","user_online":false,"user_votes":"171","user_posts":"861","url":"https:\/\/www.enjin.com\/ajax.php?s=redirect&cmd=forum-post&mobile=1&preset=12571633&id=54023895"},{"post_id":"54369324","post_time":"1384735005","post_content":"[img w=\"1366\" h=\"691\"]http:\/\/assets.enjin.com\/wall_embed_images\/1384734953_2013-11-17_15.59.10.png[\/img]","post_content_html":"<img src=\"http:\/\/assets.enjin.com\/wall_embed_images\/1384734953_2013-11-17_15.59.10.png\" alt=\"1384734953_2013-11-17_15.59.10.png\" class=\"bbcode_img mobile_img\" style=\"\" width=\"1366\" height=\"691\" \/>","post_content_clean":"","post_user_id":"6371123","show_signature":"1","last_edit_time":"0","post_votes":"0","post_unhidden":"0","post_admin_hidden":"0","post_locked":"0","last_edit_user":"0","votes":null,"post_username":"i8candy \u30c4","avatar":"https:\/\/assets-cloud.enjin.com\/users\/6371123\/avatar\/medium.1400115959.png","user_online":false,"user_votes":"34","user_posts":"117","url":"https:\/\/www.enjin.com\/ajax.php?s=redirect&cmd=forum-post&mobile=1&preset=12571633&id=54369324"},{"post_id":"60075676","post_time":"1390937692","post_content":"are u aloud to use forge with shaders","post_content_html":"are u aloud to use forge with shaders","post_content_clean":"are u aloud to use forge with shaders","post_user_id":"8216285","show_signature":"1","last_edit_time":"0","post_votes":"0","post_unhidden":"0","post_admin_hidden":"0","post_locked":"0","last_edit_user":"0","votes":null,"post_username":"Joey","avatar":"https:\/\/assets-cloud.enjin.com\/users\/8216285\/avatar\/medium.1405181467.png","user_online":false,"user_votes":"0","user_posts":"1","url":"https:\/\/www.enjin.com\/ajax.php?s=redirect&cmd=forum-post&mobile=1&preset=12571633&id=60075676"}],"total_items":"71","pages":8,"voted":false,"new_post_id":"53345966","thread_labels":[],"top_posters":{"result":[{"post_user_id":"2423867","posts":"10","username":"PandaPlaysAll","avatar":"https:\/\/assets-cloud.enjin.com\/users\/2423867\/avatar\/medium.1401883342.png"},{"post_user_id":"7361443","posts":"7","username":"\u2704{snugglezxD:3emo} mojo215","avatar":"https:\/\/assets-cloud.enjin.com\/users\/7361443\/avatar\/medium.1455751269.jpeg"},{"post_user_id":"6483016","posts":"4","username":"Lyft","avatar":"https:\/\/assets-cloud.enjin.com\/users\/6483016\/avatar\/medium.1463284308.png"},{"post_user_id":"5264359","posts":"3","username":"bertus112","avatar":"https:\/\/assets-cloud.enjin.com\/users\/5264359\/avatar\/medium.1400094074.png"},{"post_user_id":"5748339","posts":"3","username":"&hearts; Jackson &hearts;","avatar":"https:\/\/assets-cloud.enjin.com\/users\/5748339\/avatar\/medium.1400102531.png"},{"post_user_id":"6441306","posts":"3","username":"Monkey Of Doom","avatar":"https:\/\/assets-cloud.enjin.com\/users\/6441306\/avatar\/medium.1400117849.png"},{"post_user_id":"6934081","posts":"3","username":"Marsh Or Zach","avatar":"https:\/\/assets-cloud.enjin.com\/users\/6934081\/avatar\/medium.1400125658.png"},{"post_user_id":"7334706","posts":"2","username":"cynns","avatar":"https:\/\/assets-cloud.enjin.com\/users\/7334706\/avatar\/medium.1400127145.png"},{"post_user_id":"7050341","posts":"2","username":"steeler7fan","avatar":"https:\/\/assets-cloud.enjin.com\/users\/7050341\/avatar\/medium.1400127443.png"},{"post_user_id":"7520192","posts":"2","username":"YungYeng","avatar":"https:\/\/assets-cloud.enjin.com\/users\/7520192\/avatar\/medium.1400213481.png"},{"post_user_id":"6806305","posts":"2","username":"User","avatar":"https:\/\/resources.enjin.com\/1465083537\/profile\/images\/avatar\/medium.png"},{"post_user_id":"5175307","posts":"2","username":"DragonLord","avatar":"https:\/\/assets-cloud.enjin.com\/users\/5175307\/avatar\/medium.1400094584.png"}],"num_users":"37"},"moderation_access":false,"poll_post":null,"post_access":true,"new_thread_access":true},"id":"1234567","jsonrpc":"2.0"}
{"result":{"thread":{"preset_id":"12571633","forum_id":"2419050","thread_id":"9281536","thread_subject":"[Official thread] Factions terrain contest! Post your pics here!","thread_replies":"70","thread_views":"19817","thread_type":"normal","thread_status":"locked","thread_user_id":"5295813","thread_username":"13635541171024291676","thread_avatar":"https:\/\/assets-cloud.enjin.com\/users\/5295813\/avatar\/medium.1400127145.png","thread_lastpost_user_id":"7935503","thread_lastpost_username":"13850865602013470996","thread_lastpost_time":"1393973026","thread_moved_id":"0","thread_post_time":"1382750803","url":"https:\/\/www.enjin.com\/ajax.php?s=redirect&cmd=forum-thread&mobile=1&preset=12571633&id=9281536","post_count":"1","category_id":"1023515","forum_name":"News & Announcements","forum_description":"Official news and announcements.","disable_voting":"0","show_signature":"1","url_cms":"https:\/\/www.craftsurvivalgames.com\/forum\/m\/12571633\/viewthread\/9281536-official-thread-factions-terrain-contest-post-your-pics-here"},"posts":[{"post_id":"60079387","post_time":"1390940668","post_content":"I'm sorry to tell you, but this contest ended a while back.","post_content_html":"I'm sorry to tell you, but this contest ended a while back.","post_content_clean":"I'm sorry to tell you, but this contest ended a while back.","post_user_id":"7334706","show_signature":"1","last_edit_time":"0","post_votes":"0","post_unhidden":"0","post_admin_hidden":"0","post_locked":"0","last_edit_user":"0","votes":null,"post_username":"cynns","avatar":"https:\/\/assets-cloud.enjin.com\/users\/7334706\/avatar\/medium.1400127145.png","user_online":false,"user_votes":"257","user_posts":"2090","url":"https:\/\/www.enjin.com\/ajax.php?s=redirect&cmd=forum-post&mobile=1&preset=12571633&id=60079387"},{"post_id":"60929728","post_time":"1391836416","post_content":"hello","post_content_html":"hello","post_content_clean":"hello","post_user_id":"6031799","show_signature":"1","last_edit_time":"0","post_votes":"0","post_unhidden":"0","post_admin_hidden":"0","post_locked":"0","last_edit_user":"0","votes":null,"post_username":"Milxie","avatar":"https:\/\/assets-cloud.enjin.com\/users\/6031799\/avatar\/medium.1593335694.png","user_online":false,"user_votes":"1","user_posts":"35","url":"https:\/\/www.enjin.com\/ajax.php?s=redirect&cmd=forum-post&mobile=1&preset=12571633&id=60929728"},{"post_id":"60929922","post_time":"1391836672","post_content":"[color=#239edd]1239skaterboy please do not necro-post (AKA posting on old threads) anyway this contest was over months ago.[\/color]","post_content_html":"1239skaterboy please do not necro-post (AKA posting on old threads) anyway this contest was over months ago.","post_content_clean":"1239skaterboy please do not necro-post (AKA posting on old threads) anyway this contest was over months ago.","post_user_id":"6993256","show_signature":"1","last_edit_time":"0","post_votes":"0","post_unhidden":"0","post_admin_hidden":"0","post_locked":"0","last_edit_user":"0","votes":null,"post_username":"HansonMC","avatar":"https:\/\/assets-cloud.enjin.com\/users\/6993256\/avatar\/medium.1407658173.png","user_online":false,"user_votes":"73","user_posts":"525","url":"https:\/\/www.enjin.com\/ajax.php?s=redirect&cmd=forum-post&mobile=1&preset=12571633&id=60929922"},{"post_id":"60929950","post_time":"1391836702","post_content":"This is the best biome.....","post_content_html":"This is the best biome.....","post_content_clean":"This is the best biome.....","post_user_id":"7925251","show_signature":"1","last_edit_time":"0","post_votes":"0","post_unhidden":"0","post_admin_hidden":"0","post_locked":"0","last_edit_user":"0","votes":null,"post_username":"User","avatar":"https:\/\/assets-cloud.enjin.com\/users\/7925251\/avatar\/medium.1425424175.jpeg","user_online":false,"user_votes":"61","user_posts":"913","url":"https:\/\/www.enjin.com\/ajax.php?s=redirect&cmd=forum-post&mobile=1&preset=12571633&id=60929950"},{"post_id":"60929980","post_time":"1391836739","post_content":"[color=#6e23dd]Serious mate. Stop posting on this. Requesting thread lock[\/color]","post_content_html":"Serious mate. Stop posting on this. Requesting thread lock","post_content_clean":"Serious mate. Stop posting on this. Requesting thread lock","post_user_id":"6567858","show_signature":"1","last_edit_time":"0","post_votes":"0","post_unhidden":"0","post_admin_hidden":"0","post_locked":"0","last_edit_user":"0","votes":null,"post_username":"BlueCharmander12","avatar":"https:\/\/assets-cloud.enjin.com\/users\/6567858\/avatar\/medium.1496942453.jpeg","user_online":false,"user_votes":"91","user_posts":"1281","url":"https:\/\/www.enjin.com\/ajax.php?s=redirect&cmd=forum-post&mobile=1&preset=12571633&id=60929980"},{"post_id":"62122670","post_time":"1393012654","post_content":"how do you play survival craft plzzzzzz help me","post_content_html":"how do you play survival craft plzzzzzz help me","post_content_clean":"how do you play survival craft plzzzzzz help me","post_user_id":"9132362","show_signature":"1","last_edit_time":"0","post_votes":"0","post_unhidden":"0","post_admin_hidden":"0","post_locked":"0","last_edit_user":"0","votes":null,"post_username":"turtle_duxs","avatar":"https:\/\/resources.enjin.com\/1465083537\/profile\/images\/avatar\/medium.png","user_online":false,"user_votes":"0","user_posts":"1","url":"https:\/\/www.enjin.com\/ajax.php?s=redirect&cmd=forum-post&mobile=1&preset=12571633&id=62122670"},{"post_id":"62126122","post_time":"1393015390","post_content":"[color=#6e23dd][b]Turtle, this isn't the right thread to ask this.\r\n\r\nI will just answer your question for this time.\r\nFirst, it's PSG (Play Survival Games) or CSG (Craft Survival Games)\r\nNow, you go to this ip: playsurvivalgames(DOT)com\r\nDo \/server and you should be able to take a look to all the servers we have.\r\nNow, keep in mind some were deleted and they aren't available to join.\r\nNow, just do \/server (server decided) and go play.\r\nYou can always go back to the lobby by doing \/server lobby\r\nGood Luck and Have Fun!\r\n\r\n-Nutella[\/b][\/color]","post_content_html":"<b>Turtle, this isn't the right thread to ask this.<br \/> <br \/> I will just answer your question for this time.<br \/> <br \/> First, it's PSG (Play Survival Games) or CSG (Craft Survival Games)<br \/> <br \/> Now, you go to this ip: playsurvivalgames(DOT)com<br \/> <br \/> Do \/server and you should be able to take a look to all the servers we have.<br \/> <br \/> Now, keep in mind some were deleted and they aren't available to join.<br \/> <br \/> Now, just do \/server (server decided) and go play.<br \/> <br \/> You can always go back to the lobby by doing \/server lobby<br \/> <br \/> Good Luck and Have Fun!<br \/> <br \/> -Nutella<\/b>","post_content_clean":"Turtle, this isn't the right thread to ask this.\r \r I will just answer your question for this time.\r First, it's PSG (Play Survival Games) or CSG (Craft Survival Games)\r Now, you go to this ip: playsurvivalgames(DOT)com\r Do \/server and you should be able to take a look to all the servers we have.\r Now, keep in mind some were deleted and they aren't available to join.\r Now, just do \/server (server decided) and go play.\r You can always go back to the lobby by doing \/server lobby\r Good Luck and Have Fun!\r \r -Nutella","post_user_id":"6806305","show_signature":"1","last_edit_time":"0","post_votes":"0","post_unhidden":"0","post_admin_hidden":"0","post_locked":"0","last_edit_user":"0","votes":null,"post_username":"User","avatar":"https:\/\/resources.enjin.com\/1465083537\/profile\/images\/avatar\/medium.png","user_online":false,"user_votes":"767","user_posts":"1491","url":"https:\/\/www.enjin.com\/ajax.php?s=redirect&cmd=forum-post&mobile=1&preset=12571633&id=62126122"},{"post_id":"62705688","post_time":"1393551334","post_content":"uhh...how do u play","post_content_html":"uhh...how do u play","post_content_clean":"uhh...how do u play","post_user_id":"9228759","show_signature":"0","last_edit_time":"0","post_votes":"0","post_unhidden":"0","post_admin_hidden":"0","post_locked":"0","last_edit_user":"0","votes":null,"post_username":"CreativeCupa","avatar":"https:\/\/resources.enjin.com\/1465083537\/profile\/images\/avatar\/medium.png","user_online":false,"user_votes":"0","user_posts":"1","url":"https:\/\/www.enjin.com\/ajax.php?s=redirect&cmd=forum-post&mobile=1&preset=12571633&id=62705688"},{"post_id":"62706068","post_time":"1393551634","post_content":"[color=#6e23dd][b]Please stop necro-posting. Requesting thread lock as contest is over anyways...\r\n\r\n-Nutella[\/b][\/color]","post_content_html":"<b>Please stop necro-posting. Requesting thread lock as contest is over anyways...<br \/> <br \/> -Nutella<\/b>","post_content_clean":"Please stop necro-posting. Requesting thread lock as contest is over anyways...\r \r -Nutella","post_user_id":"6806305","show_signature":"1","last_edit_time":"0","post_votes":"0","post_unhidden":"0","post_admin_hidden":"0","post_locked":"0","last_edit_user":"0","votes":null,"post_username":"User","avatar":"https:\/\/resources.enjin.com\/1465083537\/profile\/images\/avatar\/medium.png","user_online":false,"user_votes":"767","user_posts":"1491","url":"https:\/\/www.enjin.com\/ajax.php?s=redirect&cmd=forum-post&mobile=1&preset=12571633&id=62706068"},{"post_id":"63093892","post_time":"1393969912","post_content":"[b][color=#dd2423]STOP[\/color][\/b] necro posting. This contest ended over 3 months ago, and apply? Like for the mod position? Make your application then post it in a [b][u]NEW[\/u][\/b] thread under [b][u]MOD APPLICATIONS[\/u][\/b].","post_content_html":"<b>STOP<\/b> necro posting. This contest ended over 3 months ago, and apply? Like for the mod position? Make your application then post it in a <b><u>NEW<\/u><\/b> thread under <b><u>MOD APPLICATIONS<\/u><\/b>.","post_content_clean":"STOP necro posting. This contest ended over 3 months ago, and apply? Like for the mod position? Make your application then post it in a NEW thread under MOD APPLICATIONS.","post_user_id":"7334706","show_signature":"1","last_edit_time":"0","post_votes":"0","post_unhidden":"0","post_admin_hidden":"0","post_locked":"0","last_edit_user":"0","votes":null,"post_username":"cynns","avatar":"https:\/\/assets-cloud.enjin.com\/users\/7334706\/avatar\/medium.1400127145.png","user_online":false,"user_votes":"257","user_posts":"2090","url":"https:\/\/www.enjin.com\/ajax.php?s=redirect&cmd=forum-post&mobile=1&preset=12571633&id=63093892"}],"total_items":"71","pages":8,"voted":false,"new_post_id":"60079387","thread_labels":[],"top_posters":{"result":[{"post_user_id":"2423867","posts":"10","username":"PandaPlaysAll","avatar":"https:\/\/assets-cloud.enjin.com\/users\/2423867\/avatar\/medium.1401883342.png"},{"post_user_id":"7361443","posts":"7","username":"\u2704{snugglezxD:3emo} mojo215","avatar":"https:\/\/assets-cloud.enjin.com\/users\/7361443\/avatar\/medium.1455751269.jpeg"},{"post_user_id":"6483016","posts":"4","username":"Lyft","avatar":"https:\/\/assets-cloud.enjin.com\/users\/6483016\/avatar\/medium.1463284308.png"},{"post_user_id":"6441306","posts":"3","username":"Monkey Of Doom","avatar":"https:\/\/assets-cloud.enjin.com\/users\/6441306\/avatar\/medium.1400117849.png"},{"post_user_id":"6934081","posts":"3","username":"Marsh Or Zach","avatar":"https:\/\/assets-cloud.enjin.com\/users\/6934081\/avatar\/medium.1400125658.png"},{"post_user_id":"5264359","posts":"3","username":"bertus112","avatar":"https:\/\/assets-cloud.enjin.com\/users\/5264359\/avatar\/medium.1400094074.png"},{"post_user_id":"5748339","posts":"3","username":"&hearts; Jackson &hearts;","avatar":"https:\/\/assets-cloud.enjin.com\/users\/5748339\/avatar\/medium.1400102531.png"},{"post_user_id":"6878670","posts":"2","username":"J\u012fn (^&omega;^)","avatar":"https:\/\/assets-cloud.enjin.com\/users\/6878670\/avatar\/medium.1400114124.png"},{"post_user_id":"6267613","posts":"2","username":"Ridder","avatar":"https:\/\/resources.enjin.com\/1465083537\/profile\/images\/avatar\/medium.png"},{"post_user_id":"6993256","posts":"2","username":"HansonMC","avatar":"https:\/\/assets-cloud.enjin.com\/users\/6993256\/avatar\/medium.1407658173.png"},{"post_user_id":"7334706","posts":"2","username":"cynns","avatar":"https:\/\/assets-cloud.enjin.com\/users\/7334706\/avatar\/medium.1400127145.png"},{"post_user_id":"7050341","posts":"2","username":"steeler7fan","avatar":"https:\/\/assets-cloud.enjin.com\/users\/7050341\/avatar\/medium.1400127443.png"}],"num_users":"37"},"moderation_access":false,"poll_post":null,"post_access":true,"new_thread_access":true},"id":"1234567","jsonrpc":"2.0"}
{"result":{"thread":{"preset_id":"12571633","forum_id":"2419050","thread_id":"9281536","thread_subject":"[Official thread] Factions terrain contest! Post your pics here!","thread_replies":"70","thread_views":"19817","thread_type":"normal","thread_status":"locked","thread_user_id":"5295813","thread_username":"13635541171024291676","thread_avatar":"https:\/\/resources.enjin.com\/1465083537\/profile\/images\/avatar\/medium.png","thread_lastpost_user_id":"7935503","thread_lastpost_username":"13850865602013470996","thread_lastpost_time":"1393973026","thread_moved_id":"0","thread_post_time":"1382750803","url":"https:\/\/www.enjin.com\/ajax.php?s=redirect&cmd=forum-thread&mobile=1&preset=12571633&id=9281536","post_count":"1","category_id":"1023515","forum_name":"News & Announcements","forum_description":"Official news and announcements.","disable_voting":"0","show_signature":"1","url_cms":"https:\/\/www.craftsurvivalgames.com\/forum\/m\/12571633\/viewthread\/9281536-official-thread-factions-terrain-contest-post-your-pics-here"},"posts":[{"post_id":"63098352","post_time":"1393973026","post_content":"Maybe he didn't mean to double post, it might be lag I accidently double posted somehow... But try and delete it though","post_content_html":"Maybe he didn't mean to double post, it might be lag I accidently double posted somehow... But try and delete it though","post_content_clean":"Maybe he didn't mean to double post, it might be lag I accidently double posted somehow... But try and delete it though","post_user_id":"7935503","show_signature":"1","last_edit_time":"0","post_votes":"0","post_unhidden":"0","post_admin_hidden":"0","post_locked":"0","last_edit_user":"0","votes":null,"post_username":"quit bye &lt;3","avatar":"https:\/\/resources.enjin.com\/1465083537\/profile\/images\/avatar\/medium.png","user_online":false,"user_votes":"232","user_posts":"697","url":"https:\/\/www.enjin.com\/ajax.php?s=redirect&cmd=forum-post&mobile=1&preset=12571633&id=63098352"}],"total_items":"71","pages":8,"voted":false,"new_post_id":"63098352","thread_labels":[],"top_posters":{"result":[{"post_user_id":"2423867","posts":"10","username":"PandaPlaysAll","avatar":"https:\/\/assets-cloud.enjin.com\/users\/2423867\/avatar\/medium.1401883342.png"},{"post_user_id":"7361443","posts":"7","username":"\u2704{snugglezxD:3emo} mojo215","avatar":"https:\/\/assets-cloud.enjin.com\/users\/7361443\/avatar\/medium.1455751269.jpeg"},{"post_user_id":"6483016","posts":"4","username":"Lyft","avatar":"https:\/\/assets-cloud.enjin.com\/users\/6483016\/avatar\/medium.1463284308.png"},{"post_user_id":"5264359","posts":"3","username":"bertus112","avatar":"https:\/\/assets-cloud.enjin.com\/users\/5264359\/avatar\/medium.1400094074.png"},{"post_user_id":"5748339","posts":"3","username":"&hearts; Jackson &hearts;","avatar":"https:\/\/assets-cloud.enjin.com\/users\/5748339\/avatar\/medium.1400102531.png"},{"post_user_id":"6441306","posts":"3","username":"Monkey Of Doom","avatar":"https:\/\/assets-cloud.enjin.com\/users\/6441306\/avatar\/medium.1400117849.png"},{"post_user_id":"6934081","posts":"3","username":"Marsh Or Zach","avatar":"https:\/\/assets-cloud.enjin.com\/users\/6934081\/avatar\/medium.1400125658.png"},{"post_user_id":"7334706","posts":"2","username":"cynns","avatar":"https:\/\/assets-cloud.enjin.com\/users\/7334706\/avatar\/medium.1400127145.png"},{"post_user_id":"7050341","posts":"2","username":"steeler7fan","avatar":"https:\/\/assets-cloud.enjin.com\/users\/7050341\/avatar\/medium.1400127443.png"},{"post_user_id":"7520192","posts":"2","username":"YungYeng","avatar":"https:\/\/assets-cloud.enjin.com\/users\/7520192\/avatar\/medium.1400213481.png"},{"post_user_id":"6806305","posts":"2","username":"User","avatar":"https:\/\/resources.enjin.com\/1465083537\/profile\/images\/avatar\/medium.png"},{"post_user_id":"5175307","posts":"2","username":"DragonLord","avatar":"https:\/\/assets-cloud.enjin.com\/users\/5175307\/avatar\/medium.1400094584.png"}],"num_users":"37"},"moderation_access":false,"poll_post":null,"post_access":true,"new_thread_access":true},"id":"1234567","jsonrpc":"2.0"}
