{"result":{"thread":{"preset_id":"12571633","forum_id":"3421425","thread_id":"9553297","thread_subject":"Marshallinator Texture pack !","thread_replies":"32","thread_views":"5762","thread_type":"normal","thread_status":"locked","thread_user_id":"6934081","thread_username":"1376084918850789081","thread_avatar":"https:\/\/assets-cloud.enjin.com\/users\/6934081\/avatar\/medium.1400125658.png","thread_lastpost_user_id":"6567858","thread_lastpost_username":"13730862511499622715","thread_lastpost_time":"1384702764","thread_moved_id":"0","thread_post_time":"1384629183","url":"https:\/\/www.enjin.com\/ajax.php?s=redirect&cmd=forum-thread&mobile=1&preset=12571633&id=9553297","post_count":"1","category_id":"1023514","forum_name":"Games","forum_description":"Feel free to post a game, that the whole community would enjoy!","disable_voting":"0","show_signature":"1","url_cms":"https:\/\/www.craftsurvivalgames.com\/forum\/m\/12571633\/viewthread\/9553297-marshallinator-texture-pack"},"posts":[{"post_id":"54280812","post_time":"1384629183","post_content":"so some people might know i'm making a texture pack ( to let people know i'm taking things from texture packs and making a complete texture pack and will show and give thanks to all the packs i use to make it) and i said it was only going to be for this server and i'm still adding to it but here are some screen shots of the stuff as in LOW FIRE swords and how armor looks when on. You can see that there is a rainbow xp bar and some more let me know how i can make it better.So if anyone would like to use it let me know i will send it in a email :D p.s the bow shows the 3 powers in it with green yellow and red !  It is  32x32 faithful edit so not much lag I get better frames with this pack than i do with the default pack !","post_content_html":"so some people might know i'm making a texture pack ( to let people know i'm taking things from texture packs and making a complete texture pack and will show and give thanks to all the packs i use to make it) and i said it was only going to be for this server and i'm still adding to it but here are some screen shots of the stuff as in LOW FIRE swords and how armor looks when on. You can see that there is a rainbow xp bar and some more let me know how i can make it better.So if anyone would like to use it let me know i will send it in a email <object class=\"emojione\" data=\"https:\/\/resources.enjin.com\/1489581540\/themes\/core\/images\/emojione\/svg\/1f600.svg?0\" type=\"image\/svg+xml\" standby=\":d\">:d<\/object> p.s the bow shows the 3 powers in it with green yellow and red !  It is  32x32 faithful edit so not much lag I get better frames with this pack than i do with the default pack !","post_content_clean":"so some people might know i'm making a texture pack ( to let people know i'm taking things from texture packs and making a complete texture pack and will show and give thanks to all the packs i use to make it) and i said it was only going to be for this server and i'm still adding to it but here are some screen shots of the stuff as in LOW FIRE swords and how armor looks when on. You can see that there is a rainbow xp bar and some more let me know how i can make it better.So if anyone would like to use it let me know i will send it in a email :D p.s the bow shows the 3 powers in it with green yellow and red !  It is  32x32 faithful edit so not much lag I get better frames with this pack than i do with the default pack !","post_user_id":"6934081","show_signature":"1","last_edit_time":"1384629435","post_votes":"1","post_unhidden":"0","post_admin_hidden":"0","post_locked":"0","last_edit_user":"0","votes":null,"post_username":"Marsh Or Zach","avatar":"https:\/\/assets-cloud.enjin.com\/users\/6934081\/avatar\/medium.1400125658.png","user_online":false,"user_votes":"171","user_posts":"861","url":"https:\/\/www.enjin.com\/ajax.php?s=redirect&cmd=forum-post&mobile=1&preset=12571633&id=54280812"},{"post_id":"54281876","post_time":"1384630152","post_content":"[b][color=#6e23dd]Can I have the link, when you are done?\r\n:3[\/color][\/b]","post_content_html":"<b>Can I have the link, when you are done?<br \/> <br \/> :3<\/b>","post_content_clean":"Can I have the link, when you are done? \r :3","post_user_id":"6567858","show_signature":"1","last_edit_time":"0","post_votes":"0","post_unhidden":"0","post_admin_hidden":"0","post_locked":"0","last_edit_user":"0","votes":null,"post_username":"BlueCharmander12","avatar":"https:\/\/assets-cloud.enjin.com\/users\/6567858\/avatar\/medium.1496942453.jpeg","user_online":false,"user_votes":"91","user_posts":"1281","url":"https:\/\/www.enjin.com\/ajax.php?s=redirect&cmd=forum-post&mobile=1&preset=12571633&id=54281876"},{"post_id":"54281902","post_time":"1384630174","post_content":"Make the bow [color=#eeeeee]white[\/color], instead of brown.","post_content_html":"Make the bow white, instead of brown.","post_content_clean":"Make the bow white, instead of brown.","post_user_id":"6567858","show_signature":"1","last_edit_time":"0","post_votes":"0","post_unhidden":"0","post_admin_hidden":"0","post_locked":"0","last_edit_user":"0","votes":null,"post_username":"BlueCharmander12","avatar":"https:\/\/assets-cloud.enjin.com\/users\/6567858\/avatar\/medium.1496942453.jpeg","user_online":false,"user_votes":"91","user_posts":"1281","url":"https:\/\/www.enjin.com\/ajax.php?s=redirect&cmd=forum-post&mobile=1&preset=12571633&id=54281902"},{"post_id":"54283956","post_time":"1384632111","post_content":"Awesome!","post_content_html":"Awesome!","post_content_clean":"Awesome!","post_user_id":"3831403","show_signature":"1","last_edit_time":"0","post_votes":"0","post_unhidden":"0","post_admin_hidden":"0","post_locked":"0","last_edit_user":"0","votes":null,"post_username":"CAMILLA HANSEN","avatar":"https:\/\/assets-cloud.enjin.com\/users\/3831403\/avatar\/medium.1468103027.jpeg","user_online":false,"user_votes":null,"user_posts":0,"url":"https:\/\/www.enjin.com\/ajax.php?s=redirect&cmd=forum-post&mobile=1&preset=12571633&id=54283956"},{"post_id":"54284949","post_time":"1384633090","post_content":"wow whats the download link!","post_content_html":"wow whats the download link!","post_content_clean":"wow whats the download link!","post_user_id":"5931945","show_signature":"1","last_edit_time":"0","post_votes":"0","post_unhidden":"0","post_admin_hidden":"0","post_locked":"0","last_edit_user":"0","votes":null,"post_username":"&uArr;&mdash;=\u2630[=Flamy=]\u2630=&mdash;&uArr;","avatar":"https:\/\/assets-cloud.enjin.com\/users\/5931945\/avatar\/medium.1400104636.png","user_online":false,"user_votes":"24","user_posts":"394","url":"https:\/\/www.enjin.com\/ajax.php?s=redirect&cmd=forum-post&mobile=1&preset=12571633&id=54284949"},{"post_id":"54285076","post_time":"1384633204","post_content":"Im not done yet plus I'm going to send it to people in email that would be easier to do Im like 60% done its kinda hard to do","post_content_html":"Im not done yet plus I'm going to send it to people in email that would be easier to do Im like 60% done its kinda hard to do","post_content_clean":"Im not done yet plus I'm going to send it to people in email that would be easier to do Im like 60% done its kinda hard to do","post_user_id":"6934081","show_signature":"1","last_edit_time":"0","post_votes":"1","post_unhidden":"0","post_admin_hidden":"0","post_locked":"0","last_edit_user":"0","votes":null,"post_username":"Marsh Or Zach","avatar":"https:\/\/assets-cloud.enjin.com\/users\/6934081\/avatar\/medium.1400125658.png","user_online":false,"user_votes":"171","user_posts":"861","url":"https:\/\/www.enjin.com\/ajax.php?s=redirect&cmd=forum-post&mobile=1&preset=12571633&id=54285076"},{"post_id":"54285526","post_time":"1384633634","post_content":"o.0 i also want the link lol","post_content_html":"o.0 i also want the link lol","post_content_clean":"o.0 i also want the link lol","post_user_id":"7257780","show_signature":"1","last_edit_time":"0","post_votes":"0","post_unhidden":"0","post_admin_hidden":"0","post_locked":"0","last_edit_user":"0","votes":null,"post_username":"Harambe","avatar":"https:\/\/assets-cloud.enjin.com\/users\/7257780\/avatar\/medium.1470867368.jpeg","user_online":false,"user_votes":"11","user_posts":"77","url":"https:\/\/www.enjin.com\/ajax.php?s=redirect&cmd=forum-post&mobile=1&preset=12571633&id=54285526"},{"post_id":"54285907","post_time":"1384634017","post_content":"You stole that bow action .\r\nFrom the faithful pvp texture pack","post_content_html":"You stole that bow action .<br \/> <br \/> From the faithful pvp texture pack","post_content_clean":"You stole that bow action .\r From the faithful pvp texture pack","post_user_id":"2423867","show_signature":"1","last_edit_time":"0","post_votes":"0","post_unhidden":"0","post_admin_hidden":"0","post_locked":"0","last_edit_user":"0","votes":null,"post_username":"PandaPlaysAll","avatar":"https:\/\/assets-cloud.enjin.com\/users\/2423867\/avatar\/medium.1401883342.png","user_online":false,"user_votes":"347","user_posts":"2975","url":"https:\/\/www.enjin.com\/ajax.php?s=redirect&cmd=forum-post&mobile=1&preset=12571633&id=54285907"},{"post_id":"54289694","post_time":"1384637629","post_content":"Yea jack if you read the tread (which you prob didn't)  I'm taking stuff from other texture packs and making a big one i never said Hey this is all done by me no help . srry if that sounded rude just you need to read","post_content_html":"Yea jack if you read the tread (which you prob didn't)  I'm taking stuff from other texture packs and making a big one i never said Hey this is all done by me no help . srry if that sounded rude just you need to read","post_content_clean":"Yea jack if you read the tread (which you prob didn't)  I'm taking stuff from other texture packs and making a big one i never said Hey this is all done by me no help . srry if that sounded rude just you need to read","post_user_id":"6934081","show_signature":"1","last_edit_time":"0","post_votes":"1","post_unhidden":"0","post_admin_hidden":"0","post_locked":"0","last_edit_user":"0","votes":null,"post_username":"Marsh Or Zach","avatar":"https:\/\/assets-cloud.enjin.com\/users\/6934081\/avatar\/medium.1400125658.png","user_online":false,"user_votes":"171","user_posts":"861","url":"https:\/\/www.enjin.com\/ajax.php?s=redirect&cmd=forum-post&mobile=1&preset=12571633&id=54289694"},{"post_id":"54292659","post_time":"1384640501","post_content":"xD\r\nit looks nice I might make a texture pack soon\r\nI like the swords &lt;3","post_content_html":"xD<br \/> <br \/> it looks nice I might make a texture pack soon<br \/> <br \/> I like the swords &lt;3","post_content_clean":"xD\r it looks nice I might make a texture pack soon \r I like the swords <3","post_user_id":"6240898","show_signature":"1","last_edit_time":"0","post_votes":"0","post_unhidden":"0","post_admin_hidden":"0","post_locked":"0","last_edit_user":"0","votes":null,"post_username":"spot","avatar":"https:\/\/assets-cloud.enjin.com\/users\/6240898\/avatar\/medium.1400106374.png","user_online":false,"user_votes":"258","user_posts":"2284","url":"https:\/\/www.enjin.com\/ajax.php?s=redirect&cmd=forum-post&mobile=1&preset=12571633&id=54292659"}],"total_items":"33","pages":4,"voted":false,"new_post_id":false,"thread_labels":[],"top_posters":{"result":[{"post_user_id":"6934081","posts":"12","username":"Marsh Or Zach","avatar":"https:\/\/assets-cloud.enjin.com\/users\/6934081\/avatar\/medium.1400125658.png"},{"post_user_id":"6567858","posts":"7","username":"BlueCharmander12","avatar":"https:\/\/assets-cloud.enjin.com\/users\/6567858\/avatar\/medium.1496942453.jpeg"},{"post_user_id":"5931945","posts":"2","username":"&uArr;&mdash;=\u2630[=Flamy=]\u2630=&mdash;&uArr;","avatar":"https:\/\/assets-cloud.enjin.com\/users\/5931945\/avatar\/medium.1400104636.png"},{"post_user_id":"6240898","posts":"2","username":"spot","avatar":"https:\/\/assets-cloud.enjin.com\/users\/6240898\/avatar\/medium.1400106374.png"},{"post_user_id":"5567911","posts":"2","username":"griffin0505","avatar":"https:\/\/assets-cloud.enjin.com\/users\/5567911\/avatar\/medium.1409206640.png"},{"post_user_id":"6798190","posts":"2","username":"PPenuliar","avatar":"https:\/\/assets-cloud.enjin.com\/users\/6798190\/avatar\/medium.1400219919.png"},{"post_user_id":"3831403","posts":"1","username":"CAMILLA HANSEN","avatar":"https:\/\/assets-cloud.enjin.com\/users\/3831403\/avatar\/medium.1468103027.jpeg"},{"post_user_id":"7257780","posts":"1","username":"Harambe","avatar":"https:\/\/assets-cloud.enjin.com\/users\/7257780\/avatar\/medium.1470867368.jpeg"},{"post_user_id":"2423867","posts":"1","username":"PandaPlaysAll","avatar":"https:\/\/assets-cloud.enjin.com\/users\/2423867\/avatar\/medium.1401883342.png"},{"post_user_id":"5748339","posts":"1","username":"&hearts; Jackson &hearts;","avatar":"https:\/\/assets-cloud.enjin.com\/users\/5748339\/avatar\/medium.1400102531.png"},{"post_user_id":"6371123","posts":"1","username":"i8candy \u30c4","avatar":"https:\/\/assets-cloud.enjin.com\/users\/6371123\/avatar\/medium.1400115959.png"},{"post_user_id":"6556307","posts":"1","username":"~Harriskin\/Harrison~","avatar":"https:\/\/assets-cloud.enjin.com\/users\/6556307\/avatar\/medium.1415022635.png"}],"num_users":"12"},"moderation_access":false,"poll_post":null,"post_access":true,"new_thread_access":true},"id":"1234567","jsonrpc":"2.0"}
{"result":{"thread":{"preset_id":"12571633","forum_id":"3421425","thread_id":"9553297","thread_subject":"Marshallinator Texture pack !","thread_replies":"32","thread_views":"5762","thread_type":"normal","thread_status":"locked","thread_user_id":"6934081","thread_username":"1376084918850789081","thread_avatar":"https:\/\/assets-cloud.enjin.com\/users\/6934081\/avatar\/medium.1400125658.png","thread_lastpost_user_id":"6567858","thread_lastpost_username":"13730862511499622715","thread_lastpost_time":"1384702764","thread_moved_id":"0","thread_post_time":"1384629183","url":"https:\/\/www.enjin.com\/ajax.php?s=redirect&cmd=forum-thread&mobile=1&preset=12571633&id=9553297","post_count":"1","category_id":"1023514","forum_name":"Games","forum_description":"Feel free to post a game, that the whole community would enjoy!","disable_voting":"0","show_signature":"1","url_cms":"https:\/\/www.craftsurvivalgames.com\/forum\/m\/12571633\/viewthread\/9553297-marshallinator-texture-pack"},"posts":[{"post_id":"54294529","post_time":"1384642366","post_content":"thank you bluecharmander said i should make the bow WHITE so do you guys think that would be kool?","post_content_html":"thank you bluecharmander said i should make the bow WHITE so do you guys think that would be kool?","post_content_clean":"thank you bluecharmander said i should make the bow WHITE so do you guys think that would be kool?","post_user_id":"6934081","show_signature":"1","last_edit_time":"0","post_votes":"0","post_unhidden":"0","post_admin_hidden":"0","post_locked":"0","last_edit_user":"0","votes":null,"post_username":"Marsh Or Zach","avatar":"https:\/\/assets-cloud.enjin.com\/users\/6934081\/avatar\/medium.1400125658.png","user_online":false,"user_votes":"171","user_posts":"861","url":"https:\/\/www.enjin.com\/ajax.php?s=redirect&cmd=forum-post&mobile=1&preset=12571633&id=54294529"},{"post_id":"54294591","post_time":"1384642436","post_content":"i think it would be cool","post_content_html":"i think it would be cool","post_content_clean":"i think it would be cool","post_user_id":"5931945","show_signature":"1","last_edit_time":"0","post_votes":"0","post_unhidden":"0","post_admin_hidden":"0","post_locked":"0","last_edit_user":"0","votes":null,"post_username":"&uArr;&mdash;=\u2630[=Flamy=]\u2630=&mdash;&uArr;","avatar":"https:\/\/assets-cloud.enjin.com\/users\/5931945\/avatar\/medium.1400104636.png","user_online":false,"user_votes":"24","user_posts":"394","url":"https:\/\/www.enjin.com\/ajax.php?s=redirect&cmd=forum-post&mobile=1&preset=12571633&id=54294591"},{"post_id":"54299807","post_time":"1384648243","post_content":"New BOW! sorry i didn't do the white bow, for me to do it i would need photoshop and that is a $800 around there program but i feel like this bow is very detailed and nice its black! (I didn't do it myself i will include all packs i used when i am done :D ) So with that in mind i'm about 75%-80% done and i want to do even more! Yea its taking a good bit of time I spent about 2 hours look and messing with the bow. i have spent about 5 hours or so doing the pack","post_content_html":"New BOW! sorry i didn't do the white bow, for me to do it i would need photoshop and that is a $800 around there program but i feel like this bow is very detailed and nice its black! (I didn't do it myself i will include all packs i used when i am done <object class=\"emojione\" data=\"https:\/\/resources.enjin.com\/1489581540\/themes\/core\/images\/emojione\/svg\/1f600.svg?0\" type=\"image\/svg+xml\" standby=\":d\">:d<\/object> ) So with that in mind i'm about 75%-80% done and i want to do even more! Yea its taking a good bit of time I spent about 2 hours look and messing with the bow. i have spent about 5 hours or so doing the pack","post_content_clean":"New BOW! sorry i didn't do the white bow, for me to do it i would need photoshop and that is a $800 around there program but i feel like this bow is very detailed and nice its black! (I didn't do it myself i will include all packs i used when i am done :D ) So with that in mind i'm about 75%-80% done and i want to do even more! Yea its taking a good bit of time I spent about 2 hours look and messing with the bow. i have spent about 5 hours or so doing the pack","post_user_id":"6934081","show_signature":"1","last_edit_time":"0","post_votes":"1","post_unhidden":"0","post_admin_hidden":"0","post_locked":"0","last_edit_user":"0","votes":null,"post_username":"Marsh Or Zach","avatar":"https:\/\/assets-cloud.enjin.com\/users\/6934081\/avatar\/medium.1400125658.png","user_online":false,"user_votes":"171","user_posts":"861","url":"https:\/\/www.enjin.com\/ajax.php?s=redirect&cmd=forum-post&mobile=1&preset=12571633&id=54299807"},{"post_id":"54299908","post_time":"1384648358","post_content":"Give me a like or 2 if you really want this maybe i will give it to people tomorrow","post_content_html":"Give me a like or 2 if you really want this maybe i will give it to people tomorrow","post_content_clean":"Give me a like or 2 if you really want this maybe i will give it to people tomorrow","post_user_id":"6934081","show_signature":"1","last_edit_time":"0","post_votes":"1","post_unhidden":"0","post_admin_hidden":"0","post_locked":"0","last_edit_user":"0","votes":null,"post_username":"Marsh Or Zach","avatar":"https:\/\/assets-cloud.enjin.com\/users\/6934081\/avatar\/medium.1400125658.png","user_online":false,"user_votes":"171","user_posts":"861","url":"https:\/\/www.enjin.com\/ajax.php?s=redirect&cmd=forum-post&mobile=1&preset=12571633&id=54299908"},{"post_id":"54300765","post_time":"1384649253","post_content":"My brother does realy cool edits on texture packs, email it to him and he might do some sick edits to perfect your tp. But apart from that good job","post_content_html":"My brother does realy cool edits on texture packs, email it to him and he might do some sick edits to perfect your tp. But apart from that good job","post_content_clean":"My brother does realy cool edits on texture packs, email it to him and he might do some sick edits to perfect your tp. But apart from that good job","post_user_id":"5567911","show_signature":"1","last_edit_time":"0","post_votes":"0","post_unhidden":"0","post_admin_hidden":"0","post_locked":"0","last_edit_user":"0","votes":null,"post_username":"griffin0505","avatar":"https:\/\/assets-cloud.enjin.com\/users\/5567911\/avatar\/medium.1409206640.png","user_online":false,"user_votes":"198","user_posts":"1695","url":"https:\/\/www.enjin.com\/ajax.php?s=redirect&cmd=forum-post&mobile=1&preset=12571633&id=54300765"},{"post_id":"54307356","post_time":"1384656858","post_content":"[b][color=#6e23dd]It's a really good texture pack!.Marsh sends you the link via email, and you download it. The pack is really good. It even changes the home screen![\/color][\/b]","post_content_html":"<b>It's a really good texture pack!.Marsh sends you the link via email, and you download it. The pack is really good. It even changes the home screen!<\/b>","post_content_clean":"It's a really good texture pack!.Marsh sends you the link via email, and you download it. The pack is really good. It even changes the home screen!","post_user_id":"6567858","show_signature":"1","last_edit_time":"0","post_votes":"0","post_unhidden":"0","post_admin_hidden":"0","post_locked":"0","last_edit_user":"0","votes":null,"post_username":"BlueCharmander12","avatar":"https:\/\/assets-cloud.enjin.com\/users\/6567858\/avatar\/medium.1496942453.jpeg","user_online":false,"user_votes":"91","user_posts":"1281","url":"https:\/\/www.enjin.com\/ajax.php?s=redirect&cmd=forum-post&mobile=1&preset=12571633&id=54307356"},{"post_id":"54307505","post_time":"1384657037","post_content":"Yea so let me know your email send it to me in a P.M. and i will send asap","post_content_html":"Yea so let me know your email send it to me in a P.M. and i will send asap","post_content_clean":"Yea so let me know your email send it to me in a P.M. and i will send asap","post_user_id":"6934081","show_signature":"1","last_edit_time":"0","post_votes":"0","post_unhidden":"0","post_admin_hidden":"0","post_locked":"0","last_edit_user":"0","votes":null,"post_username":"Marsh Or Zach","avatar":"https:\/\/assets-cloud.enjin.com\/users\/6934081\/avatar\/medium.1400125658.png","user_online":false,"user_votes":"171","user_posts":"861","url":"https:\/\/www.enjin.com\/ajax.php?s=redirect&cmd=forum-post&mobile=1&preset=12571633&id=54307505"},{"post_id":"54308132","post_time":"1384657816","post_content":":","post_content_html":":","post_content_clean":":","post_user_id":"6567858","show_signature":"1","last_edit_time":"0","post_votes":"0","post_unhidden":"0","post_admin_hidden":"0","post_locked":"0","last_edit_user":"0","votes":null,"post_username":"BlueCharmander12","avatar":"https:\/\/assets-cloud.enjin.com\/users\/6567858\/avatar\/medium.1496942453.jpeg","user_online":false,"user_votes":"91","user_posts":"1281","url":"https:\/\/www.enjin.com\/ajax.php?s=redirect&cmd=forum-post&mobile=1&preset=12571633&id=54308132"},{"post_id":"54308156","post_time":"1384657849","post_content":"[color=#135476]There's more items, but I just posted the main ones.[\/color]","post_content_html":"There's more items, but I just posted the main ones.","post_content_clean":"There's more items, but I just posted the main ones.","post_user_id":"6567858","show_signature":"1","last_edit_time":"0","post_votes":"0","post_unhidden":"0","post_admin_hidden":"0","post_locked":"0","last_edit_user":"0","votes":null,"post_username":"BlueCharmander12","avatar":"https:\/\/assets-cloud.enjin.com\/users\/6567858\/avatar\/medium.1496942453.jpeg","user_online":false,"user_votes":"91","user_posts":"1281","url":"https:\/\/www.enjin.com\/ajax.php?s=redirect&cmd=forum-post&mobile=1&preset=12571633&id=54308156"},{"post_id":"54308188","post_time":"1384657908","post_content":"I didn't think about that, i may have to make one lol to show it off","post_content_html":"I didn't think about that, i may have to make one lol to show it off","post_content_clean":"I didn't think about that, i may have to make one lol to show it off","post_user_id":"6934081","show_signature":"1","last_edit_time":"0","post_votes":"0","post_unhidden":"0","post_admin_hidden":"0","post_locked":"0","last_edit_user":"0","votes":null,"post_username":"Marsh Or Zach","avatar":"https:\/\/assets-cloud.enjin.com\/users\/6934081\/avatar\/medium.1400125658.png","user_online":false,"user_votes":"171","user_posts":"861","url":"https:\/\/www.enjin.com\/ajax.php?s=redirect&cmd=forum-post&mobile=1&preset=12571633&id=54308188"}],"total_items":"33","pages":4,"voted":false,"new_post_id":"54294529","thread_labels":[],"top_posters":{"result":[{"post_user_id":"6934081","posts":"12","username":"Marsh Or Zach","avatar":"https:\/\/assets-cloud.enjin.com\/users\/6934081\/avatar\/medium.1400125658.png"},{"post_user_id":"6567858","posts":"7","username":"BlueCharmander12","avatar":"https:\/\/assets-cloud.enjin.com\/users\/6567858\/avatar\/medium.1496942453.jpeg"},{"post_user_id":"5931945","posts":"2","username":"&uArr;&mdash;=\u2630[=Flamy=]\u2630=&mdash;&uArr;","avatar":"https:\/\/assets-cloud.enjin.com\/users\/5931945\/avatar\/medium.1400104636.png"},{"post_user_id":"6240898","posts":"2","username":"spot","avatar":"https:\/\/assets-cloud.enjin.com\/users\/6240898\/avatar\/medium.1400106374.png"},{"post_user_id":"5567911","posts":"2","username":"griffin0505","avatar":"https:\/\/assets-cloud.enjin.com\/users\/5567911\/avatar\/medium.1409206640.png"},{"post_user_id":"6798190","posts":"2","username":"PPenuliar","avatar":"https:\/\/assets-cloud.enjin.com\/users\/6798190\/avatar\/medium.1400219919.png"},{"post_user_id":"7257780","posts":"1","username":"Harambe","avatar":"https:\/\/assets-cloud.enjin.com\/users\/7257780\/avatar\/medium.1470867368.jpeg"},{"post_user_id":"2423867","posts":"1","username":"PandaPlaysAll","avatar":"https:\/\/assets-cloud.enjin.com\/users\/2423867\/avatar\/medium.1401883342.png"},{"post_user_id":"5748339","posts":"1","username":"&hearts; Jackson &hearts;","avatar":"https:\/\/assets-cloud.enjin.com\/users\/5748339\/avatar\/medium.1400102531.png"},{"post_user_id":"6371123","posts":"1","username":"i8candy \u30c4","avatar":"https:\/\/assets-cloud.enjin.com\/users\/6371123\/avatar\/medium.1400115959.png"},{"post_user_id":"6556307","posts":"1","username":"~Harriskin\/Harrison~","avatar":"https:\/\/assets-cloud.enjin.com\/users\/6556307\/avatar\/medium.1415022635.png"},{"post_user_id":"3831403","posts":"1","username":"CAMILLA HANSEN","avatar":"https:\/\/assets-cloud.enjin.com\/users\/3831403\/avatar\/medium.1468103027.jpeg"}],"num_users":"12"},"moderation_access":false,"poll_post":null,"post_access":true,"new_thread_access":true},"id":"1234567","jsonrpc":"2.0"}
{"result":{"thread":{"preset_id":"12571633","forum_id":"3421425","thread_id":"9553297","thread_subject":"Marshallinator Texture pack !","thread_replies":"32","thread_views":"5762","thread_type":"normal","thread_status":"locked","thread_user_id":"6934081","thread_username":"1376084918850789081","thread_avatar":"https:\/\/assets-cloud.enjin.com\/users\/6934081\/avatar\/medium.1400219919.png","thread_lastpost_user_id":"6567858","thread_lastpost_username":"13730862511499622715","thread_lastpost_time":"1384702764","thread_moved_id":"0","thread_post_time":"1384629183","url":"https:\/\/www.enjin.com\/ajax.php?s=redirect&cmd=forum-thread&mobile=1&preset=12571633&id=9553297","post_count":"1","category_id":"1023514","forum_name":"Games","forum_description":"Feel free to post a game, that the whole community would enjoy!","disable_voting":"0","show_signature":"1","url_cms":"https:\/\/www.craftsurvivalgames.com\/forum\/m\/12571633\/viewthread\/9553297-marshallinator-texture-pack"},"posts":[{"post_id":"54308274","post_time":"1384658052","post_content":"OMG I want that texture pack so bad! ITS SO BEAUTIFUL! CAN I PLEASE HAVE IT PLEASE?!?!?","post_content_html":"OMG I want that texture pack so bad! ITS SO BEAUTIFUL! CAN I PLEASE HAVE IT PLEASE?!?!?","post_content_clean":"OMG I want that texture pack so bad! ITS SO BEAUTIFUL! CAN I PLEASE HAVE IT PLEASE?!?!?","post_user_id":"6798190","show_signature":"1","last_edit_time":"0","post_votes":"0","post_unhidden":"0","post_admin_hidden":"0","post_locked":"0","last_edit_user":"0","votes":null,"post_username":"PPenuliar","avatar":"https:\/\/assets-cloud.enjin.com\/users\/6798190\/avatar\/medium.1400219919.png","user_online":false,"user_votes":"8","user_posts":"116","url":"https:\/\/www.enjin.com\/ajax.php?s=redirect&cmd=forum-post&mobile=1&preset=12571633&id=54308274"},{"post_id":"54308300","post_time":"1384658094","post_content":"[size=5]Uh, you're welcome, :P[\/size]","post_content_html":"<span style=\"font-size:1.5em\">Uh, you're welcome, <object class=\"emojione\" data=\"https:\/\/resources.enjin.com\/1489581540\/themes\/core\/images\/emojione\/svg\/1f61b.svg?0\" type=\"image\/svg+xml\" standby=\":p\">:p<\/object><\/span>","post_content_clean":"Uh, you're welcome, :P","post_user_id":"6567858","show_signature":"1","last_edit_time":"0","post_votes":"0","post_unhidden":"0","post_admin_hidden":"0","post_locked":"0","last_edit_user":"0","votes":null,"post_username":"BlueCharmander12","avatar":"https:\/\/assets-cloud.enjin.com\/users\/6567858\/avatar\/medium.1496942453.jpeg","user_online":false,"user_votes":"91","user_posts":"1281","url":"https:\/\/www.enjin.com\/ajax.php?s=redirect&cmd=forum-post&mobile=1&preset=12571633&id=54308300"},{"post_id":"54308375","post_time":"1384658217","post_content":"Can I have it though?","post_content_html":"Can I have it though?","post_content_clean":"Can I have it though?","post_user_id":"6798190","show_signature":"1","last_edit_time":"0","post_votes":"0","post_unhidden":"0","post_admin_hidden":"0","post_locked":"0","last_edit_user":"0","votes":null,"post_username":"PPenuliar","avatar":"https:\/\/assets-cloud.enjin.com\/users\/6798190\/avatar\/medium.1400219919.png","user_online":false,"user_votes":"8","user_posts":"116","url":"https:\/\/www.enjin.com\/ajax.php?s=redirect&cmd=forum-post&mobile=1&preset=12571633&id=54308375"},{"post_id":"54308895","post_time":"1384658891","post_content":"send me a P.M with your email when i finish it i want to add a few more things","post_content_html":"send me a P.M with your email when i finish it i want to add a few more things","post_content_clean":"send me a P.M with your email when i finish it i want to add a few more things","post_user_id":"6934081","show_signature":"1","last_edit_time":"0","post_votes":"0","post_unhidden":"0","post_admin_hidden":"0","post_locked":"0","last_edit_user":"0","votes":null,"post_username":"Marsh Or Zach","avatar":"https:\/\/assets-cloud.enjin.com\/users\/6934081\/avatar\/medium.1400125658.png","user_online":false,"user_votes":"171","user_posts":"861","url":"https:\/\/www.enjin.com\/ajax.php?s=redirect&cmd=forum-post&mobile=1&preset=12571633&id=54308895"},{"post_id":"54308948","post_time":"1384658962","post_content":"Lol nice tp","post_content_html":"Lol nice tp","post_content_clean":"Lol nice tp","post_user_id":"5567911","show_signature":"1","last_edit_time":"0","post_votes":"0","post_unhidden":"0","post_admin_hidden":"0","post_locked":"0","last_edit_user":"0","votes":null,"post_username":"griffin0505","avatar":"https:\/\/assets-cloud.enjin.com\/users\/5567911\/avatar\/medium.1409206640.png","user_online":false,"user_votes":"198","user_posts":"1695","url":"https:\/\/www.enjin.com\/ajax.php?s=redirect&cmd=forum-post&mobile=1&preset=12571633&id=54308948"},{"post_id":"54311604","post_time":"1384662576","post_content":"[b]Marsh, can you email me the link?\r\n\r\nEmail: jacksonzimm@gmail.com[\/b]","post_content_html":"<b>Marsh, can you email me the link?<br \/> <br \/> Email: <a rel=\"nofollow\" href=\"mailto:jacksonzimm@gmail.com\" class=\"bbcode_url\" title=\"mailto:jacksonzimm@gmail.com\" data-safe-url=\"mailto:jacksonzimm@gmail.com\">jacksonzimm@gmail.com<\/a><\/b>","post_content_clean":"Marsh, can you email me the link?\r \r Email: jacksonzimm@gmail.com","post_user_id":"5748339","show_signature":"1","last_edit_time":"0","post_votes":"0","post_unhidden":"0","post_admin_hidden":"0","post_locked":"0","last_edit_user":"0","votes":null,"post_username":"&hearts; Jackson &hearts;","avatar":"https:\/\/assets-cloud.enjin.com\/users\/5748339\/avatar\/medium.1400102531.png","user_online":false,"user_votes":"136","user_posts":"892","url":"https:\/\/www.enjin.com\/ajax.php?s=redirect&cmd=forum-post&mobile=1&preset=12571633&id=54311604"},{"post_id":"54312042","post_time":"1384663190","post_content":"it is sooooo good I love it :D\r\nthe swords are awesome as &lt;3","post_content_html":"it is sooooo good I love it <object class=\"emojione\" data=\"https:\/\/resources.enjin.com\/1489581540\/themes\/core\/images\/emojione\/svg\/1f600.svg?0\" type=\"image\/svg+xml\" standby=\":d\">:d<\/object><br \/> <br \/> the swords are awesome as &lt;3","post_content_clean":"it is sooooo good I love it :D\r the swords are awesome as <3","post_user_id":"6240898","show_signature":"1","last_edit_time":"0","post_votes":"0","post_unhidden":"0","post_admin_hidden":"0","post_locked":"0","last_edit_user":"0","votes":null,"post_username":"spot","avatar":"https:\/\/assets-cloud.enjin.com\/users\/6240898\/avatar\/medium.1400106374.png","user_online":false,"user_votes":"258","user_posts":"2284","url":"https:\/\/www.enjin.com\/ajax.php?s=redirect&cmd=forum-post&mobile=1&preset=12571633&id=54312042"},{"post_id":"54314608","post_time":"1384667144","post_content":"[color=#2360dd]:D it looks awesome zach[\/color]","post_content_html":"<object class=\"emojione\" data=\"https:\/\/resources.enjin.com\/1489581540\/themes\/core\/images\/emojione\/svg\/1f600.svg?0\" type=\"image\/svg+xml\" standby=\":d\">:d<\/object> it looks awesome zach","post_content_clean":":D it looks awesome zach","post_user_id":"6371123","show_signature":"1","last_edit_time":"1384667170","post_votes":"0","post_unhidden":"0","post_admin_hidden":"0","post_locked":"0","last_edit_user":"0","votes":null,"post_username":"i8candy \u30c4","avatar":"https:\/\/assets-cloud.enjin.com\/users\/6371123\/avatar\/medium.1400115959.png","user_online":false,"user_votes":"34","user_posts":"117","url":"https:\/\/www.enjin.com\/ajax.php?s=redirect&cmd=forum-post&mobile=1&preset=12571633&id=54314608"},{"post_id":"54331030","post_time":"1384698253","post_content":"Marsh can you meet me sometime on forums so we can chat. I dont want everyone to email me xD unlike jackson over there! Thx and I love the texture pack!","post_content_html":"Marsh can you meet me sometime on forums so we can chat. I dont want everyone to email me xD unlike jackson over there! Thx and I love the texture pack!","post_content_clean":"Marsh can you meet me sometime on forums so we can chat. I dont want everyone to email me xD unlike jackson over there! Thx and I love the texture pack!","post_user_id":"6556307","show_signature":"1","last_edit_time":"0","post_votes":"0","post_unhidden":"0","post_admin_hidden":"0","post_locked":"0","last_edit_user":"0","votes":null,"post_username":"~Harriskin\/Harrison~","avatar":"https:\/\/assets-cloud.enjin.com\/users\/6556307\/avatar\/medium.1415022635.png","user_online":false,"user_votes":"219","user_posts":"1402","url":"https:\/\/www.enjin.com\/ajax.php?s=redirect&cmd=forum-post&mobile=1&preset=12571633&id=54331030"},{"post_id":"54333844","post_time":"1384701521","post_content":"Like I said privite message me :)","post_content_html":"Like I said privite message me <object class=\"emojione\" data=\"https:\/\/resources.enjin.com\/1489581540\/themes\/core\/images\/emojione\/svg\/1f642.svg?0\" type=\"image\/svg+xml\" standby=\":)\">:)<\/object>","post_content_clean":"Like I said privite message me :)","post_user_id":"6934081","show_signature":"1","last_edit_time":"0","post_votes":"0","post_unhidden":"0","post_admin_hidden":"0","post_locked":"0","last_edit_user":"0","votes":null,"post_username":"Marsh Or Zach","avatar":"https:\/\/assets-cloud.enjin.com\/users\/6934081\/avatar\/medium.1400125658.png","user_online":false,"user_votes":"171","user_posts":"861","url":"https:\/\/www.enjin.com\/ajax.php?s=redirect&cmd=forum-post&mobile=1&preset=12571633&id=54333844"}],"total_items":"33","pages":4,"voted":false,"new_post_id":"54308274","thread_labels":[],"top_posters":{"result":[{"post_user_id":"6934081","posts":"12","username":"Marsh Or Zach","avatar":"https:\/\/assets-cloud.enjin.com\/users\/6934081\/avatar\/medium.1400125658.png"},{"post_user_id":"6567858","posts":"7","username":"BlueCharmander12","avatar":"https:\/\/assets-cloud.enjin.com\/users\/6567858\/avatar\/medium.1496942453.jpeg"},{"post_user_id":"6240898","posts":"2","username":"spot","avatar":"https:\/\/assets-cloud.enjin.com\/users\/6240898\/avatar\/medium.1400106374.png"},{"post_user_id":"5567911","posts":"2","username":"griffin0505","avatar":"https:\/\/assets-cloud.enjin.com\/users\/5567911\/avatar\/medium.1409206640.png"},{"post_user_id":"6798190","posts":"2","username":"PPenuliar","avatar":"https:\/\/assets-cloud.enjin.com\/users\/6798190\/avatar\/medium.1400219919.png"},{"post_user_id":"5931945","posts":"2","username":"&uArr;&mdash;=\u2630[=Flamy=]\u2630=&mdash;&uArr;","avatar":"https:\/\/assets-cloud.enjin.com\/users\/5931945\/avatar\/medium.1400104636.png"},{"post_user_id":"5748339","posts":"1","username":"&hearts; Jackson &hearts;","avatar":"https:\/\/assets-cloud.enjin.com\/users\/5748339\/avatar\/medium.1400102531.png"},{"post_user_id":"6371123","posts":"1","username":"i8candy \u30c4","avatar":"https:\/\/assets-cloud.enjin.com\/users\/6371123\/avatar\/medium.1400115959.png"},{"post_user_id":"6556307","posts":"1","username":"~Harriskin\/Harrison~","avatar":"https:\/\/assets-cloud.enjin.com\/users\/6556307\/avatar\/medium.1415022635.png"},{"post_user_id":"3831403","posts":"1","username":"CAMILLA HANSEN","avatar":"https:\/\/assets-cloud.enjin.com\/users\/3831403\/avatar\/medium.1468103027.jpeg"},{"post_user_id":"7257780","posts":"1","username":"Harambe","avatar":"https:\/\/assets-cloud.enjin.com\/users\/7257780\/avatar\/medium.1470867368.jpeg"},{"post_user_id":"2423867","posts":"1","username":"PandaPlaysAll","avatar":"https:\/\/assets-cloud.enjin.com\/users\/2423867\/avatar\/medium.1401883342.png"}],"num_users":"12"},"moderation_access":false,"poll_post":null,"post_access":true,"new_thread_access":true},"id":"1234567","jsonrpc":"2.0"}
{"result":{"thread":{"preset_id":"12571633","forum_id":"3421425","thread_id":"9553297","thread_subject":"Marshallinator Texture pack !","thread_replies":"32","thread_views":"5762","thread_type":"normal","thread_status":"locked","thread_user_id":"6934081","thread_username":"1376084918850789081","thread_avatar":"https:\/\/assets-cloud.enjin.com\/users\/6934081\/avatar\/medium.1400125658.png","thread_lastpost_user_id":"6567858","thread_lastpost_username":"13730862511499622715","thread_lastpost_time":"1384702764","thread_moved_id":"0","thread_post_time":"1384629183","url":"https:\/\/www.enjin.com\/ajax.php?s=redirect&cmd=forum-thread&mobile=1&preset=12571633&id=9553297","post_count":"1","category_id":"1023514","forum_name":"Games","forum_description":"Feel free to post a game, that the whole community would enjoy!","disable_voting":"0","show_signature":"1","url_cms":"https:\/\/www.craftsurvivalgames.com\/forum\/m\/12571633\/viewthread\/9553297-marshallinator-texture-pack"},"posts":[{"post_id":"54333952","post_time":"1384701631","post_content":"Pink like I  said I want this pack for server members so message me your email","post_content_html":"Pink like I  said I want this pack for server members so message me your email","post_content_clean":"Pink like I  said I want this pack for server members so message me your email","post_user_id":"6934081","show_signature":"1","last_edit_time":"0","post_votes":"0","post_unhidden":"0","post_admin_hidden":"0","post_locked":"0","last_edit_user":"0","votes":null,"post_username":"Marsh Or Zach","avatar":"https:\/\/assets-cloud.enjin.com\/users\/6934081\/avatar\/medium.1400125658.png","user_online":false,"user_votes":"171","user_posts":"861","url":"https:\/\/www.enjin.com\/ajax.php?s=redirect&cmd=forum-post&mobile=1&preset=12571633&id=54333952"},{"post_id":"54334002","post_time":"1384701676","post_content":"And thank you all for the support !","post_content_html":"And thank you all for the support !","post_content_clean":"And thank you all for the support !","post_user_id":"6934081","show_signature":"1","last_edit_time":"0","post_votes":"0","post_unhidden":"0","post_admin_hidden":"0","post_locked":"0","last_edit_user":"0","votes":null,"post_username":"Marsh Or Zach","avatar":"https:\/\/assets-cloud.enjin.com\/users\/6934081\/avatar\/medium.1400125658.png","user_online":false,"user_votes":"171","user_posts":"861","url":"https:\/\/www.enjin.com\/ajax.php?s=redirect&cmd=forum-post&mobile=1&preset=12571633&id=54334002"},{"post_id":"54334988","post_time":"1384702764","post_content":"[b][color=#6e23dd]looks great, love the chat font.[\/color][\/b]","post_content_html":"<b>looks great, love the chat font.<\/b>","post_content_clean":"looks great, love the chat font.","post_user_id":"6567858","show_signature":"1","last_edit_time":"0","post_votes":"0","post_unhidden":"0","post_admin_hidden":"0","post_locked":"0","last_edit_user":"0","votes":null,"post_username":"BlueCharmander12","avatar":"https:\/\/assets-cloud.enjin.com\/users\/6567858\/avatar\/medium.1496942453.jpeg","user_online":false,"user_votes":"91","user_posts":"1281","url":"https:\/\/www.enjin.com\/ajax.php?s=redirect&cmd=forum-post&mobile=1&preset=12571633&id=54334988"}],"total_items":"33","pages":4,"voted":false,"new_post_id":"54333952","thread_labels":[],"top_posters":{"result":[{"post_user_id":"6934081","posts":"12","username":"Marsh Or Zach","avatar":"https:\/\/assets-cloud.enjin.com\/users\/6934081\/avatar\/medium.1400125658.png"},{"post_user_id":"6567858","posts":"7","username":"BlueCharmander12","avatar":"https:\/\/assets-cloud.enjin.com\/users\/6567858\/avatar\/medium.1496942453.jpeg"},{"post_user_id":"5931945","posts":"2","username":"&uArr;&mdash;=\u2630[=Flamy=]\u2630=&mdash;&uArr;","avatar":"https:\/\/assets-cloud.enjin.com\/users\/5931945\/avatar\/medium.1400104636.png"},{"post_user_id":"6240898","posts":"2","username":"spot","avatar":"https:\/\/assets-cloud.enjin.com\/users\/6240898\/avatar\/medium.1400106374.png"},{"post_user_id":"5567911","posts":"2","username":"griffin0505","avatar":"https:\/\/assets-cloud.enjin.com\/users\/5567911\/avatar\/medium.1409206640.png"},{"post_user_id":"6798190","posts":"2","username":"PPenuliar","avatar":"https:\/\/assets-cloud.enjin.com\/users\/6798190\/avatar\/medium.1400219919.png"},{"post_user_id":"7257780","posts":"1","username":"Harambe","avatar":"https:\/\/assets-cloud.enjin.com\/users\/7257780\/avatar\/medium.1470867368.jpeg"},{"post_user_id":"2423867","posts":"1","username":"PandaPlaysAll","avatar":"https:\/\/assets-cloud.enjin.com\/users\/2423867\/avatar\/medium.1401883342.png"},{"post_user_id":"5748339","posts":"1","username":"&hearts; Jackson &hearts;","avatar":"https:\/\/assets-cloud.enjin.com\/users\/5748339\/avatar\/medium.1400102531.png"},{"post_user_id":"6371123","posts":"1","username":"i8candy \u30c4","avatar":"https:\/\/assets-cloud.enjin.com\/users\/6371123\/avatar\/medium.1400115959.png"},{"post_user_id":"6556307","posts":"1","username":"~Harriskin\/Harrison~","avatar":"https:\/\/assets-cloud.enjin.com\/users\/6556307\/avatar\/medium.1415022635.png"},{"post_user_id":"3831403","posts":"1","username":"CAMILLA HANSEN","avatar":"https:\/\/assets-cloud.enjin.com\/users\/3831403\/avatar\/medium.1468103027.jpeg"}],"num_users":"12"},"moderation_access":false,"poll_post":null,"post_access":true,"new_thread_access":true},"id":"1234567","jsonrpc":"2.0"}
